{"page":4,"total_results":108,"total_pages":6,"results":[{"vote_count":2,"id":160889,"video":false,"vote_average":8.5,"title":"Batman: New Times","popularity":1.408078,"poster_path":"\/8an6V5Cu49MVWGNAqmqq5LPT6RQ.jpg","original_language":"en","original_title":"Batman: New Times","genre_ids":[],"backdrop_path":null,"adult":false,"overview":"During the new year's eve celebrations, Gotham City is under attack by the Joker, Harley Quinn and Catwoman who are accomplices in the latest evil caper. Bruce Wayne immediately runs to the Batcave and prepares to foil this latest criminal attempt. A chase ensues through the streets of Gotham while Harley Quinn tries to dispatch of Batman with bombs. All of the action culminates in a climactic helicopter ride and fight with the Joker and Catwoman.","release_date":"2005-01-26"},{"vote_count":105,"id":177271,"video":false,"vote_average":6.4,"title":"Lego Batman: The Movie - DC Super Heroes Unite","popularity":2.63967,"poster_path":"\/zpK8M3V6dAqPFLsMTrhvqcylmuw.jpg","original_language":"en","original_title":"Lego Batman: The Movie - DC Super Heroes Unite","genre_ids":[16,12,10751],"backdrop_path":"\/xoyITLjbqzs5uWebEv8xfKWFPBY.jpg","adult":false,"overview":"Joker teams up with Lex Luthor to destroy the world one brick at a time. It's up to Batman, Superman and the rest of the Justice League to stop them.","release_date":"2013-05-20"},{"vote_count":4,"id":294656,"video":false,"vote_average":6.3,"title":"Riddle Me This: Why Is Batman Forever?","popularity":2.292648,"poster_path":"\/8HGUanpfZl8Wm9z3qtE131zhksS.jpg","original_language":"en","original_title":"Riddle Me This: Why Is Batman Forever?","genre_ids":[],"backdrop_path":null,"adult":false,"overview":"How a new director and cast created a new version of Gotham's classic good and bad guys.","release_date":"1995-07-10"},{"vote_count":4,"id":92344,"video":false,"vote_average":6.3,"title":"Batman: Ashes To Ashes","popularity":1.304501,"poster_path":"\/48bBFHzF6iBPbsyjESaYggsfgGs.jpg","original_language":"fr","original_title":"Batman: Ashes To Ashes","genre_ids":[],"backdrop_path":"\/9f8rSBWL8XODmBxN6CWDbGNGbk3.jpg","adult":false,"overview":"1938. Driven by different, but nevertheless essential reasons, Eddy, Charles and Sergio decide to break into the huge manor that overhangs the city. Their enterprise soon starts to derail as the butler intercepts them. Blood is spilled. The three improvised murderers are on the run, their hands covered with blood but at least they have the loot. For three weeks, intense and unreal sobs echo amongst the city's roofs. In this big town, devastated by violence and prohibition, three novice gangsters start their ascent in the crime world. Meanwhile, a vengeful shadow goes on the hunt for them.","release_date":"2009-05-30"},{"vote_count":17,"id":29751,"video":false,"vote_average":8,"title":"Batman Unmasked: The Psychology of the Dark Knight","popularity":2.710724,"poster_path":"\/jjHu128XLARc2k4cJrblAvZe0HE.jpg","original_language":"en","original_title":"Batman Unmasked: The Psychology of the Dark Knight","genre_ids":[99],"backdrop_path":"\/1oQLZa2FaTc7yXWku801S1LTOqO.jpg","adult":false,"overview":"Delve into the world of Batman and the vigilante justice that he brought to the city of Gotham. Batman is a man who, after experiencing great tragedy, devotes his life to an ideal--but what happens when one man takes on the evil underworld alone? Examine why Batman is who he is--and explore how a boy scarred by tragedy becomes a symbol of hope to everyone else.","release_date":"2008-07-15"},{"vote_count":0,"id":514177,"video":false,"vote_average":0,"title":"Batman: The Enemy Within","popularity":1.250008,"poster_path":"\/A67HgUmPvhkPkRsTW9PHIG31WZW.jpg","original_language":"en","original_title":"Batman: The Enemy Within","genre_ids":[],"backdrop_path":"\/cp7x9F9k0nXYZiOjIrOOZ6LfDxN.jpg","adult":false,"overview":"Batman faces off against a new foe called The Riddler, while an old adversary from Bruce Wayne's past hatches his own nefarious schemes.","release_date":"2017-08-08"},{"vote_count":1,"id":390375,"video":false,"vote_average":1,"title":"Batman vs. Terminator","popularity":1.12781,"poster_path":"\/wRu8bpVkWuVvZVU9MVbZd6ZTXGs.jpg","original_language":"en","original_title":"Batman vs. Terminator","genre_ids":[],"backdrop_path":null,"adult":false,"overview":"Batman fights Terminator. In Stop-motion.","release_date":"2016-03-22"},{"vote_count":0,"id":510767,"video":false,"vote_average":0,"title":"Batman: The Telltale Series","popularity":1.242157,"poster_path":"\/fwJ31Fik9LwkNdlktulBoqBU6ks.jpg","original_language":"en","original_title":"Batman: The Telltale Series","genre_ids":[28,80,16],"backdrop_path":"\/sPofpQNp6QKNoR6IBgyRnU7doEf.jpg","adult":false,"overview":"Follows Bruce Wayne as he tries to juggle being the Billionaire and owner of Wayne Enterprises, with the masked vigilante Batman.","release_date":"2016-08-02"},{"vote_count":0,"id":450264,"video":false,"vote_average":0,"title":"Batman - Death Wish","popularity":1.1029,"poster_path":null,"original_language":"en","original_title":"Batman - Death Wish","genre_ids":[],"backdrop_path":null,"adult":false,"overview":"Batman, Robin and Nightwing investigate a string of incidents where a mysterious assailant has been taking down numerous crime organizations all over Gotham City. In their findings, they discover that while the thugs were taken down and no cash was stolen in the crime scenes, the Riddler and the Scarecrow have been lethally drugged with a botanical neurotoxin found only in the Far East.","release_date":""},{"vote_count":0,"id":131185,"video":false,"vote_average":0,"title":"Alias Batman and Robin","popularity":1.177202,"poster_path":"\/mgsCUdWDsIuMkQ2ftIubPA47tKz.jpg","original_language":"en","original_title":"Alyas Batman En Robin","genre_ids":[35,28],"backdrop_path":"\/rgdvBwhl2YLsQiOqJVg0iMdS5W3.jpg","adult":false,"overview":"Alyas Batman en Robin is a 1991 Filipino Batman comedy film produced by Viva Films spoofing the 1960s Batman television series. It later become popular on the Australian market and became used as a training film for The Birds are Coming Enterprises.  The movie was initially an unauthorized production, set to capitalize on the then in-production 1989 Batman film starring Michael Keaton. Warner Brothers threatened legal action and the release of the film was delayed until legal entanglements could be sorted out. The film was released in 1991, two years later than the intended 1989 release.","release_date":"1991-04-06"},{"vote_count":2,"id":148918,"video":false,"vote_average":8.5,"title":"Superman, Spiderman or Batman","popularity":1.17485,"poster_path":"\/iUp85s5s7eaPbuCUNqOCeJCEVpY.jpg","original_language":"en","original_title":"Superman, Spiderman sau Batman","genre_ids":[],"backdrop_path":null,"adult":false,"overview":"Aron, a 5-year-old boy, sets together with his worried father on a journey at the end of which he wishes, like the superheroes in the comic books, to save his mother suffering from a heart condition.","release_date":"2011-06-01"},{"vote_count":5,"id":376420,"video":false,"vote_average":8.6,"title":"Batman vs. Darth Vader","popularity":1.462221,"poster_path":"\/7M2mLZIOdfYXH0Pfl9tY03rkuvq.jpg","original_language":"en","original_title":"Batman vs. Darth Vader","genre_ids":[878,28],"backdrop_path":null,"adult":false,"overview":"Batman travels to the Death Star in the most epic episode of Super Power Beat Down of all time.","release_date":"2014-11-25"},{"vote_count":0,"id":415402,"video":false,"vote_average":0,"title":"The Diligent Batman","popularity":1.001177,"poster_path":null,"original_language":"ru","original_title":"Userdnyy denschik","genre_ids":[35],"backdrop_path":null,"adult":false,"overview":"A comedic short about a clumsy valet.","release_date":"1908-01-01"},{"vote_count":1,"id":220890,"video":false,"vote_average":2.5,"title":"The Batman Shootings","popularity":1.108413,"poster_path":"\/hdsSyevff6UUhnvcHmuk4eomuaX.jpg","original_language":"en","original_title":"The Batman Shootings","genre_ids":[99,36],"backdrop_path":null,"adult":false,"overview":"On July 20, 2012, a mass shooting occurred inside of a Century movie theater in Aurora, Colorado, during a midnight screening of the film The Dark Knight Rises. A gunman, dressed in tactical clothing, set off tear gas grenades and shot into the audience with multiple firearms, killing 12 people and injuring 70 others. The sole suspect, James Eagan Holmes, was arrested outside the cinema minutes later.","release_date":"2012-08-19"},{"vote_count":1,"id":412654,"video":false,"vote_average":3,"title":"The Death of Batman","popularity":1.096622,"poster_path":"\/vSpxuuMkfgZtpm8yHF2wniNzChf.jpg","original_language":"en","original_title":"The Death of Batman","genre_ids":[28,12],"backdrop_path":null,"adult":false,"overview":"Batman is captured, held prisoner, and tortured by a petty thief who has a score to settle.","release_date":"2003-01-01"},{"vote_count":0,"id":406895,"video":false,"vote_average":0,"title":"Batman: The Dream","popularity":1.03771,"poster_path":"\/sUm0wKC81iVnEKh4hIxlHBtUPxW.jpg","original_language":"en","original_title":"Batman: The Dream","genre_ids":[],"backdrop_path":null,"adult":false,"overview":"“The Dream” is an original interpretation of the iconic Batman origin story told over 1 minute against the aural backdrop of Muse’s “Prelude.” The sequence depicts the death of young Bruce Wayne’s parents as a chaotic interplay of memory and distortion through the combination of watercolor-inspired art direction and a classical music-inspired score.","release_date":"2016-02-22"},{"vote_count":0,"id":498709,"video":false,"vote_average":0,"title":"Batman V Arrow","popularity":1.0375,"poster_path":"\/yxSeICH75OGzzzxcDsfnVEuLMVC.jpg","original_language":"en","original_title":"Batman V Arrow","genre_ids":[],"backdrop_path":null,"adult":false,"overview":"After The Riddler leads Batman to Star City, he must unite with a fellow vigilante, The Arrow, but the two do not see eye to eye.","release_date":""},{"vote_count":2,"id":472027,"video":false,"vote_average":9.5,"title":"Batman: The Dark Knight Returns (Deluxe Edition)","popularity":1.735218,"poster_path":"\/5wtf0fmaq4eBXVlQb4FaVMqf5Yb.jpg","original_language":"en","original_title":"Batman: The Dark Knight Returns (Deluxe Edition)","genre_ids":[16,28],"backdrop_path":"\/bUQGT4xJib43OrnpmNzgrGaLWJM.jpg","adult":false,"overview":"Batman has not been seen for ten years. A new breed of criminal ravages Gotham City, forcing fifty-five-year-old Bruce Wayne back into the cape and cowl, but does he still have what it takes to fight crime in a new era?","release_date":"2013-10-08"},{"vote_count":0,"id":433255,"video":false,"vote_average":0,"title":"Batman: The Legacy Continues","popularity":1.003534,"poster_path":null,"original_language":"en","original_title":"Batman: The Legacy Continues","genre_ids":[99],"backdrop_path":null,"adult":false,"overview":"The making of the series that changed the shape of Television animation forever, as well as the original DC mythos.... \"BATMAN: The Animated Series\"","release_date":"2004-07-06"},{"vote_count":0,"id":449014,"video":false,"vote_average":0,"title":"Batman Fights Dracula","popularity":1.001179,"poster_path":null,"original_language":"tl","original_title":"Batman Fights Dracula","genre_ids":[35,27],"backdrop_path":null,"adult":false,"overview":"","release_date":"1967-06-03"}]}