{"page":10,"total_results":567,"total_pages":29,"results":[{"vote_count":1,"id":388251,"video":false,"vote_average":7,"title":"Where You Are","popularity":1.061352,"poster_path":"\/fa1RiBuskpLlyQYXMN8uTHqMwlk.jpg","original_language":"en","original_title":"Where You Are","genre_ids":[],"backdrop_path":null,"adult":false,"overview":"When Jen's son disappears during a game of hide-and-seek she unwittingly embarks on a journey through time to find him.","release_date":"2016-03-17"},{"vote_count":2,"id":226348,"video":false,"vote_average":4.5,"title":"Where Did I Come From?","popularity":1.334872,"poster_path":"\/c4ib6huuHtelTG5gZaP1wzsOLmT.jpg","original_language":"en","original_title":"Where Did I Come From?","genre_ids":[16],"backdrop_path":null,"adult":false,"overview":"An animated sex education video for children based on the best-selling book of the same title. It tells the story of conception through birth in a humorous, sensitive way, answering all the awkward questions parents have found difficult to respond to in an informative and entertaining way","release_date":"1985-05-06"},{"vote_count":1,"id":344323,"video":false,"vote_average":2,"title":"Where We Disappear","popularity":1.056004,"poster_path":"\/guxSI5cWiFy0MolLEkOWpSM6bfx.jpg","original_language":"en","original_title":"Where We Disappear","genre_ids":[18,9648],"backdrop_path":null,"adult":false,"overview":"A young woman disappears, leaving behind her best friend, who becomes intertwined with her memory, in order to figure out the reasons of her absence.","release_date":"2009-06-11"},{"vote_count":1,"id":294264,"video":false,"vote_average":0.5,"title":"Where the North Begins","popularity":1.054391,"poster_path":"\/47lkHiL2oXaX5ner8NGUR30qPH6.jpg","original_language":"en","original_title":"Where the North Begins","genre_ids":[10751,28,12,18],"backdrop_path":null,"adult":false,"overview":"Action adventure set in the wilds of Alaska","release_date":"1923-07-01"},{"vote_count":1,"id":113981,"video":false,"vote_average":5,"title":"Where Are Their Stories?","popularity":1.054363,"poster_path":"\/tVpEq58dWsKVhWNr3mNjp3BgoZO.jpg","original_language":"en","original_title":"Where Are Their Stories?","genre_ids":[],"backdrop_path":null,"adult":false,"overview":"Vicente (Gabino Rodríguez) is a young farmer in a rural village who scrapes by while taking care of his ill grandmother. Several of Vicente’s uncles intend to their ailing mother’s land without her knowledge. Vicente seeks help from the municipal president who, between shooting hoops on a desolate court, tells him that if he wants justice, he must head to the capital to meet with government officials.  Although he hasn’t seen her since he was a child, Vicente sets off in search of his mother, who works as a maid in maze-like Mexico City. With the help of his mother’s employer, a sophisticated middle-aged woman, he finds the government offices where he presents his case. His situation isn’t easily resolved, especially since he does not have the deed to his grandmother’s plot of land, and Vicente finds the complexities of the legal system to be completely overwhelming.","release_date":"2007-10-09"},{"vote_count":1,"id":432862,"video":false,"vote_average":8,"title":"Where the Bears are 4","popularity":1.035409,"poster_path":null,"original_language":"de","original_title":"Where the Bears are 4","genre_ids":[],"backdrop_path":null,"adult":false,"overview":"","release_date":""},{"vote_count":1,"id":294929,"video":false,"vote_average":6,"title":"Where Are They Now?","popularity":1.051541,"poster_path":"\/dBpkQ0vrM6dGUKBnEqepl7TSV9l.jpg","original_language":"en","original_title":"Where Are They Now?","genre_ids":[16],"backdrop_path":null,"adult":false,"overview":"Short story looking at the life of cartoon characters facing reality long after the prime of their heyday...","release_date":"2014-09-11"},{"vote_count":0,"id":379176,"video":false,"vote_average":0,"title":"Where Is Kurdistan?","popularity":1.05139,"poster_path":"\/tQkQKS6DupKEr1HieODJk4jiKAG.jpg","original_language":"en","original_title":"Where Is Kurdistan?","genre_ids":[],"backdrop_path":null,"adult":false,"overview":"An illegal immigrant is reminded of his origin by the melodies of an instrument of his birthplace Bumiyan, Afganistan. However, the musician playing the instrument claims that the melodies aren't from Bumiyan, but from Kurdistan. But where is Kurdistan?","release_date":"2016-02-01"},{"vote_count":0,"id":352353,"video":false,"vote_average":0,"title":"Where Sinners Meet","popularity":1.049221,"poster_path":"\/301nknCiINufdjh3Yll1bF5VoDe.jpg","original_language":"en","original_title":"Where Sinners Meet","genre_ids":[35,10749],"backdrop_path":null,"adult":false,"overview":"Leonard and Anne are taking the lovers road to Dover where they will board the boat and go to Paris. But the car breaks down and Saunders takes them to a nearby hotel. When they get there, it is a residence with servants owned by a Mr. Latimer. While it is comfortable, they are told they cannot leave for seven days so that they can see if the marriage between them will work.","release_date":"1934-05-17"},{"vote_count":0,"id":360302,"video":false,"vote_average":0,"title":"Tell Me Where It Hurts","popularity":1.320117,"poster_path":"\/sa3CndfLBO6EFsoTL05RXZB4rqQ.jpg","original_language":"en","original_title":"Tell Me Where It Hurts","genre_ids":[],"backdrop_path":null,"adult":false,"overview":"A housewife, increasingly disenchanted with her homemaker role, looks for new meaning in her life and organizes a discussion group, changing the lives of her six closest friends.","release_date":"1974-03-12"},{"vote_count":1,"id":61189,"video":false,"vote_average":8,"title":"Sinbad: Where U Been?","popularity":1.047767,"poster_path":"\/iTfX22cYNiRMZpaEcbao9ygdL4h.jpg","original_language":"en","original_title":"Sinbad: Where U Been?","genre_ids":[35],"backdrop_path":"\/5zDM7EpOJKF3JXpIZ6u1NAbUD8F.jpg","adult":false,"overview":"Sinbad returns to the stage in this brand-new one-hour comedy special and answers the question his legions of fans have been asking him, “Where Ya Bin?”","release_date":"2010-02-21"},{"vote_count":1,"id":448075,"video":false,"vote_average":2,"title":"Where Are the Dolls","popularity":1.044004,"poster_path":null,"original_language":"en","original_title":"Where Are the Dolls","genre_ids":[10749,18],"backdrop_path":null,"adult":false,"overview":"'Where Are the Dolls' follows a woman as she embarks on a late-night journey through an unfamiliar urban landscape, searching for something she cannot name. The film is inspired by the poem 'Where are the dolls who loved me so....' by Pulitzer Prize-winning poet Elizabeth Bishop (1911-1979). An impressionistic dream that emerges from the woman's subconscious, the film navigates issues of femininity, intimacy and sexuality.","release_date":"2012-09-16"},{"vote_count":0,"id":472427,"video":false,"vote_average":0,"title":"We hold where study","popularity":1.042772,"poster_path":null,"original_language":"en","original_title":"We hold where study","genre_ids":[],"backdrop_path":null,"adult":false,"overview":"We hold where study takes a choreographic approach to image-making and mourning. The film enacts a series of duets, both within and between images, featuring choreography by boychild with Josh Johnson and by Ligia Lewis with Jonathan Gonzalez, both to original music by Bendik Giske. The work is rooted in Tsang’s ongoing dialogue with collaborators Fred Moten and Stefano Harney, authors of The Undercommons, and in particular on their recent essay Leave Our Mics Alone, which posits an (im)possible set of images of resistance, through poetic notions of blackness (and\/or transness and\/or queerness) as an improvisational mode of being, in common with others, working through and of the environment.","release_date":"2017-01-01"},{"vote_count":0,"id":396127,"video":false,"vote_average":0,"title":"Where Have All the Good Men Gone","popularity":1.334835,"poster_path":"\/1GT5a45yD8CE5l7SoKDpPjY8f6b.jpg","original_language":"da","original_title":"Hundeliv","genre_ids":[18],"backdrop_path":null,"adult":false,"overview":"Realizing that her unknown biological father is probably alive, Sofia leaves behind a degrading and humiliating life and embarks on a journey with her naive half-sister Olivia, both girls hoping to find the caring father figure they so desperately need.","release_date":"2016-06-16"},{"vote_count":0,"id":269022,"video":false,"vote_average":0,"title":"Where Is Mr. Belling?","popularity":1.004117,"poster_path":null,"original_language":"de","original_title":"Wo ist Herr Belling?","genre_ids":[],"backdrop_path":null,"adult":false,"overview":"","release_date":"1945-01-01"},{"vote_count":1,"id":69332,"video":false,"vote_average":5,"title":"Where Is Jane Doe?","popularity":1.036471,"poster_path":null,"original_language":"en","original_title":"Where Is Jane Doe?","genre_ids":[],"backdrop_path":null,"adult":false,"overview":"In this Screenliner short, New York City police detectives investigate the case of a missing girl, whose clothes are found on a bridge. Was it a suicide, was she murdered, or is this a hoax?","release_date":"1956-01-01"},{"vote_count":0,"id":463502,"video":false,"vote_average":0,"title":"Where do they all go?","popularity":1.017651,"poster_path":null,"original_language":"sv","original_title":"Vart tar alla vägen?","genre_ids":[18],"backdrop_path":null,"adult":false,"overview":"94-year old Esther, a pensioner with bad sight, is in search of her artist daugther’s public decoration. Endless phone conversations takes her through municipal bureaucracy and lost culture secretaries. Will she ever get an answer to the eternal question: Where does the art really go?","release_date":"2015-04-13"},{"vote_count":1,"id":432858,"video":false,"vote_average":8,"title":"Where the Bears are","popularity":1.035294,"poster_path":null,"original_language":"de","original_title":"Where the Bears are","genre_ids":[],"backdrop_path":null,"adult":false,"overview":"","release_date":""},{"vote_count":2,"id":259593,"video":false,"vote_average":3,"title":"Where Do We Go from Here?","popularity":1.728471,"poster_path":"\/vmiO7C6vsnIsddA5h2W0SnjuSE8.jpg","original_language":"en","original_title":"Where Do We Go from Here?","genre_ids":[10402],"backdrop_path":"\/5Jak24CrnaZ44h8hXaVgCA8TfyG.jpg","adult":false,"overview":"Bill wants to join the Army, but he's 4F so he asks a wizard to help him, but the wizard has slight problems with his history knowlege, so he sends Bill everywhere in history, but not to WWII.","release_date":"1945-05-23"},{"vote_count":0,"id":91340,"video":false,"vote_average":0,"title":"Where Are You From, Johnny?","popularity":1.015349,"poster_path":"\/jgJn9h65qnN0GdEaL8MSfQ7T9FI.jpg","original_language":"fr","original_title":"D'où viens-tu, Johnny ?","genre_ids":[12],"backdrop_path":"\/jegDffJX4iiP0i55GWg9hjDgHfw.jpg","adult":false,"overview":"","release_date":"1963-10-29"}]}