{"page":10,"total_results":1170,"total_pages":59,"results":[{"vote_count":3,"id":153000,"video":false,"vote_average":4.3,"title":"Mutable Fire","popularity":1.107374,"poster_path":"\/kh9NbPQ3Iot1PeABKUVz58vkSHV.jpg","original_language":"en","original_title":"Mutable Fire","genre_ids":[],"backdrop_path":null,"adult":false,"overview":"Totems of destruction and desire. An operation on the combustible urges in a junk black mass. A swiftly-sliced nightmare of history and erotic autobiography. (Mubi)","release_date":"1984-01-01"},{"vote_count":3,"id":267712,"video":false,"vote_average":5.7,"title":"Miles of Fire","popularity":1.558594,"poster_path":"\/pMmTEVRRHkr7EDWUdg2O7tEIR63.jpg","original_language":"ru","original_title":"Огненные версты","genre_ids":[28,10752],"backdrop_path":null,"adult":false,"overview":"","release_date":"1957-07-01"},{"vote_count":1,"id":41036,"video":false,"vote_average":4,"title":"Fire Sale","popularity":1.077179,"poster_path":"\/qBLqYnDngbsJ61jyUA9X25P4Sos.jpg","original_language":"en","original_title":"Fire Sale","genre_ids":[],"backdrop_path":"\/7r7OlfTHobCFCaMJu4wFB6JG9zL.jpg","adult":false,"overview":"Benny and his wife Ruthie a getting set to drive down to Florida, but Benny needs someone to look after his store while he's gone. Though he doesn't think much of him, Benny hands the responsibility over to his son, Russel. While Russel doesn't get much respect from his parents, he's better off than his brother, Ezra, whom Benny has gone so far as to disown. Ezra is currently battling with his work (coach of a high school basketball team that hasn't won in ages) and his wife (who keeps nagging him that she wants to have a baby as soon as possible) at the same time.","release_date":"1977-06-09"},{"vote_count":2,"id":252349,"video":false,"vote_average":7,"title":"Friendly Fire","popularity":1.072941,"poster_path":null,"original_language":"en","original_title":"Friendly Fire","genre_ids":[],"backdrop_path":null,"adult":false,"overview":"Burned filmstrips meet light and invade the screen with structures of residue, ashes, flames and destruction. New landscapes appear in a state of disintegration through fire. The former carrier of conserved imagery is now in full bloom of organic splendor. The lifeless filmstrips have been resurrected.","release_date":"2003-11-27"},{"vote_count":0,"id":33589,"video":false,"vote_average":0,"title":"Fool's Fire","popularity":1.003242,"poster_path":"\/z3RClTCi1dw60MqnGvFh9ppeJad.jpg","original_language":"en","original_title":"Fool's Fire","genre_ids":[18],"backdrop_path":"\/uJaExbjWrOXrnXvT6ce4Ccdt8i2.jpg","adult":false,"overview":"A crippled dwarf is forced to become jester to a tyrannical king, but when the king abuses a beautiful dwarf with whom the jester is in love the jester plots a terrible revenge.","release_date":"1992-01-01"},{"vote_count":0,"id":174476,"video":false,"vote_average":0,"title":"Hell's Fire","popularity":1.002327,"poster_path":"\/svtpgA2DuckY1HmpiPDONOrEzsy.jpg","original_language":"en","original_title":"Hell's Fire","genre_ids":[],"backdrop_path":null,"adult":false,"overview":"Willie Whopper and his dog visit Hell, where they meet Satan, Cerberus, and some of the infamous members of the damned.","release_date":"1934-01-06"},{"vote_count":0,"id":392452,"video":false,"vote_average":0,"title":"Blue Fire Lady","popularity":1.575,"poster_path":"\/yoBppnZNFrauKYZinCn3VM49MmZ.jpg","original_language":"en","original_title":"Blue Fire Lady","genre_ids":[10751,18],"backdrop_path":null,"adult":false,"overview":"Jenny Grey a horse loving country girl leaves her widowed father to move to the city after her father's frustrations towards Jenny and her desires to ride horses, after her mother had died from a horse-riding accident. Jenny finds work at a country race track and becomes obsessed with a troublesome horse called \"Blue Fire Lady\". \"Blue Fire Lady\" shows promise in Jenny's hands, but around everyone else misbehaves and shows no discipline. When \"Blue Fire Lady\" is put up for auction it is up to Jenny to either buy her or prove her.","release_date":"1977-12-09"},{"vote_count":0,"id":405401,"video":false,"vote_average":0,"title":"Open Fire","popularity":1.059177,"poster_path":null,"original_language":"en","original_title":"Open Fire","genre_ids":[],"backdrop_path":null,"adult":false,"overview":"Based on real events from 1983;  DC Peter Finch is awarded a medal for the courage he showed in arresting a dangerous criminal. Meanwhile transvestite David Martin is released once again from prison - he's provocative and aggressive and,  when he's caught again during a burglary, he shoots one of the police officers, leading to a nation wide manhunt. Innocent filmmaker Steven Waldorf is subsequently shot as a suspect by Finch provoking a national scandal that rocks the police force.","release_date":"1994-11-12"},{"vote_count":2,"id":329237,"video":false,"vote_average":3.5,"title":"Gigantis the Fire Monster","popularity":1.569356,"poster_path":"\/o3tbC8eHVGhFQrP88LdvB5b1s3A.jpg","original_language":"en","original_title":"Gigantis the Fire Monster","genre_ids":[27,878],"backdrop_path":"\/woXyXps6GKvFpyrisklRJzHeU3K.jpg","adult":false,"overview":"The altered American release of the first \"Godzilla\" sequel, \"Godzilla Raids Again.\" where even the legendary monster has been renamed \"Gigantis,\" and the entire music and sound effects tracks have been replaced as part of the dubbing.","release_date":"1959-05-21"},{"vote_count":2,"id":13085,"video":true,"vote_average":5.3,"title":"UFC 80: Rapid Fire","popularity":1.568905,"poster_path":"\/iDsNstbsKHK10rW6j8QQaLpnvcB.jpg","original_language":"en","original_title":"UFC 80: Rapid Fire","genre_ids":[],"backdrop_path":"\/wCxd6MIF6BPLX4ehf1xtiaeZrct.jpg","adult":false,"overview":"UFC 80: Rapid Fire was a mixed martial arts (MMA) event held by the Ultimate Fighting Championship (UFC), that took place on January 19, 2008 at the Metro Radio Arena in Newcastle, England. Sean Sherk was originally slated to fight but tested positive for steroids. With the lightweight championship vacated, the Penn-Stevenson bout was altered to be for the undisputed championship.","release_date":"2008-01-19"},{"vote_count":4,"id":26434,"video":false,"vote_average":7.1,"title":"Queen On Fire: Live At The Bowl","popularity":2.258776,"poster_path":"\/sL60qvYCzEPwfUr5yRXJhkSjLQE.jpg","original_language":"en","original_title":"Queen On Fire: Live At The Bowl","genre_ids":[10402,99],"backdrop_path":"\/nA1DdXN5JTPcJ6Ijy5gdJSPoLLz.jpg","adult":false,"overview":"Filmed on 5 June 1982 during the Hot Space Tour at the Milton Keynes Bowl, Milton Keynes, Buckinghamshire, England, by Gavin Taylor, and only ever seen in an edited version on Channel 4's The Tube, this release has the concert restored to its original full length, amounting to an additional 47 minutes of previously unseen footage. Not released on video, \"Queen On Fire - Live At The Bowl\", marks the first time a recording of this concert has been available to own.As to be expected from Queen, the release comes only after extensive restoration to the original footage and sound. Audio producers Justin Shirley-Smith and Kris Fredriksson returned to the original 24 track analogue recording and created brand new PCM stereo and DTS 5.1 surround sound mixes.","release_date":"2004-10-24"},{"vote_count":0,"id":441896,"video":false,"vote_average":0,"title":"Fire and Brimstone","popularity":1.070204,"poster_path":"\/zcMKga2DasWIdrGzmrYR138Xiwn.jpg","original_language":"en","original_title":"Fire and Brimstone","genre_ids":[],"backdrop_path":null,"adult":false,"overview":"Fire and Brimstone is a short film by Patrick Sheard.","release_date":"2017-02-15"},{"vote_count":0,"id":354795,"video":false,"vote_average":0,"title":"Fox Fire Child Watch","popularity":1.56,"poster_path":"\/fq1aRJoMhd6Kpz05Gq5ZiCXgNgI.jpg","original_language":"en","original_title":"Fox Fire Child Watch","genre_ids":[],"backdrop_path":null,"adult":false,"overview":"Ken, Flo and Nisi Jacobs in the Syracuse Airport: this is what you might call baby-sitting in the swamp.","release_date":"1971-08-16"},{"vote_count":1,"id":431606,"video":true,"vote_average":10,"title":"Fire Lilies","popularity":1.049421,"poster_path":"\/eWu6VRUgtReVggEqau1W3V0Y61L.jpg","original_language":"en","original_title":"Fire Lilies","genre_ids":[],"backdrop_path":null,"adult":false,"overview":"A unicorn's journey through the cruelties of life on earth.","release_date":""},{"vote_count":1,"id":143098,"video":false,"vote_average":3,"title":"Fire-Eater","popularity":1.052452,"poster_path":"\/mVputWnW3PaA7YkBNmlpPg9OYQG.jpg","original_language":"fi","original_title":"Tulennielijä","genre_ids":[18],"backdrop_path":"\/slbfqVEHzAevswf4trmA5zmJ8dX.jpg","adult":false,"overview":"The twin sisters Helena and Irene are born in Helsinki during World War II. A few months later their mother, Sirkka, leaves the girls in the care of their grandmother, an old communist, and runs away with a German soldier. Their life under the protection of their grandmother and the teachings of communism ends first with the death of Stalin, then with that of their grandmother. The girls are eight years old when they are put in an orphanage. Their mother shows up at the orphanage in the company of Ramon, a Spanish trapeze artist. They are on a talent search for a German circus. Ramon trains the reluctant Irene during circus tours in Central Europe. She becomes the trapeze star of the circus. The hard work soon exhausts Irene and she falls from height, as if on purpose. Helena has secretly learned the art of fire-eating. Now she is burdened with both her mother and her sister. The violent life, however, separates the three from each other. In the present-day Helsinki the middle-aged...","release_date":"1998-10-29"},{"vote_count":2,"id":357133,"video":false,"vote_average":5,"title":"Daag: The Fire","popularity":1.161214,"poster_path":"\/wtqrWRwduZaSyzcacho4HmZYiNq.jpg","original_language":"hi","original_title":"दाग","genre_ids":[],"backdrop_path":null,"adult":false,"overview":"Karan is a former soldier. One day when Karan finds out that his father committed suicide in prison after he is falsely charged with a crime, he suspects Ravi Verma, a city attorney who has a wife and a kid. When Karan spots Ravi on the street with his wife Kajal, he abruptly shoots Ravi and Kajal; however, Ravi survives the murder and Kajal ends up dead. After Ravi's release from the hospital, he does not realize that he has a new and different wife who looks exactly like Kajal, later on he does. While Ravi's life continues, Karan's revenge also continues against Ravi. Ravi claims that it wasn't his idea to set Karan's father up, it may be Ravi's father-in-law and his colleagues who may be responsible.","release_date":"1999-01-01"},{"vote_count":3,"id":199250,"video":false,"vote_average":6.3,"title":"Fire in the Night","popularity":1.154097,"poster_path":"\/xezgh6iQBXk6aiCsTF0D2gEhWXN.jpg","original_language":"no","original_title":"Det brenner i natt!","genre_ids":[53,18],"backdrop_path":null,"adult":false,"overview":"Det brenner i natt! is a 1955 Norwegian drama film directed by Arne Skouen. It was entered into the 1955 Cannes Film Festival.","release_date":"1955-01-06"},{"vote_count":19,"id":75822,"video":false,"vote_average":5,"title":"Hercules and the Circle of Fire","popularity":3.143981,"poster_path":"\/qPvQrHOdSHywsqsh3LPvff92iOD.jpg","original_language":"en","original_title":"Hercules and the Circle of Fire","genre_ids":[28,12,14,10770],"backdrop_path":"\/ikQEjbUpXfnXJ5MMDLXXXrn8oNt.jpg","adult":false,"overview":"When all the earth's fire begins to go out, Hercules and Deianeira must go in search for fire to stop the world from cold.  \"Hercules and the Circle of Fire\" is the third movie-length pilot episode of the television series \"Hercules: The Legendary Journeys\".","release_date":"1994-11-05"},{"vote_count":3,"id":208551,"video":false,"vote_average":6,"title":"Oil Gush Fire in Bibiheybat","popularity":1.460144,"poster_path":"\/fZm1WHcTF5qYTHENlG9002pEi0i.jpg","original_language":"en","original_title":"Bibiheybətdə neft fontanı yanğını","genre_ids":[99],"backdrop_path":null,"adult":false,"overview":"An oil gush fire in Bibiheybat.","release_date":"1898-08-05"},{"vote_count":0,"id":173013,"video":false,"vote_average":0,"title":"Fire Fight","popularity":1.0375,"poster_path":null,"original_language":"en","original_title":"Fire Fight","genre_ids":[],"backdrop_path":null,"adult":false,"overview":"A swordsman makes a bet that he can stay overnight in a graveyard, where he falls in love with a ghost.","release_date":"1988-01-01"}]}