{"page":1,"total_results":42,"total_pages":3,"results":[{"vote_count":5041,"id":168259,"video":false,"vote_average":7.2,"title":"Furious 7","popularity":41.515062,"poster_path":"\/dCgm7efXDmiABSdWDHBDBx2jwmn.jpg","original_language":"en","original_title":"Furious 7","genre_ids":[28,80,53],"backdrop_path":"\/ypyeMfKydpyuuTMdp36rMlkGDUL.jpg","adult":false,"overview":"Deckard Shaw seeks revenge against Dominic Toretto and his family for his comatose brother.","release_date":"2015-04-01"},{"vote_count":4780,"id":337339,"video":false,"vote_average":6.8,"title":"The Fate of the Furious","popularity":29.331078,"poster_path":"\/dImWM7GJqryWJO9LHa3XQ8DD5NH.jpg","original_language":"en","original_title":"The Fate of the Furious","genre_ids":[12,28,80,53],"backdrop_path":"\/jzdnhRhG0dsuYorwvSqPqqnM1cV.jpg","adult":false,"overview":"When a mysterious woman seduces Dom into the world of crime and a betrayal of those closest to him, the crew face trials that will test them as never before.","release_date":"2017-04-12"},{"vote_count":1,"id":385128,"video":false,"vote_average":0,"title":"Fast & Furious 9","popularity":6.719213,"poster_path":null,"original_language":"en","original_title":"Fast & Furious 9","genre_ids":[28,80,53],"backdrop_path":null,"adult":false,"overview":"","release_date":"2020-04-10"},{"vote_count":3,"id":385687,"video":false,"vote_average":0,"title":"Fast & Furious 10","popularity":6.580586,"poster_path":null,"original_language":"en","original_title":"Fast & Furious 10","genre_ids":[28,80,53],"backdrop_path":null,"adult":false,"overview":"","release_date":"2021-04-02"},{"vote_count":2848,"id":13804,"video":false,"vote_average":6.5,"title":"Fast & Furious","popularity":4.206928,"poster_path":"\/ft8IqAGFs3V7i87z0t0EVRUjK1p.jpg","original_language":"en","original_title":"Fast & Furious","genre_ids":[28,80,18,53],"backdrop_path":"\/1R2ihQztuRTIqN3pFBR1yrBMd7w.jpg","adult":false,"overview":"When a crime brings them back to L.A., fugitive ex-con Dom Toretto reignites his feud with agent Brian O'Conner. But as they are forced to confront a shared enemy, Dom and Brian must give in to an uncertain new trust if they hope to outmaneuver him. And the two men will find the best way to get revenge: push the limits of what's possible behind the wheel.","release_date":"2009-04-02"},{"vote_count":2593,"id":584,"video":false,"vote_average":6.2,"title":"2 Fast 2 Furious","popularity":5.666834,"poster_path":"\/pRlDjkBTFNgMpKLfhFb4nsPQNUl.jpg","original_language":"en","original_title":"2 Fast 2 Furious","genre_ids":[28,80,53],"backdrop_path":"\/teEKGIZC25oJBQHXQwsGBMjW2bN.jpg","adult":false,"overview":"It's a major double-cross when former police officer Brian O'Conner teams up with his ex-con buddy Roman Pearce to transport a shipment of \"dirty\" money for shady Miami-based import-export dealer Carter Verone. But the guys are actually working with undercover agent Monica Fuentes to bring Verone down.","release_date":"2003-06-05"},{"vote_count":1,"id":167104,"video":false,"vote_average":8.5,"title":"Furious","popularity":1.2384,"poster_path":"\/u5k3WlQ2LHT2eAXzh2e7fDd84p4.jpg","original_language":"en","original_title":"Furious","genre_ids":[28],"backdrop_path":null,"adult":false,"overview":"Furious is an unexplored dimension populated by cackling sorcerers, whispering statues, fat adolescent warriors and lots and lots of live chickens. Furious is power. It’s magic. It’s a kaleidoscopic siege on the concept of storytelling. And Furious is “RED HOT KARATE ACTION! Filmed entirely on location in Southern California!”","release_date":"1984-01-06"},{"vote_count":5870,"id":82992,"video":false,"vote_average":6.7,"title":"Fast & Furious 6","popularity":4.576569,"poster_path":"\/b9gTJKLdSbwcQRKzmqMq3dMfRwI.jpg","original_language":"en","original_title":"Fast & Furious 6","genre_ids":[28,53,80],"backdrop_path":"\/qjfE7SkPXpqFs8FX8rIaG6eO2aK.jpg","adult":false,"overview":"Hobbs has Dominic and Brian reassemble their crew to take down a team of mercenaries: Dominic unexpectedly gets convoluted also facing his presumed deceased girlfriend, Letty.","release_date":"2013-05-21"},{"vote_count":0,"id":169822,"video":false,"vote_average":0,"title":"Fast and Furious","popularity":1.961513,"poster_path":"\/gV6hEXcLY5LLRHQrJreFHrCt6Mm.jpg","original_language":"en","original_title":"Fast and Furious","genre_ids":[35,80,9648],"backdrop_path":"\/mfGr0sEa5l4YeHCSX5pijm4KeCR.jpg","adult":false,"overview":"Joel and Garda Sloan, a husband and wife detective team, who also sell rare books in New York, take a vacation to Seaside City. At Seaside, Joel's pal, Mike Stevens is managing and preparing for their beauty pageant. Joel is made one of the judges plus he has invested $5,000 in it, to Garda's dismay. Eric Bartell, promoter, arrives to dupe Stevens. When Ed Connors, New York racketeer arrives, Bartell is mysteriously murdered. Joel and Garda set out to investigate the murder.","release_date":"1939-10-06"},{"vote_count":4111,"id":9799,"video":false,"vote_average":6.6,"title":"The Fast and the Furious","popularity":4.008818,"poster_path":"\/x4So4OkqnjfOSBCCNd5uosMmQiB.jpg","original_language":"en","original_title":"The Fast and the Furious","genre_ids":[28,80,53],"backdrop_path":"\/jY9ef5nqY4xIIMu3yzW3qamUCoi.jpg","adult":false,"overview":"Domenic Toretto is a Los Angeles street racer suspected of masterminding a series of big-rig hijackings. When undercover cop Brian O'Conner infiltrates Toretto's iconoclastic crew, he falls for Toretto's sister and must choose a side: the gang or the LAPD.","release_date":"2001-06-22"},{"vote_count":113,"id":15854,"video":false,"vote_average":6.6,"title":"Kung Fu Panda: Secrets of the Furious Five","popularity":10.780641,"poster_path":"\/AlSqOP7VnEhc2x170V2eZMTgzsA.jpg","original_language":"en","original_title":"Kung Fu Panda: Secrets of the Furious Five","genre_ids":[16,35,10751],"backdrop_path":"\/Ag4zcxKZwBfsmKgY8jAWzWpyGXH.jpg","adult":false,"overview":"Ordered to teach a martial arts class of rambunctious bunny kittens, Po tells stories of each of the Furious Five's pasts","release_date":"2008-11-08"},{"vote_count":2189,"id":9615,"video":false,"vote_average":6.1,"title":"The Fast and the Furious: Tokyo Drift","popularity":5.829639,"poster_path":"\/f9V0iTSYwnxW6tPIjSE7jrGC7eP.jpg","original_language":"en","original_title":"The Fast and the Furious: Tokyo Drift","genre_ids":[28,80,18,53],"backdrop_path":"\/67Cvciv67nyJml3DjYIKVzYMLFV.jpg","adult":false,"overview":"In order to avoid a jail sentence, Sean Boswell heads to Tokyo to live with his military father. In a low-rent section of the city, Shaun gets caught up in the underground world of drift racing","release_date":"2006-06-03"},{"vote_count":16,"id":29101,"video":false,"vote_average":6.2,"title":"Too Fat Too Furious","popularity":3.253015,"poster_path":"\/w9VzWxVKfpyWe9xIzq3ovtjlpfg.jpg","original_language":"nl","original_title":"Vet Hard","genre_ids":[18,35,80],"backdrop_path":"\/iOEKOElJSO2XvzeLtIt8tGDpmP4.jpg","adult":false,"overview":"Bennie, a clumsy criminal who's touchy about his weight, teams up with his adoptive father's biological (serial killer) son, his employees who in his absence turned his snack-bar into a quiche bakery, a suicidal manic-depressive woman and a Yougoslavian who keeps unintendedly blowing things up. They need to get 300000 Euro to get Bennies father a new liver. Complicating matters are that Bennie is","release_date":"2005-02-03"},{"vote_count":6,"id":20174,"video":false,"vote_average":3.8,"title":"The Fast and the Furious","popularity":2.57124,"poster_path":"\/twWJWolTI0UN1DxsmK6pnf14E5D.jpg","original_language":"en","original_title":"The Fast and the Furious","genre_ids":[28,80,18],"backdrop_path":"\/bkFbtopurSl540Ci8prGxvVn9G1.jpg","adult":false,"overview":"A man wrongly imprisoned for murder breaks out of jail. He wants to clear his name, but with the police pursuing him, he's forced to take a beautiful young woman, driving a fast sports car, hostage and slip into a cross-border sports car race to try to make it to Mexico before the police get him.","release_date":"1955-02-15"},{"vote_count":1,"id":185973,"video":false,"vote_average":9,"title":"Lady Furious","popularity":1.087758,"poster_path":"\/rp0rqy9l4Wa2D8bSYJ9iauBHB8N.jpg","original_language":"en","original_title":"Pae-neun Yeo-ja","genre_ids":[28],"backdrop_path":"\/3jntciE8eBq7J1UqxSiw4KDuzO7.jpg","adult":false,"overview":"A female detective does everything she can to mop up the mess brought into Korea by Hong Kong drugs lords.","release_date":"2012-10-17"},{"vote_count":3,"id":57513,"video":false,"vote_average":6.2,"title":"Furious Love","popularity":1.231368,"poster_path":"\/ybnZ0f04kYkstDuXQVq2MYfd0N.jpg","original_language":"en","original_title":"Furious Love","genre_ids":[99],"backdrop_path":null,"adult":false,"overview":"Furious Love, sequel to Finger of God, is the story of one man’s journey into some of the darkest spiritual climates on earth to test the limits of God’s love. Watch his discovery and witness God’s response to the demon possessed in Africa, the heroine addicts of Madrid, and witches in Salem, Massachusetts. See this love in relentless pursuit of the persecuted church in India and the oppressed victims of sex trafficking in Thailand. This journey of LOVE will leave you undone and must be experienced to be believed.","release_date":"2010-06-01"},{"vote_count":0,"id":479959,"video":true,"vote_average":0,"title":"Furious Desires","popularity":1.226325,"poster_path":"\/rTrj8fkUZoixSJF5Jl7FcQj11xt.jpg","original_language":"en","original_title":"Furious Desires","genre_ids":[18],"backdrop_path":null,"adult":false,"overview":"Desire is mysterious. Desire is overwhelming. Desire is tragic. Desire is FURIOUS. The many permutations of that strange thing called desire are on full display in this stunning collection of short films.  1 - O Porteiro do Dia (The Daytime Doorman, 2016) by Fábio Leal.  2 - Xavier (2016) by Ricky Mastro.  3 - Al Otro Lado (The Other Side, 2017) by Rodrigo Álvarez Flores.  4 - El Tigre y la flor (The Tiger's Fight, 2016) by Denisse Quintero.  5 - Loris sta bene (2017, Loris Is Fine) by Simone Bozzelli.","release_date":"2017-09-26"},{"vote_count":14,"id":415381,"video":false,"vote_average":7,"title":"Furious","popularity":6.377706,"poster_path":"\/4XCA70oDgYSBLJDvOgYs1Ca4rBm.jpg","original_language":"ru","original_title":"Легенда о Коловрате","genre_ids":[14,28,12],"backdrop_path":"\/nvF5VbrRtwflQm5znOZuTbLcwiu.jpg","adult":false,"overview":"A story of a legendary battle, where seventeen fearless warriors defend their land against an army of thousands well-trained soldiers. In 13th-century Mongol warrior hordes and their leader, Batu Khan, control most of the known world. As the Mongols move towards Europe they invade the last Russian principality standing in their way. Little do they know, their plans are about to be ruined by a small detachment of heroic strong men led by a mysterious brave warrior. This is a story about courage, endurance and self-sacrifice for the sake of one's country. This is the story of Evpaty the Furious.","release_date":"2017-11-30"},{"vote_count":2,"id":64833,"video":false,"vote_average":6.8,"title":"Jackie Chan: Fast, Funny and Furious","popularity":3.564275,"poster_path":"\/2oKBsQ3SdjGuBDDhPR31CO9qX1b.jpg","original_language":"en","original_title":"Jackie Chan: Fast, Funny and Furious","genre_ids":[99],"backdrop_path":null,"adult":false,"overview":"Not since the great Bruce Lee has a Chinese martial artist taken Hollywood by storm. Leaping out of dire poverty and obscurity, Jackie Chan has become the sensational international superstar of mayhem and merriment! This presentation of Chan's career covers his work with the legendary Bruce Lee, his struggle against typecasting in the Bruce Lee mold, and the resounding success of his breakthrough movies mixing amazing acrobatic artistry with brilliant comic ability.","release_date":"2002-12-10"},{"vote_count":4,"id":138741,"video":false,"vote_average":5.9,"title":"The Furious Gods: Making Prometheus","popularity":2.125313,"poster_path":"\/A6yXIt49bKXbbeFau7l5mEtAGZw.jpg","original_language":"en","original_title":"The Furious Gods: Making Prometheus","genre_ids":[99],"backdrop_path":"\/AweHHqQL4J5x7JMQy7Og99gW08j.jpg","adult":false,"overview":"An in-depth documentary on the making of Ridley Scott's \"Prometheus,\" featuring cast and crew interviews, outtakes and behind-the-scenes footage. Released on the 4-disc Collector's Edition Blu-ray set.","release_date":"2012-10-11"}]}