{"page":43,"total_results":1170,"total_pages":59,"results":[{"vote_count":33,"id":126337,"video":false,"vote_average":6.4,"title":"Unconditional","popularity":4.148977,"poster_path":"\/mlO3vgy8jvxVnFhxWS8l8sqOdrx.jpg","original_language":"en","original_title":"Unconditional","genre_ids":[18],"backdrop_path":"\/kdeAfpNVyq8xmoq4eVn8xacQTuc.jpg","adult":false,"overview":"Samantha Crawford is living a storybook life: she’s happily married, she lives on a ranch where she keeps her beloved horse, and the stories she’s told and illustrated since childhood have become published books. When her husband Billy is killed in a senseless act of violence, Sam loses her faith and her will to live. But a death-defying encounter with two children leads to a reunion with Joe, her oldest friend. As Sam watches “Papa” Joe care for and love the kids in his under-resourced neighborhood, she begins to realize that no matter life’s circumstances, the love of God is always reaching out to us.","release_date":"2012-09-21"},{"vote_count":8,"id":70844,"video":false,"vote_average":8.1,"title":"Superior Firepower: Making 'Aliens'","popularity":2.136006,"poster_path":"\/irAF7FQL51vEZWzyoaPu9gybl6K.jpg","original_language":"en","original_title":"Superior Firepower: Making 'Aliens'","genre_ids":[99],"backdrop_path":"\/rZNKzZB1UYDSgJATvWlh35420NP.jpg","adult":false,"overview":"This feature-length documentary, made especially for the 2003 Aliens (1986) DVD release, is incredibly informative with all its interviews with both the cast and crew, as well as behind the scenes footage filmed during the making of the film. Every possible element towards what went into making the movie is included here and gives fans an overload of information to fill their brains with.","release_date":"2003-12-02"},{"vote_count":86,"id":38310,"video":false,"vote_average":5.7,"title":"Firefighters","popularity":5.134357,"poster_path":"\/l1LmRgrHrfe9L8wAGL4aAwgx8CF.jpg","original_language":"it","original_title":"I pompieri","genre_ids":[35],"backdrop_path":"\/knmPSv1CKvdIRmCzfJIgwTHvthr.jpg","adult":false,"overview":"Hard and dangerous service. Needed to extinguish fires, but what if there is a fire between the legs?","release_date":"1985-01-01"},{"vote_count":1,"id":236533,"video":false,"vote_average":4,"title":"Joe Glow, the Firefly","popularity":1.601776,"poster_path":"\/airdSoV3o9gDH6wfesgM2eZg4kz.jpg","original_language":"en","original_title":"Joe Glow, the Firefly","genre_ids":[],"backdrop_path":null,"adult":false,"overview":"A firefly with a miner's lighted helmet explores a camper's tent and the various people-sized items that, from his perspective, are gigantic, then utters the cartoon's single line of dialog.","release_date":"1941-03-07"},{"vote_count":2,"id":470412,"video":false,"vote_average":8,"title":"4K Fireplace","popularity":1.070939,"poster_path":"\/prs4FQljIWEN0dUB7RUq0AF94gl.jpg","original_language":"nl","original_title":"4K Fireplace","genre_ids":[10751],"backdrop_path":"\/wlZFLvT6GEHatSVaiY0QHVgUS6X.jpg","adult":false,"overview":"Enjoy our new crackling fireplace during a holiday party or a cozy night in. Shot in stunning 4K Ultra HD and in 5.1 surround sound, this 3-hour fireplace video flickers, crackles and adds warmth to any room. An original from Mance Media, a leading supplier of 4K entertainment.","release_date":""},{"vote_count":0,"id":471181,"video":false,"vote_average":0,"title":"Firegate","popularity":1.164138,"poster_path":"\/42qQsSRwfsVEq2gusEN0Gt1FQL4.jpg","original_language":"id","original_title":"Gerbang Neraka","genre_ids":[12,28],"backdrop_path":null,"adult":false,"overview":"The oldest pyramid in the world is found in Indonesia. A journalist must team up with an archaeologist and a shaman to uncover the mystery of the pyramid. When they found out that this ancient pyramid is a prison for a malevolent ancient demon, they must stop the demon from breaking out or it's the end of the world, as we know it.","release_date":"2017-09-20"},{"vote_count":0,"id":235868,"video":false,"vote_average":0,"title":"Firemen's Brawl","popularity":1.001623,"poster_path":null,"original_language":"en","original_title":"Firemen's Brawl","genre_ids":[],"backdrop_path":null,"adult":false,"overview":"Popeye and Bluto are manning a fire station when the alarm comes in: it's Olive's house.","release_date":"1953-08-20"},{"vote_count":1,"id":93638,"video":false,"vote_average":1,"title":"Fireplace Impressions","popularity":1.064126,"poster_path":"\/lODbYPqpPx1OG9Qq3KkaxmuOZl1.jpg","original_language":"en","original_title":"Fireplace Impressions","genre_ids":[99],"backdrop_path":"\/bjIGX906ALS5yrD1fxQenwafBW6.jpg","adult":false,"overview":"-","release_date":"2008-11-08"},{"vote_count":1,"id":337884,"video":false,"vote_average":7,"title":"Fireball Jungle","popularity":1.051954,"poster_path":"\/kKLEcNsStZgAijyOGsV4dVSZc16.jpg","original_language":"en","original_title":"Fireball Jungle","genre_ids":[],"backdrop_path":null,"adult":false,"overview":"Ambitious driver, wanting to get to the top of the stock-car circuit, gets mixed up with gangsters.","release_date":"1968-10-02"},{"vote_count":1533,"id":16320,"video":false,"vote_average":7.4,"title":"Serenity","popularity":26.68447,"poster_path":"\/1Hq659V31ER9pQQvVBUUJbwR7NT.jpg","original_language":"en","original_title":"Serenity","genre_ids":[878,28,12,53],"backdrop_path":"\/mQPg3iZyztfzFNwrW40nCUtXy2l.jpg","adult":false,"overview":"When the renegade crew of Serenity agrees to hide a fugitive on their ship, they find themselves in an action-packed battle between the relentless military might of a totalitarian regime who will destroy anything – or anyone – to get the girl back and the bloodthirsty creatures who roam the uncharted areas of space. But... the greatest danger of all may be on their ship.","release_date":"2005-08-25"},{"vote_count":16,"id":9629,"video":false,"vote_average":5.3,"title":"Thunder at the Border","popularity":3.154599,"poster_path":"\/5KyMc3cQqIeOgnCWS9NoLFWLUEz.jpg","original_language":"de","original_title":"Winnetou und sein Freund Old Firehand","genre_ids":[12,37],"backdrop_path":"\/gECz4SP6VPIpVrK20T0A2t2GYx6.jpg","adult":false,"overview":"Firehand and his Apache friend Winnetou are determined to get justice for the murder of four young braves. They set off to track down the gang responsible for the horrendous act.","release_date":"1966-12-13"},{"vote_count":0,"id":429991,"video":false,"vote_average":0,"title":"Fireside Tales","popularity":1.040001,"poster_path":"\/mewdO4ZweJrUtHNy1VNHBeRpAPp.jpg","original_language":"en","original_title":"Fireside Tales","genre_ids":[27],"backdrop_path":null,"adult":false,"overview":"A low-budget anthology film focuses on a young group of friends, gathered for a night of fun and drinks around a campfire. Every year they try to outdo themselves telling scary stories. Will they survive another round? One story showcasing 5 unique macabre tales to frighten audiences everywhere.","release_date":"2016-11-30"},{"vote_count":1,"id":410645,"video":false,"vote_average":5,"title":"Firegate","popularity":1.129408,"poster_path":"\/prQyDWn9gmOm1YEw1LR2PzcwJaM.jpg","original_language":"id","original_title":"Gerbang Neraka","genre_ids":[12,27],"backdrop_path":"\/m5B8Ivtv0740sda2A7Xt1y2Bj0u.jpg","adult":false,"overview":"The oldest pyramid in the world is found in Indonesia. A journalist must team up with an archaeologist and a shaman to uncover the mystery of the pyramid. When they found out that this ancient pyramid is a prison for a malevolent ancient demon, they must stop the demon from breaking out or it's the end of the world, as we know it.","release_date":"2016-12-12"},{"vote_count":0,"id":399952,"video":false,"vote_average":0,"title":"The Firefighters","popularity":1.0375,"poster_path":"\/5fMPkMVKJbX2zBRYFNXruesSPJ0.jpg","original_language":"en","original_title":"The Firefighters","genre_ids":[10751],"backdrop_path":null,"adult":false,"overview":"Young auxiliary fire-fighters are suspected of arson.","release_date":"1974-01-01"},{"vote_count":1,"id":296901,"video":false,"vote_average":10,"title":"Firefly","popularity":1.110172,"poster_path":"\/8NH5GsCPMdAsny60PwXS8E9Bjj.jpg","original_language":"en","original_title":"Ateş Böceği","genre_ids":[35],"backdrop_path":"\/qlIacYZXeux7QzTITg13CsKiHfZ.jpg","adult":false,"overview":"The road runner movie of two clever cheaters turns to a love story.","release_date":"1975-09-16"},{"vote_count":6,"id":84656,"video":false,"vote_average":5.7,"title":"Fires Were Started","popularity":1.507033,"poster_path":"\/xcSthHWZEiRbbPYAp8t8F0sdkXS.jpg","original_language":"en","original_title":"Fires Were Started","genre_ids":[18,10752],"backdrop_path":null,"adult":false,"overview":"British film written and directed by Humphrey Jennings, filmed in documentary style showing the lives of firefighters through the Blitz in World War II.","release_date":"1943-04-12"},{"vote_count":0,"id":363785,"video":false,"vote_average":0,"title":"Fireworks (Archives)","popularity":1.013722,"poster_path":"\/cM9k2yzQcvI45ugQgL1NfxphM7r.jpg","original_language":"en","original_title":"Fireworks (Archives)","genre_ids":[],"backdrop_path":null,"adult":false,"overview":"This film depicts Bunleua Sulilat’s temple\/sculpture garden 'Sala Keoku', located in northern Thailand. Passages of blackness sporadically dissolve under the fitful internal illumination of sparklers, which light up to reveal Sulilat’s unorthodox temple populated with a fantastical concrete menagerie of beasts and figures; the sculptures range from the broad, whale-like contours of a frog’s face, to a cavalcade of dogs on mopeds, to a pair of skeletons partially embracing as if sitting for a double portrait. These images are interspersed with those of an older Thai couple mysteriously wandering around the temple like wraiths, the woman’s plodding progress hampered by the use of crutches.","release_date":"2014-05-17"},{"vote_count":0,"id":457330,"video":false,"vote_average":0,"title":"Shots Fired","popularity":1.008235,"poster_path":"\/lmyWAakjrpvHAEeX3FqCN4n3ix3.jpg","original_language":"en","original_title":"Shots Fired","genre_ids":[],"backdrop_path":null,"adult":false,"overview":"Shots Fired is an action\/comedy about two totally opposite detectives, who are forced to become partners and work the biggest case of their careers. Kevin Payne, an overly aggressive, burned out, thrill-seeker, has cost the city millions in damages as a result of his heroics. Marcus Banks, a weed-smoking, self-hating alcoholic who not only has gotten his captain \/ uncle reprimanded on several occasions, but his fellow officers shot while on duty. Both of these men have different values and agendas, but they have to somehow coincide in order to solve the murder of world renowned scientist John Mangenelli Sr. Shots Fired is a non-stop action\/ comedy that will leave people at the edge of their seats.","release_date":"2012-05-19"},{"vote_count":0,"id":489164,"video":false,"vote_average":0,"title":"The Firechasers","popularity":1.005625,"poster_path":null,"original_language":"en","original_title":"The Firechasers","genre_ids":[18,80],"backdrop_path":null,"adult":false,"overview":"Insurance investigator must find out who is setting fires. Along the way he meets and works with a beautiful newspaper reporter and falls in love.","release_date":"1971-01-01"},{"vote_count":7,"id":190725,"video":false,"vote_average":4.3,"title":"The Firefall","popularity":2.693622,"poster_path":"\/2ngnUQX9Abkesfq72uvBF3uj4Es.jpg","original_language":"fr","original_title":"La cascade de feu","genre_ids":[],"backdrop_path":null,"adult":false,"overview":"A magic show.","release_date":"1904-05-14"}]}