{"page":29,"total_results":1170,"total_pages":59,"results":[{"vote_count":0,"id":438748,"video":false,"vote_average":0,"title":"Aurora - Fire in the Sky","popularity":1.008102,"poster_path":"\/QznDxKD5Qk1GlY9qZ5qVaQszaF.jpg","original_language":"en","original_title":"Aurora - Fire in the Sky","genre_ids":[],"backdrop_path":"\/rfDfLrL3Fpp1zHCFsj1XRhMHSO9.jpg","adult":false,"overview":"A ghostly flickering illuminates the polar night – a mysterious, coloured display in the night sky that has intrigued people from time immemorial. The aurora is without doubt the most striking natural phenomenon in the polar regions of our planet. The documentary ‘Aurora – Fire in the Sky’ presents the phenomenon of the polar lights from various aspects. The film crew for this international production shot in Norway, Greenland, Canada, Alaska and New Zealand.","release_date":"2012-02-02"},{"vote_count":8,"id":67263,"video":false,"vote_average":7.8,"title":"Alpine Fire","popularity":2.131077,"poster_path":"\/aIfwfOT6buWxhXlVfyt0RO1Kfa4.jpg","original_language":"de","original_title":"Höhenfeuer","genre_ids":[18],"backdrop_path":"\/tyjwjJNohIVByWXWQkz10ZNhCa6.jpg","adult":false,"overview":"A year on an Alpine farm: an older couple have two children, Belli, who wanted to be a teacher, and the younger Franzi, deaf, and although he works like a man, child-like. Belli teaches him. In his work, he can become frustrated, so when he throws an expensive mower over a cliff in a fit of pique, his father banishes him to the outskirts of the farm, where he uses pubescent energy to break rocks and build walls and cairns. (It's the tradition of the father's family, called \"The Irascibles\" by neighbors, to spend puberty doing this.) Belli visits him and they begin sleeping together. By winter, the boy is back in the house and Belli is pregnant. Soon her parents must know.","release_date":"1985-09-02"},{"vote_count":1,"id":373770,"video":false,"vote_average":6,"title":"I'm No Fool with Fire","popularity":1.041973,"poster_path":"\/yVaQlSOeH4CORqYC5U5j6N5SQav.jpg","original_language":"en","original_title":"I'm No Fool with Fire","genre_ids":[16],"backdrop_path":null,"adult":false,"overview":"Jiminy Cricket explains the basics of fire safety.","release_date":"1955-12-22"},{"vote_count":0,"id":386520,"video":false,"vote_average":0,"title":"Cease Fire 2","popularity":1.011874,"poster_path":"\/hQSqvOsGOq76Noxtwf1OsVoxkrm.jpg","original_language":"fa","original_title":"آتش بس 2","genre_ids":[35,18,10751],"backdrop_path":"\/aEURQuG7bmT6yHlbfuAWBUI7shg.jpg","adult":false,"overview":"","release_date":"2014-03-09"},{"vote_count":0,"id":302001,"video":false,"vote_average":0,"title":"When Under Fire: Shoot Back!","popularity":1.023381,"poster_path":"\/4nPaEas5FOh9rROiD7ktcjrn5gh.jpg","original_language":"en","original_title":"When Under Fire: Shoot Back!","genre_ids":[99],"backdrop_path":null,"adult":false,"overview":"The Bang Bang Club were four fearless young photographers who set out to expose the reality of Apartheid in South Africa - a battle that changed a nation but wound up almost destroying them.","release_date":"2014-11-15"},{"vote_count":0,"id":113930,"video":false,"vote_average":0,"title":"Edguy - Fucking With Fire","popularity":1.004924,"poster_path":"\/59aQaTS2i7WlBTgPLWnCERAYHQs.jpg","original_language":"en","original_title":"Edguy - Fucking With Fire","genre_ids":[],"backdrop_path":null,"adult":false,"overview":"Fucking with F*** - Live is a live concert DVD and CD by German power metal band Edguy. It is the band's second live album since Burning Down the Opera in 2003 and their first ever concert DVD, which was recorded during their Rocket Ride Tour in 2006 in São Paulo, Brazil. The album was also released as a double CD album and a 2CD and DVD set.  The album title takes its name from the song \"Fucking with Fire (Hair Force One)\" from the band's 2006 album Rocket Ride.","release_date":"2009-04-20"},{"vote_count":0,"id":158350,"video":false,"vote_average":0,"title":"Hell-Fire Austin","popularity":1.004728,"poster_path":"\/zM215LEESSfialaQybthiLHyk4H.jpg","original_language":"en","original_title":"Hell-Fire Austin","genre_ids":[28,37,12],"backdrop_path":null,"adult":false,"overview":"Heading west, Ken and Bouncer end up at the Brooks ranch where Ken is to ride Tarzan in the big race. But both the Sheriff and Edmonds are after him and he must hide both himself and the horse until race time.","release_date":"1932-03-02"},{"vote_count":0,"id":475461,"video":false,"vote_average":0,"title":"Artist on Fire: Joyce Wieland","popularity":1.004075,"poster_path":"\/eZ9FBhzSvuep3Yi5wkeDfhVnGOh.jpg","original_language":"en","original_title":"Artist on Fire: Joyce Wieland","genre_ids":[],"backdrop_path":null,"adult":false,"overview":"Considered one of Canada's most important women artists of the second half of the 20th century, Joyce Wieland's art embodies the essence of her homeland, feminism, and ecology. Artist on Fire: Joyce Wieland captures the vibrant spirit of this painter, collagist, quilt maker, and filmmaker. In the early '70s, Wieland was involved in filmmaking, producing movies with a political message. In her 30-year career, she worked in a variety of mediums, including cloth, pastels, colored pencil, oils, bronze, and watercolor. Her works and her influence are examined in this detailed video portrait.","release_date":"1987-09-12"},{"vote_count":0,"id":276342,"video":false,"vote_average":0,"title":"Candido: Hands of Fire","popularity":1.002353,"poster_path":null,"original_language":"en","original_title":"Candido: Hands of Fire","genre_ids":[],"backdrop_path":null,"adult":false,"overview":"Packed with plenty of captivating performance footage, director Ivan Acosta's documentary shines the spotlight on Candido Camero's invaluable contribution to Cuban music, American jazz and Latin jazz. One of the greatest Cuban percussionists to immigrate to the United States, Camero has played with such legendary musicians as Tony Bennett, Dizzy Gillespie, Tito Puente, Charlie Parker, Duke Ellington, Ray Charles and John Coltrane.","release_date":"2006-01-01"},{"vote_count":0,"id":237848,"video":false,"vote_average":0,"title":"Run of N.Y. Fire Department","popularity":1.001177,"poster_path":null,"original_language":"en","original_title":"Run of N.Y. Fire Department","genre_ids":[],"backdrop_path":null,"adult":false,"overview":"A splendid and exciting run among the skyscrapers. Taken for the city's 250th anniversary celebration.","release_date":"1903-05-17"},{"vote_count":0,"id":360488,"video":false,"vote_average":0,"title":"The Fire Island Kids","popularity":1,"poster_path":"\/6Khvykb3n04f4X8yvWeBM0fWh9M.jpg","original_language":"en","original_title":"The Fire Island Kids","genre_ids":[],"backdrop_path":null,"adult":false,"overview":"Part of BFI collection \"The Erotic Films of Peter de Rome.\"","release_date":"1971-01-02"},{"vote_count":0,"id":498600,"video":false,"vote_average":0,"title":"Arcade Fire - Everything Now Live","popularity":1,"poster_path":"\/egVglJjeMzYEqKcHGxOMksEWM0L.jpg","original_language":"en","original_title":"Arcade Fire - Everything Now Live","genre_ids":[99,10402],"backdrop_path":null,"adult":false,"overview":"An Intimate performance of songs from Everything Now","release_date":""},{"vote_count":0,"id":305104,"video":false,"vote_average":0,"title":"Moslem Sacred Fire Decree, Part 1","popularity":1.002307,"poster_path":null,"original_language":"en","original_title":"Wu lin sheng huo ling shang ji","genre_ids":[14,28],"backdrop_path":null,"adult":false,"overview":"Followed by Wu lin sheng huo ling xia ji (1965).","release_date":"1965-01-01"},{"vote_count":0,"id":305102,"video":false,"vote_average":0,"title":"Moslem Sacred Fire Decree, Part 2","popularity":1.001648,"poster_path":null,"original_language":"cn","original_title":"Wu lin sheng huo ling xia ji","genre_ids":[14,28],"backdrop_path":null,"adult":false,"overview":"Original version of Wu lin sheng huo jin AKA Holy Flame of the Martial World.","release_date":"1965-01-01"},{"vote_count":0,"id":285890,"video":true,"vote_average":0,"title":"Arcade Fire Live at Glastonbury","popularity":1.012941,"poster_path":"\/v8gULABjvWLNL8kKu6nuvTfUTz8.jpg","original_language":"en","original_title":"Arcade Fire Live at Glastonbury","genre_ids":[10402],"backdrop_path":"\/t7pvjpaF8x20zcLy3cSWxSK9K4b.jpg","adult":false,"overview":"Arcade Fire Live performance live at Glastonbury festival 2014.","release_date":"2014-06-29"},{"vote_count":0,"id":121456,"video":false,"vote_average":0,"title":"Scorching Sun, Fierce Wind, Wild Fire","popularity":1.000067,"poster_path":"\/pcGfGtZAqZOU7Pn2jWajF2suxMz.jpg","original_language":"en","original_title":"Lie ri kuang feng ye huo","genre_ids":[28],"backdrop_path":null,"adult":false,"overview":"During China's 1920s Republican Period, warlords carve out personal fiefdoms across the country and impose self-serving laws with the barrel of a gun. Into this anarchy rides a masked feminine Zorro, nom de guerre Violet, to do battle, right wrongs and foment rebellion against the most corrupt and brutal warlord of all, Tung Ta-Chou. Unbeknownst to Tung, however, Violet is his own daughter. Tung orders his psycho enforcer Master Wu to track down and dispose of this pesky rebel queen. Meanwhile, Violet begins a flirtation with an attractive stranger who comes to town with the other half of a treasure map held by Tung. Ultimately, Master Wu betrays the warlord on the lure of the complete treasure map, enabling Violet and the stranger to apprehend Master Wu and beat the warlord at his own game.","release_date":"1980-09-05"},{"vote_count":0,"id":314510,"video":false,"vote_average":0,"title":"In the Heat of the Fire","popularity":1.00003,"poster_path":"\/aIEN2rJ0AW4aksRImMMHsEArMmd.jpg","original_language":"en","original_title":"Sa Init ng Apoy","genre_ids":[18,27,28],"backdrop_path":null,"adult":false,"overview":"It's the Holy Week, the end of Lent, a popular time for Filipinos to have a vacation. A young couple travels to Baguio to escape the Metro's summer heat. But before they reach the city proper, their jeep breaks down. Fortunately, they find a transient house with a room to spare.  The housekeeper is a mysterious fellow, warm but dreadfully awkward. The couple doesn't mind him though and they even make it an adventure to find out more about their host by asking locals what they know about the house and its keeper.  Come Good Friday, the day God dies, they will discover that adventures and vacations don't go well together all the time.","release_date":"1980-11-26"},{"vote_count":0,"id":263457,"video":false,"vote_average":0,"title":"Totally Trucks Fire Monsters II","popularity":1.008235,"poster_path":null,"original_language":"en","original_title":"Totally Trucks Fire Monsters II","genre_ids":[],"backdrop_path":null,"adult":false,"overview":"Hey kids! Ever wonder what firefighters call their trucks? Want to know what's inside the fire chief's truck? Want to know how much water a pumper carries? Get your boots on and get ready to roll with the Fire Monsters!","release_date":"2012-09-30"},{"vote_count":0,"id":133773,"video":false,"vote_average":0,"title":"Under Fire: Journalists in Combat","popularity":1.00808,"poster_path":"\/s196HN29EcQYUqy2HXV7yqVwXGr.jpg","original_language":"en","original_title":"Under Fire: Journalists in Combat","genre_ids":[99],"backdrop_path":null,"adult":false,"overview":"Journalism in times of war has become an increasingly lethal and traumatic endeavor for the men and women who face constant threats to their lives and psyches. With the death toll skyrocketing from only two reporters killed in World War I to almost a journalist a week being killed in the last two decades, UNDER FIRE weaves together portraits, battlefield accounts and combat footage to reveal what the reporters see, think and feel. Martyn Burke, documentary filmmaker whose work has brought him to battlefields around the world, and Anthony Feinstein, the psychiatrist who works with journalists to heal the trauma, delve into the experiences of top tier correspondents from AP, New York Times, BBC, and LA Times, among others, bringing a unique understanding and insight into the psychological cost of covering war","release_date":"2011-11-11"},{"vote_count":0,"id":155171,"video":false,"vote_average":0,"title":"Orange Goblin: Healing through Fire","popularity":1.003757,"poster_path":"\/mIwQHPa9NKDid3YHghoNc9vHX5p.jpg","original_language":"en","original_title":"Orange Goblin: Healing through Fire","genre_ids":[],"backdrop_path":"\/mxkdBcqGxhVmbwTJateEOydfPgo.jpg","adult":false,"overview":"Recorded live at The Mean Fiddler in London on December 16, 2006. Includes interviews and studio footage.","release_date":"2007-06-26"}]}