{"page":18,"total_results":567,"total_pages":29,"results":[{"vote_count":0,"id":516238,"video":false,"vote_average":0,"title":"Where The Wild Things Play","popularity":1.000146,"poster_path":null,"original_language":"en","original_title":"Where The Wild Things Play","genre_ids":[],"backdrop_path":null,"adult":false,"overview":"This is our homage to all the badass, adventurous ladies we know. Crank the volume to 11, this soundtrack is a must.","release_date":""},{"vote_count":0,"id":66656,"video":false,"vote_average":0,"title":"Where Pigeons Go to Die","popularity":1.000102,"poster_path":"\/25tlKlsPTrI5kRPy4UgDEFPeteo.jpg","original_language":"en","original_title":"Where Pigeons Go to Die","genre_ids":[],"backdrop_path":null,"adult":false,"overview":"Sentimental drama about an aging man's fond reminiscences of his relationship with his grandfather in 1950 midwest and the time they spent together raising racing pigeons.","release_date":"1990-01-29"},{"vote_count":0,"id":435681,"video":false,"vote_average":0,"title":"Where are you, João Gilberto?","popularity":1.000053,"poster_path":"\/bQWpWQhsEMEdqKgebD7mIfiVlNF.jpg","original_language":"en","original_title":"Where are you, João Gilberto?","genre_ids":[99],"backdrop_path":null,"adult":false,"overview":"Where are you, João Gilberto? is a feature-length documentary film adapted from the book Hobalala by the German journalist and writer Marc Fischer. In his book originaly written in German, Marc Fischer tells of his compulsive searh for the last great musical legend of our time, the Brazilian musician João Gilberto. The creator of the Bossa Nova and a modern myth of popular music, Gilberto has not appeared in public for decaces.","release_date":""},{"vote_count":0,"id":487612,"video":false,"vote_average":0,"title":"Where Horses Go To Die","popularity":1.000027,"poster_path":"\/gFM6OaOwemtablZ5B764D5jFag0.jpg","original_language":"fr","original_title":"Where Horses Go To Die","genre_ids":[],"backdrop_path":null,"adult":false,"overview":"Daniel is an artist who has lost his desire to paint. An unexpected meeting with three « working girls » one evening marks the beginning of a surreal adventure. Later that night, the wildest dreams and the worst nightmares of his three new muses unravel in his imagination.","release_date":""},{"vote_count":0,"id":334874,"video":false,"vote_average":0,"title":"The Town Where Nobody Lives","popularity":1,"poster_path":"\/sznstCAcUnrh9JeCa9g4KRFmRkf.jpg","original_language":"en","original_title":"The Town Where Nobody Lives","genre_ids":[],"backdrop_path":null,"adult":false,"overview":"Richard and Elizabeth are a married couple on a road trip who find themselves lost in a mysterious ghost town.","release_date":""},{"vote_count":0,"id":332878,"video":false,"vote_average":0,"title":"Don't Ask Where We Are Going","popularity":1.001648,"poster_path":"\/rSm0hwZ8Ha1NDrZ5yCxAWEX4eAD.jpg","original_language":"hr","original_title":"Kuda idemo ne pitajte","genre_ids":[18],"backdrop_path":null,"adult":false,"overview":"An experimental staged documentary.","release_date":"1966-01-01"},{"vote_count":0,"id":168177,"video":false,"vote_average":0,"title":"Xx: Where Your Heart Should Be","popularity":1.017549,"poster_path":"\/xPxfBIF5pOuFrclLM8fgoqZvk0D.jpg","original_language":"en","original_title":"Xx","genre_ids":[18],"backdrop_path":null,"adult":false,"overview":"Todd Verow, his latest film is an experimental narrative feature heralding the end time. Split up into 20 short films, the film explores the fear and longing of several characters as they wait for some unspecified apocalyptic event.  Some try to escape physically, emotionally or sexually while others welcome the end with open arms. A woman (PHILLY) is busy dragging her own corpse, trying to find a resting place for it, when she encounters an old lover (MICHAEL BURKE) who used to be a she but has transitioned to a man. He wants to get out of town but she wants to stay it's the end of time when nothing is a crime.  Several gay men engage in more and more extreme sexual activity, they want to experience it all before the big collapse. Two gay ex-lovers try to reconnect and feel something, anything but total emptiness. Porn actors and producers make more unsafe films as fantasies grow darker and more violent. Will the world end with a whimper or a bang? Or worse will it not end at all.","release_date":"2007-10-01"},{"vote_count":0,"id":517257,"video":false,"vote_average":0,"title":"Where My Friend Made A Painting","popularity":1.013657,"poster_path":null,"original_language":"pt","original_title":"Onde O Meu Amigo Pintou Um Quadro","genre_ids":[99],"backdrop_path":null,"adult":false,"overview":"My friend made a painting from a photograph about a manifestation against the economic crisis and I made a film from that painting. Between these two objects lies a path, which began in a casual photograph and ended in a poorly-lit garage.","release_date":"2014-04-15"},{"vote_count":0,"id":324762,"video":false,"vote_average":0,"title":"Where Cars Don't Care","popularity":1.006236,"poster_path":null,"original_language":"en","original_title":"Where Cars Don't Care","genre_ids":[],"backdrop_path":null,"adult":false,"overview":"A remarkable journey through the Mojave Desert by dirt bike. Serious dirt bikers; Sunday riders; and tourists from Europe, New Jersey, and all-points-east have their courage tested against sand dunes, dry lake beds, salt basins, snow, and mountains as they trek from Tinsel Town to Sin City without ever touching asphalt. You may think you've ridden it all, but you haven't really hit the dirt until you've biked the Gold Rush Trail with AdMo. Narrated by Let's Riiide's Erik Lundmark and world traveler, raconteur, and AdMo owner Uwe Diemer","release_date":"2010-11-14"},{"vote_count":0,"id":400515,"video":false,"vote_average":0,"title":"The Place Where the Last Man Died","popularity":1.005987,"poster_path":"\/fxpTSJnbh8luET8fF5980mpK0QS.jpg","original_language":"hr","original_title":"Mjesto na kojem je umro posljednji čovjek","genre_ids":[878,18,27],"backdrop_path":"\/qTab5AHXA7dzRo8tkD5pNkhJgQ5.jpg","adult":false,"overview":"Cain is a military scientist, bitterly disappointed in human race. His conclusion is that the mankind failed to create a world worth living in. Only a small minority of privileged people live in prosperity, while the rest are spending their lives in pain and hopeless struggle to survive. One day, Cain made a decision to wipe out the entire human race from planet Earth, by activating the weapons of mass destruction. Time has passed, and Cain is coming out of the shelter to find the place where he will die. The place where the last man will die. Suddenly, he's starting to receive a mysterious signal that indicates someone else's presence. So, he goes in search to eliminate the survivor and complete what he has started...","release_date":"2010-11-01"},{"vote_count":0,"id":277101,"video":false,"vote_average":0,"title":"Where Is Mama's Boy","popularity":1.002353,"poster_path":null,"original_language":"en","original_title":"Where Is Mama's Boy","genre_ids":[],"backdrop_path":null,"adult":false,"overview":"William Hung, who shot to fame with an off-key audition on \"American Idol,\" makes his film debut in this martial arts musical comedy. Auntie Foon (Nancy Sit), a music hall owner in Imperial China, searches for her long-lost son, as well as husbands for her 12 daughters. Enter kindly singer Ma (Hung), who could be Foon's son. The fun family film also features a priceless Chinese version of Hung singing his signature, Ricky Martin's \"She Bangs.\"","release_date":"2004-01-01"},{"vote_count":0,"id":159846,"video":false,"vote_average":0,"title":"Where Are You?","popularity":1.005057,"poster_path":"\/fM6aNKmXb4CG8viSZ2VPpgbAJ8Y.jpg","original_language":"ja","original_title":"ワカラナイ","genre_ids":[18],"backdrop_path":null,"adult":false,"overview":"Yuto Kobayashi stars as a down-on-his-luck 16-year-old named Ryo Kawai. Ryo grew up fatherless, and has been trying to make a living by working at a local convenience store ever since his mother was hospitalized with a prolonged illness. Unable to support himself on his meager earnings, he has to resort to sneaking money from the cash register and stealing rice balls to get by-a habit which eventually gets him fired. Just when it seems things can't get any worse, his mother dies and he's stuck with a hefty bill for the hospital and funeral expenses. Obviously unable to pay, but determined to send his mother off himself, Ryo steals her corpse and places it in a small rowboat. After the makeshift funeral ceremony, Ryo heads off to Tokyo on a journey to meet his absentee father.","release_date":"2009-11-13"},{"vote_count":0,"id":291108,"video":false,"vote_average":0,"title":"Where Are All the UFO's","popularity":1.001177,"poster_path":"\/f7d3DEb5gYtBHjgwPBmsqctdGJ5.jpg","original_language":"en","original_title":"Where Are All the UFO's","genre_ids":[],"backdrop_path":null,"adult":false,"overview":"The modern myth of the UFO begins with a 1938 radio broadcast and continues through two major 1947 sightings, the \"contactee\" movement, abduction stories and crop circles.","release_date":"1996-05-12"},{"vote_count":0,"id":355367,"video":false,"vote_average":0,"title":"Love Is Where It's At","popularity":1.001177,"poster_path":null,"original_language":"en","original_title":"Love Is Where It's At","genre_ids":[],"backdrop_path":null,"adult":false,"overview":"A private detective attempts to find a con on the lam by questioning a series of frequently-nude women.","release_date":"1968-01-01"},{"vote_count":0,"id":186625,"video":false,"vote_average":0,"title":"Treasure is Where you Find It","popularity":1.00357,"poster_path":"\/wuMic8BI5UZkiPucKlNBVKLPZDb.jpg","original_language":"en","original_title":"Treasure is Where you Find It","genre_ids":[99],"backdrop_path":null,"adult":false,"overview":"This is a true \"Indian Jones\" like tale that examines the hunt to save the forgotten arsenal of the Royal Nepalese Gurkha Army. The cache was stored in an ancient palace called Lagan Silekhana since 1839. This film takes you inside the 30 year quest to save more than 50,000 antique firearms. The material includes over 150 Napoleonic Era Bronze cannons, P-1796 Brown Bess Muskets, P-1871 Martini-Henry Rifles, countless edged weapons, and so much more. This film is a must for Collectors of any sort, after all it appeals to the treasure hunter in us all! (The film format is NTSE, meaning European DVD players must have NTSE technology, but it will play perfectly on all North American DVD players and computers).","release_date":"2007-01-01"},{"vote_count":0,"id":115512,"video":false,"vote_average":0,"title":"Where the Hell's That Gold?!!?","popularity":1.000349,"poster_path":"\/yUJXyXwAcziK8X94uY9vkRHhoXK.jpg","original_language":"en","original_title":"Where the Hell's That Gold?!!?","genre_ids":[37,10770],"backdrop_path":null,"adult":false,"overview":"A pair of thieves are pursued by the U.S. Army, the Mexican federales and Apaches in this made-for-TV Western.","release_date":"1988-11-13"},{"vote_count":0,"id":450578,"video":false,"vote_average":0,"title":"Where There's a Will","popularity":1.000118,"poster_path":"\/yjQwfW0kTrFJyC3HjOK1oW47As9.jpg","original_language":"en","original_title":"Where There's a Will","genre_ids":[],"backdrop_path":null,"adult":false,"overview":"While waiting to inherit money from his millionaire father, a young man falls for Jamie, a beautiful, but also very principled young lady.","release_date":""},{"vote_count":0,"id":316256,"video":false,"vote_average":0,"title":"The World Where One Goes Begging","popularity":1.001663,"poster_path":"\/gTCdUVk825bL6X2kuTcU5nBcjvN.jpg","original_language":"en","original_title":"Svet kde se zebrá","genre_ids":[],"backdrop_path":null,"adult":false,"overview":"Venice Film Festival 1938","release_date":"1938-01-07"},{"vote_count":0,"id":472398,"video":false,"vote_average":0,"title":"By the Sea Where We Played","popularity":1.001649,"poster_path":"\/oZSkU3lGy0SeKjXhpWGhbsNoJDT.jpg","original_language":"ru","original_title":"У моря, где мы играли","genre_ids":[18,10751],"backdrop_path":"\/NL0COUXEpYkoRVfSi5b7fkkrMT.jpg","adult":false,"overview":"A short story about a boy who is honest and courageous despite being paralyzed.","release_date":"1967-08-24"},{"vote_count":0,"id":384370,"video":false,"vote_average":0,"title":"A Place Where There Are Moths","popularity":1.001177,"poster_path":"\/rNPuEjru3hvRpyARYkAFetMDHDV.jpg","original_language":"ja","original_title":"Ga no Iru Tokoro","genre_ids":[16],"backdrop_path":null,"adult":false,"overview":"A Place Where There Are Moths depicts the conflict between drab concrete block apartment living and the natural environment in Japanese cities. The forces of nature are represented by the motif of a tree whose leaves metamorphose into orange moths and take over a middle-aged woman's apartment, pushing her room higher and higher within the building.","release_date":"2001-01-01"}]}