{"page":18,"total_results":1170,"total_pages":59,"results":[{"vote_count":3,"id":196515,"video":false,"vote_average":3.7,"title":"Cohen’s Fire Sale","popularity":1.149883,"poster_path":"\/1XJO4OTZTnFepeKGgtiGfqiOK8f.jpg","original_language":"en","original_title":"Cohen’s Fire Sale","genre_ids":[],"backdrop_path":null,"adult":false,"overview":"A shopkeeper suffers the loss of some valuable merchandise, and thinks of a way to regain his losses.","release_date":"1907-06-29"},{"vote_count":2,"id":76932,"video":false,"vote_average":5.3,"title":"Christmas Log Fire","popularity":1.145799,"poster_path":"\/ddAhnR4e3svWvDThA3mbQO9E4Mj.jpg","original_language":"en","original_title":"Christmas Log Fire","genre_ids":[],"backdrop_path":"\/humsB9o1O6LZAT7fIWlRwXNSWRX.jpg","adult":false,"overview":"Warm up next to your TV this Christmas with a HD fireplace.","release_date":"2007-12-07"},{"vote_count":4,"id":54599,"video":false,"vote_average":6.3,"title":"Father of Four: In the City","popularity":1.449778,"poster_path":"\/eZ9YSF5CkZf49lyoAQkBVyeLsbw.jpg","original_language":"da","original_title":"Far til fire i byen","genre_ids":[35,10751],"backdrop_path":"\/508CdlfveRRqjKpq4JpcUWa8Sf1.jpg","adult":false,"overview":"","release_date":"1956-11-12"},{"vote_count":4,"id":109203,"video":false,"vote_average":6,"title":"Ring of Fire","popularity":1.143635,"poster_path":"\/wqmSCMxUL8Ybh12PBOKwAV2oWoD.jpg","original_language":"en","original_title":"Ring of Fire","genre_ids":[12,80,18],"backdrop_path":"\/fLZcvhQ90CXjTYYBuRmh31AYy9a.jpg","adult":false,"overview":"Frank Gorshin and his girlfriend, Joyce Taylor, are on the run from the law when apprehended and arrested by the Sherriff..","release_date":"1961-06-14"},{"vote_count":0,"id":129673,"video":false,"vote_average":0,"title":"I'm on Fire","popularity":1,"poster_path":"\/rhc7pZMxhNlNLJqcc2tixNz3nV.jpg","original_language":"en","original_title":"I'm on Fire","genre_ids":[],"backdrop_path":null,"adult":false,"overview":"Following the death of her estranged mother, Emma, a young drifter, returns to her childhood home in Palm Springs for the first time in a decade...","release_date":""},{"vote_count":0,"id":452340,"video":false,"vote_average":0,"title":"Titanic's Fatal Fire","popularity":1,"poster_path":null,"original_language":"en","original_title":"Titanic's Fatal Fire","genre_ids":[],"backdrop_path":"\/pwXzlNoGhrvXDEYKKSvLv02FsNE.jpg","adult":false,"overview":"The sinking of the Titanic sent shockwaves around the world and started debates that continue to this day. But new, explosive evidence from the most unlikely of sources may finally lay all arguments to rest and reveal, for the first time, the full story of what possibly doomed the \"unsinkable\" liner. Join us as we unveil recently discovered and never-before-seen photographs of the super ship that exposes shocking clues that investigators and historians once dismissed but can no longer ignore.","release_date":""},{"vote_count":2,"id":107971,"video":false,"vote_average":6.5,"title":"Ring of Fire","popularity":1.141572,"poster_path":"\/zbifTuRKJZrOgoaHaZjTtmY3TIu.jpg","original_language":"en","original_title":"Ring of Fire","genre_ids":[28,16],"backdrop_path":null,"adult":false,"overview":"Animated short of a Cowboys' psychedelic Odyssey.","release_date":"2000-10-01"},{"vote_count":13,"id":38264,"video":false,"vote_average":6.5,"title":"Fire of Conscience","popularity":1.868565,"poster_path":"\/67WcajqK7dndV7D1mNgkDTj1HkT.jpg","original_language":"cn","original_title":"For lung","genre_ids":[28,53],"backdrop_path":"\/6lmUEkpLkYFoepzUgG3y5rglUdF.jpg","adult":false,"overview":"Fire of Conscience is an 2010 Hong Kong action\/thriller film directed by Dante Lam and starring Leon Lai and Richie Ren. The Chinese name is derived in one of the action scenes where Lai has to chase Ren through a street of dragon dance.","release_date":"2010-04-01"},{"vote_count":0,"id":462547,"video":false,"vote_average":0,"title":"Fire, Fire, at Last Something's Going On","popularity":1.001346,"poster_path":null,"original_language":"pl","original_title":"Pozar! Pozar! Cos nareszcie dzieje sie","genre_ids":[99],"backdrop_path":null,"adult":false,"overview":"A collective portrait of small town youths as they participate in fire brigade manoeuvres, train at the gym, take part in a choir rehearsal, listen to a tour guide at the Hitler's bunker and go dancing in his former conference hall.","release_date":"1967-12-31"},{"vote_count":1,"id":313527,"video":false,"vote_average":10,"title":"Drums of Fire","popularity":1.084615,"poster_path":"\/sWMhnuXEfIeLl7IOejnakJL5aah.jpg","original_language":"es","original_title":"La batalla de los tres reyes","genre_ids":[36,28],"backdrop_path":null,"adult":false,"overview":"","release_date":"1990-12-21"},{"vote_count":2,"id":80598,"video":false,"vote_average":5,"title":"A Woman on Fire","popularity":1.415912,"poster_path":"\/1CvTF2gcPz3JmKcjvkzti7HFVg2.jpg","original_language":"en","original_title":"Brucia Ragazzo, Brucia","genre_ids":[18],"backdrop_path":"\/nbKesK730gmMBQx45PJEF0fzWKX.jpg","adult":false,"overview":"Clara, the sexually frustrated wife of a businessman goes on vacation with her husband, daughter and best friend. While there, she finally learns that sex can be passionate and wonderful, something she was never able to discover with the help of her husband. Unfortunately, she learns this with a handsome lifeguard, who finally makes her succumb to his psycho-sexual games.","release_date":"1969-02-05"},{"vote_count":2,"id":412037,"video":false,"vote_average":4.5,"title":"Daigo of Fire Company M","popularity":1.076436,"poster_path":"\/kVC1i4FcswNxIaf5Sxm2p2pn86T.jpg","original_language":"en","original_title":"Me gumi no Daigo: Kajiba no Baka Yarou","genre_ids":[18,28,16],"backdrop_path":null,"adult":false,"overview":"Daigo Asahina is Medaka Gumi #2's\/Me Gumi's new rookie firefighter, and already he's done crazy things, like throwing people off of a rooftop to save them from an explosion. He had good ...","release_date":"2000-01-22"},{"vote_count":0,"id":132417,"video":false,"vote_average":0,"title":"Day On Fire","popularity":1.127561,"poster_path":"\/7rJ4942qsRbdqvGCvTzEv7WiMBD.jpg","original_language":"en","original_title":"Day On Fire","genre_ids":[18],"backdrop_path":"\/9uUMV0B0hih4r9Hv0Q9Wjjy3wTA.jpg","adult":false,"overview":"Day on Fire is an American film which was produced by Lodestar Entertainment and filmed in New York City and Israel in 2006. It is written and directed by Jay Anania, stars Academy Award winner Olympia Dukakis, Carmen Chaplin, Alyssa Sutherland and Martin Donovan and is produced by William Fisch and Larry Rattner. The film was scored by John Medeski with vocals by Judy Kuhn.  Day on Fire was screened at the 2006 Cannes Film Festival on May 22, 2006.","release_date":"2006-05-26"},{"vote_count":1,"id":394586,"video":false,"vote_average":8,"title":"Dirty Baby Does Fire Island","popularity":1.3988,"poster_path":null,"original_language":"en","original_title":"Dirty Baby Does Fire Island","genre_ids":[16,35],"backdrop_path":null,"adult":false,"overview":"A high-octane satirical look at gay men as seen from a very unique POV. Dirty Baby washed up on the shore of the Fire Island Pines and what she witnesses defies description.","release_date":"1998-06-11"},{"vote_count":0,"id":487269,"video":false,"vote_average":0,"title":"Shankly: Nature’s Fire","popularity":1.122767,"poster_path":null,"original_language":"en","original_title":"Shankly: Nature’s Fire","genre_ids":[99],"backdrop_path":null,"adult":false,"overview":"SHANKLY: NATURE'S FIRE explores the remarkable life and career of BILL SHANKLY, the legendary Liverpool Football Club manager who came to leave such a legacy in his adopted home city. The film is a nostalgic journey into the origins of the world's favourite game, and how legends are born and transcend generations. Perhaps no one before or since has personified the spirit of the working class culture that gave birth to the modern game. Shankly's passion for football was boundless to the point of obsession. This unique feature length documentary is an exploration of the determination and commitment to community that emerged from Britain's industrial heartlands and manifested itself in this unstoppable game: creating a love affair still etched in the hearts of the generations that followed.","release_date":"2017-10-29"},{"vote_count":2,"id":188861,"video":false,"vote_average":3.5,"title":"The Fire Brigade","popularity":1.119114,"poster_path":"\/o9x3rJB1D7fOjE95i1fBg2KGFpI.jpg","original_language":"en","original_title":"The Fire Brigade","genre_ids":[18],"backdrop_path":null,"adult":false,"overview":"Terry O'Neill is the youngest of a family of Irish firefighters. He falls in love with Helen Corwin, but complications ensue when Terry learns that her father, a wealthy contractor, has cut costs by putting his buildings in danger of fire.","release_date":"1926-12-20"},{"vote_count":0,"id":267326,"video":false,"vote_average":0,"title":"Twixt Love and Fire","popularity":1.011766,"poster_path":null,"original_language":"en","original_title":"Twixt Love and Fire","genre_ids":[35],"backdrop_path":null,"adult":false,"overview":"Twixt Love and Fire is a 1914 movie starring Roscoe Arbuckle and Peggy Pearce.","release_date":"1914-02-23"},{"vote_count":1,"id":492259,"video":false,"vote_average":6,"title":"Faith Under Fire: The Antoinette Tuff Story","popularity":1.885399,"poster_path":"\/suXgcOJRb3ECDOaPFnnPF6cNEYd.jpg","original_language":"en","original_title":"Faith Under Fire: The Antoinette Tuff Story","genre_ids":[18],"backdrop_path":"\/p113WkkgSePnh9U3CwXjz11xl9L.jpg","adult":false,"overview":"On August 20, 2013, shortly after arriving to work at the Ronald E. McNair Discovery Learning Academy in Decatur, Georgia, Antoinette the school’s bookkeeper, was in the front office when Michael Hill, a young man with a history of mental illness, snuck in, armed with an AK-47 and hundreds of rounds of ammunition. As the school went into lockdown, Antoinette was left alone with Michael, who repeatedly threatened to kill everyone.","release_date":"2018-01-27"},{"vote_count":0,"id":413460,"video":false,"vote_average":0,"title":"Playing with Fire","popularity":1.1125,"poster_path":"\/9024lghm9lu1stxzHgK52Wx9VNR.jpg","original_language":"en","original_title":"Playing with Fire","genre_ids":[10770,80,18],"backdrop_path":null,"adult":false,"overview":"Gary Coleman stars as a teenage arsonist. The authorities, friends, and neighbors warn his absentee parents until it is too late.","release_date":"1985-04-13"},{"vote_count":0,"id":415910,"video":false,"vote_average":0,"title":"We Buy a Fire Truck","popularity":1.059296,"poster_path":"\/gGvxVReAZvnKE5WKoJqVoW1lXw7.jpg","original_language":"de","original_title":"Wir kaufen eine Feuerwehr","genre_ids":[12,10751],"backdrop_path":"\/mzoUC7DbDhmjSQvdKm3pV89LTsr.jpg","adult":false,"overview":"Little Matti and his friends are restoring the old abandoned fire truck .","release_date":"1970-12-13"}]}