{"page":2,"total_results":108,"total_pages":6,"results":[{"vote_count":356,"id":251519,"video":false,"vote_average":6.7,"title":"Son of Batman","popularity":7.658326,"poster_path":"\/j3SFJqZPeeB9g5JMU7UFLgEqj2T.jpg","original_language":"en","original_title":"Son of Batman","genre_ids":[16,28,12],"backdrop_path":"\/omK35Mr3oks6bd5efrgsO7CzmLP.jpg","adult":false,"overview":"Batman learns that he has a violent, unruly pre-teen son with Talia al Ghul named Damian Wayne who is secretly being raised by Ra's al Ghul and the League of Assassins. When Ra's al Ghul apparently dies after a battle with Deathstroke, Batman must work to stop his long-lost son from taking revenge and guiding him to a righteous path, in addition to the chance for the pair to truly acknowledging each other as family.","release_date":"2014-04-20"},{"vote_count":268,"id":321528,"video":false,"vote_average":6.8,"title":"Batman vs. Robin","popularity":6.451596,"poster_path":"\/6g7iQJAgyDn9mep98RXhLI64RcA.jpg","original_language":"en","original_title":"Batman vs. Robin","genre_ids":[28,12,16],"backdrop_path":"\/oERfMmGc1GJRnC8IuFUH7zpR5z5.jpg","adult":false,"overview":"Damian Wayne is having a hard time coping with his father's \"no killing\" rule. Meanwhile, Gotham is going through hell with threats such as the insane Dollmaker, and the secretive Court of Owls.","release_date":"2015-04-14"},{"vote_count":76,"id":20077,"video":false,"vote_average":6.6,"title":"The Batman vs. Dracula","popularity":6.297457,"poster_path":"\/vPr6t2stb4NJ54151ms5xu8bykP.jpg","original_language":"en","original_title":"The Batman vs. Dracula","genre_ids":[14,16,27,28,53,878],"backdrop_path":"\/4aAlheGhU4rkDE4gSjekBnRXdGL.jpg","adult":false,"overview":"Gotham City is terrorized not only by recent escapees Joker and Penguin, but by the original creature of the night, Dracula! Can Batman stop the ruthless vampire before he turns everyone in the city, including The Caped Crusader, Joker and Penguin, into his mindless minions?","release_date":"2005-10-18"},{"vote_count":568,"id":40662,"video":false,"vote_average":7.6,"title":"Batman: Under the Red Hood","popularity":10.559838,"poster_path":"\/78kjgspmLLOm2Glgpzqo9cS4GpI.jpg","original_language":"en","original_title":"Batman: Under the Red Hood","genre_ids":[28,16],"backdrop_path":"\/fJDOk1XtYxxX6OUEHohDPuKejXF.jpg","adult":false,"overview":"Batman faces his ultimate challenge as the mysterious Red Hood takes Gotham City by firestorm. One part vigilante, one part criminal kingpin, Red Hood begins cleaning up Gotham with the efficiency of Batman, but without following the same ethical code.","release_date":"2010-07-27"},{"vote_count":281,"id":14919,"video":false,"vote_average":7.4,"title":"Batman: Mask of the Phantasm","popularity":7.367829,"poster_path":"\/l4jaQjkgznu2Rz05X18f24UjPNW.jpg","original_language":"en","original_title":"Batman: Mask of the Phantasm","genre_ids":[28,12,16,10751],"backdrop_path":"\/jTwt4fcYADv758PVP6DH8ryy4R.jpg","adult":false,"overview":"An old flame of Bruce Wayne's strolls into town, re-heating up the romance between the two. At the same time, a mass murderer with an axe for one hand begins systematically eliminating Gotham's crime bosses. Due to the person's dark appearance, he is mistaken for Batman. Now on the run, Batman must solve the mystery and deal with the romance between him and Andrea Beaumont.","release_date":"1993-12-25"},{"vote_count":304,"id":69735,"video":false,"vote_average":7.2,"title":"Batman: Year One","popularity":6.985871,"poster_path":"\/bI1YVuhBN6Vws1GP9Mf01DyhC2s.jpg","original_language":"en","original_title":"Batman: Year One","genre_ids":[28,12,16,80,878],"backdrop_path":"\/hAhMOPPPxzCKsCu5rUMYdwS8Yb5.jpg","adult":false,"overview":"Two men come to Gotham City: Bruce Wayne after years abroad feeding his lifelong obsession for justice and Jim Gordon after being too honest a cop with the wrong people elsewhere. After learning painful lessons about the city's corruption on its streets and police department respectively, this pair learn how to fight back their own way. With that, Gotham's evildoers from top to bottom are terrorized by the mysterious Batman and the equally heroic Gordon is assigned to catch him by comrades who both hate and fear him themselves. In the ensuing manhunt, both find much in common as the seeds of an unexpected friendship are laid with additional friends and rivals helping to start the legend.","release_date":"2011-09-27"},{"vote_count":109,"id":21683,"video":false,"vote_average":6.6,"title":"Batman: Mystery of the Batwoman","popularity":10.159094,"poster_path":"\/3l2ArPFKXKQIwPOFm0keIkyjwqH.jpg","original_language":"en","original_title":"Batman: Mystery of the Batwoman","genre_ids":[12,14,16,28,878,10751],"backdrop_path":"\/l4FaAhS0fThHyBifKkPEJefhq0K.jpg","adult":false,"overview":"A new vigilante, Batwoman, is wreaking havoc in Gotham City. The dynamic duo must discover her true identity.","release_date":"2003-10-21"},{"vote_count":42,"id":264170,"video":false,"vote_average":7.3,"title":"Batman: Strange Days","popularity":4.13513,"poster_path":"\/qgsoPhctRPbP4UYYBDpjHmuXsYe.jpg","original_language":"en","original_title":"Batman: Strange Days","genre_ids":[28,16,10770],"backdrop_path":"\/yJZKSOEcENnu604lKnZUvHPcyae.jpg","adult":false,"overview":"Celebrating Batman’s 75th anniversary, DC Entertainment and Warner Bros. Animation have debuted this new animated short for the cultural icon.","release_date":"2014-04-09"},{"vote_count":49,"id":342917,"video":false,"vote_average":6,"title":"Batman Unlimited: Monster Mayhem","popularity":5.841688,"poster_path":"\/rr6uzCps5u8ZGfYc62XGrkHorqh.jpg","original_language":"en","original_title":"Batman Unlimited: Monster Mayhem","genre_ids":[28,16,10751],"backdrop_path":"\/p0bEm6cFEGN2PEKeiTdDJ6YxY7m.jpg","adult":false,"overview":"The Joker is aided in his Halloween quest to render modern technology useless and take over Gotham City by Solomon Grundy, Silver Banshee, Clayface and Scarecrow.","release_date":"2015-08-18"},{"vote_count":13,"id":125249,"video":false,"vote_average":6.6,"title":"The Bat Man","popularity":2.091038,"poster_path":"\/7wnRn8iQ0QInEK1CaZFqw1zPhht.jpg","original_language":"en","original_title":"The Bat Man","genre_ids":[28],"backdrop_path":"\/xEG5iP1qZCiDt4BefSpLy1d54zE.jpg","adult":false,"overview":"Japanese master spy Daka operates a covert espionage-sabotage organization located in Gotham City's now-deserted Little Tokyo, which turns American scientists into pliable zombies.","release_date":"1943-07-16"},{"vote_count":4,"id":414906,"video":false,"vote_average":10,"title":"The Batman","popularity":3.279535,"poster_path":"\/3t7QnmZSGk0c7K4b2mYKdCNj56y.jpg","original_language":"en","original_title":"The Batman","genre_ids":[28,12,18],"backdrop_path":"\/4Cp1zoZuXDXxIwzHbGnBJqrDvee.jpg","adult":false,"overview":"Batman's first stand-alone appearance in the DC Extended Universe.","release_date":""},{"vote_count":516,"id":142061,"video":false,"vote_average":7.9,"title":"Batman: The Dark Knight Returns, Part 2","popularity":13.705153,"poster_path":"\/wPeorCnD9MRR2S9Dzh4OpIgNLiv.jpg","original_language":"en","original_title":"Batman: The Dark Knight Returns, Part 2","genre_ids":[28,16],"backdrop_path":"\/ew0ouZ1MSxbNugPMgbOhuTrd3aA.jpg","adult":false,"overview":"Batman has stopped the reign of terror that The Mutants had cast upon his city.  Now an old foe wants a reunion and the government wants The Man of Steel to put a stop to Batman.","release_date":"2013-01-18"},{"vote_count":108,"id":15805,"video":false,"vote_average":7,"title":"Batman & Mr. Freeze: SubZero","popularity":8.449767,"poster_path":"\/6Leq7SqNEuCNVr3fiykDVWf6Z8g.jpg","original_language":"en","original_title":"Batman & Mr. Freeze: SubZero","genre_ids":[16,28,80],"backdrop_path":"\/yGipWTfWvrMR0sotpypKQeFUzIu.jpg","adult":false,"overview":"When a desperate Mr. Freeze, to save his dying wife, kidnaps Barbara (Batgirl) Gordon as an involuntary organ donor, Batman and Robin must find her before the operation can begin.","release_date":"1998-03-17"},{"vote_count":499,"id":123025,"video":false,"vote_average":7.7,"title":"Batman: The Dark Knight Returns, Part 1","popularity":13.457339,"poster_path":"\/mFPD2YsdaWAzjuxF7ItGmsEFpdY.jpg","original_language":"en","original_title":"Batman: The Dark Knight Returns, Part 1","genre_ids":[28,16],"backdrop_path":"\/a6pB1w4lwp0WeTRQk9Q2K1F9W34.jpg","adult":false,"overview":"Batman has not been seen for ten years. A new breed of criminal ravages Gotham City, forcing 55-year-old Bruce Wayne back into the cape and cowl. But, does he still have what it takes to fight crime in a new era?","release_date":"2012-09-06"},{"vote_count":52,"id":64202,"video":false,"vote_average":7.2,"title":"Batman Beyond: The Movie","popularity":4.338939,"poster_path":"\/7BCRuuuAVRzJbrm9IqvGaa12Lqo.jpg","original_language":"en","original_title":"Batman Beyond: The Movie","genre_ids":[16,28,10751],"backdrop_path":"\/qvHH190tlKmWH6uOz1cGpQnYY28.jpg","adult":false,"overview":"Fueled by remorse and vengeance, a high schooler named Terry McGinnis revives the role of Batman. Under supervision of an elderly Bruce Wayne, he fights crime in a harsh futuristic Gotham.","release_date":"1999-01-10"},{"vote_count":200,"id":16234,"video":false,"vote_average":7.5,"title":"Batman Beyond: Return of the Joker","popularity":8.332185,"poster_path":"\/vIRHN4AXaQM6mMVj8CozhtelYmF.jpg","original_language":"en","original_title":"Batman Beyond: Return of the Joker","genre_ids":[16,10751],"backdrop_path":"\/pZCuxgUsDICPDKIFH8s5nQGeL4r.jpg","adult":false,"overview":"The Joker is back with a vengeance, and Gotham's newest Dark Knight needs answers as he stands alone to face Gotham's most infamous Clown Prince of Crime.","release_date":"2000-12-12"},{"vote_count":16,"id":411802,"video":false,"vote_average":5.5,"title":"Batman Unlimited: Mechs vs. Mutants","popularity":3.976276,"poster_path":"\/bppmdOACqo9svFfZnITZAk3nAT3.jpg","original_language":"en","original_title":"Batman Unlimited: Mechs vs. Mutants","genre_ids":[16],"backdrop_path":"\/kXExQoACzWwvxnOvKAJnCFFYbhM.jpg","adult":false,"overview":"Mr. Freeze turns Killer Croc and Bane into super-sized monsters, and they bash their way through downtown Gotham until the Caped Crusader and his team of heroes join the fight in their giant robot mechs.","release_date":"2016-08-30"},{"vote_count":12,"id":287757,"video":true,"vote_average":5.8,"title":"Scooby-Doo Meets Batman","popularity":3.352021,"poster_path":"\/iT5DHxHRV1RfMHHn3ypUAzrNmlA.jpg","original_language":"en","original_title":"Scooby-Doo Meets Batman","genre_ids":[10751,16],"backdrop_path":"\/jjAKeRqbltIYZUgJOFSPPAXOZxy.jpg","adult":false,"overview":"Scooby-Doo Meets Batman is a video compilation from Warner Bros. Home Entertainment. It consists of two episodes from Hanna-Barbera's The New Scooby-Doo Movies, \"The Dynamic Scooby Doo Affair\" and \"The Caped Crusader Caper\", where Scooby-Doo and the gang team up with Batman and Robin to capture Joker and the Penguin.","release_date":"2002-08-20"},{"vote_count":62,"id":17074,"video":false,"vote_average":7.1,"title":"The Batman Superman Movie: World's Finest","popularity":5.433004,"poster_path":"\/dQxwNGQ6pQLCUE5vaI9PwIZK6UC.jpg","original_language":"en","original_title":"The Batman Superman Movie: World's Finest","genre_ids":[28,16],"backdrop_path":"\/rHf1RAbfdhHIMbwhU08A4Q7Kc6e.jpg","adult":false,"overview":"Joker goes to Metropolis with an offer and plan to kill Superman for Lex Luthor while Batman pursues the clown to Superman's turf","release_date":"1998-08-18"},{"vote_count":6,"id":93560,"video":false,"vote_average":6.2,"title":"Batman and Robin","popularity":1.790678,"poster_path":"\/mhlVDSkxiyVqHBK8bqwfgK2v3e.jpg","original_language":"en","original_title":"Batman and Robin","genre_ids":[28,878,53],"backdrop_path":"\/nLMZroK58XwdMei2hws4W9HEsML.jpg","adult":false,"overview":"This 15-chapter serial pits Batman and Robin against The Wizard, who uses a device that allows him to control machinery to hold the city hostage.","release_date":"1949-05-26"}]}