{"page":1,"total_results":1170,"total_pages":59,"results":[{"vote_count":22,"id":513,"video":false,"vote_average":6.3,"title":"Fire","popularity":6.426077,"poster_path":"\/7qjto5AAM71C1qUZ4PLgAYg33Cv.jpg","original_language":"en","original_title":"Fire","genre_ids":[18,10749],"backdrop_path":"\/2U3hyiVzzhYzS6j9fcdVW4mO4Uk.jpg","adult":false,"overview":"In a barren, arranged marriage to an amateur swami who seeks enlightenment through celibacy, Radha's life takes an irresistible turn when her beautiful young sister-in-law seeks to free herself from the confines of her own loveless marriage.","release_date":"1996-09-06"},{"vote_count":264,"id":139567,"video":false,"vote_average":5.6,"title":"Fire with Fire","popularity":9.220835,"poster_path":"\/2F0Y4l7uXIGfDMtfuq2k6b2744w.jpg","original_language":"en","original_title":"Fire with Fire","genre_ids":[28,80,18,53],"backdrop_path":"\/3oqNKnwfW1UKC5i8hnQz2fAGtGE.jpg","adult":false,"overview":"A fireman takes an unexpected course of action when a man whom he's been ordered to testify against – after being held up at a local convenience store – threatens him.","release_date":"2012-08-31"},{"vote_count":370,"id":334521,"video":false,"vote_average":6.3,"title":"Free Fire","popularity":10.33758,"poster_path":"\/cH7HT8MlNrRb1Tx3QD0Q3HC3pXN.jpg","original_language":"en","original_title":"Free Fire","genre_ids":[28,35,80,53],"backdrop_path":"\/le2X3o9uopj1jMcMKFDKQ7MdBxb.jpg","adult":false,"overview":"A crime drama set in 1970s Boston, about a gun sale which goes wrong.","release_date":"2017-03-31"},{"vote_count":1914,"id":9509,"video":false,"vote_average":7.3,"title":"Man on Fire","popularity":19.2038,"poster_path":"\/qAbRLPe8T7ehKzr1Tgo78T7ASrS.jpg","original_language":"en","original_title":"Man on Fire","genre_ids":[28,18,53,80],"backdrop_path":"\/2cBmeSLCyLqkn6YIERKdRUToqsa.jpg","adult":false,"overview":"Jaded ex-CIA operative John Creasy reluctantly accepts a job as the bodyguard for a 10-year-old girl in Mexico City. They clash at first, but eventually bond, and when she's kidnapped he's consumed by fury and will stop at nothing to save her life.","release_date":"2004-04-23"},{"vote_count":8084,"id":101299,"video":false,"vote_average":7.4,"title":"The Hunger Games: Catching Fire","popularity":25.606255,"poster_path":"\/Hn0KgefVEp0GkdTexS6gfKTMfi.jpg","original_language":"en","original_title":"The Hunger Games: Catching Fire","genre_ids":[12,28,878],"backdrop_path":"\/wRCPG1lsgfTFkWJ7G3eWgxCgv0C.jpg","adult":false,"overview":"Katniss Everdeen has returned home safe after winning the 74th Annual Hunger Games along with fellow tribute Peeta Mellark. Winning means that they must turn around and leave their family and close friends, embarking on a \"Victor's Tour\" of the districts. Along the way Katniss senses that a rebellion is simmering, but the Capitol is still very much in control as President Snow prepares the 75th Annual Hunger Games (The Quarter Quell) - a competition that could change Panem forever.","release_date":"2013-11-15"},{"vote_count":52,"id":13153,"video":false,"vote_average":6.2,"title":"Rapid Fire","popularity":6.754627,"poster_path":"\/qF6rSAI68MUawDHgot3k13Ok8UN.jpg","original_language":"en","original_title":"Rapid Fire","genre_ids":[28,53],"backdrop_path":"\/hLbJd0JjYQobeTITmg8lcJetkn8.jpg","adult":false,"overview":"College student Jake Lo is pursued by smugglers, mobsters and crooked federal agents after he witnesses a murder by a Mafia kingpin.","release_date":"1992-07-24"},{"vote_count":331,"id":218836,"video":false,"vote_average":5.9,"title":"Planes: Fire & Rescue","popularity":10.953357,"poster_path":"\/b5Xn7UQf7s6ZPsDTVT0NeLqiiHY.jpg","original_language":"en","original_title":"Planes: Fire & Rescue","genre_ids":[16,35,12,10751],"backdrop_path":"\/3MET6hEfk8n8i0KFRq9BHnJq7ju.jpg","adult":false,"overview":"When world-famous air racer Dusty learns that his engine is damaged and he may never race again, he must shift gears and is launched into the world of aerial firefighting. Dusty joins forces with veteran fire and rescue helicopter Blade Ranger and his team, a bunch of all-terrain vehicles known as The Smokejumpers. Together, the fearless team battles a massive wildfire, and Dusty learns what it takes to become a true hero.","release_date":"2014-07-17"},{"vote_count":46,"id":12503,"video":false,"vote_average":6.9,"title":"Under Fire","popularity":6.393076,"poster_path":"\/mvscM4MPbxTxfi66AwIYHfRY7PF.jpg","original_language":"en","original_title":"Under Fire","genre_ids":[10752,18],"backdrop_path":"\/qwnqjRNk3OSmN9sjCvkQWB6awQw.jpg","adult":false,"overview":"Three U.S. journalists (Nick Nolte, Joanna Cassidy, Gene Hackman) get too close to one another and their work in 1979 Nicaragua.","release_date":"1983-10-21"},{"vote_count":10,"id":85654,"video":false,"vote_average":5.2,"title":"Fire with Fire","popularity":4.582312,"poster_path":"\/9xGScuyP8cdc9sFjVW7jSR8AK91.jpg","original_language":"en","original_title":"Fire with Fire","genre_ids":[18,10749],"backdrop_path":"\/u2bBqW64FMSHjkMfW6QTx3bGdJl.jpg","adult":false,"overview":"A young woman from a Catholic school and a young man from a nearby prison camp fall in love and run away together to escape the law, the church and their parents.","release_date":"1986-05-09"},{"vote_count":825,"id":6278,"video":false,"vote_average":6,"title":"Reign of Fire","popularity":12.425276,"poster_path":"\/c9FlSkQ0EV2vzln4Bo5NCvzzxWm.jpg","original_language":"en","original_title":"Reign of Fire","genre_ids":[12,28,14],"backdrop_path":"\/1R7c18aWnoe0RUEcPnc23sIxeFg.jpg","adult":false,"overview":"In post-apocalyptic England, an American volunteer and a British survivor team up to fight off a brood of fire-breathing dragons seeking to return to global dominance after centuries of rest underground. The Brit -- leading a clan of survivors to hunt down the King of the Dragons -- has much at stake: His mother was killed by a dragon, but his love is still alive.","release_date":"2002-07-12"},{"vote_count":6,"id":291202,"video":false,"vote_average":4.3,"title":"Fire","popularity":1.49412,"poster_path":"\/lla5gfbhskXd3NebHOaRHk60zQy.jpg","original_language":"es","original_title":"Fuego","genre_ids":[53,18],"backdrop_path":"\/97aGpenyE1n31qhkPiYUGEdkBQO.jpg","adult":false,"overview":"One day, someone puts a bomb on Carlos car and kill his wife and leaves his daughter of 10 years old without legs. Eleven years later, he lives in Barcelona with his daughter but he never forgot the past, the hate, the suffering of that accident. Now he is planning his revenge.","release_date":"2014-11-28"},{"vote_count":47,"id":15035,"video":false,"vote_average":6.4,"title":"Fire and Ice","popularity":6.401663,"poster_path":"\/ikV5SBkSQ9svF82omB1DfghBMn2.jpg","original_language":"en","original_title":"Fire and Ice","genre_ids":[16,14,878],"backdrop_path":"\/7p52dQ8WLNTE0jwWLESwBTAmhwN.jpg","adult":false,"overview":"In this animated tale, a tiny village is destroyed by a surging glacier, which serves as the deadly domain for the evil Ice Lord, Nekron. The only survivor is a young warrior, Larn, who vows to avenge this act of destruction. The evil continues, however, as Nekron's palace of ice heads straight towards Fire Keep, the great fortress ruled by the good King Jarol. When Jarol's beautiful daughter, Teegra, is abducted by Nekron's sub-human ape-like creatures, Larn begins a daring search for her. What results is a tense battle between good and evil, surrounded by the mystical elements of the ancient past.","release_date":"1983-03-25"},{"vote_count":4,"id":41152,"video":false,"vote_average":2.8,"title":"Fire!","popularity":2.030715,"poster_path":"\/wOVyH42T8K3dPqp8KRnJR9ovvUV.jpg","original_language":"en","original_title":"Fire!","genre_ids":[12,28],"backdrop_path":"\/6xCVNRctOBmT3y1FFoXDHkEerC4.jpg","adult":false,"overview":"When a young musician and his wife become witness of a bank robbery they get in the midst of a political conspiracy with the risk of losing their lives.","release_date":"2008-11-06"},{"vote_count":41,"id":6470,"video":false,"vote_average":4.7,"title":"Fire Birds","popularity":5.536408,"poster_path":"\/gyCytQdWC4t4prSw967904a0I6l.jpg","original_language":"en","original_title":"Fire Birds","genre_ids":[28,12],"backdrop_path":"\/gfRsntRo6ajrRwvwB8ENXK9lo7e.jpg","adult":false,"overview":"A joint task force operation between the Drug Enforcement Administration and the U.S. Army has been formed to dismantle one of the largest drug cartels operating in South America. Multiple attempts to assault the cartel's mountainous compound have been thwarted by a Scorpion-attack helicopter piloted by a cartel leader, Eric Stoller (Bert Rhine). After having several aircraft shot down, most notably a pair of UH–60 Black Hawks and their AH–1 Cobra escorts, the army turns to the new AH–64 Apache attack helicopter, which can match its enemies' maneuverability and firepower.","release_date":"1990-05-25"},{"vote_count":105,"id":14289,"video":false,"vote_average":5,"title":"Fire Down Below","popularity":10.670038,"poster_path":"\/nflONy2WMEui7uCGCAtkD1r9vnl.jpg","original_language":"en","original_title":"Fire Down Below","genre_ids":[28,12,80,53],"backdrop_path":"\/llOhjFfc0rfHpKDIB0AuOVrjJ6.jpg","adult":false,"overview":"Martial arts star Steven Seagal stars in this action drama as Jack Taggart, an undercover agent working for the Environmental Protection Agency. When an EPA representative is murdered in a small Appalachian community, Taggart is sent in -- posing as a handyman working with a Christian relief agency -- to find out what happened.","release_date":"1997-09-05"},{"vote_count":0,"id":309874,"video":false,"vote_average":0,"title":"Fire","popularity":1.337919,"poster_path":"\/yVM2CtQq4bjJ7V56F4DNr34hheM.jpg","original_language":"ru","original_title":"Пламя","genre_ids":[10752,18],"backdrop_path":"\/ylxxPd4xVnCJDfT0vnoOzA8zlb2.jpg","adult":false,"overview":"A story about an events occurred in Belarus in 1944 during the WWII.","release_date":"1974-06-06"},{"vote_count":288,"id":10684,"video":false,"vote_average":6.3,"title":"Courage Under Fire","popularity":10.019036,"poster_path":"\/lPAzGRgc2afaGsYwFX7Iez8gzmq.jpg","original_language":"en","original_title":"Courage Under Fire","genre_ids":[18,53,9648,10752],"backdrop_path":"\/oplJNCsJhBPGhANhHp9uTpwWpx.jpg","adult":false,"overview":"A US Army officer had made a \"friendly fire\" mistake that was covered up and he was reassigned to a desk job. Later he was tasked to investigate a female chopper commander's worthiness to be awarded the Medal of Honor posthumously. At first all seemed in order then he begins to notice inconsistencies between the testimonies of the witnesses....","release_date":"1996-07-04"},{"vote_count":101,"id":11465,"video":false,"vote_average":6.2,"title":"Great Balls of Fire!","popularity":9.819848,"poster_path":"\/zx7HLHsov2mTFtMKaEIxChYjALs.jpg","original_language":"en","original_title":"Great Balls of Fire!","genre_ids":[18],"backdrop_path":"\/sMs3PITc2UefWGr3dQMq4znMHsf.jpg","adult":false,"overview":"The story of Jerry Lee Lewis, arguably the greatest and certainly one of the wildest musicians of the 1950s. His arrogance, remarkable talent, and unconventional lifestyle often brought him into conflict with others in the industry, and even earned him the scorn and condemnation of the public.","release_date":"1989-06-30"},{"vote_count":167,"id":11557,"video":false,"vote_average":6,"title":"St. Elmo's Fire","popularity":9.579705,"poster_path":"\/h1bsWIQedOvYQyLVNCzOHHMDxYG.jpg","original_language":"en","original_title":"St. Elmo's Fire","genre_ids":[18,10749],"backdrop_path":"\/gXlhTsdRd7Wpov398gfENK5WNmd.jpg","adult":false,"overview":"Seven friends - Alec, Billy, Jules, Kevin, Kirby, Leslie and Wendy - are trying to navigate through life and their friendships following college graduation. Alec, who aspires to political life, has just shown his true colors by changing his allegiance from Democrat to Republican, which freaks out girlfriend Leslie, who he wants to marry. Budding architect Leslie, on the other hand, has an independent streak. She believes she has to make a name for herself to find out who she is before she can truly commit to another person in marriage. But Leslie and Alec have decided to live together. Because Leslie refuses to marry Alec, he believes that justifies certain behavior. Kirby, who wants to become a lawyer and who pays for his schooling by working as a waiter at their local hangout called St. Elmo's Bar, and struggling writer Kevin are currently roommates. They are on opposite extremes of the romance spectrum.","release_date":"1985-06-20"},{"vote_count":129,"id":14746,"video":false,"vote_average":6.6,"title":"Streets of Fire","popularity":8.994089,"poster_path":"\/cbd7haj22LgogH8PycigSVmCNY7.jpg","original_language":"en","original_title":"Streets of Fire","genre_ids":[28,53,10402],"backdrop_path":"\/q1rKQK4Jyu8KPXrkiUjcAgv2rwM.jpg","adult":false,"overview":"Raven Shaddock and his gang of merciless biker friends kidnap rock singer Ellen Aim. Ellen's former lover, soldier-for-hire Tom Cody, happens to be passing through town on a visit. In an attempt to save his star act, Ellen's manager hires Tom to rescue her. Along with a former soldier, they battle through dangerous cityscapes, determined to get Ellen back.","release_date":"1984-06-01"}]}