{"page":46,"total_results":1170,"total_pages":59,"results":[{"vote_count":2,"id":376988,"video":false,"vote_average":7,"title":"Fireflies in the Abyss","popularity":1.091765,"poster_path":"\/nnm2dNqYDaC9RGZgecpP0ouoi9m.jpg","original_language":"en","original_title":"Fireflies in the Abyss","genre_ids":[],"backdrop_path":null,"adult":false,"overview":"In the Jaintia Hills of Northeast India, boys and men descend into the abyss of the 'rat-holes' to scratch coal out of hard rock, with nothing more than a pickaxe and a head-torch. One of them is Suraj, an 11-year old boy. Born in the mines to Nepali immigrants, Suraj cherishes the hope of getting out of the coal-pit someday. With his mother no more, an unsupportive father and no place he can call home, the odds are stacked against him. And yet, he battles to eventually put himself in school. The film follows Suraj through his tumultuous journey, while revealing startling stories and lives under unusual - perhaps extraordinary - circumstances.","release_date":"2015-10-05"},{"vote_count":5,"id":432636,"video":false,"vote_average":6.4,"title":"Fireman Sam Safety With Sam","popularity":1.358866,"poster_path":"\/6ilWPZLhFWmHWnUEsZTJ0OcyLty.jpg","original_language":"da","original_title":"Fireman Sam Safety With Sam","genre_ids":[10751,16],"backdrop_path":"\/nqOyYLXLPNoI4kJgFWeij0WuFOj.jpg","adult":false,"overview":"","release_date":"1978-11-01"},{"vote_count":1,"id":48914,"video":false,"vote_average":7,"title":"Radiant Fireplace 2","popularity":1.075117,"poster_path":"\/gw8ltRXp6RV1q8aOoC3k8tJIiWx.jpg","original_language":"en","original_title":"Radiant Fireplace 2","genre_ids":[],"backdrop_path":null,"adult":false,"overview":"Turn Your TV Into A Window To The World! Set the mood by turning any room in your home into a showcase of living art! Enjoy the glow of this Radiant Fireplace DVD with its life-like flames and real crackling sounds, as you sit back and relax. Turn your TV into a living fireplace without the expense and headache of tedious preparations and messy clean-up. Whether you are relaxing alone, entertaining one other person, or an entire party, your Living Art Radiant Fireplace is perfect for all occasions. All DVD videos are looped for continuous play and digitally mastered for your optimal viewing pleasure. Living Art is a proven method used to promote deep relaxation therapy and positive mood enhancement. Shot in high definition. Audio Options: Choose the Natural Sounds of the scene; many cuts of relaxing music, or both!","release_date":""},{"vote_count":0,"id":260960,"video":false,"vote_average":0,"title":"She Loved a Fireman","popularity":1.048433,"poster_path":"\/cEpMzOwDs6ynUeu7xrN8jGqdl8E.jpg","original_language":"en","original_title":"She Loved a Fireman","genre_ids":[18,28],"backdrop_path":null,"adult":false,"overview":"A young man with a checkered past struggles to make good as a fireman.","release_date":"1937-12-18"},{"vote_count":1,"id":302609,"video":true,"vote_average":10,"title":"Fireman Sam: Helicopter Heroes","popularity":1.045434,"poster_path":"\/eoKo0NAWhBZh7au7kf3MDuF1x4j.jpg","original_language":"en","original_title":"Fireman Sam: Helicopter Heroes","genre_ids":[],"backdrop_path":null,"adult":false,"overview":"It seems like everyone in Pontypandy is on a mission to cause mischief! Norman &amp; James go on some troublesome adventures flying a model plane, while Elvis is getting ready to become the next singing sensation and Trevor and Tom take part in a barbeque cook-off. Who will cook the most delicious dish? Find out with Fireman Sam™ as he tries to keep up with the whole town!","release_date":"2011-09-05"},{"vote_count":1,"id":283287,"video":true,"vote_average":2,"title":"Fireman Sam: Towering Inferno","popularity":1.044894,"poster_path":"\/ntF2wdNLDsWBALPvDTudfxDTxWq.jpg","original_language":"en","original_title":"Fireman Sam: Towering Inferno","genre_ids":[16],"backdrop_path":"\/1UIPTIoWPdzz4P0VoxOIxjiH8VT.jpg","adult":false,"overview":"When it comes to playing hide and seek in Pontypandy Norman really is the best! However, when he decides that he is going to hide at the top of the fire station training tower, he doesn t realise that a practice exercise is going to take place there later that afternoon! When the exercise quickly turns into a real rescue, Sam and the crew are on hand to leap into action and save Norman from the Towering Inferno. Includes five more adventures: 'Dinosaur Hunt', 'Floating Cart', 'Cry Wolf', 'Hot Air' and 'Sheep On The Road'.","release_date":"2011-07-04"},{"vote_count":1,"id":61713,"video":false,"vote_average":0.5,"title":"Inside The Firestorm","popularity":1.040056,"poster_path":"\/3x7fp6m1vo98r9W9cdifvz0DeA6.jpg","original_language":"en","original_title":"Inside The Firestorm","genre_ids":[99],"backdrop_path":"\/drVUhoqLWpkhVt4j0bhfcKVFyM6.jpg","adult":false,"overview":"The story of Australia’s worst peacetime disaster On 7th February 2009, Australia suffered its worst peacetime disaster ‘Black Saturday’ claimed 173 lives, left more than 7,000 homeless and destroyed close to half a million hectares of Victorian bushland","release_date":"2010-02-04"},{"vote_count":0,"id":425513,"video":false,"vote_average":0,"title":"The Fires, Howling","popularity":1.031766,"poster_path":"\/4LfzF7Oqa3oy6RFPnphmkucE9oQ.jpg","original_language":"en","original_title":"The Fires, Howling","genre_ids":[],"backdrop_path":null,"adult":false,"overview":"At the time of the fire's burning, a young man heads over the hills away.","release_date":"2014-09-20"},{"vote_count":0,"id":339698,"video":false,"vote_average":0,"title":"Escape from Firebase Kate","popularity":1.026244,"poster_path":null,"original_language":"en","original_title":"Escape from Firebase Kate","genre_ids":[],"backdrop_path":null,"adult":false,"overview":"The events of the film occur during the initial implementation of President Nixon's policy of Vietnamization, which called for US troops to turn over the war effort to the South Vietnamese Army. Caught in that transition, Firebase Kate receives no support from the South Vietnamese troops in the area, leaving them severely outmanned and outgunned, and in imminent danger of being overrun. Their only option is a desperate late night escape and evasion through a jungle filled with NVA soldiers.","release_date":"2015-04-13"},{"vote_count":0,"id":398441,"video":false,"vote_average":0,"title":"Fired on Mars","popularity":1.025883,"poster_path":"\/4JTgXHiWaQLWsBkHnomSmVOOyKB.jpg","original_language":"en","original_title":"Fired on Mars","genre_ids":[],"backdrop_path":null,"adult":false,"overview":"A man is fired from his job on mars.","release_date":"2016-03-15"},{"vote_count":0,"id":236196,"video":false,"vote_average":0,"title":"Porky the Fireman","popularity":1.025613,"poster_path":"\/pd0mM7IiFNnd1qIhxbnkpjCRVhb.jpg","original_language":"en","original_title":"Porky the Fireman","genre_ids":[16,35],"backdrop_path":null,"adult":false,"overview":"Fireman Porky and friends try to save a theatrical boarding house and its inhabitants from an inferno.","release_date":"1938-06-03"},{"vote_count":0,"id":359655,"video":false,"vote_average":0,"title":"9\/11 Firehouse","popularity":1.022611,"poster_path":"\/jG2kA4BQO6EqpDozw72CMwP0vga.jpg","original_language":"en","original_title":"9\/11 Firehouse","genre_ids":[],"backdrop_path":null,"adult":false,"overview":"Documentary film recounting the story of Ten House, the fire station right next to the World Trade Center, and the experiences of its firefighters on 9\/11","release_date":"2014-09-11"},{"vote_count":0,"id":345995,"video":false,"vote_average":0,"title":"Farewell to Fireplace","popularity":1.010589,"poster_path":"\/mCPSMdI29Y2wDcSxsrw9TsJAePg.jpg","original_language":"en","original_title":"Farewell to Fireplace","genre_ids":[],"backdrop_path":null,"adult":false,"overview":"The movie is based on Vladimir Mayakovsky’s script that was never filmed. The protagonist is a young Marxist artist leading a bohemian life. At a party he dies of an overdoes and is placed in a cryoreservoir. After 20 years he is transported to the Institute of Man and a decision is taken to resurrect him. But will the protagonist find a place for himself in a new ideal world?","release_date":"2013-06-30"},{"vote_count":0,"id":508698,"video":false,"vote_average":0,"title":"Firestarter 2: Rekindled","popularity":1.006621,"poster_path":"\/zyIovs7lME4jxM0qqTTevUypFjK.jpg","original_language":"en","original_title":"Firestarter 2: Rekindled","genre_ids":[878,53],"backdrop_path":null,"adult":false,"overview":"Charlie McGee is a young woman with the unwanted and often uncontrollable gift of pyrokinesis, lighting fires by mere thought. Charlie has been in hiding for nearly all her life from a top-secret government fringe group headed by the maniacal John Rainbird, who wants to find and use Charlie as the ultimate weapon of war. Vincent is a young private investigator unwittingly sent to look for Charlie, and eventually tries to help her escape from Rainbird, who has formed a group of young boys from other research projects - each with different special abilities - in a plot to take over the world.","release_date":"2002-03-10"},{"vote_count":0,"id":325829,"video":false,"vote_average":0,"title":"Fireman Save My Child","popularity":1.004859,"poster_path":null,"original_language":"en","original_title":"Fireman Save My Child","genre_ids":[],"backdrop_path":null,"adult":false,"overview":"Mutt and Jeff own and operate their own firehouse. Mutt believes where there's smoke, there's fire, which gets them into an early scrape. But they are called to an actual fire of a several storied residential building. A frantic woman asks them to save her baby who is located on the top floor of the burning building. Their first problem is how to get up to the top floor, which Jeff inadvertently figures out how to do. But other distractions plus trying to find the baby through the thick smoke may be obstacles in achieving their mission. But something that the woman doesn't tell them may be the biggest hurdle.","release_date":"1919-03-02"},{"vote_count":0,"id":493828,"video":false,"vote_average":0,"title":"Fireplace for Your Home","popularity":1.00475,"poster_path":"\/1YUoeCNlblVmv9FbiHiVefXpJK2.jpg","original_language":"en","original_title":"Fireplace for Your Home","genre_ids":[],"backdrop_path":"\/yd2MYEnvMeUhq1tbp1J7PVWt16v.jpg","adult":false,"overview":"Suitable for any time of the year, this installment of Fireplace For Your Home includes our famous old-fashioned, wood-burning fireplace without music.","release_date":"2008-12-31"},{"vote_count":0,"id":54886,"video":false,"vote_average":0,"title":"BluScenes: The Classic Fireplace","popularity":1.004706,"poster_path":"\/cciz8g7LZMdcjqalpXBRGJ4Z0bS.jpg","original_language":"en","original_title":"BluScenes: The Classic Fireplace","genre_ids":[99],"backdrop_path":"\/oT3TCdprjaxxqYJPDos5nT7HfqW.jpg","adult":false,"overview":"BluScenes The Classic Fireplace was shot with a RED One™ 4K camera and is the first and only Fireplace Blu-ray Disc to offer a true 1080p HD experience with 3 different sizes to fit your aesthetic needs, so that you can choose the shot that is most appropriate for the size of your screen. Select from 3 soothing ambient tracks in your choice of stereo, 5.1 Dolby Digital Surround, or 7.1 DTS-HD Master Audio. In addition to continuous playback, BluScenes Fireplace also includes a full fire and a special bonus Yule Log with beautiful ambient Christmas music digitally recorded in 5.1 and 7.1 Surround.","release_date":"2009-12-10"},{"vote_count":0,"id":121584,"video":false,"vote_average":0,"title":"Fireman Sam: On Stage","popularity":1.003533,"poster_path":"\/eN6XaELE8y9eiEZxWs1ZgUNZy7P.jpg","original_language":"en","original_title":"Fireman Sam: On Stage","genre_ids":[],"backdrop_path":"\/boPuv0kfvYhC5OcWKgUV6i40Ewr.jpg","adult":false,"overview":"Join Sam and the townspeople of Pontypandy as they take to the stage for this fantastic live show! Fun Day in Pontypandy is at risk when Fireman Sam tackles a flood at Dily's shop and then a fire! Not to mention getting pesky Norman out if trouble and catching Woolly.","release_date":"2008-07-28"},{"vote_count":0,"id":174881,"video":false,"vote_average":0,"title":"Fireman Save My Child","popularity":1.003263,"poster_path":null,"original_language":"en","original_title":"Fireman Save My Child","genre_ids":[35],"backdrop_path":null,"adult":false,"overview":"In this popular two reeler where Harold Lloyd runs to the rescue of a woman on a fire engine, he is seen hanging on the moving vehicle by the released water hose that forces him closer to the ground.","release_date":"1918-05-25"},{"vote_count":0,"id":495172,"video":false,"vote_average":0,"title":"Cops: Shots Fired","popularity":1.002494,"poster_path":"\/qBa7RP8EYoYlRHxkA2lr8waB2ik.jpg","original_language":"en","original_title":"Cops: Shots Fired","genre_ids":[80],"backdrop_path":null,"adult":false,"overview":"From the producers of the hit Fox TV Series COPS comes a frightening collection of criminal confrontations where the bullets fly and the danger never ends. You'll ride shotgun as law enforcement officers cruising the mean streets of America come up against violent suspects that refuse to give up without a fight. This is death-defying, adrenaline-charged action you have to see to believe. SHOTS FIRED is gritty, graphic, raw and real!","release_date":"2004-03-23"}]}