{"page":12,"total_results":1170,"total_pages":59,"results":[{"vote_count":0,"id":228661,"video":false,"vote_average":0,"title":"Fire Away","popularity":1.008959,"poster_path":null,"original_language":"en","original_title":"Fire Away","genre_ids":[],"backdrop_path":null,"adult":false,"overview":"Nominally about attempts to steal a gold mine, the movie starts out with the air of a realistic comedy, then immediately descends into a series of perfectly timed gags which made me goggle at their improbability -- not the sort of thing you normally think of in a slapstick comedy. Very quickly the unerring ability of ropes to loop themselves around tree roots, stopping Al from plummeting to his death or an explosion to drop him on a bull came to make me goggle again.","release_date":"1925-11-08"},{"vote_count":0,"id":313712,"video":false,"vote_average":0,"title":"Fire Dance","popularity":1.008745,"poster_path":"\/dxteYbVMkmba4v4p75lQgLVbK7p.jpg","original_language":"en","original_title":"Fire Dance","genre_ids":[],"backdrop_path":"\/8Yw0FTFqrxCzWmECqAbhETMCHQt.jpg","adult":false,"overview":"Fire poi in elegant slow motion.","release_date":"2012-07-26"},{"vote_count":2,"id":136751,"video":false,"vote_average":6.5,"title":"Where the Fire Burns","popularity":1.117408,"poster_path":"\/rTWedcUxrpyF4nQZPAdvpL2OTRk.jpg","original_language":"tr","original_title":"Ateşin Düştüğü Yer","genre_ids":[],"backdrop_path":"\/qfNnyABNCIVCYg2eQtQtNUOI1MK.jpg","adult":false,"overview":"Where the Fire Burns is a road story. Ayse who unexpectedly gets sick is taken for an operation urgently. Her family shows a great solidarity for this operation  to happen. During the operation, it is found out that the girl is fourteen weeks pregnant. After the successful operation Ayse doesn’t tell who the father of her  baby is. The family who tried to ‘‘keep her alive” is now trying to ‘‘kill” her. Osman the father who takes the responsibility to kill her takes a trip with Ayse. While Osman is trying to find a way to poison his daughter, Ayse doesn’t know that she will be killed. This trip of father and daughter continues on getting to know each other and emotion of regret.","release_date":"2012-04-01"},{"vote_count":0,"id":188277,"video":false,"vote_average":0,"title":"The Fire","popularity":1.007059,"poster_path":null,"original_language":"en","original_title":"The Fire","genre_ids":[16],"backdrop_path":null,"adult":false,"overview":"What happens in the flames of a fire.","release_date":"2012-01-01"},{"vote_count":0,"id":86437,"video":false,"vote_average":0,"title":"Fire Water","popularity":1.00631,"poster_path":"\/ybhpyqqwLhosoDQlbnfIArVBqEA.jpg","original_language":"en","original_title":"Fire Water","genre_ids":[99],"backdrop_path":"\/uBB2WaD8sgIFC7LF6pOQRx79Bnf.jpg","adult":false,"overview":"Fire Water: Australiaʼs Industrial Fluoridation Disgrace gives a voice to those seldom heard – Australians who know the truth about mandatory water fluoridation and refuse to remain silent. With Australian authorities rapidly moving to fluoridate all remaining areas of the country, the timing of this film could not be more pertinent. It is urgent that the Australian people have the opportunity to hear these viewpoints.","release_date":"2011-02-12"},{"vote_count":0,"id":137740,"video":false,"vote_average":0,"title":"Magic Fire","popularity":1.006084,"poster_path":"\/y6MhHsoRFcl6SPR1LE08tYF6I1T.jpg","original_language":"en","original_title":"Magic Fire","genre_ids":[18,10749],"backdrop_path":"\/5vfjNxcV3mbHhzIJd77L8tAGMke.jpg","adult":false,"overview":"Director William Dieterle's 1956 film biography of classical composer Richard Wagner stars Carlos Thompson, Yvonne De Carlo, Rita Gam, Alan Badel and Valentina Cortese.","release_date":"1955-06-30"},{"vote_count":0,"id":311827,"video":false,"vote_average":0,"title":"Fire Creek","popularity":1.004945,"poster_path":"\/oXGKWhpFNeOFY9iZeRC6vmbrNvi.jpg","original_language":"en","original_title":"Fire Creek","genre_ids":[],"backdrop_path":null,"adult":false,"overview":"Spared by a God he didn't believe in, Jason Malek (Seth Packard) survives a sniper attack while serving as a soldier in Afghanistan. However, his best friend, a devoted husband, father and Christian is killed just inches from him.  Critically wounded but alive, Jason returns home to Utah carrying shrapnel wounds in his legs and the age-old question, \"Why do bad things happen to good people?\" Now, searching for his purpose, the former soldier adjusts to his new day-to-day life and does his best to improve the lives of those who surround him.","release_date":"2006-05-08"},{"vote_count":0,"id":166292,"video":false,"vote_average":0,"title":"Fire Bugs","popularity":1.004928,"poster_path":null,"original_language":"en","original_title":"Fire Bugs","genre_ids":[],"backdrop_path":null,"adult":false,"overview":"Bimbo has problems trying to put out a fire that's burning a building to a crisp.","release_date":"1930-05-08"},{"vote_count":0,"id":67629,"video":false,"vote_average":0,"title":"Holiday Fire","popularity":1.004721,"poster_path":"\/9PXBW0Pa1cMZEkfRmgZqeAX8RrT.jpg","original_language":"en","original_title":"Holiday Fire","genre_ids":[],"backdrop_path":"\/uWO9jEZCcdqbCieYbzfQ9roCCqt.jpg","adult":false,"overview":"Come in from the cold &amp; experience the warmth &amp; comfort of a fireplace on your very own tv. This lets you enjoy a crackling fire without the hassle of smoke or soot. Includes 10 holiday carols.","release_date":"2008-11-04"},{"vote_count":1,"id":312218,"video":false,"vote_average":3,"title":"Allegro with Fire","popularity":1.113249,"poster_path":"\/j513m1yCrEje2PElLEy1E4FkvCw.jpg","original_language":"ru","original_title":"Аллегро с огнем","genre_ids":[12,18,10752],"backdrop_path":"\/fy7cZQ0P5ryOsvVqkSV3RlsmwWX.jpg","adult":false,"overview":"A heroic story about Soviet sailors fighting Nazis during WWII.","release_date":"1979-12-20"},{"vote_count":1,"id":20018,"video":false,"vote_average":4,"title":"Father of Four: Home Field Advantage","popularity":1.874579,"poster_path":"\/WuHLpogh9xf4Pyt8M5X8Fk45Xz.jpg","original_language":"da","original_title":"Far til fire - på hjemmebane","genre_ids":[35,10751],"backdrop_path":"\/uFiwIna91rpSP65Io9lImVe0xus.jpg","adult":false,"overview":"No overview found.","release_date":"2008-10-03"},{"vote_count":0,"id":344427,"video":false,"vote_average":0,"title":"Back Fire","popularity":1.004526,"poster_path":null,"original_language":"en","original_title":"Back Fire","genre_ids":[],"backdrop_path":null,"adult":false,"overview":"Fat, Fatty and Fatter are seen rescuing their old Ford from the scrap wagon that is hauling it away. And then report to work, where they have a dyspeptic boss. With the help of a monkey they manage to wreck the office.","release_date":"1926-08-07"},{"vote_count":0,"id":267899,"video":false,"vote_average":0,"title":"The Unforgettable Fire","popularity":1.112715,"poster_path":"\/2yOUQNfIcyC14JKPwHZA5WZMuOt.jpg","original_language":"en","original_title":"El fuego inolvidable","genre_ids":[],"backdrop_path":null,"adult":false,"overview":"Tells the story of a young student and his spanish journalist  friend who, after being victims of violence, they decide to act and organize a movement through Mexico's internet, but this is mistaken for a terrorist organization.","release_date":"2013-10-04"},{"vote_count":0,"id":149711,"video":false,"vote_average":0,"title":"Wild Fire","popularity":1.003546,"poster_path":"\/oZxnVFAP94qVgXnECp3iNJsq47R.jpg","original_language":"en","original_title":"Wild Fire","genre_ids":[],"backdrop_path":null,"adult":false,"overview":"Dream Town Development real estate bosses Jack Del Rio and Sy Richards can't convince animal lover Carol Tanner to sell and relocate safari\/animal retirement ranch Wild Land, which she runs with younger sister Ballad since their parents died in a plane crash. Jack hires Bradshaw and Roach to release tiger Caesar, after that fails to cause a scandal to start a forest fire and release all animals, after tying up Carol. Ballad's lover, committed Glendora, southern California fire captain Kennedy, and his jumper team try their best to control the fire. Meanwhile young sheriff Drake Donovan and Ballad drug and catch wild animals. The arson is discovered, but the fiends aren't done yet.","release_date":"2005-01-01"},{"vote_count":0,"id":452907,"video":false,"vote_average":0,"title":"Fire Ball","popularity":1.002354,"poster_path":"\/v8GYkxzIIMoyNeqQt0mzg1YDTCr.jpg","original_language":"en","original_title":"Fire Ball","genre_ids":[14,16,12],"backdrop_path":null,"adult":false,"overview":"Fire Ball is a 2005 Taiwanese animated feature film made by Wang Film Productions and directed by Wong Tung.","release_date":"2005-06-01"},{"vote_count":0,"id":179451,"video":false,"vote_average":0,"title":"Ambient Fire","popularity":1.002353,"poster_path":null,"original_language":"en","original_title":"Ambient Fire","genre_ids":[],"backdrop_path":null,"adult":false,"overview":"Shot in HD! Look, but don’t touch.  Yes, the warmth and beauty of a wood-burning fireplace is mesmerizing. But, all fires and fireplaces are not created equal which is evident from Ambient Fire: The Ultimate Video Fireplace DVD. Visually, the DVD leaves nothing to be desired. It looks spectacular.","release_date":"2005-10-25"},{"vote_count":0,"id":513032,"video":false,"vote_average":0,"title":"Friendly Fire","popularity":1.002353,"poster_path":"\/x4RXC9W0icXstIB3ZKcTJuQmDA9.jpg","original_language":"en","original_title":"Friendly Fire","genre_ids":[99],"backdrop_path":"\/n1dSEa6XC4JDmUsyS2RXvF2GXJ0.jpg","adult":false,"overview":"Stockholm, Sweden is the spot, and you will see the usual suspects doing Trains, Backjumps, Wholecars, Panels, Insides & more of that. The action neavau is high and lots of ill and fresh fatcap styles. Sweden kicks ass again with these: WUFC, SDK, Y2K, MOA, ViM, FUPS, AE, FAME, HiT. Almost 70 minutes of great live actions and rolling trains.","release_date":"2005-06-30"},{"vote_count":0,"id":236541,"video":false,"vote_average":0,"title":"Fire Cheese","popularity":1.001382,"poster_path":"\/MhtTkqfq7uxnTRDrxwmlYr9czZ.jpg","original_language":"en","original_title":"Fire Cheese","genre_ids":[],"backdrop_path":null,"adult":false,"overview":"Gabby makes good on his pledge to 'be helpful' by assisting the local fire department while they put out a fire. When the chief incapacitates himself by getting Gabby's hat stuck over his head, Gabby takes charge with with disastrous consequences.","release_date":"1941-06-19"},{"vote_count":0,"id":364817,"video":false,"vote_average":0,"title":"Cross Fire","popularity":1.001368,"poster_path":null,"original_language":"en","original_title":"Cross Fire","genre_ids":[],"backdrop_path":null,"adult":false,"overview":"A returning war veteran discovers his mining business is now being run by corrupt businessmen.","release_date":"1933-06-30"},{"vote_count":3,"id":64563,"video":false,"vote_average":5.3,"title":"Roaring Fire","popularity":1.109438,"poster_path":"\/5xGg2Z606juzeTkYRmwNMjbQLiY.jpg","original_language":"ja","original_title":"Hoero tekken","genre_ids":[28,80,18],"backdrop_path":null,"adult":false,"overview":"On his death bed the man who raised Joji reveals that he is not his real father and that Joji’s real parents died tragically in a plane crash. Shortly thereafter Joji goes to Japan is search of his sister and his twin brother Toru. Joji’s quickly finds his sister Chihiro who is now blind and lives with their uncle. Joji one evening accidently over hears his uncle who has ties to the criminal underworld discussing his various illegal operations. Joji ‘s eavesdropping is discovered by his uncle who offers him a chance to join the organization. Joji promptly turns his uncle’s offer down which immediately puts his life in danger.","release_date":"1982-05-22"}]}