{"page":27,"total_results":1170,"total_pages":59,"results":[{"vote_count":22,"id":39195,"video":false,"vote_average":4.3,"title":"Spontaneous Combustion","popularity":2.44794,"poster_path":"\/nDeFNWYAN5SZOEWGlqywVmfxwIT.jpg","original_language":"en","original_title":"Spontaneous Combustion","genre_ids":[18,27,878,53],"backdrop_path":"\/bYnj2ndG4Pbjhc07CqUoPAk6Ls8.jpg","adult":false,"overview":"A young man finds out that his parents had been used in an atomic-weapons experiment shortly before he was born, and that the results have had some unexpected effects on him.","release_date":"1990-02-23"},{"vote_count":9,"id":243238,"video":false,"vote_average":6.7,"title":"The Fire Rises: The Creation and Impact of The Dark Knight Trilogy","popularity":3.060944,"poster_path":"\/kVlpamukelm5HkZES50b6F61UfX.jpg","original_language":"en","original_title":"The Fire Rises: The Creation and Impact of The Dark Knight Trilogy","genre_ids":[99],"backdrop_path":null,"adult":false,"overview":"This feature-length documentary delves into the trilogy, opening with the inspiration and vision for the new Batman films and inching its way toward the Rises finale and the culmination of nearly a decade of creative blood, sweat and tears. Candid, thoughtful and extensive, and comprised of revealing behind-the-scenes footage, countless interviews, audition tapes (with Christian Bale and Cillian Murphy doning the cape and cowl), and a narrative grip and momentum all its own, it leaves no stone unturned.","release_date":"2013-09-24"},{"vote_count":2,"id":38851,"video":false,"vote_average":4,"title":"Father of Four: In Japanese Mode","popularity":1.122634,"poster_path":"\/oDoh1dJ6bhaKJasTuaP7WgCEAAL.jpg","original_language":"da","original_title":"Far til fire - på japansk","genre_ids":[35,10751],"backdrop_path":"\/56ZGDDShtamjEGAxv65f5DE4xzq.jpg","adult":false,"overview":"When a Japanese family moves in next door, Per and Shin, the same age, instantly become friends. But after the boys cut school, each set of parents' blames the other, causing a rift between neighbors. What will it take for the two families to reconcile their differences?","release_date":"2010-02-04"},{"vote_count":2,"id":35397,"video":false,"vote_average":5.3,"title":"Sands of Fire - Part One","popularity":1.158918,"poster_path":"\/akB1mGk83b41GwQTNz72qnzKCZn.jpg","original_language":"en","original_title":"Sands of Fire - Part One","genre_ids":[16,10752],"backdrop_path":"\/ahzAQLCVWUWx0turinSzG2mkr1O.jpg","adult":false,"overview":"Coalition Forces are at war in Iraq. On March 31, 2004, a group of American soldiers are sent to the City of Fallujah. After a fierce attack from Iraqi insurgents, one soldier is captured and held hostage. As a response to this horrific event, the US military sends in American troops to rescue him. But will they arrive in time, can he survive?","release_date":"2010-03-28"},{"vote_count":1,"id":416650,"video":false,"vote_average":5,"title":"Leehom Wang's Open Fire Concert Film","popularity":1.102258,"poster_path":"\/tDRObOa4PjHv7Si7SMUwtYHGFPU.jpg","original_language":"zh","original_title":"王力宏火力全開演唱會電影","genre_ids":[10402],"backdrop_path":null,"adult":false,"overview":"Chinese-American pop sensation Leehom Wang performs two sold-out shows at Beijing's Bird's Nest stadium, in this electrifying concert documentary experience.","release_date":"2016-09-15"},{"vote_count":1,"id":386510,"video":false,"vote_average":6.5,"title":"Let's Rap Fire Safety","popularity":1.145804,"poster_path":"\/pEsMsj7VC8sOAerNNxT8X3JhnEf.jpg","original_language":"en","original_title":"Let's Rap Fire Safety","genre_ids":[],"backdrop_path":null,"adult":false,"overview":"An educational video about fire safty","release_date":"2000-03-09"},{"vote_count":1,"id":419219,"video":true,"vote_average":6,"title":"Dan and Phil's The Amazing Tour is Not on Fire","popularity":1.904057,"poster_path":"\/hQ59VpFshNDq0aj3E2q3eZSXlsx.jpg","original_language":"en","original_title":"Dan and Phil's The Amazing Tour is Not on Fire","genre_ids":[35,99],"backdrop_path":"\/tOKKvhngewJ8oB6kOPTqDqjUAIG.jpg","adult":false,"overview":"Dan and Phil’s stage show \"The Amazing Tour Is Not On Fire\" comes to YouTube as a live performance movie on October 5th!  Inspired by the best of their videos, live and interactive with a real audience—along with some surprises you’ll never see coming.","release_date":"2016-10-05"},{"vote_count":2,"id":65388,"video":false,"vote_average":5.3,"title":"Volcano: Fire on the Mountain","popularity":1.123405,"poster_path":"\/tjWsAqVaEbSOhg1LkIlvudzek7t.jpg","original_language":"en","original_title":"Volcano: Fire on the Mountain","genre_ids":[18,28],"backdrop_path":"\/sz7Kw1vdX3PKYjUM7PddPJQ8pRq.jpg","adult":false,"overview":"Angel Falls is een groot vakantieoord, waar dichtbij in de buurt een vulkaan op het punt staat om uit te barsten. Vulkaanwetenschapper Peter Slater moet zijn baas en de bevolking zien te overtuigen van het gevaar en de evacuatie beginnen voor er doden vallen.","release_date":"1997-02-23"},{"vote_count":5,"id":68478,"video":false,"vote_average":6.6,"title":"Ring of Fire III: Lion Strike","popularity":1.4727,"poster_path":"\/3McZ3lnY2xTftpQy28i5Mh4rfX5.jpg","original_language":"en","original_title":"Ring of Fire III: Lion Strike","genre_ids":[28],"backdrop_path":"\/uOSlC7fnbABeJXSfE9x8PdtmyTK.jpg","adult":false,"overview":"Dr. Johnny Wu becomes involved in a global Mafia arms cartel when they kidnap his son Bobby. The cartel, made-up of underworld leaders from around the world, become aware that he stumbled onto valuable information on a computer disk he possesses. Louie and his Russian counterpart Vladimir Kruskev use every bit of their cunning to trap Johnny and retrieve the disk.","release_date":"1995-02-08"},{"vote_count":0,"id":203802,"video":false,"vote_average":0,"title":"Assaulted: Civil Rights Under Fire","popularity":1.119339,"poster_path":"\/6lCysw02AwNqorChnr9OugCLdyb.jpg","original_language":"en","original_title":"Assaulted: Civil Rights Under Fire","genre_ids":[99],"backdrop_path":null,"adult":false,"overview":"With the original intention of empowering a citizenry's ability to defend themselves against a corrupt or tyrannical government, the concept today may seem farfetched or the makings of a Hollywood blockbuster. However, it has happened throughout U.S. history. And long before gun control was positioned as a \"common sense measure\" to combat violence, it was used as a means to oppress certain minority groups. Presently, the growing trend in gun control favors the wealthy and privileged, who leverage their connections to ensure their Second Amendment rights and safety, while those of lesser means struggle. Informative and emotionally charged, \"Assaulted: Civil Rights Under Fire\" is an eye-opening look at the genesis of the Second Amendment to the Constitution, leading the audience to rethink the issues surrounding gun control, and the effect on civil rights and liberty. After all, what you don't know can kill you.","release_date":"2013-06-20"},{"vote_count":1,"id":259883,"video":false,"vote_average":8,"title":"Rivers of Fire and Ice","popularity":1.090968,"poster_path":"\/xgqdupWXk8BTX8lEicIgefNqnBY.jpg","original_language":"en","original_title":"Rivers of Fire and Ice","genre_ids":[99],"backdrop_path":null,"adult":false,"overview":"A Wildlife Safari through Africa.","release_date":"1968-11-27"},{"vote_count":3,"id":195091,"video":false,"vote_average":6.3,"title":"Buffalo Fire Department in Action","popularity":1.10708,"poster_path":null,"original_language":"en","original_title":"Buffalo Fire Department in Action","genre_ids":[99],"backdrop_path":null,"adult":false,"overview":"Ten horse-drawn pieces of equipment of the Buffalo Fire Department pass by a stationary camera that looks down a broad avenue as they come toward it...","release_date":"1897-10-20"},{"vote_count":75,"id":36728,"video":false,"vote_average":7,"title":"Naruto Shippuden the Movie: Inheritors of the Will of Fire","popularity":6.738218,"poster_path":"\/pZzdFmztwmg0FUOVCMa7vReHhQN.jpg","original_language":"ja","original_title":"劇場版 NARUTO -ナルト- 疾風伝 火の意志を継ぐ者","genre_ids":[28,12,35,18,14,16],"backdrop_path":"\/l8ivXkgpI8tQUwvPuSojo2ySrRI.jpg","adult":false,"overview":"Ninjas with bloodline limits begin disappearing in all the countries and blame points toward the fire nation. By Tsunade's order, Kakashi is sacrificed to prevent an all out war. After inheriting charms left by Kakashi, Naruto fights through friends and foes to prevent his death while changing the minds of those who've inherited the will of fire.","release_date":"2009-08-01"},{"vote_count":2,"id":46871,"video":false,"vote_average":7,"title":"Eve and the Fire Horse","popularity":1.078701,"poster_path":"\/ubDGKtkVfvcoetiKeUS5BrhEGQa.jpg","original_language":"en","original_title":"Eve and the Fire Horse","genre_ids":[18],"backdrop_path":"\/yJJhahKhi9K1eeMaBFEexvRt73z.jpg","adult":false,"overview":"Eve is a precocious nine year-old girl with a wild imagination growing up in a traditional Chinese immigrant family in Vancouver where Confucian doctrines, superstitious obsessions and divine visions abound. When Buddhism and Catholicism are thrown into the mix, life for Eve and her 11-year-old prim and authoritative sister, Karena, escalates into a fantasia of catastrophe, sainthood and cultural confusion. The journey of a young girl and her sister striving to grow up in world where childhood is lonely and the world is full of wonder.","release_date":"2005-09-09"},{"vote_count":1,"id":332614,"video":false,"vote_average":5,"title":"Pilchuck: A Dance with Fire","popularity":1.092356,"poster_path":"\/pLpjXsrGsVeQt43mwzMtkjpNXo7.jpg","original_language":"en","original_title":"Pilchuck: A Dance with Fire","genre_ids":[36,99],"backdrop_path":null,"adult":false,"overview":"The Pilchuck Glass School outside Seattle has been going for 43 years. Started by Dale Chihuly, when glass in America was at its infancy. This school is responsible for making the US Studio Glass movement what it is today. It's an international institution now, bringing students from all over the world. It started in 1971, during the peace movements, Flower Power and war in Vietnam This documentary tells the story of it's beginnings, and how it's now made the Pacific NW, the largest glass art center in the world.","release_date":"2015-03-28"},{"vote_count":1,"id":206091,"video":false,"vote_average":6.5,"title":"The Fire in the Stone","popularity":1.091283,"poster_path":"\/1HLoEdkfmspa4hRiib6K5pY3Srk.jpg","original_language":"en","original_title":"The Fire in the Stone","genre_ids":[18,10751],"backdrop_path":null,"adult":false,"overview":"Teenager Ernie lives with his alcoholic father in the harsh and lawless opal fields of Coober Pedy in outback South Australia. When his cache of precious opals is stolen, Ernie and his best friend are determined to find the thief.","release_date":"1984-09-17"},{"vote_count":1,"id":202343,"video":false,"vote_average":5,"title":"Songs of the Years of Fire","popularity":1.073328,"poster_path":"\/tfpDZNGguwpqdoFozT06wpnDSgs.jpg","original_language":"ru","original_title":"Pesni ognennykh let","genre_ids":[],"backdrop_path":null,"adult":false,"overview":"An abstract color celebration of Soviet perseverance under fire (the literal firepower of foreign and capitalist warmongers), this lyrical animated short aims to capture Mother Russia's essence like lightning in a bottle. There's a spaghetti western vibe at times to the striking silhouette imagery here. Florid patriotic folk songs on the soundtrack are often depicted line-for-line in the gorgeous animation. - Dennis Harvey","release_date":"1971-06-18"},{"vote_count":1,"id":62942,"video":false,"vote_average":10,"title":"The Doors - Dance On Fire","popularity":1.063148,"poster_path":"\/mM3nBT7KZOWfsCB7D3Dq4B7JLM6.jpg","original_language":"en","original_title":"The Doors - Dance On Fire","genre_ids":[],"backdrop_path":"\/3FXcezLW7Bj1YS5N3njGciLmzSs.jpg","adult":false,"overview":"A combination of concert footage, television appearances, record company promo clips and new video footage shows the Doors, a top '60s rock band.","release_date":"1985-01-01"},{"vote_count":0,"id":514907,"video":false,"vote_average":0,"title":"A Fire In The Rain","popularity":1.078418,"poster_path":"\/Af7BrQu2mXKzh2CQU6DF126TzwA.jpg","original_language":"en","original_title":"A Fire In The Rain","genre_ids":[18],"backdrop_path":"\/2Mdk5DB3Q8MndXAdaufoY3Ze6dg.jpg","adult":false,"overview":"A young couple is forced to confront their demons when their only daughter is given weeks to live.","release_date":"2017-04-12"},{"vote_count":0,"id":450114,"video":false,"vote_average":0,"title":"For Those Who Want to Fire","popularity":1.056647,"poster_path":null,"original_language":"en","original_title":"For Those Who Want to Fire","genre_ids":[],"backdrop_path":null,"adult":false,"overview":"Striving for, fending for yourself. The dignity of struggling on, dealing with life. A story of hard work and arduos life in the shade of the largest open-air market in Europe.","release_date":"2017-04-26"}]}