{"page":39,"total_results":1170,"total_pages":59,"results":[{"vote_count":1,"id":361122,"video":false,"vote_average":5,"title":"Legend of a Rabbit: The Martial of Fire","popularity":1.424247,"poster_path":"\/uobS14FlWYNeJIYmadQ3aRKy6BS.jpg","original_language":"zh","original_title":"兔侠之青黎传说","genre_ids":[],"backdrop_path":"\/eWUgysY7Kfqk5HZfYAXj8aIdLus.jpg","adult":false,"overview":"Tu the Rabbit must regain his lost Kung Fu that was bestowed by the Master, and with his heroic friends, take on an evil lord that is terrorizing the people with the secret of “Martial of Fire”.","release_date":"2015-02-21"},{"vote_count":3,"id":171002,"video":false,"vote_average":5.8,"title":"Fireback","popularity":1.957618,"poster_path":"\/4aQzTcUeC7wMaH1xHtfoEGRDWQq.jpg","original_language":"en","original_title":"Fireback","genre_ids":[28],"backdrop_path":"\/rEVl333nXqnHV3K88PNGL2txKn2.jpg","adult":false,"overview":"Jack Kaplan is a US Army Soldier and Weapons Expert liberated by a \"rescue team\", he returns home to the United States only to find out that his wife Diane has been captured by infatuated gangster Duffy Collins. Kaplan embarks on a mission to find his wife, running into characters like Digger, Man With The Golden Hand, and the treacherous femme fatale Eve. He is a man on a mission.","release_date":"1983-02-01"},{"vote_count":0,"id":348615,"video":false,"vote_average":0,"title":"Fire and Flames at Luna Park, Coney Island (An Attraction at Coney Island)","popularity":1.001177,"poster_path":"\/4QXCCmTmzzOJsh5Rkg5N9yj5qrY.jpg","original_language":"en","original_title":"Fire and Flames at Luna Park, Coney Island (An Attraction at Coney Island)","genre_ids":[99],"backdrop_path":null,"adult":false,"overview":"A fire fighting demonstration in Luna Park, Coney Island. on August 15, 1904.","release_date":"1904-07-31"},{"vote_count":0,"id":311836,"video":false,"vote_average":0,"title":"Robbie the Reindeer in Hooves of Fire and the Legend of the Lost Tribe","popularity":1,"poster_path":null,"original_language":"en","original_title":"Robbie the Reindeer in Hooves of Fire and the Legend of the Lost Tribe","genre_ids":[],"backdrop_path":null,"adult":false,"overview":"Follow the claymation adventures of Robbie the Reindeer, Rudolph's son, in this double-dip of irreverent holiday cheer. In \"Hooves of Fire,\" Robbie races his father's rival, Blitzen, to earn a spot on Santa's sleigh team. In \"Legend of the Lost Tribe,\" Robbie and his Viking friends must save the other reindeer from Blitzen, who has turned them all into robots. This BBC production features both the British and American voice-over tracks.","release_date":""},{"vote_count":2,"id":104655,"video":false,"vote_average":7.5,"title":"One for the Fire: The Legacy of Night of the Living Dead","popularity":1.078565,"poster_path":"\/1wlwmY6VXGIAnmw9Ytk6wzYRlBT.jpg","original_language":"en","original_title":"One for the Fire: The Legacy of Night of the Living Dead","genre_ids":[],"backdrop_path":null,"adult":false,"overview":"A definitive documentary that recaps the evolution of an American Cinema Classic over the past 40 years.","release_date":"2008-01-01"},{"vote_count":850,"id":712,"video":false,"vote_average":6.6,"title":"Four Weddings and a Funeral","popularity":10.868899,"poster_path":"\/md9kMKnLG8LG4pMDM98gy5x4K5L.jpg","original_language":"en","original_title":"Four Weddings and a Funeral","genre_ids":[35,18,10749],"backdrop_path":"\/AuSHksakPGCczHliqHnXXMNilmA.jpg","adult":false,"overview":"Four Weddings And A Funeral is a British comedy about a British Man named Charles and an American Woman named Carrie who go through numerous weddings before they determine if they are right for one another.","release_date":"1994-03-09"},{"vote_count":3,"id":85676,"video":false,"vote_average":7.3,"title":"Firecracker","popularity":1.878221,"poster_path":"\/lIdGgEgkRcdxqo4Tz78opvyVH5k.jpg","original_language":"en","original_title":"Firecracker","genre_ids":[28,53],"backdrop_path":"\/hlFMjvU2K7AqCFwUfNXoJGUz4rH.jpg","adult":false,"overview":"Femme fatale martial arts expert teaches the mafia a lesson.","release_date":"1981-05-01"},{"vote_count":7,"id":298914,"video":false,"vote_average":6.5,"title":"Firewall","popularity":1.876622,"poster_path":"\/b9nMLrX4mvXJMTeFA1SPqvCyWg5.jpg","original_language":"en","original_title":"Firewall","genre_ids":[53,80],"backdrop_path":null,"adult":false,"overview":"In the town of Ystad, police inspector Wallander has two deaths to investigate that seem entirely unconnected: a taxi driver who has been brutally beaten by two teenage girls and later dies, and a computer consultant who has dropped dead in front of a cash machine. But soon enough mysterious and grisly events begin taking place. Events linked to something much more sinister that might be threatening the entire global finance market.","release_date":"2008-12-07"},{"vote_count":0,"id":52814,"video":false,"vote_average":0,"title":"Feuerherz - Die Reise der jungen Awet","popularity":1.006323,"poster_path":"\/3XyyTGOOEyuzZ62pnJB66UNeLBI.jpg","original_language":"de","original_title":"Feuerherz - Die Reise der jungen Awet","genre_ids":[18],"backdrop_path":"\/e2YKKOIIuI47avY6448ZtDxDy92.jpg","adult":false,"overview":"","release_date":"2009-01-29"},{"vote_count":0,"id":282693,"video":false,"vote_average":0,"title":"Firehouse","popularity":1.84394,"poster_path":"\/o8f4kgbd8vTqglsmU7nmDFePm7n.jpg","original_language":"en","original_title":"Firehouse","genre_ids":[18,28],"backdrop_path":null,"adult":false,"overview":"Tensions arise when a previously all-white firehouse gets its first black fireman.","release_date":"1973-01-02"},{"vote_count":1,"id":508061,"video":false,"vote_average":5,"title":"One Day in May: The Story of The Bradford City Fire","popularity":1.052941,"poster_path":null,"original_language":"en","original_title":"One Day in May: The Story of The Bradford City Fire","genre_ids":[99],"backdrop_path":null,"adult":false,"overview":"BT documentary about the fire","release_date":"2015-05-11"},{"vote_count":9,"id":39197,"video":false,"vote_average":5.2,"title":"Miss Firecracker","popularity":5.307864,"poster_path":"\/DrEypPiuyZV0StNLGqmiN9Dl9x.jpg","original_language":"en","original_title":"Miss Firecracker","genre_ids":[35],"backdrop_path":"\/i6sGYNnUEdNUYWsBEEgifFdCMqB.jpg","adult":false,"overview":"A girl from Yazoo City, Mississippi pins all her hopes on winning the local beauty pageant.","release_date":"1989-04-28"},{"vote_count":5,"id":103665,"video":false,"vote_average":5.6,"title":"Firelight","popularity":1.810275,"poster_path":"\/r78j9uerQJQ2XWpG7dflC7bqBVp.jpg","original_language":"en","original_title":"Firelight","genre_ids":[18,10770],"backdrop_path":"\/jPR66BaaEtENmpw3cV2ttSCkhIv.jpg","adult":false,"overview":"Incarcerated women join a band of volunteers who battle forest fires and assist during natural disasters.","release_date":"2012-04-22"},{"vote_count":5,"id":59008,"video":false,"vote_average":5.6,"title":"Fired","popularity":1.77045,"poster_path":"\/iyCcdgA28CmVhKUIchMuA5Atst2.jpg","original_language":"de","original_title":"Fired","genre_ids":[27,53],"backdrop_path":null,"adult":false,"overview":"At the H.W.L.S HEAD OFFICE in LONDON, the egotistical maniac Joy Mittal the CEO of the company, decides to repair his scandal-ridden work record and prove to himself and his partners that he can, indeed, care for his family and be an able leader in an economic meltdown that effects everyone. He is responsible of firing almost half the employees in London and implement major cut-downs. In the turmoil that follows he decides to sack the manager RUBY, a 29-year-old seductress with whom he has been having an affair that affects his personal as well as his professional life. After a day of ultimate stress Joy finally decides to finish off all his paperwork and stand proud in front of his partners for a board meeting that will definitely change his life. Almost after 5 hours of the firing incident, the final two hours in the office is a stressful event.","release_date":"2010-01-29"},{"vote_count":1,"id":223768,"video":false,"vote_average":5,"title":"Firehawk","popularity":1.715427,"poster_path":"\/ruCb7MNtwsUnaEyokRruBSbnV64.jpg","original_language":"en","original_title":"Firehawk","genre_ids":[10752,28,12],"backdrop_path":null,"adult":false,"overview":"During a daring mission in Vietnam, a helicoptor squadron is downed. While the soldiers try to escape capture by the Viet Cong, clues that the copter was sabotaged lead to brutal infighting, as they search for the traitor among them.","release_date":"1993-01-06"},{"vote_count":1,"id":187703,"video":false,"vote_average":5,"title":"Firelight","popularity":1.693675,"poster_path":"\/uTXO070xT9KMgKzhbEmhb8aHwTN.jpg","original_language":"en","original_title":"Firelight","genre_ids":[],"backdrop_path":null,"adult":false,"overview":"A group of scientists investigate a series of coloured lights in the sky and the subsequent disappearance of people, animals and objects from the fictional American town of Freeport, Arizona.","release_date":"1964-03-24"},{"vote_count":73,"id":7353,"video":false,"vote_average":6.3,"title":"Fireflies in the Garden","popularity":8.68536,"poster_path":"\/oI5uDAIS0jWEIIBIMtvashBun4g.jpg","original_language":"en","original_title":"Fireflies in the Garden","genre_ids":[18],"backdrop_path":"\/yCKaBVtdJ50eninml8ov6KY44T6.jpg","adult":false,"overview":"The semi-autobiographical story centers on the complexities of love and commitment in a family torn apart when faced by an unexpected tragedy.","release_date":"2008-02-10"},{"vote_count":3,"id":37299,"video":false,"vote_average":6.3,"title":"Fired!","popularity":1.603756,"poster_path":"\/oOFdTrCvBqu2voaxedrTcvGNFxY.jpg","original_language":"en","original_title":"Fired!","genre_ids":[99,35],"backdrop_path":"\/vUfPpg5MDcHgBqZsVq7nbCPzMSX.jpg","adult":false,"overview":"When actress Annabelle Gurwitch was fired from a play by Woody Allen, she wondered how she would cope with being downsized by a cultural icon. Turning to friends in show business, she was assured she was not alone. Everyone she knew, from her rabbi to her gynaecologist, had their own account of getting the boot. Featuring interviews with comedians, economists and regular working folks, and drawing on her hugely popular book, Fired! is a humorous look at downsizing in America.","release_date":"2007-06-05"},{"vote_count":1,"id":332016,"video":true,"vote_average":10,"title":"The Fantastic Four - A Legend Begins","popularity":1.142496,"poster_path":"\/a47aqzxtv51jVY2rWj9nmJ0AGWb.jpg","original_language":"en","original_title":"The Fantastic Four - A Legend Begins","genre_ids":[],"backdrop_path":"\/wCkPFNuliBy3BvzOoUnc6sA3KCX.jpg","adult":false,"overview":"","release_date":"1994-01-07"},{"vote_count":4,"id":135202,"video":false,"vote_average":7.3,"title":"Firefly","popularity":1.444496,"poster_path":"\/t7tXsveQZI05AFtrD5NvFVPvOp3.jpg","original_language":"en","original_title":"Firefly","genre_ids":[],"backdrop_path":null,"adult":false,"overview":"Following an incident on Halloween, the lives of a roofer, waitress, romantic rookie, and mysterious clairvoyant converge due to an undiscovered connection.","release_date":"2005-06-11"}]}