{"page":11,"total_results":567,"total_pages":29,"results":[{"vote_count":0,"id":429446,"video":false,"vote_average":0,"title":"Where The Shadows Fall","popularity":1.031808,"poster_path":"\/vEZpMwEQspqrcaZlmID2WSir3Fc.jpg","original_language":"en","original_title":"Where The Shadows Fall","genre_ids":[18,14],"backdrop_path":null,"adult":false,"overview":"The Man wanders a barren purgatory, seeking those he lost.","release_date":"2016-08-01"},{"vote_count":0,"id":91340,"video":false,"vote_average":0,"title":"Where Are You From, Johnny?","popularity":1.015349,"poster_path":"\/jgJn9h65qnN0GdEaL8MSfQ7T9FI.jpg","original_language":"fr","original_title":"D'où viens-tu, Johnny ?","genre_ids":[12],"backdrop_path":"\/jegDffJX4iiP0i55GWg9hjDgHfw.jpg","adult":false,"overview":"","release_date":"1963-10-29"},{"vote_count":0,"id":381146,"video":false,"vote_average":0,"title":"Where Are You Going","popularity":1.025188,"poster_path":"\/uT177NBFaUmd2UUGcdrl8Jp8nO.jpg","original_language":"cn","original_title":"Where Are You Going","genre_ids":[],"backdrop_path":null,"adult":false,"overview":"Hong Kong as seen through a cab window. Inhabitants discuss their lives, problems and dreams as they are driven to their destination through the chaotic streets of Hong Kong.","release_date":"2016-02-03"},{"vote_count":0,"id":149522,"video":false,"vote_average":0,"title":"Where Does the Sea Flow?","popularity":1.008735,"poster_path":null,"original_language":"ru","original_title":"Kuda techet more?","genre_ids":[10751,18],"backdrop_path":null,"adult":false,"overview":"A mother is trying hard to love her five-years old daughter, but even the child's very presence continuously reminds her about the trauma of rape she survived five years ago. As troubled apparitions, fears and inner disorder of the mother begin to influence the little girl's psyche. Could the sincere affection of the child alleviate her mother's suffering?","release_date":"2011-01-01"},{"vote_count":0,"id":372510,"video":false,"vote_average":0,"title":"Just Where I Belong","popularity":1.022571,"poster_path":"\/rvIifGACNumJTijtkPeAuKrhiZN.jpg","original_language":"en","original_title":"Just Where I Belong","genre_ids":[],"backdrop_path":null,"adult":false,"overview":"A heartwarming story for the whole family, Just Where I Belong is a beautiful adventure bursting with love and hope. When Julia, a lonely foster child, discovers an injured rabbit on Christmas Eve, she forms an unlikely friendship with an eccentric old farm woman (Florence Henderson) who vows to nurse the bunny back to health. In the process, Julia's own heart is healed and she forges a bond with her adoptive family that makes her holidays one she - and you - will never forget.","release_date":"2011-10-18"},{"vote_count":0,"id":377530,"video":false,"vote_average":0,"title":"Where the Chocolate Mountains","popularity":1.022435,"poster_path":null,"original_language":"en","original_title":"Where the Chocolate Mountains","genre_ids":[],"backdrop_path":null,"adult":false,"overview":"A tour de force of digital art, Where the Chocolate Mountains (2015, 55 min.) is a major new opus from Pat O’Neill, one of the all-time guiding lights of the Los Angeles avant-garde, whose pioneering use of the optical printer marked a creative breakthrough in composite image-making in cinema. Continuing in the vein of his renowned 35mm epics Water and Power (1989), Trouble in the Image (1996) and Decay of Fiction (2002), the founding CalArts faculty member combines haunting cinematography of the Chocolate Mountains along the border between California and Arizona—long used as a bombing range by the military—with footage shot in L.A., Mexico and Prague, intimate self-portraits, and recurring graphic motifs to create irrepressible, stunningly detailed streams of multilayered sight and sound.","release_date":"2015-12-13"},{"vote_count":0,"id":302707,"video":false,"vote_average":0,"title":"Baltimore, Where You At?","popularity":1.021783,"poster_path":"\/ar9li7OXwracMCDGTFSGUHfr6TL.jpg","original_language":"en","original_title":"Baltimore, Where You At?","genre_ids":[],"backdrop_path":null,"adult":false,"overview":"Documentary about the Baltimore Club scene.","release_date":"2014-11-09"},{"vote_count":0,"id":393450,"video":false,"vote_average":0,"title":"Where the Yellow Lemon Blooms","popularity":1.006919,"poster_path":"\/uBbyjdhnt8ybWx0Cg7UU0zCIZ88.jpg","original_language":"sr","original_title":"Gde cveta limun žut","genre_ids":[36,99,18],"backdrop_path":null,"adult":false,"overview":"By the end of 1915, during the second half of World War I, which had started by the Austro-Hungarian Empire's attack on a small Kingdom of Serbia, Serbian people, its army, and the state found themselves in the greatest tribulation in its long history. Serbia is attacked by the combined militaries of Austro-Hungarian Empire, Germany, and Bulgaria. Defending every road, every hill, every creek, during the time when every village, every plato, every crossing was becoming a historical landmark, Serbia, relying on the Allies, moved its people, its government, and its remaining troops to Kosovo--the only unoccupied part of the Serbian territory, but soon had to cross Albania in the hopes of reaching the Allies' ships in the Mediteranian.","release_date":"2006-06-19"},{"vote_count":0,"id":138306,"video":false,"vote_average":0,"title":"Where the Yellowstone Goes","popularity":1.020826,"poster_path":"\/zTvNm2kMyjLXWGtaIgsk3N8f7Cm.jpg","original_language":"en","original_title":"Where the Yellowstone Goes","genre_ids":[99],"backdrop_path":null,"adult":false,"overview":"Where the Yellowstone Goes follows a 30-day drift boat journey down the longest undammed river in the contiguous United States. Intimate portraits of locals in both booming cities and dusty, dwindling towns along the Yellowstone River, illustrate the history and controversies surrounding this enigmatic watershed leading to questions about its future. Connect with colorful characters, get lost in the hypnotic cast of a fly rod, and experience silhouetted moments of fireside stories on this heartfelt river adventure.","release_date":"2012-04-01"},{"vote_count":0,"id":275149,"video":false,"vote_average":0,"title":"Where are you Going Moshe?","popularity":1.004987,"poster_path":"\/1tfkM79XmGeOOd6ctb6GSY2ktd8.jpg","original_language":"en","original_title":"Où vas-tu Moshé?","genre_ids":[],"backdrop_path":"\/pEcQ6BL2AUUUB34IPCP8xobUk2l.jpg","adult":false,"overview":"In the early 1960s, after Morocco’s independence from France, many of the country’s Jews clandestinely left for Israel. The Jews of the little town of Bejjad plot their departure with the help of their rabbi. One thing, however, worries them: Will Berbeq’ha, the idiot who thinks he’s a general, leave too? Once he learns of the Jews’ plans, Mustapha, the bar-owner, panics; if all the non-Muslims leave, the Law will make him close the bar. How will he avoid such a disaster? He’ll have to hold back one Jew! That’s Hassan’s idea, anyway.","release_date":"2007-06-07"},{"vote_count":0,"id":437680,"video":false,"vote_average":0,"title":"Where the Words Grow","popularity":1.017647,"poster_path":null,"original_language":"en","original_title":"Where the Words Grow","genre_ids":[99,18],"backdrop_path":null,"adult":false,"overview":"Where the Words Grow follows three Chicago slam poets as they compete to represent the city at the National Poetry Slam.","release_date":"2015-06-01"},{"vote_count":0,"id":402268,"video":false,"vote_average":0,"title":"Where the Devil Says Goodnight","popularity":1.002331,"poster_path":"\/5gQQlCkjdHwqBtSQTYDRVpCJLEf.jpg","original_language":"pl","original_title":"Gdzie diabeł mówi dobranoc","genre_ids":[99],"backdrop_path":null,"adult":false,"overview":"A look at the poorest district of Warsaw. Targówek looks as if the war ended just yesterday - the place is full of rubble and misery, and devoid of any perspectives for a better future.","release_date":"1956-01-01"},{"vote_count":0,"id":354310,"video":false,"vote_average":0,"title":"Where to After the Rain?","popularity":1.002192,"poster_path":"\/lNeM3B3Jm9Bv12mqbWs0wTnq13r.jpg","original_language":"mk","original_title":"Каде по дождот","genre_ids":[18],"backdrop_path":null,"adult":false,"overview":"A young woman tries not to become conformist like her parents, while her fiancee who had similar views, gradually became one. However it turns out that she cannot distance from her own background either.","release_date":"1967-01-01"},{"vote_count":0,"id":437624,"video":false,"vote_average":0,"title":"Where Are You Now, Maxim?","popularity":1.001683,"poster_path":"\/dauWuUs0ybSPG3gsJQaRnigt52J.jpg","original_language":"ru","original_title":"Где ты теперь, Максим","genre_ids":[18],"backdrop_path":"\/bAl4AXI7B5F6CRDgXMLP2vP8SEy.jpg","adult":false,"overview":"A story of a young man who is returning to his home town after being evacuated as a boy during WWII.","release_date":"1965-06-14"},{"vote_count":0,"id":398700,"video":false,"vote_average":0,"title":"Where Did My Life Go?","popularity":1.001456,"poster_path":"\/tOs5RA3c32ujRUDTiFeJeLAEeZW.jpg","original_language":"ar","original_title":"أين عمري","genre_ids":[18],"backdrop_path":null,"adult":false,"overview":"Ayn Omry is a movie about a teenage girl who decides to get married to an old rich man to break free from her controlling mother and to save the family name after loosing their fortune. But she discovers that her husband is a sick jealous man he locked her with 2 old weird sisters in a distant farmhouse After many years of suffering with her sick husband Aleya decides to leave him.","release_date":"1957-05-22"},{"vote_count":0,"id":317738,"video":false,"vote_average":0,"title":"Where have you been, Odysseus?","popularity":1.000714,"poster_path":"\/6LrS25krSIdkYqQOPz6mtbOYiVg.jpg","original_language":"ru","original_title":"Где ты был, Одиссей?","genre_ids":[12,10752],"backdrop_path":"\/zIrRyVtJ9JMIRvbO2hEPSSQbHqX.jpg","adult":false,"overview":"A story of a Soviet spy working in Grance during WWII.","release_date":"1978-09-13"},{"vote_count":0,"id":281694,"video":false,"vote_average":0,"title":"Tick Where It Hurts","popularity":1.014844,"poster_path":"\/3Pmy0VG2KlnpZMrQeXXnKw45XLo.jpg","original_language":"en","original_title":"Tick Where It Hurts","genre_ids":[18],"backdrop_path":null,"adult":false,"overview":"'Tick Where It Hurts' is an 18 minute long short film by Bertie Gilbert. It tells the story of a young musician (Guy) coming to terms with the suicide of his brother and musical partner (Eric) over the span of one long night. It is a psychological film that tells it's story through monologues, experimental looks into the past and intense character study. We watch as Guy, an incredibly logical and calculated person, tries to figure out and contemplate why his brother would do such a thing and whether or not he can continue making music without him. A film with many interesting shots and ideas, but never loses track of it's characters and it's message.","release_date":"2014-06-18"},{"vote_count":0,"id":408012,"video":false,"vote_average":0,"title":"Where is Alice?","popularity":1.01472,"poster_path":"\/mXWZHIZYZ7u4oTHPa2Yd7G0fIZF.jpg","original_language":"en","original_title":"Where is Alice?","genre_ids":[],"backdrop_path":null,"adult":false,"overview":"A man visits an elderly woman in a mental health institute to ask questions about her past. It awakens something. Something inhuman.","release_date":"2014-04-12"},{"vote_count":0,"id":295031,"video":false,"vote_average":0,"title":"Where Was God?","popularity":1.014477,"poster_path":"\/3hT4CyVwI1h09OUv01PzT4iPctX.jpg","original_language":"en","original_title":"Where Was God?","genre_ids":[18,99],"backdrop_path":null,"adult":false,"overview":"May 20, 2013––an EF5 tornado ripped through Moore, OK. The magnitude of devastation measured over eight times greater than the atomic bomb that leveled Hiroshima. As the world watched, one question continued to surface—Where Was God? This story follows several families and individuals who recount the timeline of destruction and share their experiences of the devastating and miraculous events that changed their lives forever.","release_date":"2014-05-16"},{"vote_count":0,"id":433320,"video":false,"vote_average":0,"title":"Where Are You Going Koumba?","popularity":1.000037,"poster_path":"\/zVN530UudDDbfJq2g72pWwq0IV3.jpg","original_language":"fr","original_title":"Où vas-tu, Koumba?","genre_ids":[18],"backdrop_path":null,"adult":false,"overview":"Koumba is a brave boy, and a good son who works on a plantation. He leaves his native town of Ngounié to repay the dowry of his sister.","release_date":"1971-01-01"}]}