{"page":23,"total_results":1170,"total_pages":59,"results":[{"vote_count":0,"id":320216,"video":false,"vote_average":0,"title":"Adventures with Fire Fighting","popularity":1.006598,"poster_path":null,"original_language":"en","original_title":"Adventures with Fire Fighting","genre_ids":[],"backdrop_path":null,"adult":false,"overview":"Nothing is as exciting as a shiny, red fire truck racing by with lights flashing and sirens blaring. This program gives preschool tots a chance to take a special ride on a real-life ladder truck. Back at the station, kids get a tour of the firehouse, where they meet the brave men and women dedicated to protecting us all. Children will also marvel at the power of heavy machinery in action with bonus feature \"Awesome Road Construction.\"","release_date":"2009-01-01"},{"vote_count":0,"id":151840,"video":false,"vote_average":0,"title":"Totally Trucks Fire Monsters","popularity":1.006588,"poster_path":"\/tXS63enhXNJhzNSlzGlW3q4A8dm.jpg","original_language":"en","original_title":"Totally Trucks Fire Monsters","genre_ids":[],"backdrop_path":null,"adult":false,"overview":"HEY RECRUITS! Grab your fire helmets and turnout gear, because we're in training! You're going to learn how to rappel, how to handle a hose and how to open a fire hydrant. Want to know the difference between a pumper and an aerial ladder truck? Get your boots on and get ready to roll with the Fire Monsters!","release_date":"2010-01-01"},{"vote_count":0,"id":111872,"video":false,"vote_average":0,"title":"Valley of Fire","popularity":1.006378,"poster_path":"\/5Az9V16Rs9fWI0X3gikBpBBIYNS.jpg","original_language":"en","original_title":"Valley of Fire","genre_ids":[28,37,10402],"backdrop_path":"\/nuAaV7dkITnQWkUCrcyxDiVMSgb.jpg","adult":false,"overview":"An outcast gambler hijacks a wagon train of eligible women taken west by a mayor (Gene Autry).","release_date":"1951-11-20"},{"vote_count":0,"id":471075,"video":false,"vote_average":0,"title":"Frontline: Death by Fire","popularity":1.005935,"poster_path":"\/l05Y53T5GcuBqtbGuEJ2LyMBQK2.jpg","original_language":"en","original_title":"Frontline: Death by Fire","genre_ids":[99],"backdrop_path":null,"adult":false,"overview":"Frontline investigates the case of Todd Willingham a Texas man who was executed in 2004 for the fiery deaths of his three daughters. Although he is accused of arson, a forensic scientist discovers that that there is evidence that the fire may have been accidental.","release_date":"2010-10-19"},{"vote_count":0,"id":412597,"video":false,"vote_average":0,"title":"Undercover Gang","popularity":1.005625,"poster_path":"\/mnKeuXMMKQ74IlT0usPWCcO7UeX.jpg","original_language":"en","original_title":"The Fire Raiser","genre_ids":[10751,18],"backdrop_path":"\/wYumhmlN5ES1wT8deRFLqrpOuhg.jpg","adult":false,"overview":"In 1915 four kids try to stop the arsonist who is terrifying their small New Zealand town, but no one believes them. Based on the novel by Maurice Gee.","release_date":"1986-08-24"},{"vote_count":0,"id":373390,"video":true,"vote_average":0,"title":"ROH Fueling The Fire","popularity":1.004942,"poster_path":"\/mwgVEH3Qw0C1KWia02JmSFyfsUw.jpg","original_language":"en","original_title":"ROH Fueling The Fire","genre_ids":[],"backdrop_path":null,"adult":false,"overview":"Fueling the Fire was a wrestling event promoted by Ring of Honor. It took place on August 1, 2008 in Manassas, Virginia. The main event featured The Age of the Fall (Jimmy Jacobs &amp; Tyler Black) defeding their ROH World Tag Team Championships against Pro Wrestling NOAH's Naomichi Marufuji &amp; Go Shiozaki.","release_date":"2008-08-01"},{"vote_count":0,"id":468544,"video":false,"vote_average":0,"title":"How People Got Fire","popularity":1.004735,"poster_path":"\/eFK1n2T7TtO6EgCcIs5ICbmRQPA.jpg","original_language":"en","original_title":"How People Got Fire","genre_ids":[16],"backdrop_path":null,"adult":false,"overview":"This introspective short animation takes place In the village of Carcross, in the Tagish First Nation. Neighbourhood pillar Grandma Kay tell the local children the tale of how Crow brought fire to people. As the story unfolds, we also meet 12-year-old Tish, an introspective, talented girl who feels drawn to the elder. Here, past and present blend, myth and reality meet, and the metaphor of fire infuses all in a location that lies at the heart of this Native community’s spiritual and cultural memory.","release_date":"2009-02-12"},{"vote_count":0,"id":435336,"video":false,"vote_average":0,"title":"Hollywood on Fire","popularity":1.004712,"poster_path":null,"original_language":"en","original_title":"Hollywood on Fire","genre_ids":[99,10751],"backdrop_path":null,"adult":false,"overview":"A documentary detailing the rise of faith and values in the Entertainment industry from the professionals who make movie magic happen.","release_date":"2009-02-25"},{"vote_count":0,"id":331998,"video":false,"vote_average":0,"title":"Edie: Girl on Fire","popularity":1.004706,"poster_path":null,"original_language":"en","original_title":"Edie: Girl on Fire","genre_ids":[],"backdrop_path":null,"adult":false,"overview":"Model, film star, muse, socialite, icon. Edie Sedgwick was the very first \"it\" girl of the Andy Warhol Factory scene.","release_date":"2010-01-01"},{"vote_count":0,"id":268287,"video":false,"vote_average":0,"title":"Cascadia: The Hidden Fire","popularity":1.004617,"poster_path":"\/oCloTeXnBgozVWXS6TZS0FPypfs.jpg","original_language":"en","original_title":"Cascadia: The Hidden Fire","genre_ids":[99],"backdrop_path":null,"adult":false,"overview":"A new \"groundbreaking\" broadcast television special\/home video that educates homeowners, business owners and educators on earthquake hazards unique to the Cascadia region and how to effectively prepare for and survive them.","release_date":"2004-01-01"},{"vote_count":0,"id":78712,"video":false,"vote_average":0,"title":"Answered by Fire","popularity":1.004038,"poster_path":"\/6pov8nJ29BKR85Wv2yUgGkcr1wk.jpg","original_language":"en","original_title":"Answered by Fire","genre_ids":[],"backdrop_path":null,"adult":false,"overview":"Mark Waldman (David Wenham) is an Australian policeman who volunteers for the United Nations mission in East Timor. Put in charge of the Civilian Police at the UN base in Nunura, he meets Julie Fortin (Isabelle Blais), a Canadian policewoman on her first overseas mission, and Ismenio Soares (Alex Tilman), the young Timorese translator assigned to work with the unit. Mark and Julie are unarmed and emotionally unprepared for the brutal reality of Timor, while Ismenio is cynical about whether the UN can prevent what seems an inevitable, bloody end to the process. Against growing intimidation and violence from the Indonesians and East Timorese militia, they work to get the Timorese registered to vote. Ismenio's fears are realised when the vote goes pro-independence, the country is set alight and the UN evacuates. Mark and Julie are forced to abandon Ismenio and his family to a nightmarish fate at the hands of the Indonesian military and its murderous militias.","release_date":"2006-05-28"},{"vote_count":0,"id":204586,"video":false,"vote_average":0,"title":"Trial by Fire","popularity":1.003548,"poster_path":"\/5ohpRaj1GqodZTzj4nOGPSR6hmc.jpg","original_language":"en","original_title":"Trial by Fire","genre_ids":[9648,10770],"backdrop_path":"\/9CS7DZfEnaUIYEY9Dil00kG5Gmx.jpg","adult":false,"overview":"Juliet Stevenson stars as prosecutor Helen West from the popular crime novels by Frances Fyfield. Helen and her significant other, Chief Superintendent Geoffrey Bailey (Jim Carter), have recently moved to a sedate London suburb only to face a shocking murder. Bailey thinks he has the case wrapped up, but Helen punches holes in the evidence and his ego, and then proceeds to track down the real killer.","release_date":"1999-06-30"},{"vote_count":0,"id":310292,"video":false,"vote_average":0,"title":"Reggaeton Videos on Fire","popularity":1.003535,"poster_path":"\/2tXNUaJ43WmpzAQDJRIvQS6CLY0.jpg","original_language":"es","original_title":"Reggaeton Videos on Fire","genre_ids":[],"backdrop_path":null,"adult":false,"overview":"Heat up the night with this collection of reggaeton videos from artists such as Cheka, Héctor \"El Father\" and many more. Latin spice, Caribbean grooves and urban edge mix and mingle on the reggaeton dance floor with Nego Flow's fiery \"Hasta Que Te Lo Unda,\" Zion's zesty \"Yo Voy a Llegar\" and Tito \"El Bambino\" red-hot \"Me Pidieron Acción.\" Also featured are Zion, Baby Rasta y Gringo; Alexis y Fido; Maestro y Julio Voltio; Tony Dize; and DJ Goldy.","release_date":"2006-09-12"},{"vote_count":0,"id":492227,"video":false,"vote_average":0,"title":"Through the Fire","popularity":1.002495,"poster_path":null,"original_language":"en","original_title":"Through the Fire","genre_ids":[35,18,10749],"backdrop_path":null,"adult":false,"overview":"Michael and Anne-Marie, two successful lonely New Yorkers, run into each other for the first time in years. They try to rekindle their relationship, but they bicker over everything. Michael's best friend Mary helps. Unsold sitcom pilot.","release_date":"2002-06-01"},{"vote_count":0,"id":329683,"video":false,"vote_average":0,"title":"Shola: Fire of Love","popularity":1.00241,"poster_path":"\/pbbx71a3p3WpqtGpDGp4B2fOpPz.jpg","original_language":"en","original_title":"Shola: Fire of Love","genre_ids":[],"backdrop_path":null,"adult":false,"overview":"Anu finds out that her daughter, Pooja, is spending too much time with her boyfriend, Rahul, than on college studies. She confronts her, but Pooja refuses to heed her warnings. Then one night Pooja returns home bruised and battered, claiming that Rahul has been killed and she has been brutally raped by three men. Anu's efforts to file a police complaint are in vain, and Pooja is hospitalized. It is here that she will find out that her life mirrors that of her mother, while her assailants will attempt to silence her forever.","release_date":"2004-01-01"},{"vote_count":0,"id":223246,"video":false,"vote_average":0,"title":"Ready, Fire, Aim","popularity":1.002361,"poster_path":"\/qqHTrZ1boV2EkEsfotxgwbglfu9.jpg","original_language":"en","original_title":"Ready, Fire, Aim","genre_ids":[99],"backdrop_path":null,"adult":false,"overview":"Poor Boyz Productions, creators of the award-winning films Propaganda and Happy Dayz bring you Ready Fire Aim. Check in with riders around the world as they continue to showcase progressive skiing in its truest form. It took nine cinematographers hanging from cable-cams, helicopters, helmet cams, and one entire year of filming to document this innovative masterpiece. Don’t miss Mike Douglas’ 90’ step-down in the Whistler back country, Henrick Winstead’s 110’ crevasse gap jumping extravaganza in the Swiss Alps, Dave Crighton’s intense east coast rail destruction, Candide’s gigantic cliff step-ups in La Clusaz, France, Mark Abma’s 115’ rodeo on a Tahoe step-down, the most insane gap rail set-ups to date at the Poor boyz Jib Fest, and Eric Pollard’s 70’ 180 in the Oregon back country.","release_date":"2003-09-01"},{"vote_count":0,"id":135319,"video":false,"vote_average":0,"title":"Benise: Nights of Fire","popularity":1.002356,"poster_path":"\/oea9XBeUn7pEY8BhJkuH6fCvsVg.jpg","original_language":"en","original_title":"Benise: Nights of Fire","genre_ids":[10402],"backdrop_path":"\/3AgPnV5nC5aUKUayc3KUdPE4kLb.jpg","adult":false,"overview":"Benise's returns with his Emmy Award Winning cast with a new show – 'THE ... Benise, armed with his 'Spanish Guitar' as he takes us on an unprecedented and","release_date":"2005-04-12"},{"vote_count":0,"id":72635,"video":false,"vote_average":0,"title":"Fire Over Afghanistan","popularity":1.002353,"poster_path":"\/9S6MIR6Qxc9glQ26IEXf4f2htcO.jpg","original_language":"en","original_title":"Fire Over Afghanistan","genre_ids":[18,28,53],"backdrop_path":null,"adult":false,"overview":"Blackhawk pilot and reporter are knocked out of the sky over renegade warlord's territory and struggle against impossible odds to escape with their lives.","release_date":"2003-01-01"},{"vote_count":0,"id":90410,"video":false,"vote_average":0,"title":"Mountain: Sea of Fire","popularity":1.002353,"poster_path":"\/pdSm0G8ItqVL1MuNzJ8c8zvJQBR.jpg","original_language":"en","original_title":"Mountain: Sea of Fire","genre_ids":[],"backdrop_path":"\/cGgMWUur5zJBG434LxGgTDX6qf8.jpg","adult":false,"overview":"Legendary rock group Mountain, featuring guitarist Leslie West and drummer Corky Laing, delivers its trademark power-trio sound big time on this stunning DVD. Meticulously recorded with 7 cameras in true DTS Surround Sound during the band’s 2002 concert tour, Sea of Fire includes everything a fan could want in this collector’s treasure recorded at the Mystic Theatre.","release_date":"2003-03-16"},{"vote_count":0,"id":287976,"video":false,"vote_average":0,"title":"Stealing the Fire","popularity":1.002353,"poster_path":null,"original_language":"en","original_title":"Stealing the Fire","genre_ids":[],"backdrop_path":null,"adult":false,"overview":"This documentary tells a story of international intrigue that reveals how leading black market suppliers of nuclear weapons technology had their roots in the Third Reich.","release_date":"2002-10-16"}]}