{"page":13,"total_results":567,"total_pages":29,"results":[{"vote_count":0,"id":403283,"video":false,"vote_average":0,"title":"Gehenna: Where Death Lives","popularity":1.002187,"poster_path":"\/uQfpAkBrKSILSzcswtzAFmOubDs.jpg","original_language":"en","original_title":"Gehenna: Where Death Lives","genre_ids":[],"backdrop_path":null,"adult":false,"overview":"A group visits Saipan to search for locations for their company's newest resort. As they find what they think is the perfect spot, they discover a hidden bunker on the property which they decide to explore. However, they soon find out that curiosity can kill. As each member faces their most private secrets and the secrets of the bunker itself, the results lead to a most shocking conclusion.","release_date":""},{"vote_count":0,"id":356701,"video":false,"vote_average":0,"title":"Where the Wind Settles","popularity":1.801648,"poster_path":"\/i9tAjPfFMw3q1IBF4vWeOc4Q4t8.jpg","original_language":"zh","original_title":"風中家族","genre_ids":[10749,18],"backdrop_path":"\/ayB5saIZdDwp8XturTAVJ5ikw7U.jpg","adult":false,"overview":"Three men and an adopted son struggle in Taiwan after escaping China in 1949.","release_date":"2015-06-26"},{"vote_count":0,"id":348848,"video":false,"vote_average":0,"title":"Where the Pest Begins","popularity":1.001747,"poster_path":null,"original_language":"en","original_title":"Where the Pest Begins","genre_ids":[35],"backdrop_path":null,"adult":false,"overview":"Jonathan Bass (Tom Kennedy), an inventor working for the government, makes the mistake of his life. He moves next door to Shemp. Lazy, obtuse and obnoxious, Shemp plays the good neighbor by wrecking the Bass' garage, car and china... and somehow makes it look to Bass' wife (Christine McIntyre) that Jonathan is clumsily at fault. Bass' latest project is a new bomb for the Army, and it's only a matter of time before helpful Shemp turns up in the laboratory basement offering his assistance.","release_date":"1945-10-04"},{"vote_count":0,"id":292630,"video":false,"vote_average":0,"title":"Where the Pavement Ends","popularity":1.001727,"poster_path":null,"original_language":"en","original_title":"Where the Pavement Ends","genre_ids":[18],"backdrop_path":null,"adult":false,"overview":"This is a lost Silent film, that no negative of or print materials from are known to exist.","release_date":"1923-01-02"},{"vote_count":0,"id":482950,"video":false,"vote_average":0,"title":"Where Is This Lady?","popularity":1.001649,"poster_path":null,"original_language":"en","original_title":"Where Is This Lady?","genre_ids":[10402],"backdrop_path":null,"adult":false,"overview":"A British musical film directed by Victor Hanbury and Ladislao Vajda","release_date":"1932-11-17"},{"vote_count":0,"id":372747,"video":false,"vote_average":0,"title":"Where the Breakers Roar","popularity":1.001485,"poster_path":null,"original_language":"en","original_title":"Where the Breakers Roar","genre_ids":[18],"backdrop_path":null,"adult":false,"overview":"Mack Sennett appears as a policeman in this film produced by the Biograph Company.","release_date":"1908-09-22"},{"vote_count":0,"id":362839,"video":false,"vote_average":0,"title":"Where the Difference Begins","popularity":1.001458,"poster_path":null,"original_language":"en","original_title":"Where the Difference Begins","genre_ids":[],"backdrop_path":null,"adult":false,"overview":"A family gather together as their mother lies dying. Death brings family conflicts into sharp focus, not least those between brothers Edgar and Richard.","release_date":"1961-12-15"},{"vote_count":0,"id":352921,"video":false,"vote_average":0,"title":"Where Trails End","popularity":1.001365,"poster_path":"\/2Yw4hNxI62ChuTDQ87rrzjbUyif.jpg","original_language":"fr","original_title":"Where Trails End","genre_ids":[37],"backdrop_path":"\/ifuysFPzIzzL6JoSqbOTqP02W5J.jpg","adult":false,"overview":"Prince the wonder horse and his gallant rider gallop off to protect hapless ranchers from the ruthless Nazi bad guys who are trying to steal their land so they can exploit the valuable tungsten deposits in this WW II western. Mayhem ensues, but soon the villains are vanquished and America's tungsten deposits are safe once more.","release_date":"1942-05-01"},{"vote_count":0,"id":242345,"video":false,"vote_average":0,"title":"Where Trails Divide","popularity":1.001336,"poster_path":"\/vqy8glYrLutr14mNU6XjrMAaFcu.jpg","original_language":"en","original_title":"Where Trails Divide","genre_ids":[37],"backdrop_path":null,"adult":false,"overview":"Tom Allen comes to Rawhide to open a law office. But he becomes the Sheriff instead and goes after Wilson and his outlaw gang hoping his brother Billy is not one of them.","release_date":"1937-10-13"},{"vote_count":0,"id":384138,"video":false,"vote_average":0,"title":"Where the Elephant Sits","popularity":1.001247,"poster_path":null,"original_language":"en","original_title":"Where the Elephant Sits","genre_ids":[],"backdrop_path":null,"adult":false,"overview":"After many years as a circus artiste Ben Falk takes a position as teacher. Optimistic and enthusiastic about his new beginning and, with twenty years of experience as a children's entertainer, he feels that he is perfectly equipped for the job. It's quite a blow for him when he finds himself confronted with the total chaos of life at school. Suddenly he notices an elephant in the classroom. Aided by the elephant's wise tips, Ben manages to slowly gain the trust of his pupils.","release_date":"1998-02-14"},{"vote_count":0,"id":364526,"video":false,"vote_average":0,"title":"Where The Buffalo Roam","popularity":1.001242,"poster_path":"\/qSma8AbQbR4RSsVISCtTHD3Mam2.jpg","original_language":"en","original_title":"Where The Buffalo Roam","genre_ids":[10770,37,18],"backdrop_path":null,"adult":false,"overview":"Poor Willy’s mind has been warped by too many Westerns. He sees gunfighters on every corner, even though he’s in 1960s Swansea. Some think Billy’s simple. His Auntie just thinks he’s creative. But he’s on a dark path as his vivid imaginings grow wilder, and the world in his head comes roaring out into reality.An early piece from TV playwright Dennis Potter. (homemcr.otg)","release_date":"1966-11-02"},{"vote_count":0,"id":401771,"video":false,"vote_average":0,"title":"Where the Trail Divides","popularity":1.001223,"poster_path":"\/cd67Nusa00jO6MwYjItfSFHj646.jpg","original_language":"en","original_title":"Where the Trail Divides","genre_ids":[37],"backdrop_path":"\/9TG0Ys8aMdcDeDHiuOfDdbcHywA.jpg","adult":false,"overview":"Col. Landers adopts two children, \"How,\" an Indian boy, and Bess, whose parents were killed in an Indian uprising. When the children are grown, How proposes to Bess, whom he has loved since his childhood. She accepts his proposal, thus angering Clayton Craig, Lander's nephew who also wants to marry her. After Lander's death, How is exiled from the ranch, so he and Bess buy new land. One day, after he has been away, How returns to his cabin to see Bess and Craig embracing. How grants Bess her freedom after which she marries Craig and moves to New York. Some time later, How discovers oil on the land that he gave Bess, so he follows them to New York. There he finds that Craig has been unfaithful to Bess. In the end, Bess rejects Craig so that she and How can remarry and find \"a trail to happiness together.\" -From TCM.com Database, powered by the AFI.","release_date":"1914-10-12"},{"vote_count":0,"id":172592,"video":false,"vote_average":0,"title":"Where the Bullets Fly","popularity":1.001212,"poster_path":"\/ohXtAcxt1HUemnfqZbtDuaevgBX.jpg","original_language":"en","original_title":"Where the Bullets Fly","genre_ids":[],"backdrop_path":null,"adult":false,"overview":"In a spoof of the spy genre a secret agent chases a missing formula that can drain nuclear energy from an element named Spurium,","release_date":"1966-09-06"},{"vote_count":0,"id":402250,"video":false,"vote_average":0,"title":"Where Is My Wife?","popularity":1.00119,"poster_path":null,"original_language":"en","original_title":"Where Is My Wife?","genre_ids":[],"backdrop_path":null,"adult":false,"overview":"Lovable buffoon Monty Banks tries to relax, but ultimately spends his day worrying about who is keeping company with his wife.","release_date":"1921-01-15"},{"vote_count":0,"id":440018,"video":false,"vote_average":0,"title":"LSD: Trip to Where?","popularity":1.001178,"poster_path":"\/3sL1HzMVE9waIZqYkVsadSMtHqX.jpg","original_language":"en","original_title":"LSD: Trip to Where?","genre_ids":[18],"backdrop_path":null,"adult":false,"overview":"Three sailors are talked into trying LSD and marijuana--which, this film implies, are basically the same thing--and the effects of the drugs endanger the lives of their fellow sailors aboard ship.","release_date":"1968-01-01"},{"vote_count":0,"id":407330,"video":false,"vote_average":0,"title":"Ayen Omri","popularity":1.001177,"poster_path":"\/sRjewUDxXZU9Xl06KqI4xUuKsPj.jpg","original_language":"en","original_title":"where is my life","genre_ids":[],"backdrop_path":null,"adult":false,"overview":"where is my life","release_date":"1958-12-22"},{"vote_count":0,"id":386664,"video":false,"vote_average":0,"title":"Where Lies the Homo?","popularity":1.001177,"poster_path":null,"original_language":"en","original_title":"Where Lies the Homo?","genre_ids":[],"backdrop_path":null,"adult":false,"overview":"Documentary\/Fiction\/Experimental film about coming out of the closet.","release_date":"1999-11-10"},{"vote_count":0,"id":329050,"video":false,"vote_average":0,"title":"Where The Girls Are","popularity":1.001177,"poster_path":null,"original_language":"en","original_title":"Where The Girls Are","genre_ids":[],"backdrop_path":null,"adult":false,"overview":"An airman suffers when he doesn't heed the precautions of the Department of Defense.","release_date":"1969-01-01"},{"vote_count":0,"id":499405,"video":false,"vote_average":0,"title":"Where the Action Is","popularity":1.000178,"poster_path":null,"original_language":"en","original_title":"Where the Action Is","genre_ids":[],"backdrop_path":null,"adult":false,"overview":"A gambler is smuggled into a billionaire's house to undertake a gambling duel.","release_date":"1975-02-08"},{"vote_count":0,"id":488635,"video":false,"vote_average":0,"title":"Where is Memory","popularity":1.000177,"poster_path":null,"original_language":"en","original_title":"Where is Memory","genre_ids":[],"backdrop_path":null,"adult":false,"overview":"Part fictional narrative, part travelogue, part documentary, this unusual film serves as another sign that non-fiction film as we know it is going through a major revolution. Engaging fictional narrative elements to create a ‘mystery,’ Where is Memory is a boldly original and affecting meditation on the nature of complicity and the Third Reich. Masterful use of archival footage matched with contemporary footage of Europe, a haunting score and an inspired mix of realities for a thoughtfully framed poetic odyssey that charts new cinematic territory.\r — Judges’ Award, Northwest International Film Festival","release_date":"1992-01-01"}]}