{"page":11,"total_results":1170,"total_pages":59,"results":[{"vote_count":2,"id":108175,"video":false,"vote_average":6.5,"title":"Woman of Fire","popularity":1.150191,"poster_path":"\/qxrPYjDOsFFnYMvBoMG0YN2bZt.jpg","original_language":"ko","original_title":"Hwanyeo","genre_ids":[27,18,80],"backdrop_path":null,"adult":false,"overview":"A variation on Kim’s classic The Housemaid (1960). The lives of a composer and his wife, who live on a chicken farm, are thrown into turmoil when a femme fatale joins their household.","release_date":"1970-12-31"},{"vote_count":9,"id":362065,"video":false,"vote_average":5.8,"title":"Fire City: End of Days","popularity":1.983838,"poster_path":"\/nM0HeVuKpz8UJSVir3rxvMTMd2H.jpg","original_language":"en","original_title":"Fire City: End of Days","genre_ids":[53,27,14],"backdrop_path":"\/pPDdnFfcGQG2wkKk7reqQuY1DS7.jpg","adult":false,"overview":"Vine, a disillusioned demon, is forced  into a choice to save his brethren or an innocent human girl.","release_date":"2015-06-22"},{"vote_count":3,"id":19812,"video":false,"vote_average":4.8,"title":"Father of Four: Never Gives Up!","popularity":2.737978,"poster_path":"\/qA6xXP6IqhlavuhFTgcCoVQ05ZQ.jpg","original_language":"da","original_title":"Far til fire - gi'r aldrig op!","genre_ids":[35,10751],"backdrop_path":"\/wLEMfjPoSPFzeaUoc4B8zFeY7UH.jpg","adult":false,"overview":"","release_date":"2005-01-10"},{"vote_count":2,"id":19648,"video":false,"vote_average":6,"title":"Father of Four: And Uncle Sofus","popularity":2.737296,"poster_path":"\/sDHa3BezcaKuoLt5g5nkilylHTk.jpg","original_language":"da","original_title":"Far til fire og Onkel Sofus","genre_ids":[35,10751],"backdrop_path":"\/tXc83i1DHjsFmLkOtGypkohhTOu.jpg","adult":false,"overview":"At home in the small family is nothing new. Tiny Per is the school's mischief maker, Sister has heartaches, Mie and Ole has to be in the school play, etc. But suddenly something happens. Good old Uncle Anders has a twin brother in the United States. He called Sofus, and now he comes home to celebrate 70th birthday. He was a troublemaker when he left and now he has become even worse","release_date":"1957-11-25"},{"vote_count":2,"id":222598,"video":false,"vote_average":6,"title":"Donald's Fire Survival Plan","popularity":2.008353,"poster_path":"\/pRo2fdvGPjZ3KpBPbviBz3AOoJc.jpg","original_language":"en","original_title":"Donald's Fire Survival Plan","genre_ids":[],"backdrop_path":null,"adult":false,"overview":"Donald Duck shows how to prevent fire in the home by using a bit of forethought and prevention.","release_date":"1965-05-08"},{"vote_count":2,"id":27535,"video":false,"vote_average":7,"title":"Witchouse III: Demon Fire","popularity":1.520828,"poster_path":"\/tMr8oGWshslr0inmifnd4ApqGeQ.jpg","original_language":"en","original_title":"Witchouse III: Demon Fire","genre_ids":[27],"backdrop_path":null,"adult":false,"overview":"A young woman leaves her abusive boyfriend to go and stay with her two best friends, documentary makers Stevie &amp;  Rose. After an evening of sipping wine in the hot-tub, the three women decide to dabble in a bit of black magic as part of Stevie's latest project, an in-depth expose on contemporary witchcraft.","release_date":"2001-10-16"},{"vote_count":0,"id":175585,"video":false,"vote_average":0,"title":"Fire Fighters","popularity":1.025641,"poster_path":"\/g7DiDVhf9I7wxu0Zka7H498R90l.jpg","original_language":"en","original_title":"Fire Fighters","genre_ids":[10751,35],"backdrop_path":null,"adult":false,"overview":"The gang forms a fire department; they end up thwarting a bootlegger, but not before their pet animals get drunk on his moonshine.","release_date":"1922-10-08"},{"vote_count":32,"id":28430,"video":false,"vote_average":7.3,"title":"The Day the Earth Caught Fire","popularity":2.702847,"poster_path":"\/zVO5uR3Hmeedff9LWn7RnsrCpwl.jpg","original_language":"en","original_title":"The Day the Earth Caught Fire","genre_ids":[878,18],"backdrop_path":"\/qsRXPtDjwnSkhH5gwgVzesP3FKg.jpg","adult":false,"overview":"British reporters suspect an international cover-up of a global disaster in progress... and they're right. Hysterical panic has engulfed the world after the United States and the Soviet Union simultaneously detonate nuclear devices and have caused the orbit of the Earth to alter, sending it hurtling towards the sun.","release_date":"1961-11-01"},{"vote_count":4,"id":119294,"video":false,"vote_average":7.9,"title":"Where's That Fire","popularity":1.300434,"poster_path":"\/c2SNrGxxXuTjGMjeTOpak2BD2G6.jpg","original_language":"en","original_title":"Where's That Fire","genre_ids":[],"backdrop_path":null,"adult":false,"overview":"Capt Viking and his incompetent fire crew accidentally foil a plot to steal the crown jewels.","release_date":"1939-06-29"},{"vote_count":5,"id":143496,"video":false,"vote_average":6.6,"title":"Towers Open Fire","popularity":1.499585,"poster_path":"\/tAcyEFJYuGz6oDuwGLQEHhekNjL.jpg","original_language":"en","original_title":"Towers Open Fire","genre_ids":[878],"backdrop_path":null,"adult":false,"overview":"Antony Balch tackles key themes and ideas from the writing of William S. Burroughs in a unique, cinematic style.","release_date":"1963-01-01"},{"vote_count":0,"id":299906,"video":false,"vote_average":0,"title":"Fire Routine","popularity":1.015435,"poster_path":"\/xvxI2k01D3YcuDuRJ7HFOIsmacm.jpg","original_language":"en","original_title":"Fire Routine","genre_ids":[],"backdrop_path":null,"adult":false,"overview":"Jolly sing-song with an important message; switch off all appliances before going to bed, because your life could depend on it.","release_date":"1979-01-01"},{"vote_count":0,"id":316393,"video":false,"vote_average":0,"title":"Fire Lines","popularity":1.015294,"poster_path":null,"original_language":"en","original_title":"Fire Lines","genre_ids":[],"backdrop_path":null,"adult":false,"overview":"Over twenty countries responded to the call for help on Mount Carmel. To the surprise of many, the Palestinian Civil Defense offered to join the international effort. Through the voices of firefighters who took part, FIRE LINES explores the intersection of humanitarian values and national identities in the face of an ongoing conflict.","release_date":"2014-11-09"},{"vote_count":0,"id":336682,"video":false,"vote_average":0,"title":"Chasing Fire","popularity":1.014823,"poster_path":"\/26IQh6bedgO8i8wgeJtzg5RN9n7.jpg","original_language":"en","original_title":"Chasing Fire","genre_ids":[],"backdrop_path":null,"adult":false,"overview":"Living behind the shadow of her mother, Kristin falls in love with Shane, an aspiring musician, whom she soon discovers to have something innately in common with her.","release_date":"2013-09-08"},{"vote_count":2,"id":25920,"video":false,"vote_average":6,"title":"Born of Fire","popularity":1.497483,"poster_path":"\/3jFhUK9KJW6rFwJ4qVr4Vsa5rnB.jpg","original_language":"en","original_title":"Born of Fire","genre_ids":[878,14,27,18,9648],"backdrop_path":"\/kQYRnXtYjibON7NqECepcPpL6jN.jpg","adult":false,"overview":"A musician searches for the Master Flautist, a supernatural creature who is planning to blow up the world.","release_date":"1987-01-01"},{"vote_count":0,"id":501310,"video":false,"vote_average":0,"title":"Fire Escape","popularity":1.013718,"poster_path":null,"original_language":"en","original_title":"Fire Escape","genre_ids":[16],"backdrop_path":null,"adult":false,"overview":"Minnie's apartment building is burning and Mickey attempts to save her. But first, he must also tend to every single one of the building's other tenants as well.","release_date":"2014-04-25"},{"vote_count":2,"id":4945,"video":false,"vote_average":5,"title":"Man on Fire","popularity":1.494075,"poster_path":"\/qBW0cjg8q47wK99QH8vaeKBCbz9.jpg","original_language":"en","original_title":"Man on Fire","genre_ids":[18],"backdrop_path":"\/mHxSZABGqzIdNbMvedNHP28IdTP.jpg","adult":false,"overview":"A businessman's (Bing Crosby) lawyer (Inger Stevens) sees him through a custody battle with his ex-wife (Mary Fickett) over their son.","release_date":"1957-08-22"},{"vote_count":6,"id":189055,"video":false,"vote_average":5.7,"title":"Fire Rescue Scene","popularity":1.491231,"poster_path":"\/g7oz2UNzkKGcpJ6WyS9RUpCKokK.jpg","original_language":"en","original_title":"Fire Rescue Scene","genre_ids":[18,99],"backdrop_path":null,"adult":false,"overview":"\"Firemen in working uniform, rubber coats, helmets, and boots. Thrilling rescue from burning building. Smoke effects are fine.\" - from the Edison Catalog","release_date":"1894-12-01"},{"vote_count":2,"id":44074,"video":false,"vote_average":6,"title":"Cease Fire","popularity":1.120429,"poster_path":"\/h9zsL0mDLjk9dAoctBkyuMwprKT.jpg","original_language":"fa","original_title":"آتش بس","genre_ids":[35,18,10749],"backdrop_path":"\/54iCNJn2uWow00MUqR3FKor9azE.jpg","adult":false,"overview":"A couple (Golzar &amp; Afshar) who have been bickering &amp; fighting from day one, are contemplating divorce until by chance they both end up visiting a therapist (Pesiani) who dishes them the secrets of a good relationship. Various episodes from the couple's married life are represented as flashbacks in a lighthearted manner.","release_date":"2006-01-01"},{"vote_count":0,"id":322776,"video":false,"vote_average":0,"title":"Angel On Fire","popularity":1.014706,"poster_path":"\/cArnw70532TBLjeoLJa9xqRAfsF.jpg","original_language":"cn","original_title":"喋血柔情","genre_ids":[28,80],"backdrop_path":"\/tVQSRTgYOHUYUYpsDRZUd969ZJe.jpg","adult":false,"overview":"A beautiful supermodel-turned-gangster double crosses her ruthless partners after the gang steals a precious relic from a Manila museum. now an enterprising young Interpol agent, with the help of a comical taxi driver, must stop the vicious gang and return the relic to its rightful owners.","release_date":"1995-01-01"},{"vote_count":0,"id":398127,"video":false,"vote_average":0,"title":"Fire Work","popularity":1.009412,"poster_path":"\/idyqhgEim55DdQcvME9t2bnoovC.jpg","original_language":"en","original_title":"Fire Work","genre_ids":[],"backdrop_path":null,"adult":false,"overview":"The video connects Irish ghost estates, a Hollywood film shoot in Glasgow, a hearsay story about a man finding playing cards, and two misplaced mosaics in Edinburgh, by using elements of a living room. The room is inhabited by an unreliable narrator, who explores facts, fiction and his personal memories whilst telling the story. The connections made are sometimes obvious, sometimes obscure, all of them originating from the psychogeographical surroundings of the main protagonist.","release_date":"2013-01-01"}]}