{"page":8,"total_results":567,"total_pages":29,"results":[{"vote_count":0,"id":271073,"video":false,"vote_average":0,"title":"Where the Outback Ends","popularity":1.25,"poster_path":"\/p8yn8xMLLIXzkani8EdNN8TnRrb.jpg","original_language":"en","original_title":"Where the Outback Ends","genre_ids":[],"backdrop_path":null,"adult":false,"overview":"Daisy, a gun-toting grumpy old battle-axe, eeking out her life in a tumbledown shack in the middle of nowhere. Into her life stumbles Simon, a mild-mannered accountant. Together, they form an uneasy alliance that is hilarious to watch. Gradually he helps her rediscover her zestful youth in return for stability in his troubled life.","release_date":"1988-06-01"},{"vote_count":0,"id":518334,"video":false,"vote_average":0,"title":"Where Eagles Dare","popularity":1.25,"poster_path":null,"original_language":"en","original_title":"Where Eagles Dare","genre_ids":[],"backdrop_path":null,"adult":false,"overview":"Clint Eastwood, Richard Burton old school war film.","release_date":""},{"vote_count":0,"id":489890,"video":false,"vote_average":0,"title":"Where Mothbloods Bloom","popularity":1.25,"poster_path":"\/d3LqWZRIyxtcBK5OCtk35lvzprK.jpg","original_language":"en","original_title":"Where Mothbloods Bloom","genre_ids":[],"backdrop_path":null,"adult":false,"overview":"Autumn, fed up and exhausted, cuts ties with her heroin addict boyfriend in a gas station parking lot. Stranded and alone, she approaches a semi-truck driver eating by himself. The two strangers awkwardly share a table.","release_date":""},{"vote_count":0,"id":274571,"video":false,"vote_average":0,"title":"Where Were You When I Needed You","popularity":1.602283,"poster_path":"\/qMRhuPLtOCZhJ3HKsRajZI9BnpO.jpg","original_language":"en","original_title":"Nasaan Ka Nang Kailangan Kita","genre_ids":[],"backdrop_path":null,"adult":false,"overview":"A young woman, Cristy (Snooky Serna), must reconcile the choices she makes for her future with the demands of her overbearing mother, Rosa (Susan Roces), in this intricate Filipino drama. When Cristy's father, Julio (Eddie Garcia), abandons the family for his rich mistress, Jenny (Hilda Koronel), Rosa refuses to let Cristy attend college. Tension mounts when Cristy not only seeks help from her dad but also falls in love with Jenny's brother.","release_date":"1986-09-18"},{"vote_count":1,"id":317357,"video":false,"vote_average":7,"title":"Where There's Smoke","popularity":1.051064,"poster_path":null,"original_language":"en","original_title":"Where There's Smoke","genre_ids":[],"backdrop_path":null,"adult":false,"overview":"The boys wake Deputy Dawg up: the tool shed's on fire. It burns before they can put it out. Then the city hall burns, too. The Sheriff warns Deputy: Form a new fire department made up of volunteers, or you will be out of a job.","release_date":"1962-01-12"},{"vote_count":4,"id":114143,"video":false,"vote_average":5,"title":"The Inn Where No Man Rests","popularity":1.559719,"poster_path":"\/rykGNFLOY3FosNMjgJVcETeh4Zz.jpg","original_language":"fr","original_title":"L’Auberge du bon repos","genre_ids":[14,35],"backdrop_path":null,"adult":false,"overview":"A traveller is shown to a room in an inn. After a brief dispute with the hostess and a porter, he is left to himself. But strange things begin to happen in his room, and before long he has created a disturbance that has everyone running to his room to find out what is going on.","release_date":"1903-01-01"},{"vote_count":14,"id":169314,"video":false,"vote_average":5.7,"title":"Where The Dead Go to Die","popularity":1.546264,"poster_path":"\/zmPd0x4ox5tY4owVy12vifXxOcL.jpg","original_language":"en","original_title":"Where The Dead Go to Die","genre_ids":[16,14,27],"backdrop_path":null,"adult":false,"overview":"A troubled group of children living on the same block are haunted by a talking dog named Labby who brings them on surreal hell-rides between different dimensions and time periods.","release_date":"2012-02-01"},{"vote_count":5,"id":100684,"video":false,"vote_average":7.6,"title":"Where the Wild Things Are","popularity":1.500927,"poster_path":"\/uhUsuwsmiHNk8u4DnRorq4BofxH.jpg","original_language":"en","original_title":"Where the Wild Things Are","genre_ids":[16,10751,14],"backdrop_path":"\/nonHBqZWvJ9RPlrIb6E8KFAa3AL.jpg","adult":false,"overview":"A young boy named Max who, after dressing in his wolf costume, wreaks such havoc through his household that he is sent to bed without his supper. Max's bedroom undergoes a mysterious transformation into a jungle environment, and he winds up sailing to an island inhabited by malicious beasts known as the \"Wild Things.\" After successfully intimidating the creatures, Max is hailed as the king of the Wild Things and enjoys a playful romp with his subjects. However, he starts to feel lonely and decides to return home, to the Wild Things' dismay. Upon returning to his bedroom, Max discovers a hot supper waiting for him.","release_date":"1975-10-01"},{"vote_count":0,"id":490907,"video":false,"vote_average":0,"title":"Where is Tomorrow, Shuji Terayama","popularity":1.161959,"poster_path":"\/d6VIz5ZxQFjgQPJXal4QwCHEWca.jpg","original_language":"ja","original_title":"Ashita wa docchi da, Terayama Shûji","genre_ids":[99],"backdrop_path":null,"adult":false,"overview":"The documentary to find the \"true Shuji Terayama\".","release_date":"2017-12-02"},{"vote_count":1,"id":85415,"video":false,"vote_average":8,"title":"Where Eskimos Live","popularity":1.1769,"poster_path":"\/tQv1UgVp6xijEb7viLe3Yx7iQ5c.jpg","original_language":"en","original_title":"Where Eskimos Live","genre_ids":[18],"backdrop_path":"\/wHugAGaLTSXSabbixaf4bfi7B0d.jpg","adult":false,"overview":"Sharkey, part of the sinister world of child trade, picks up Vlado, an orphan of war, dreaming of freedom and a better life. They embark upon a strange and enlightening journey through war torn Bosnia. As they struggle to get out of the country and fight to stay alive, they find a special love and compassion from which emerges their ultimate moral and spiritual redemption.","release_date":"2002-01-11"},{"vote_count":2,"id":79901,"video":false,"vote_average":7.5,"title":"Where There's a Will","popularity":1.512182,"poster_path":"\/hrfN907exZhU3NDgGUrDxYMJG7f.jpg","original_language":"en","original_title":"Where There's a Will","genre_ids":[35],"backdrop_path":"\/9AvRNg9megbpv8QC8kKB5P55ZMF.jpg","adult":false,"overview":"Will Hay plays the pennyless, bungling solicitor Benjamin Stubbins, who arrives at his office to find his insolent office boy (Graham Moffatt) with his feet up on the desk, reading a wild west magazine, which Hay confiscates so that he can read it later.  Stubbins later takes a job from a group of Americans who claim they want him to track down some ancestors of theirs in Scotland. In reality however they want to use his office so they can rob a safe in the room immediately below his office. Stubbins takes the job (which is designed to keep him out of the office).  In the end Stubbins realises his mistake and at a Christmas Eve fancy dress party he informs a group of carol singing policeman about the Americans nefarious activities","release_date":"1936-08-10"},{"vote_count":14,"id":89111,"video":false,"vote_average":7.2,"title":"Where's Firuze?","popularity":2.162106,"poster_path":"\/fatURepili7OkDnKoDN1L1fPign.jpg","original_language":"de","original_title":"Neredesin Firuze","genre_ids":[35,18],"backdrop_path":"\/gLFu0tl7T0dMgvujCfcQVsCu6ms.jpg","adult":false,"overview":"Having failed incredibly many times in attempts to find a big talent and to be rich, the two producers and their only two contracted singers struggle to clean their debts and make their dreams come true, no matter what happens. Being in a tight spot, they rely on a gastarbeiter who they hear sing over the phone. They desperately invite him to Turkey. Then, out of the blue, an inspirational lady, Firuze, shows up and supports the gang both morally and financially. With the support they receive from Firuze, the gang start walking, slowly but decisively, towards their aim. Just when they think they really can turn things around, they learn that Firuze is actually a schizophrenic and they did it all by themselves.","release_date":"2004-02-20"},{"vote_count":3,"id":372227,"video":false,"vote_average":7,"title":"Where is Good?","popularity":1.163655,"poster_path":"\/l8aIEB1VJGE36sudh5LJWhObxQS.jpg","original_language":"en","original_title":"Where is Good?","genre_ids":[],"backdrop_path":null,"adult":false,"overview":"Hannah and Jonas Bailey are considered “Good People.” They are a happily-married, church-going couple who are trying to have a baby.  As conservative, devout Christians they are also pro-life advocates. While Jonas is out of town on business, Hannah goes with her friend Jennifer to a small birthday party. The next morning, Hannah wakes up in a hotel room disoriented and confused about the details of the night before.  Life is unpredictable and sometimes bad things happen to good people. Hannah and Jonas question \"Where is Good?\" while navigating through life's curve balls that have been thrown their way.","release_date":"2015-05-19"},{"vote_count":0,"id":102491,"video":false,"vote_average":0,"title":"Where It's At","popularity":1.010759,"poster_path":"\/twxaN6BqGPP4Kwyxjk1YPADaz2k.jpg","original_language":"en","original_title":"Where It's At","genre_ids":[18],"backdrop_path":null,"adult":false,"overview":"A \"Sixties Generation\" comedy about an offbeat father-son relationship. Dad runs a Las Vegas hotel-casino and his son is a college student with a different set of moral and ethical standards. When they meet in Vegas, they immediately clash in their efforts to understand one another.","release_date":"1969-05-07"},{"vote_count":3,"id":415814,"video":false,"vote_average":7,"title":"Where is Robert Fisher?","popularity":1.150743,"poster_path":"\/iansvzRgFk8L7iq1Ymb32DI9fhn.jpg","original_language":"en","original_title":"Where is Robert Fisher?","genre_ids":[],"backdrop_path":null,"adult":false,"overview":"Explore the disturbing story of one of America's most wanted fugitives, Robert Fisher. Following the brutal murder of his family, Fisher went missing in 2001 - years later, his whereabouts remain unknown.","release_date":"2016-09-13"},{"vote_count":0,"id":263228,"video":false,"vote_average":0,"title":"Where Were You When Michael Jackson Died?","popularity":1.46824,"poster_path":null,"original_language":"en","original_title":"T'étais où quand Michael Jackson est mort?","genre_ids":[],"backdrop_path":null,"adult":false,"overview":"Paris, a few days after the death of the King of Pop and a few days before Christmas, he and she happen to meet in the back seat of a cab. They ride along through the streets, among the city lights, just long enough for an encounter.","release_date":""},{"vote_count":1,"id":142176,"video":false,"vote_average":5,"title":"Where The Buffalo Roam","popularity":1.134387,"poster_path":"\/a92vgZwkw9XICPFJojXmUuCiv7l.jpg","original_language":"en","original_title":"Where The Buffalo Roam","genre_ids":[],"backdrop_path":"\/qxcN9taYJa6qvW2q7CVSfdEiV00.jpg","adult":false,"overview":"Where the Buffalo Roam is a film about the fear of change and leaving the comforting arms of home.  Wandering amongst the plotted rows of houses within the motherly arms of the suburbs, two brothers take advantage of the hours that most spend asleep. They sip liquid courage and shout their dreams aloud, only to hear them echo back in the brisk midwestern fall air.  Twenty-four year old Brad commemorates what seems to be his last night in the suburbs alongside his older brother Tyler, who is on the brink of turning thirty and still living at home. As the hours dwindle until dawn, Brad struggles to confront the realization that all things must change.","release_date":"2012-02-08"},{"vote_count":1,"id":367400,"video":false,"vote_average":5,"title":"Where You Will Never Die","popularity":1.111481,"poster_path":"\/cbCHE7t4Sr6YoChi90zmVckyfst.jpg","original_language":"es","original_title":"Donde nunca morirás","genre_ids":[],"backdrop_path":null,"adult":false,"overview":"Diana is a dreamer and a painter, after the murder of a journalist she meets Leo, another young journalist who finds it impossible to exercise his professional ethics. Both inevitably end up plunging into the rough and limited world of journalism.","release_date":"2015-10-23"},{"vote_count":1,"id":118131,"video":false,"vote_average":5,"title":"Where East is East","popularity":1.118227,"poster_path":"\/4uxKh0mdqZb5O2CgbBof6KgvcNb.jpg","original_language":"en","original_title":"Where East is East","genre_ids":[18],"backdrop_path":"\/c4RdevnLMaRNp3WZnxCBllNH6Sq.jpg","adult":false,"overview":"A Chinese wife returns to the American family she left and moves in on her daughter's (Lupe Velez) beau (Lloyd Hughes).","release_date":"1929-05-04"},{"vote_count":0,"id":173969,"video":false,"vote_average":0,"title":"Where Is Ronny...","popularity":1.006994,"poster_path":"\/zJDNk3d7CpvURCREO5pnNCv2ygY.jpg","original_language":"en","original_title":"Where Is Ronny...","genre_ids":[],"backdrop_path":null,"adult":false,"overview":"With just one punch, a foreign merchant named Ronny (Mahbub Alam) knocks out In-Ho (Yu Jun-Sang) during one of his Taekwondo training classes. In-Ho then goes to find Ronny to recover his dignity. However, what comes next is separation from his wife and being imprisoned..","release_date":"2009-06-04"}]}