{"page":2,"total_results":51,"total_pages":3,"results":[{"vote_count":0,"id":383324,"video":false,"vote_average":0,"title":"Emilia Galotti","popularity":1.007875,"poster_path":null,"original_language":"de","original_title":"Emilia Galotti","genre_ids":[18],"backdrop_path":null,"adult":false,"overview":"","release_date":"1971-07-21"},{"vote_count":0,"id":295424,"video":false,"vote_average":0,"title":"Children Galore","popularity":1.006405,"poster_path":"\/udcS3qZqsHX9VzRG3uzgYfcnmGR.jpg","original_language":"en","original_title":"Children Galore","genre_ids":[35],"backdrop_path":null,"adult":false,"overview":"As a going away gift to a small village, the local Lord and Lady promise a new cottage to the local couple with the most grandchildren. Competitive instincts and petty jealousies ensue.","release_date":"1955-02-01"},{"vote_count":0,"id":222946,"video":false,"vote_average":0,"title":"Bubbles Galore","popularity":1.005722,"poster_path":"\/bRNVAAlHxnUwByOd5N7NnNJMKzb.jpg","original_language":"en","original_title":"Bubbles Galore","genre_ids":[],"backdrop_path":null,"adult":false,"overview":"A bisexual female pornographer searches for sexual and economic independence in a male-dominated industry. But most of all, the girl just wants to have fun.","release_date":"1996-08-25"},{"vote_count":0,"id":284721,"video":false,"vote_average":0,"title":"Emilia Galotti","popularity":1.003583,"poster_path":null,"original_language":"de","original_title":"Emilia Galotti","genre_ids":[18],"backdrop_path":null,"adult":false,"overview":"","release_date":"1960-06-22"},{"vote_count":0,"id":398212,"video":false,"vote_average":0,"title":"Pussy Galore","popularity":1.001648,"poster_path":"\/wLb83kcSRsCZrY9g6pekTmvFlqC.jpg","original_language":"en","original_title":"Pussy Galore","genre_ids":[],"backdrop_path":null,"adult":false,"overview":"No description.","release_date":"1965-12-30"},{"vote_count":0,"id":400201,"video":false,"vote_average":0,"title":"Evariste Galois","popularity":1.001648,"poster_path":"\/5yt2ncZnQbjOsUTZH9V109E0ALn.jpg","original_language":"en","original_title":"Evariste Galois","genre_ids":[],"backdrop_path":null,"adult":false,"overview":"Galois is practicing shooting in preparation for a duel the very next day. His last night.","release_date":"1965-06-01"},{"vote_count":0,"id":243031,"video":false,"vote_average":0,"title":"Gadgets Galore","popularity":1.001177,"poster_path":null,"original_language":"en","original_title":"Gadgets Galore","genre_ids":[99],"backdrop_path":null,"adult":false,"overview":"This Warner Bros. short reviews in an often humorous way the impact of the automobile on the United States. By 1900, the horseless carriage was beginning to have an impact. Early adopters were often the object of attention by large curious crowds. There were many car manufacturers and the quality of their product varied considerably. Traffic jams, pollution and automobile racing were only a few of the outcomes.","release_date":"1955-07-30"},{"vote_count":4,"id":223709,"video":false,"vote_average":5.8,"title":"Rhino Full Throttle","popularity":1.257597,"poster_path":"\/psNHwY1A9QNUtuYfRO8XhJNndb4.jpg","original_language":"de","original_title":"Nashorn im Galopp","genre_ids":[16,18,35,10749],"backdrop_path":null,"adult":false,"overview":"Bruno is making his way through the city searching for its soul. Driven by his curiosity, a challenging imagination and his wild reflection on reality he is lifting the old dusty curtain on the city's crusted perception.","release_date":"2013-02-13"},{"vote_count":0,"id":260761,"video":false,"vote_average":0,"title":"At Full Gallop","popularity":1.049294,"poster_path":"\/bf75kQ5W22leKIQGOmOdX1R6Fq9.jpg","original_language":"en","original_title":"A galope tendido","genre_ids":[],"backdrop_path":null,"adult":false,"overview":"A railway clerk gets his chance to be a cowboy when he suspects his boss of unethical reasons for wanting to close down the office.","release_date":"2000-07-07"},{"vote_count":0,"id":155793,"video":false,"vote_average":0,"title":"The Boy on the Galloping Horse","popularity":1.002544,"poster_path":"\/dwpXLoZa0toCFZ3MspcnUJAsTKl.jpg","original_language":"pl","original_title":"Chlopiec na galopujacym koniu","genre_ids":[],"backdrop_path":"\/cJlhn7TmV2SgujcYet2i8Bj3vtN.jpg","adult":false,"overview":"","release_date":"2006-01-01"},{"vote_count":0,"id":484770,"video":false,"vote_average":0,"title":"Vincent Moscato - Au galop !","popularity":1.141726,"poster_path":null,"original_language":"fr","original_title":"Vincent Moscato - Au galop !","genre_ids":[35],"backdrop_path":null,"adult":false,"overview":"","release_date":"2016-11-15"},{"vote_count":0,"id":224285,"video":false,"vote_average":0,"title":"Secrets Galore Behind the Gore","popularity":1.009468,"poster_path":"\/sH5cjTA0SVwC7wmeMRByxrJnmUc.jpg","original_language":"en","original_title":"Secrets Galore Behind the Gore","genre_ids":[99],"backdrop_path":null,"adult":false,"overview":"Behind the scenes of Friday the 13th.","release_date":"2004-10-05"},{"vote_count":34,"id":751,"video":false,"vote_average":6.6,"title":"Murder at the Gallop","popularity":4.770656,"poster_path":"\/1SMoWzqgdARO6GsepFC3T5jdc9a.jpg","original_language":"en","original_title":"Murder at the Gallop","genre_ids":[18,53,80,9648,35],"backdrop_path":"\/8tCIqcMvVF2rO8O0V1GzwdGK4yl.jpg","adult":false,"overview":"Miss Marple and Mr Stringer are witness to the death of the very old and rich Mr. Enderby by heart attack. Yet they have their doubts about what happened. The police don’t believe them thus leading Miss Marple to yet again investigate by herself. A cult film starring Margaret Rutherford.","release_date":"1963-01-01"},{"vote_count":0,"id":173124,"video":false,"vote_average":0,"title":"Ghosts Galore","popularity":1.095924,"poster_path":"\/eaUzKg2rG4khIXeDlG5AE81kyKK.jpg","original_language":"en","original_title":"滿天神佛","genre_ids":[14,28,12,27],"backdrop_path":null,"adult":false,"overview":"Veteran Lo Lieh, once again playing an evil black-magic priest, unleashes some particulary nasty Japanese ghosts on a peaceful Chinese village.","release_date":"1983-02-06"},{"vote_count":0,"id":164029,"video":false,"vote_average":0,"title":"À la vitesse d'un cheval au galop","popularity":1.002314,"poster_path":"\/o92pf7mnPVUPyCJbb6YeMt3wUli.jpg","original_language":"en","original_title":"À la vitesse d'un cheval au galop","genre_ids":[],"backdrop_path":null,"adult":false,"overview":"The film tells the story of a group of pensioners desperate to visit Le Mont-Saint-Michel.","release_date":"1992-05-27"},{"vote_count":0,"id":426909,"video":false,"vote_average":0,"title":"Desfile de rurales al galope el 16 de septiembre","popularity":1.001648,"poster_path":"\/6TTJjQVdPZj5W8n3VZb6Lr1B2Ue.jpg","original_language":"en","original_title":"Desfile de rurales al galope el 16 de septiembre","genre_ids":[],"backdrop_path":null,"adult":false,"overview":"A clip by Gabriel Veyre showing horses galloping at a Mexican festival.","release_date":"1896-11-20"},{"vote_count":65,"id":300792,"video":false,"vote_average":7.9,"title":"Racing Extinction","popularity":4.566382,"poster_path":"\/39lMauknG5qx0ibqUB4imd1zXRJ.jpg","original_language":"en","original_title":"Racing Extinction","genre_ids":[12,99],"backdrop_path":"\/uJ7nFYD9GyJtUShhZbhh13Hfc68.jpg","adult":false,"overview":"An unlikely team of activists and innovators hatches a bold mission to save endangered species.","release_date":"2015-01-24"},{"vote_count":5,"id":95216,"video":false,"vote_average":4.6,"title":"Babies Galore","popularity":1.998249,"poster_path":"\/s4w0H6FmquWT4VELK3I6duWc5I5.jpg","original_language":"fr","original_title":"Bébés à gogo","genre_ids":[35],"backdrop_path":"\/gP8Sztt3woib6Vdb8ziicCgQoix.jpg","adult":false,"overview":"","release_date":"1956-06-08"},{"vote_count":0,"id":51643,"video":false,"vote_average":0,"title":"Unexpected Guest","popularity":1.001694,"poster_path":"\/oYiYtl1uiaTCfytwEnUjzNbuNze.jpg","original_language":"en","original_title":"Unexpected Guest","genre_ids":[37],"backdrop_path":"\/vWcxigfPrCyo8FFxzyciwF9mr69.jpg","adult":false,"overview":"At the reading of his late cousin's will, California learns the estate will be divied among whoever remains of the seven relatives. With one already dead, another immediately murdered, and the Lawyer telling them the ranch is almost worthless, Hoppy investigates.","release_date":"1947-03-28"},{"vote_count":17,"id":430406,"video":false,"vote_average":6.2,"title":"Running Wild","popularity":4.517974,"poster_path":"\/3tfc2ga4JnWjZGvhKlAPIvOVMBy.jpg","original_language":"en","original_title":"Running Wild","genre_ids":[18],"backdrop_path":"\/wSi24csxaLm8vWAeqTPyH4WoenI.jpg","adult":false,"overview":"Stella Davis is a widow who saves her ranch by working with convicts to rehabilitate a herd of wild horses that wandered on to her property. Stella must fight prejudice, greed, bureaucracy and vanity (including her own) to finally understand that there is no better remedy to misfortune than helping another living creature.","release_date":"2017-02-10"}]}