{"page":24,"total_results":1170,"total_pages":59,"results":[{"vote_count":0,"id":287851,"video":false,"vote_average":0,"title":"Night Club on Fire","popularity":1.002353,"poster_path":null,"original_language":"en","original_title":"Night Club on Fire","genre_ids":[],"backdrop_path":null,"adult":false,"overview":"Foreign, Foreign Action &amp; Adventure, Foreign Dramas, Hong Kong, Mandarin Language, Cantonese Language, Foreign Regions, Foreign Languages - Competition heats up the night in this drama about the ladies who work at the Golden Pond club. Tensions rise as the owner of a rival establishment tries to lure in customers by persuading the Golden Pond's madam and her lovelies to defect to the Phoenix club. The situation escalates, and it's not long before the Golden Pond girls' lives are in danger. Diana Pang Dan, Charlie Cho Cha-Lei and K.K. Cheung Kwok-Keung star. Diana Pang Dan, Charlie Cho Cha-Lei and K.K. Cheung Kwok-Keung star.","release_date":"2003-01-01"},{"vote_count":0,"id":278570,"video":false,"vote_average":0,"title":"The Fire Yogi","popularity":1.002353,"poster_path":null,"original_language":"en","original_title":"The Fire Yogi","genre_ids":[],"backdrop_path":null,"adult":false,"overview":"Documentary, Faith &amp; Spirituality Documentaries, Social &amp; Cultural Documentaries, Faith &amp; Spirituality - Witness a timeless rite of healing and purification as a 63-year-old yogi reclines in a bed of fire. This documentary reveals the mental and physical discipline that allows him to perform this stunning act. Confounding modern science, the yogi subsists on two bananas, a glass of milk and a trickle of water each day, deriving strength from meditation and breathing techniques. The result is the ability to endure, unharmed, a centuries-old ritual.","release_date":"2004-01-01"},{"vote_count":0,"id":348691,"video":false,"vote_average":0,"title":"Aim, Fire, Scoot","popularity":1.002331,"poster_path":null,"original_language":"en","original_title":"Aim, Fire, Scoot","genre_ids":[],"backdrop_path":null,"adult":false,"overview":"Joe and his sergeant fall for the same girl.","release_date":"1952-03-13"},{"vote_count":0,"id":331577,"video":false,"vote_average":0,"title":"The New Fire Chief","popularity":1.001746,"poster_path":null,"original_language":"en","original_title":"The New Fire Chief","genre_ids":[35],"backdrop_path":null,"adult":false,"overview":"Small-town businessmen decide to establish a Fire Department; they lack polish, at first.","release_date":"1912-12-19"},{"vote_count":0,"id":93336,"video":false,"vote_average":0,"title":"Baptism of Fire","popularity":1.00169,"poster_path":"\/dSwcYFEZoBU6qrm9skRKwrupkM3.jpg","original_language":"en","original_title":"Baptism of Fire","genre_ids":[],"backdrop_path":null,"adult":false,"overview":"This 1943 Army training film was nominated for an Academy Award for Best Documentary in 1944.","release_date":"1943-12-01"},{"vote_count":0,"id":311687,"video":false,"vote_average":0,"title":"The Fire Patrol","popularity":1.001683,"poster_path":"\/bQhgMiNRoZCzVSbgEs7iOOVbiZj.jpg","original_language":"en","original_title":"The Fire Patrol","genre_ids":[18],"backdrop_path":null,"adult":false,"overview":"","release_date":"1924-08-14"},{"vote_count":0,"id":168283,"video":false,"vote_average":0,"title":"Fire on the Mountain","popularity":1.001662,"poster_path":null,"original_language":"en","original_title":"Fire on the Mountain","genre_ids":[99],"backdrop_path":null,"adult":false,"overview":"A documentary film about the exploits of the Tenth Mountain Division, an elite group of mountain climbers who fought decisive battles against the Nazis in the Italian Alps during the final days of World War II. From the intensive training atop the Colorado Rockies to the spectacular night climb of Italy's Riva Ridge.","release_date":"1996-11-29"},{"vote_count":0,"id":236824,"video":false,"vote_average":0,"title":"Christmas Under Fire","popularity":1.001524,"poster_path":"\/iwbx6cfkd9hpFRGrAZMT8w6Lia4.jpg","original_language":"en","original_title":"Christmas Under Fire","genre_ids":[],"backdrop_path":null,"adult":false,"overview":"How Britain coped with a Christmas during the war.","release_date":"1941-01-01"},{"vote_count":0,"id":269748,"video":false,"vote_average":0,"title":"Fire in My Heart","popularity":1.00129,"poster_path":null,"original_language":"en","original_title":"Fire in My Heart","genre_ids":[],"backdrop_path":null,"adult":false,"overview":"Fire in My Heart","release_date":"1996-05-14"},{"vote_count":0,"id":460960,"video":false,"vote_average":0,"title":"Keepers Of The Fire","popularity":1.001276,"poster_path":"\/wHj0bsWQu8btupiuUUnXWpxIqD3.jpg","original_language":"en","original_title":"Keepers Of The Fire","genre_ids":[99],"backdrop_path":null,"adult":false,"overview":"For half of a millennium, First Nations women have been at the forefront of aboriginal peoples' resistance to cultural assimilation. Today, Native women are still fighting for the survival of their cultures and their peoples--in the rain forest and the city, in the courts and the legislatures, in the Longhouse and the media. Keepers of the Fire profiles Canada's Native 'warrior women' who are protecting and defending their land, their culture and their people in the time-honoured tradition of their foremothers.","release_date":"1994-04-23"},{"vote_count":0,"id":183776,"video":false,"vote_average":0,"title":"Parrotville Fire Department","popularity":1.001256,"poster_path":"\/DATHlVhuUelBaEnY5HTvi2NVIo.jpg","original_language":"en","original_title":"Parrotville Fire Department","genre_ids":[],"backdrop_path":null,"adult":false,"overview":"2nd Cartoon in the Rainbow Parade Series By Van Beuren.","release_date":"1934-09-13"},{"vote_count":0,"id":189619,"video":false,"vote_average":0,"title":"Playing with Fire","popularity":1.001247,"poster_path":null,"original_language":"en","original_title":"Playing with Fire","genre_ids":[],"backdrop_path":null,"adult":false,"overview":"Cartoon classic starring Mutt and Jeff.","release_date":"1926-09-01"},{"vote_count":0,"id":442979,"video":false,"vote_average":0,"title":"Fighting the Fire Bomb","popularity":1.001189,"poster_path":null,"original_language":"en","original_title":"Fighting the Fire Bomb","genre_ids":[],"backdrop_path":null,"adult":false,"overview":"Documentary short explaining proper techniques for handling and disposal of incendiary bombs.","release_date":"1941-12-29"},{"vote_count":0,"id":513033,"video":false,"vote_average":0,"title":"Fire from Olympia","popularity":1.001181,"poster_path":null,"original_language":"en","original_title":"Fire from Olympia","genre_ids":[],"backdrop_path":null,"adult":false,"overview":"Documentary exploring the origins of the modern Olympic Games by following three athletes from Italy, Greece and Spain (all ancient Greek colonies) as they partake and examine the ancient sporting methods in Greece and two English Olympicks of the 19th century which were the forerunners and inspiration for the modern day Olympics.","release_date":""},{"vote_count":0,"id":202057,"video":false,"vote_average":0,"title":"The Fire Alarm","popularity":1.001177,"poster_path":"\/bAlMDYC67mmjI3BKAD19IWsaxls.jpg","original_language":"en","original_title":"The Fire Alarm","genre_ids":[35,16,10751],"backdrop_path":null,"adult":false,"overview":"2 puppets are left to their uncle's attention who works at the Fire house.","release_date":"1936-03-08"},{"vote_count":0,"id":401956,"video":false,"vote_average":0,"title":"Line of Fire","popularity":1.001177,"poster_path":"\/qHPLu9Rug7T6uIoYbWq9qxueKEx.jpg","original_language":"en","original_title":"Line of Fire","genre_ids":[],"backdrop_path":null,"adult":false,"overview":"In November of 1993, director Dominic Angerame was diagnosed with coronary arterial disease. A subsequent angiogram revealed that open heart surgery was necessary. The angiogram was filmed originally on 35mm motion picture film. Two years later, in March of 1995, his apartment burned down in the early morning hours. He was able to return to the scene the next day in order to film the aftermath. LINE OF FIRE is a blend of footage from these two episodes and explores the temporal nature of the lives we live.","release_date":"1997-01-01"},{"vote_count":0,"id":420092,"video":false,"vote_average":0,"title":"The Signal Fire","popularity":1.001177,"poster_path":null,"original_language":"en","original_title":"The Signal Fire","genre_ids":[],"backdrop_path":null,"adult":false,"overview":"A short romantic drama in which a captain and his wife are separated by a shipwreck. The woman ends up on a desert island with another man, and they have a relationship. When they are saved by the captain, he decides to stay behind on the island, alone.","release_date":"1912-09-25"},{"vote_count":0,"id":500790,"video":false,"vote_average":0,"title":"Crown of Fire","popularity":1.001177,"poster_path":"\/35VYWbtrvw5yWW6sGU67XlOi2bZ.jpg","original_language":"en","original_title":"Crown of Fire","genre_ids":[16],"backdrop_path":null,"adult":false,"overview":"Crown of Fire takes us on a journey into the cloistered world of renowned Benedictine artist, Dunstan Massey, OSB. Through his animated art work and contemplative encounter with a mysterious patriarch from the past, he tells the story of Benedict of Nursia. Benedict became the founder of Western monasticism - but not before overcoming a terrifying ordeal in the desert.","release_date":"1998-04-01"},{"vote_count":0,"id":406513,"video":false,"vote_average":0,"title":"Ordeal by Fire","popularity":1.001177,"poster_path":"\/4Q7GIOvM1q5f6JbP6yLjbToak7M.jpg","original_language":"en","original_title":"Ordeal by Fire","genre_ids":[],"backdrop_path":null,"adult":false,"overview":"The Ghost of Monk's Island Part Seven Ordeal by Fire","release_date":"1967-01-01"},{"vote_count":1,"id":457402,"video":false,"vote_average":10,"title":"The Book of Fire","popularity":1.000844,"poster_path":"\/iSkwee0buA8tq5BW3edbLehVRiM.jpg","original_language":"en","original_title":"The Book of Fire","genre_ids":[28,27],"backdrop_path":"\/bAk1xWlK9Iv2pxY5g9AGPt70Hrm.jpg","adult":false,"overview":"","release_date":"2015-11-22"}]}