{"page":3,"total_results":108,"total_pages":6,"results":[{"vote_count":35,"id":31096,"video":false,"vote_average":6.5,"title":"Batman: Dead End","popularity":2.529101,"poster_path":"\/jgHzvzC57DUQoj9iewmW1NxxHtZ.jpg","original_language":"en","original_title":"Batman: Dead End","genre_ids":[28,80],"backdrop_path":"\/zN1qUQ3iGQB8i5vUWm6l4W60hNL.jpg","adult":false,"overview":"After the Joker escapes from Arkham Asylum, Batman catches up with him in a dark alley. But the Dark Knight isn’t the only hunter prowling the streets.","release_date":"2003-01-01"},{"vote_count":17,"id":269246,"video":false,"vote_average":7.5,"title":"Batman Beyond Darwyn Cooke's Batman 75th Anniversary Short","popularity":2.986208,"poster_path":"\/htStH5hUh823rKRaFfccGxpD4N.jpg","original_language":"en","original_title":"Batman Beyond Darwyn Cooke's Batman 75th Anniversary Short","genre_ids":[28,16,878,10770],"backdrop_path":"\/ssUR1IOGVP4Mdu7lzcSiyCJNa5b.jpg","adult":false,"overview":"Terry faces off against a much younger Batman","release_date":"2014-04-19"},{"vote_count":2,"id":264203,"video":false,"vote_average":5,"title":"Batman Legends","popularity":1.555715,"poster_path":"\/p1kvRZ9MLn70nefJEHMNc8jzxiq.jpg","original_language":"en","original_title":"Batman Legends","genre_ids":[28],"backdrop_path":null,"adult":false,"overview":"A four minute short presenting the diverse gallery of Batmans friends and foes in Gotham City.","release_date":"2006-04-10"},{"vote_count":14,"id":484862,"video":false,"vote_average":7,"title":"Scooby-Doo! & Batman: The Brave and the Bold","popularity":5.736225,"poster_path":"\/hSPeF1zoYH8kCOhFMu7x3B55zu6.jpg","original_language":"en","original_title":"Scooby-Doo! & Batman: The Brave and the Bold","genre_ids":[16],"backdrop_path":"\/jzJGD1aWW7ls6KCCRDIGP7MfdJk.jpg","adult":false,"overview":"Batman teams up with the Scooby gang when villains from both of their worlds unite to wreak havoc on the city. Featuring classic DC villains like the Joker, Catwoman, Harley Quinn and the Riddler  alongside heroes like Aquaman, Black Canary, and Plastic Man. Also featuring classic Scooby-Doo villains like the Ghost Clown, Space Kook, and Miner 49er.","release_date":"2018-01-09"},{"vote_count":6,"id":204649,"video":false,"vote_average":7,"title":"Batman: Beyond Batman","popularity":1.218973,"poster_path":"\/zMY2QVCN9z6YH0eS32NOrSss0gb.jpg","original_language":"en","original_title":"Batman: Beyond Batman","genre_ids":[],"backdrop_path":null,"adult":false,"overview":"Behind the scenes documentary highlighting production design, props &amp; gadgets, batmobile\/batsuit design, and the music of the 1989 Batman.","release_date":"2005-07-04"},{"vote_count":50,"id":411736,"video":false,"vote_average":7,"title":"Batman: Return of the Caped Crusaders","popularity":4.226703,"poster_path":"\/GW3IyMW5Xgl0cgCN8wu96IlNpD.jpg","original_language":"en","original_title":"Batman: Return of the Caped Crusaders","genre_ids":[28,16,35],"backdrop_path":"\/4HriXH0XmceHwW6FVFcl3KPUaVY.jpg","adult":false,"overview":"Adam West and Burt Ward returns to their iconic roles of Batman and Robin. Featuring the voices of Adam West, Burt Ward, and Julie Newmar, the film sees the superheroes going up against classic villains like The Joker, The Riddler, The Penguin and Catwoman, both in Gotham City… and in space.","release_date":"2016-10-08"},{"vote_count":5,"id":404463,"video":false,"vote_average":4.7,"title":"Batman: Dante","popularity":1.362585,"poster_path":"\/ddN4llIRFVN7XVtbLpaE8RisAgH.jpg","original_language":"en","original_title":"Batman: Dante","genre_ids":[28,80,18],"backdrop_path":"\/dnlWUcxsSotZzH5h4B3yavsUJFY.jpg","adult":false,"overview":"Batman intervenes in the life of a junkie.","release_date":"2016-08-05"},{"vote_count":10891,"id":49026,"video":false,"vote_average":7.6,"title":"The Dark Knight Rises","popularity":49.984169,"poster_path":"\/dEYnvnUfXrqvqeRSqvIEtmzhoA8.jpg","original_language":"en","original_title":"The Dark Knight Rises","genre_ids":[28,80,18,53],"backdrop_path":"\/f6ljQGv7WnJuwBPty017oPWfqjx.jpg","adult":false,"overview":"Following the death of District Attorney Harvey Dent, Batman assumes responsibility for Dent's crimes to protect the late attorney's reputation and is subsequently hunted by the Gotham City Police Department. Eight years later, Batman encounters the mysterious Selina Kyle and the villainous Bane, a new terrorist leader who overwhelms Gotham's finest. The Dark Knight resurfaces to protect a city that has branded him an enemy.","release_date":"2012-07-16"},{"vote_count":1,"id":138757,"video":false,"vote_average":5,"title":"James Batman","popularity":1.083037,"poster_path":"\/sWa1Y5QhGuJMjw8uuFoggGLqZ0y.jpg","original_language":"en","original_title":"James Batman","genre_ids":[28,12,35,878],"backdrop_path":"\/xSC5TtaGgL3dggKPfZKuWPUg3V4.jpg","adult":false,"overview":"An evil syndicate is set to conquer the world, and the mission is to stop them from fulfilling their viscious plans. The consequences of their failure may mean the destruction of all dissenting countries who stand in their way. All countries must bow to their power before the deadline of five days expires. The solution is sending in their best operatives; James Hika, and the dynamic duo of Batman and Robin. They are first detested with working with each other, but for the safety of the world, they join forces. Through thick and thin, they survive the syndicate's plan to dispose of them. They get closer to stopping the syndicate plan, but there is a traitor in their midst. Will this deter them from achieving their goal?","release_date":"1966-10-26"},{"vote_count":0,"id":451570,"video":false,"vote_average":0,"title":"Batman Jr.","popularity":1.001181,"poster_path":null,"original_language":"en","original_title":"Batman Jr.","genre_ids":[28,18,53],"backdrop_path":null,"adult":false,"overview":"After Batman is murdered by the Jokers son Michael, Batmans son Jeffery  decides to finish his fathers job in this fan made fail.","release_date":""},{"vote_count":16,"id":20776,"video":false,"vote_average":5.8,"title":"Return to the Batcave: The Misadventures of Adam and Burt","popularity":2.772244,"poster_path":"\/9jWkvwp9DNpUGAi57MiRwp3iYLJ.jpg","original_language":"en","original_title":"Return to the Batcave: The Misadventures of Adam and Burt","genre_ids":[35,28,99],"backdrop_path":"\/ncHjygKDhr6nAhnEQDkeH01hrp6.jpg","adult":false,"overview":"Adam West and Burt Ward are taken on a crazy adventure when the Batmobile is stolen from a car museum and they must track down the thief and return it. After solving a puzzle, they realize that the clues to finding the fiend who stole the Batmobile are hidden in their past. During the search, they flashback to their three seasons in tights, including their many sexual escapades.","release_date":"2003-03-09"},{"vote_count":28,"id":300424,"video":false,"vote_average":6.3,"title":"LEGO DC Comics Super Heroes: Batman: Be-Leaguered","popularity":4.793069,"poster_path":"\/qD3xyKbCsaaYYDhksWFxxsE1DWq.jpg","original_language":"en","original_title":"LEGO DC Comics Super Heroes: Batman: Be-Leaguered","genre_ids":[28,12,16,10751],"backdrop_path":"\/6qXvtiL5zIJVswEQxW3hEkWLxzI.jpg","adult":false,"overview":"Superman wants Batman to join his new superhero team, but Batman prides himself on being a self-sufficient loner.","release_date":"2014-10-27"},{"vote_count":5,"id":186579,"video":false,"vote_average":8,"title":"Batman Tech","popularity":1.180248,"poster_path":"\/zbr3DvPXFJkLnxZMGGwXaRVAOxQ.jpg","original_language":"en","original_title":"Batman Tech","genre_ids":[99],"backdrop_path":"\/tVLnQf6AvWKz8yRpoOnfTu0kht4.jpg","adult":false,"overview":"He's caped, cowled and the coolest superhero of them all, because underneath that Batsuit, Batman only has his human strength and intellect to rely on. That and the greatest arsenal of crime fighting weaponry ever devised. But just where does comic book science fiction end and scientific fact begin? What technologies are behind the gadgets in Batman's utility belt? And just how plausible is the Batmobile? Get ready for a real life trip to the Batcave as we reveal the secrets behind Batman Tech.","release_date":"2008-07-20"},{"vote_count":0,"id":499464,"video":false,"vote_average":0,"title":"Gay Batman Forever","popularity":1.75,"poster_path":"\/23j8xF17MkNNCYHzb4CuatWspbp.jpg","original_language":"en","original_title":"Gay Batman Forever","genre_ids":[],"backdrop_path":null,"adult":false,"overview":"Can the dynamic duo resolve their differences and form a unified front against the villains of Gotham?","release_date":""},{"vote_count":1,"id":438741,"video":false,"vote_average":8,"title":"Being Batman","popularity":1.081166,"poster_path":"\/rQAuDMal8WTUaSQprc44AmlW7cf.jpg","original_language":"en","original_title":"Being Batman","genre_ids":[99],"backdrop_path":null,"adult":false,"overview":"Ryan Freeman’s profile documentary, Being Batman, gives us a tiny glimpse into the life of Stephen Lawrence—a man who has self monikered himself the “Brampton Batman.” Lawrence, dressed as the iconic hero, ventures out at night to patrol the city streets. He’s a real-life Bruce Wayne, complete with an outfit and arsenal that would make any cosplayer green with envy.","release_date":"2017-01-30"},{"vote_count":1,"id":392475,"video":false,"vote_average":6,"title":"Batman: Evolution","popularity":1.047136,"poster_path":"\/3rs3Z4Oxameh51IxZyg7BwUYr7l.jpg","original_language":"en","original_title":"Batman: Evolution","genre_ids":[80],"backdrop_path":null,"adult":false,"overview":"Witness how the 60's Batman became the Dark Knight.","release_date":"2014-02-07"},{"vote_count":14490,"id":155,"video":false,"vote_average":8.3,"title":"The Dark Knight","popularity":30.739693,"poster_path":"\/1hRoyzDtpgMU7Dz4JF22RANzQO7.jpg","original_language":"en","original_title":"The Dark Knight","genre_ids":[18,28,80,53],"backdrop_path":"\/hqkIcbrOHL86UncnHIsHVcVmzue.jpg","adult":false,"overview":"Batman raises the stakes in his war on crime. With the help of Lt. Jim Gordon and District Attorney Harvey Dent, Batman sets out to dismantle the remaining criminal organizations that plague the streets. The partnership proves to be effective, but they soon find themselves prey to a reign of chaos unleashed by a rising criminal mastermind known to the terrified citizens of Gotham as the Joker.","release_date":"2008-07-16"},{"vote_count":0,"id":344081,"video":false,"vote_average":0,"title":"Batman Dracula","popularity":1.001749,"poster_path":"\/tOWKUBiqKShhRQ36VMtPq1UVh5x.jpg","original_language":"en","original_title":"Batman Dracula","genre_ids":[53,18],"backdrop_path":null,"adult":false,"overview":"Batman Dracula is a 1964 black and white American film produced and directed by Andy Warhol, without the permission of DC Comics. The film was screened only at Warhol's art exhibits. A fan of the Batman series, Warhol made the movie as a homage. Batman Dracula is considered to be the first film featuring a blatantly campy Batman. The film was thought to have been lost until scenes from it were shown at some length in the documentary Jack Smith and the Destruction of Atlantis (2006). Jack Smith appeared as \"Batman\". (Wikipedia)","release_date":"1964-01-01"},{"vote_count":0,"id":371021,"video":true,"vote_average":0,"title":"Batman and Friends","popularity":1.011765,"poster_path":"\/A3rpdNl5S5JGqMwnpSH8U7bYbfu.jpg","original_language":"en","original_title":"Batman and Friends","genre_ids":[16],"backdrop_path":null,"adult":false,"overview":"Batman and Friends is a single disc DVD release of four episodes of Batman: The Animated Series.  Disc One\r The Underdwellers\r P.O.V.\r The Forgotten\r Be A Clown\r Special features:\r The Lineup\r Voices of Gotham City\r Episode Introductions by Producer\/Director Bruce Timm","release_date":"2014-04-01"},{"vote_count":0,"id":241226,"video":false,"vote_average":0,"title":"Batman: A Gotham Fairytale","popularity":1.410063,"poster_path":"\/bF0I2VlARaOs00jEVKOppiGLVGo.jpg","original_language":"en","original_title":"Batman: A Gotham Fairytale","genre_ids":[16,53,28,18],"backdrop_path":null,"adult":false,"overview":"Composed of over 200 black and white illustrations, it depicts the dark imagination of a little girl as she's listening to her grandmother tell her a bedtime fairytale.","release_date":"2013-09-05"}]}