{"page":23,"total_results":567,"total_pages":29,"results":[{"vote_count":0,"id":299174,"video":false,"vote_average":0,"title":"Where we once walked","popularity":1.013356,"poster_path":"\/7ttQf9eYmVh1F6LinEoZq9ZuL6X.jpg","original_language":"sv","original_title":"Där vi en gång gått","genre_ids":[18],"backdrop_path":"\/qSWfEDjOSaDnn3LWtYhcaUINRGi.jpg","adult":false,"overview":"It is an historical novel set in Helsinki in the period from 1905 until 1944. Among its motifs are the often vain search for happiness, love and prosperity. It tells the stories of the aristocratic Lilliehjelm family, the middle-class Widing family and the poor Kajander family from the Finland's independence through the Civil War and the Roaring Twenties ending during the Second World War.","release_date":"2011-10-28"},{"vote_count":17,"id":27221,"video":false,"vote_average":7.1,"title":"Where the Green Ants Dream","popularity":4.04728,"poster_path":"\/bIN2AAjTpQ2cmFTcXcVbYqP5tLk.jpg","original_language":"de","original_title":"Wo die grünen Ameisen träumen","genre_ids":[18],"backdrop_path":"\/lHLqket3105qT7spdszLzG3YhV3.jpg","adult":false,"overview":"Extraordinary images from Werner Herzog. Shot in the Australian Outback the Aborigines (in this film anyway) believe that this is the place where the green ants go to dream, and that if their dreams are disturbed, it will bring down disaster on us all. The Aborigines' belief is not shared by a giant mining company, which wants to tear open the soil and search for uranium.","release_date":"1984-08-31"},{"vote_count":0,"id":196673,"video":false,"vote_average":0,"title":"Where have I seen him?","popularity":1.004453,"poster_path":"\/sxH6WqbYeU5nVVEQpP5kPQiS586.jpg","original_language":"ru","original_title":"Где я его видел?","genre_ids":[16,10751],"backdrop_path":"\/dN2hdSjE7A7djs0xjQ2EUAmC082.jpg","adult":false,"overview":"Adventure of Mr. Promise - the one who promises and never does...","release_date":"1965-06-06"},{"vote_count":6,"id":32218,"video":false,"vote_average":5.2,"title":"Dude, Where's the Party?","popularity":1.45072,"poster_path":"\/kwVXOH3hA2uJiiaaiWbVqgpRDk8.jpg","original_language":"en","original_title":"Where's the Party Yaar?","genre_ids":[35],"backdrop_path":"\/anA4fjTvuEPQcYQZHhDZKGluKuR.jpg","adult":false,"overview":"The film is based on Sunil Thakkar's own experiences running and throwing parties for the Music Masala radio station, and having to discriminate between \"Fresh off the Boat\" Indians and the more fashionable, hip, Americanized Indians. Ironically enough, Thakkar's character in the film is exactly the type of person he barred from parties in those days.","release_date":"2004-05-24"},{"vote_count":0,"id":320347,"video":false,"vote_average":0,"title":"Osun Asejire - where the goddess lives","popularity":1.005882,"poster_path":null,"original_language":"en","original_title":"Osun Asejire - where the goddess lives","genre_ids":[],"backdrop_path":null,"adult":false,"overview":"Osun is one of the most important of all the Yoruba pantheons. Myths regards her as the only female goddess among the heavenly bodies that God sent to help create the Earth.\/n Osun was (is) powerful, greatly adored, respected and feared among her male peers. Osun is being worshiped in most Yoruba towns ever since as a mother of all, giver of prosperity, wealth, children, healer of diseases and infirmities, pillar of support in time of distress and so on.\/n One of the worshiping points of Osun goddess across Yorubaland is Osun Asejire where the goddess dwells and where the spirituality of the goddess is very real. Osun is termed Asejire at Olukeye village in Ibadanland, the border town between Ibadan city and Ikire town - both in Oyo and Osun states of Nigeria respectively.\/n The word \"A se ejire\" in Yorubaland literally means two jolly friends - the two friends, so to say.","release_date":"2011-01-01"},{"vote_count":0,"id":236574,"video":false,"vote_average":0,"title":"Twinkletoes - Where He Goes Nobody Knows","popularity":1.004735,"poster_path":null,"original_language":"en","original_title":"Twinkletoes - Where He Goes Nobody Knows","genre_ids":[],"backdrop_path":null,"adult":false,"overview":"Twinkletoes, the incompetent carrier pigeon, is charged with the task of delivering a package, little guessing that it contains a time bomb.","release_date":"1941-06-26"},{"vote_count":0,"id":380921,"video":false,"vote_average":0,"title":"Waalo Fendo - Where the Earth Freezes","popularity":1.001649,"poster_path":null,"original_language":"en","original_title":"Waalo Fendo - Where the Earth Freezes","genre_ids":[18],"backdrop_path":null,"adult":false,"overview":"Milan, like Paris or Stuttgart, and like many other European cities, is the theater of the drama of immigration. Demba reconstructs his story and that of his brother Yaro, both Senegalese immigrants in Italy, in a long and fragmentary flashback that begins with Yaro’s murder and recounts their departure from the village, arrival in Europe, the work they find selling lighters and picking tomatoes in the south of Italy: the stages every “non-EEC citizen” goes through in Italy.","release_date":"1998-02-02"},{"vote_count":0,"id":122319,"video":false,"vote_average":0,"title":"Where I Stand: The Hank Greenspun Story","popularity":1.000242,"poster_path":"\/fLJYaf73gxbrKcTrlafyUTjfySA.jpg","original_language":"en","original_title":"Where I Stand: The Hank Greenspun Story","genre_ids":[],"backdrop_path":null,"adult":false,"overview":"Convicted gun runner, Las Vegas visionary, crusading newspaper publisher, target of the Watergate burglars, hero of Israels War of Independence...these are only some the highlights of Hank Greenspun's remarkable life. A previously untold story of a genuine American hero. From his early days working for Bugsy Siegel and his secret life in the underground Haganah to his public battles with Senator Joseph McCarthy, bigoted casino owners and the IRS, Hank Greenspun was fearless.","release_date":""},{"vote_count":0,"id":323506,"video":false,"vote_average":0,"title":"Ancient School - Where Do We Come From?","popularity":1,"poster_path":null,"original_language":"en","original_title":"Ancient School - Where Do We Come From?","genre_ids":[],"backdrop_path":null,"adult":false,"overview":"Explore the scientific views of how life came into being, and more specifically how humans come into the evolutionary picture. We also explore the 1st cultures we have found on earth tracing back to our oldest known civilizations currently around 4,000 B.C. A time when most cultures around the world said their living gods walked among them. It's not limited to just the Christian bible saying \"there were giants upon the earth\". All cultures speak of this time as not a myth.","release_date":""},{"vote_count":0,"id":335251,"video":false,"vote_average":0,"title":"The Land Where the Blues Began","popularity":1,"poster_path":"\/c7KGfBQrTAwTqvXywnPwkvkaDno.jpg","original_language":"en","original_title":"The Land Where the Blues Began","genre_ids":[],"backdrop_path":null,"adult":false,"overview":"An exploration of the musical and social origins of the blues, shot on location in Mississippi in 1978 by Alan Lomax, John Bishop, and Worth Long in association with the Mississippi Authority for Educational Television and broadcast on PBS in 1980. This re-release in 2009 includes two hours of additional music.","release_date":"1979-12-01"},{"vote_count":1,"id":197918,"video":false,"vote_average":6,"title":"Where Are You Going All Naked?","popularity":1.749024,"poster_path":"\/2Npbe3sA9myL5bT3zrEKBLM2bCq.jpg","original_language":"it","original_title":"Dove vai tutta nuda?","genre_ids":[35],"backdrop_path":"\/stzwJhu8bAEyTvMOZKrMj2siCgG.jpg","adult":false,"overview":"Young bank employee is very surprised by his bride behavior...","release_date":"1969-09-12"},{"vote_count":3,"id":175484,"video":true,"vote_average":6.7,"title":"Where the Wild Things Are... and other Maurice Sendak Stories","popularity":1.175314,"poster_path":"\/gVNS7J2XTQkx88RRgl4mpyHx3KE.jpg","original_language":"en","original_title":"Where the Wild Things Are... and other Maurice Sendak Stories","genre_ids":[16,10751,14],"backdrop_path":"\/cgtPsdHkaMIGvs9iSVsegCxrKJM.jpg","adult":false,"overview":"Part of the Scholastic Video Collection, \"Where the Wild Things Are... and other Maurice Sendak Stories\" brings 3 Maurice Sendak stories to life on the screen. 1- Where the Wild Things Are (Music and Narration by Peter Schickele) 2- The Nutshell Kids (Charming Poems set to music including \"Alligators All Around\", \"Pierre\", \"One Was Johnny\", and \"Chicken Soup With Rice\") 3- In The Night Kitchen (Narrated by Peter Schickele)","release_date":"2001-01-01"},{"vote_count":0,"id":195430,"video":false,"vote_average":0,"title":"The Old Country Where Rimbaud Died","popularity":1.2875,"poster_path":"\/sRoVMWYCLW1DaoJN1Uc5uvBhvzu.jpg","original_language":"fr","original_title":"Le vieux pays où Rimbaud est mort","genre_ids":[18],"backdrop_path":"\/2Xxnwh80ZIvCWf4MYsnzbtfiLha.jpg","adult":false,"overview":"A middle-aged man travels to France and is discouraged by the attitudes of the people concerning his native land until he meets and begins relationships with two lonely women.","release_date":"1977-08-08"},{"vote_count":1,"id":272726,"video":false,"vote_average":7,"title":"Dude Where's My Dog?","popularity":1.636135,"poster_path":"\/7l5muLKNWn9hvnDxJK72Fsypsrb.jpg","original_language":"en","original_title":"Dude Where's My Dog?","genre_ids":[10751],"backdrop_path":null,"adult":false,"overview":"Left home alone with his dog Harry, young Ray finds himself in a bit of trouble when Harry gets loose in the suspicious neighbor's house and accidentally knocks over a top-secret invisibility potion! Now, with crooks and the FBI on his tail, Ray needs to find his invisible mischievous mutt before they do - and get Harry back before his parents get home!","release_date":"2014-06-12"},{"vote_count":1,"id":88271,"video":false,"vote_average":6,"title":"Where Now Are the Dreams of Youth?","popularity":1.247583,"poster_path":"\/74eGblqGt6rkZa1ESm7W7FOuvPV.jpg","original_language":"ja","original_title":"Seishun no yume imaizuko","genre_ids":[18],"backdrop_path":null,"adult":false,"overview":"When a young man inherits his father's lucrative business, he cheats the system to set up three of his college friends with jobs.","release_date":"1932-10-13"},{"vote_count":0,"id":375913,"video":false,"vote_average":0,"title":"Waban-Aki: People from Where the Sun Rises","popularity":1.004942,"poster_path":"\/h7EZMcwkRVQF4jQX9Ycwn00xTs8.jpg","original_language":"en","original_title":"Waban-Aki: People from Where the Sun Rises","genre_ids":[99],"backdrop_path":null,"adult":false,"overview":"Having dedicated nearly four decades to chronicling the lives of Canada's First Nations, Alanis Obomsawin returns to the village where she was raised to tell her own people's history of prosperity, displacement, endurance, and revitalization.","release_date":"2006-10-22"},{"vote_count":4,"id":268893,"video":true,"vote_average":6,"title":"VeggieTales: Where's God When I'm Scared","popularity":2.061667,"poster_path":"\/yK9CitVq1sRCIoVTwdZDk4Dy1Fo.jpg","original_language":"en","original_title":"VeggieTales: Where's God When I'm Scared","genre_ids":[16,10751],"backdrop_path":"\/zya2pjj0OEuwKSZ8Xc9cFnKpofM.jpg","adult":false,"overview":"Whether it's a giant Frankencelery from a scary movie or a hungry den of lions from Ancient Babylon, Junior Asparagus learns we can trust God with all of our fears and that He really is \"bigger than the boogey-man!\"","release_date":"1993-12-21"},{"vote_count":0,"id":437179,"video":false,"vote_average":0,"title":"Che Guevara: Where You'd Never Imagine Him","popularity":1.002353,"poster_path":"\/6Sj0Kf8EwL8tHHWZxVSyPUo0gPL.jpg","original_language":"en","original_title":"Che Guevara: Where You'd Never Imagine Him","genre_ids":[],"backdrop_path":null,"adult":false,"overview":"Using archival film and photo materials, Cuban director Manuel Pérez paints a personal portrait of Che Guevara, the legend and symbol of revolution. Ernesto Che Guevara was only 39 years old when he was executed in the Bolivian mountains in 1967.  This film tells the story of Che's short life: his childhood in Argentina, his early interest in the Spanish Civil War, the motorcycle trip through Latin America that changed his life forever. Raul Castro and other friends remember Che's first encounter with Fidel Castro in Mexico in 1955, as well as his involvement in the Cuban revolution and rumors of his disappearance in 1965.","release_date":"2002-11-01"},{"vote_count":1,"id":372681,"video":false,"vote_average":6.5,"title":"The Cast of a Christmas Story: Where Are They Now?","popularity":1.047059,"poster_path":"\/5q6kGDkGiQVTwKKcoKaNZi67aXM.jpg","original_language":"en","original_title":"The Cast of a Christmas Story: Where Are They Now?","genre_ids":[99],"backdrop_path":null,"adult":false,"overview":"This one-hour special includes some archival interviews with the film's biggest stars like Peter Billingsley, but there are new, original interviews with some of the supporting actors and updates on their lives and careers. The actor who played Flick gives away the secret of how they filmed the flag pole scene. \"Where Are They Now?\" also visits the Cleveland house used for the film's exterior and previews the musical version of the film that's been making the rounds during recent holiday seasons and is now on Broadway.","release_date":"2013-11-26"},{"vote_count":0,"id":437340,"video":false,"vote_average":0,"title":"Where The Universe Sings: The Spiritual Journey Of Lawren Harris","popularity":1.044732,"poster_path":"\/yEy8tktnpBkDUTMtyt9dfD40FU4.jpg","original_language":"en","original_title":"Where The Universe Sings: The Spiritual Journey Of Lawren Harris","genre_ids":[],"backdrop_path":null,"adult":false,"overview":"Admirers of Harris' paintinga discuss his place in the pantheon of Canadian artists.","release_date":"2017-01-27"}]}