{"page":41,"total_results":1170,"total_pages":59,"results":[{"vote_count":0,"id":510646,"video":false,"vote_average":0,"title":"Fireworks","popularity":1.005625,"poster_path":"\/9QdTrWJwy9ae3hnz0uucC7ik3Wo.jpg","original_language":"en","original_title":"Fireworks","genre_ids":[],"backdrop_path":null,"adult":false,"overview":"A Super 8 film.","release_date":""},{"vote_count":0,"id":287972,"video":false,"vote_average":0,"title":"Firedancer","popularity":1.003497,"poster_path":"\/14Mt4rQhscVA9ZAqUAbU9dYsW9m.jpg","original_language":"en","original_title":"Firedancer","genre_ids":[],"backdrop_path":null,"adult":false,"overview":"For centuries the Afghan people threw back all invaders. But in 1979, the Russians invaded with planes and tanks. 5 million Afghans fled the country. 300,000 lucky ones made it to North America. They escaped the Russians but not themselves. This film depicts the lives of the members of two families in New York.","release_date":"2003-05-09"},{"vote_count":1,"id":332752,"video":false,"vote_average":6,"title":"The Crown of Fire","popularity":1.00022,"poster_path":"\/u10WWv7KhDHxMLwmdq089MfzOIE.jpg","original_language":"ro","original_title":"Coroana de foc","genre_ids":[53,18],"backdrop_path":"\/j4BW0X7zdww5p0kYpO9LnC0ZcYw.jpg","adult":false,"overview":"In medieval Wallachia a young prince battles his twin brother for their father's throne and for their ancestors' crown of fire.","release_date":"1990-01-01"},{"vote_count":0,"id":377255,"video":false,"vote_average":0,"title":"Fireworks","popularity":1.001367,"poster_path":"\/ud0bFPvZB4w5LSbWU68tdJTsryD.jpg","original_language":"en","original_title":"Fireworks","genre_ids":[99],"backdrop_path":null,"adult":false,"overview":"Documentary reveals how fireworks are made, how they create their effects and how pyrotechnicians design and execute firework displays.","release_date":"1998-01-01"},{"vote_count":0,"id":430883,"video":false,"vote_average":0,"title":"Fireworks","popularity":1.000295,"poster_path":"\/qOQEmP8Tz1W9JMDHRf2prZwSPO8.jpg","original_language":"en","original_title":"Fireworks","genre_ids":[],"backdrop_path":null,"adult":false,"overview":"Beautiful and lusty European women call on a special group of \"firemen\" to start, rather than extinguish, sexual fires","release_date":"1981-12-19"},{"vote_count":0,"id":130167,"video":false,"vote_average":0,"title":"Fireballs","popularity":1.000155,"poster_path":"\/azJ3zvT4AqcZtWJYJdW7CWup6OS.jpg","original_language":"en","original_title":"Fireballs","genre_ids":[35],"backdrop_path":null,"adult":false,"overview":"A Canadian fire station is threatened by a Japanese business.","release_date":"1989-01-03"},{"vote_count":0,"id":404730,"video":false,"vote_average":0,"title":"FireClub","popularity":1.000074,"poster_path":null,"original_language":"en","original_title":"FireClub","genre_ids":[],"backdrop_path":null,"adult":false,"overview":"FireClub dynamic work","release_date":""},{"vote_count":0,"id":42900,"video":false,"vote_average":0,"title":"Firehead","popularity":1.000002,"poster_path":"\/dEyOdxc6jvvBe9t9s8OGhwuiNeV.jpg","original_language":"en","original_title":"Firehead","genre_ids":[28,878,53],"backdrop_path":"\/hZjbWrwomki8TjH8Vap2Qm3VthO.jpg","adult":false,"overview":"When a Russian cyborg with telekinetic powers terrorizes a city, an elite government agency intervenes. Col. Vaughn convinces \"regular guy\" chemist, Warren Hart, to team up with a beautiful blonde agent to capture the menace. But Warren finds the true villain isn't who he expected. Forces of good and evil go head to head in this paranormal story of corruption and redemption...with the world's future hanging in the balance.","release_date":"1991-01-25"},{"vote_count":1,"id":131304,"video":false,"vote_average":4,"title":"Firehouse","popularity":1.000001,"poster_path":"\/42ZQed72UNjJhJ5nhuYlJDWmRpp.jpg","original_language":"en","original_title":"Firehouse","genre_ids":[35],"backdrop_path":"\/hgQoj7Js9JqIqDYWgCPkotvu3H3.jpg","adult":false,"overview":"Some sexy women get out of Fire Fighter School and go for the jobs they trained for, but first they must survive their male counterparts teasing them.","release_date":"1987-08-01"},{"vote_count":0,"id":215950,"video":false,"vote_average":0,"title":"Firecrackers","popularity":1,"poster_path":null,"original_language":"en","original_title":"Firecrackers","genre_ids":[],"backdrop_path":null,"adult":false,"overview":"Lou and Chantal are gonna blow up. One day. Somehow. But girls don't get out of Coberge, Ontario by playing nice. All they've ever wanted, was to feel what it's like to be free.","release_date":""},{"vote_count":0,"id":513526,"video":false,"vote_average":0,"title":"Fireworks","popularity":1,"poster_path":null,"original_language":"en","original_title":"Fireworks","genre_ids":[99],"backdrop_path":null,"adult":false,"overview":"This film uses the image of fireworks (as points of light) superimposed in the camera and in the optical printer until the surface of the film begins to bleach out.","release_date":"1976-06-01"},{"vote_count":0,"id":492225,"video":false,"vote_average":0,"title":"Fireside","popularity":1,"poster_path":null,"original_language":"en","original_title":"Fireside","genre_ids":[],"backdrop_path":null,"adult":false,"overview":"Inspired by enjoyment of looking into a bonfire or hearth, seeing shapes coalesce and disperse fleetingly, or by feeling the mind's desire work with the forms of flame that dance. The cinema is a similar form to that. Made without a camera by etching unexposed film with sandpaper, chemicals and light.","release_date":"1983-12-11"},{"vote_count":0,"id":444852,"video":false,"vote_average":0,"title":"Firefly","popularity":1,"poster_path":null,"original_language":"en","original_title":"Firefly","genre_ids":[],"backdrop_path":null,"adult":false,"overview":"Superimposed images of a woman dancing.","release_date":""},{"vote_count":1,"id":202142,"video":false,"vote_average":3,"title":"California Firebrand","popularity":1.625556,"poster_path":"\/ugTtLlrjYXwId5xjGe05JYw9oOA.jpg","original_language":"en","original_title":"California Firebrand","genre_ids":[37],"backdrop_path":"\/54TRZnF2tJoAldFJmL4gR4FiksN.jpg","adult":false,"overview":"Directed by Philip Ford in 1948. When cowboy Monte Hale (Monte Hale) returns home to investigate his uncle's murder, he's mistaken for a fierce outlaw and is hired by the town's corrupt mayor, Lance Dawson (Douglas Evans), as the new sheriff. But Monte secretly works to undermine Dawson's land-grabbing schemes. Monte defends the feisty owner (Lorna Gray) of a gold mine that Dawson covets, although she is suspicious of the cowpoke's loyalties and demands that he prove himself.","release_date":"1948-04-01"},{"vote_count":50,"id":244114,"video":false,"vote_average":5.9,"title":"Firestorm","popularity":4.886365,"poster_path":"\/9CQT3Lj6y8uO3RPpUdDeGc2JLnj.jpg","original_language":"zh","original_title":"風暴","genre_ids":[28,80],"backdrop_path":"\/rYFw3EBjd6oPRfBGHH0eqdGzgiF.jpg","adult":false,"overview":"A crew of seasoned criminals led by the notorious Nam, armed with high-powered weapons, pulls off another smooth and violent armored car heist in broad daylight in a crowded street. Whoever tries to get in their way, they will show no mercy. This puts the police force to shame and humiliation. A hardboiled senior police inspector Lui, hot on the trails of Nam and his tight crew, determines to put an end to this madness that causes the lives of innocent people. But he soon comes face to face with the cruel reality that the usual police tactics are too futile to send these armed thieves behind bars. Extreme crime requires extreme justice, even if it means crossing his moral line. Tou, an ex-con desperate to leave his criminal past behind, volunteers to be Lui’s snitch in exchange for a fresh start with her girlfriend Bing. But little does he know what hellish situation he’s getting himself into.","release_date":"2013-12-12"},{"vote_count":1,"id":254678,"video":false,"vote_average":6.5,"title":"Fired Wife","popularity":1.60299,"poster_path":"\/yozq9SYxaA4ibf2eJ0KGJFghOYp.jpg","original_language":"en","original_title":"Fired Wife","genre_ids":[35],"backdrop_path":"\/5gXiyTwww2kD4G9f9970uAb6SrS.jpg","adult":false,"overview":"A Broadway producer's Girl Friday must make sure that her recent marriage is kept secret. If it gets out, she will lose her job. Unfortunately, her new hubby is tired of hiding the truth and creates all kinds of problems when he decides to spill the beans.","release_date":"1943-09-04"},{"vote_count":0,"id":257795,"video":false,"vote_average":0,"title":"Fires Within","popularity":1.519809,"poster_path":"\/saZNxKgKULnjCdcVj5HPMZ7Uqcg.jpg","original_language":"en","original_title":"Fires Within","genre_ids":[53,18],"backdrop_path":null,"adult":false,"overview":"A Cuban emigre, living in Miami and involved in an affair with the American seaman who rescued her and her daughter years earlier, must face her husband after he is unexpectedly released from a Cuban prison.","release_date":"1991-06-28"},{"vote_count":6,"id":86192,"video":false,"vote_average":4.1,"title":"Fireball 500","popularity":1.517318,"poster_path":"\/rWYjx4ACU5H9q8EoBFPRsWfqavc.jpg","original_language":"en","original_title":"Fireball 500","genre_ids":[18,28,35],"backdrop_path":"\/18YJQqffHg8QHwQ09Ivpq5gZahG.jpg","adult":false,"overview":"Stock car racer Dave Owens plays into the hands of whiskey runners by agreeing to drive in a cross-country road race.","release_date":"1966-06-07"},{"vote_count":3,"id":59821,"video":false,"vote_average":6,"title":"The Fireball","popularity":1.489066,"poster_path":"\/oi9E6Z56Vr8rH2MBGVjFCxePrVH.jpg","original_language":"en","original_title":"The Fireball","genre_ids":[18],"backdrop_path":"\/6Qm4JV4qnzCpkeSBjcwhriLKTXA.jpg","adult":false,"overview":"With three Hollywood legends and its slam-em-over-the-handrail, roller-speedway realism. Filmed when Roller Derby was one of TV's most watched programs, this little entertainment steamroller remains a snappy jumbo popcorn treat for today's viewers, full of fabulous star wattage.","release_date":"1950-11-09"},{"vote_count":3,"id":433129,"video":false,"vote_average":7,"title":"Fireman Sam: Alien Alert!","popularity":2.267029,"poster_path":"\/mZWSF7687HNk18nYPkozZQ61Yw1.jpg","original_language":"en","original_title":"Fireman Sam: Alien Alert","genre_ids":[16],"backdrop_path":"\/m905ZI2JiC8vp73PaxmnOBU5JGQ.jpg","adult":false,"overview":"Buck Douglas, the famous \"Alien Quest\" TV show host visits Pontypandy and everyone in town searches for aliens.","release_date":"2017-01-05"}]}