{"page":17,"total_results":1170,"total_pages":59,"results":[{"vote_count":0,"id":513227,"video":false,"vote_average":0,"title":"Far Til Fire I Solen","popularity":1.573853,"poster_path":"\/nJxwOHi8JjQpq23Wb1T4lL0jDwJ.jpg","original_language":"da","original_title":"Far Til Fire I Solen","genre_ids":[],"backdrop_path":"\/kEhHlLylUVv6Za8fLq6G9OSL5PL.jpg","adult":false,"overview":"","release_date":"2018-06-28"},{"vote_count":2,"id":141008,"video":false,"vote_average":4.5,"title":"Father of Four: At Sea","popularity":1.538796,"poster_path":"\/WcLjxZ6xZ9y4aHH1ybOCj08ulr.jpg","original_language":"da","original_title":"Far til fire - til søs","genre_ids":[35,10751],"backdrop_path":"\/zB6u8bCMBgMq74nVcShvBlyUq7B.jpg","adult":false,"overview":"Adventures of Father of four at the sea.","release_date":"2012-10-04"},{"vote_count":0,"id":137975,"video":false,"vote_average":0,"title":"Kiss of Fire","popularity":1.222099,"poster_path":"\/rQ46l5fEWHC5aMyt7y4vg55McFF.jpg","original_language":"en","original_title":"Kiss of Fire","genre_ids":[36,12],"backdrop_path":null,"adult":false,"overview":"In 1700, a Spanish princess travels from New Mexico to California with ruthless outlaw El Tigre as guide.","release_date":"1955-09-23"},{"vote_count":5,"id":229966,"video":false,"vote_average":5.6,"title":"Fire of Waters","popularity":1.215507,"poster_path":"\/l8htEQs6029eIsmcBLvox1SbgHK.jpg","original_language":"en","original_title":"Fire of Waters","genre_ids":[],"backdrop_path":null,"adult":false,"overview":"Black atmosphere, with depth-enhancing points of light, broken into shades of dim silhouettes by the ephemeral cloud-glow of lightning. - IMDb","release_date":"1965-01-01"},{"vote_count":3,"id":228270,"video":true,"vote_average":5.2,"title":"Joe Cocker - Fire It Up Live","popularity":1.704075,"poster_path":"\/sQyz32zKJY1E0ztV2We5fbvrG2J.jpg","original_language":"en","original_title":"Joe Cocker - Fire It Up Live","genre_ids":[10402],"backdrop_path":"\/x9hgvqt4q4hypdQ1UJOB5AGH1Ug.jpg","adult":false,"overview":"2013 release from the veteran British vocalist, his first live recording in over 20 years: Fire It Up: Live documents his celebrated European Fire it Up tour, witnessed by millions of delighted fans since its kick off in March 2013. Fire it Up: Live presents the show at the Lanxess Arena in Cologne in April 2013. \"I'm very flattered\", Joe Cocker confessed at the show, \"because there's so many young artists on the scene now - it's amazing that we can still pull them in\". This success is due to an exceptionally gifted artist, who thrills his audience merely with the immense power of his voice, as well as the timeless magic of hits like \"With a Little Help of my Friends\", \"You Can Leave Your Hat On\", \"Unchain My Heart\", \"Up Where We Belong\" and \"You Are So Beautiful\".","release_date":"2013-10-15"},{"vote_count":1,"id":17703,"video":false,"vote_average":7,"title":"Ring of Fire","popularity":1.209147,"poster_path":"\/60qvRti4OrpdLtsOtVLC50LWKED.jpg","original_language":"en","original_title":"Ring of Fire","genre_ids":[99],"backdrop_path":"\/pmkb4D4HhdKs1oGBocf9NRuUo2R.jpg","adult":false,"overview":"Ring of Fire is about the immense natural force of the great circle of volcanoes and seismic activity that rings the Pacific Ocean and the varied people and cultures who coexist with them. Spectacular volcanic eruptions are featured, including Mount St. Helens, Navidad in Chile, Sakurajima in Japan, and Mount Merapi in Indonesia.","release_date":"1991-01-19"},{"vote_count":0,"id":76658,"video":false,"vote_average":0,"title":"Kiss of Fire","popularity":1.2058,"poster_path":"\/d5rvUGZCDmLQ1Co1KAf7mmhsQNc.jpg","original_language":"en","original_title":"Kiss of Fire","genre_ids":[],"backdrop_path":null,"adult":false,"overview":"Italian Stefano arrives on Dolphin Island off the coast of Georgia and gets a job as a handyman at a motel. He strikes up a romance with an emotionally troubled young woman, who works as a motel maid\/laundress and stripper in a small coastal town in Georgia.","release_date":"1988-04-17"},{"vote_count":1,"id":361197,"video":false,"vote_average":10,"title":"The Living Fire","popularity":1.140105,"poster_path":"\/2zp7kUFB3MxYVD43YBedQdDYqaI.jpg","original_language":"uk","original_title":"Жива ватра","genre_ids":[99],"backdrop_path":null,"adult":false,"overview":"“Lives begin and end, but everything goes back to the earth.” A tour-de-force of cinematography and sound design, this captivating, award-winning documentary looks at three generations of sheepherders in the Carpathian Mountains. While father and son take their flock on their annual journey through the highlands, the 82-year-old widower Vasyl reflects on his past back home. A sublime look at the cycles of life and the waning of tradition.","release_date":"2015-07-04"},{"vote_count":7,"id":427433,"video":false,"vote_average":6,"title":"Sky on Fire","popularity":1.494534,"poster_path":"\/hN064L5uBou7wdMbQaENNPcJxK5.jpg","original_language":"zh","original_title":"冲天火","genre_ids":[28,80,53],"backdrop_path":"\/pkRdxMyhDpRajtUebOZeb8rMora.jpg","adult":false,"overview":"The chief security officer at a top-secret medical facility finds himself caught in an explosive battle when a young thief and his accomplices steal a groundbreaking curative medicine. After discovering the true origins of the medicine, the officer must decide who he can trust to protect the cure from falling into the wrong hands, and prevent an all-out war from bringing the city to its knees.","release_date":"2016-11-25"},{"vote_count":8,"id":14497,"video":false,"vote_average":6.6,"title":"Through Fire, Water and... Brass Pipes","popularity":2.900401,"poster_path":"\/ys7xAunxtpKxeGvKLNAorGRF7bN.jpg","original_language":"ru","original_title":"Ogon, Voda i... Mednye Truby","genre_ids":[14,10751],"backdrop_path":"\/vBs00GN65TFkO0rGtXcv7o7MV4R.jpg","adult":false,"overview":"Fairytale about heroic Vasya and beautiful Alenushka.","release_date":"1968-12-10"},{"vote_count":1,"id":235039,"video":false,"vote_average":5,"title":"Coming Out Under Fire","popularity":1.191383,"poster_path":"\/aLjrSIGD4HHROVaCLmUfyoTz4Ov.jpg","original_language":"en","original_title":"Coming Out Under Fire","genre_ids":[99,10752],"backdrop_path":null,"adult":false,"overview":"A historical account of military policy regarding homosexuality during World War II. The documentary includes interviews with several homosexual WWII veterans.","release_date":"1994-01-01"},{"vote_count":2,"id":2235,"video":false,"vote_average":4.3,"title":"Earth, Wind & Fire","popularity":1.074039,"poster_path":null,"original_language":"en","original_title":"Earth, Wind & Fire","genre_ids":[99],"backdrop_path":null,"adult":false,"overview":"No overview found.","release_date":"2004-01-01"},{"vote_count":1,"id":405234,"video":false,"vote_average":6,"title":"CHIKARA: Aniversario: Catching Fire","popularity":1.178914,"poster_path":"\/kz3ykTdMbs55PLVpT0xPhl7uwZX.jpg","original_language":"en","original_title":"CHIKARA: Aniversario: Catching Fire","genre_ids":[],"backdrop_path":null,"adult":false,"overview":"A professional wrestling event.","release_date":"2016-05-27"},{"vote_count":2,"id":81325,"video":false,"vote_average":3.8,"title":"For You and for Fire","popularity":1.104709,"poster_path":"\/xqLpDFct2jtFUoEWEedPLpAAohv.jpg","original_language":"pl","original_title":"Dla ciebie i ognia","genre_ids":[18,27,53],"backdrop_path":"\/6iVQSJRdIJH1kt6em5pJZpBRP4s.jpg","adult":false,"overview":"Adam is young and very ambitious journalist working in local newspaper - 'Pomerania Courier' - in Gdansk (Poland). One day he receives a stamped envelope by mail. There's a text in Latin written on that envelope: 'Tibi et Igni' (eng. 'For you and for fire'). He finds 3 photos of his fiancée Annie inside the envelope. Annie claims that these photos were made in places where she has never been and with people she has never met. Adam starts his own private investigation in order to find out who and why sent him these pictures. The investigation leads him to discovery of a terrifying truth.","release_date":"2008-03-24"},{"vote_count":0,"id":402558,"video":false,"vote_average":0,"title":"Ukraine on Fire","popularity":1.172721,"poster_path":"\/gY5EVAPUFVUOYyH6reC5baM3C0a.jpg","original_language":"en","original_title":"Ukraine on Fire","genre_ids":[99],"backdrop_path":null,"adult":false,"overview":"The events leading up to Ukraine's \"Maidan Revolution\" and its bloody aftermath.","release_date":"2016-06-16"},{"vote_count":1,"id":187636,"video":false,"vote_average":8.5,"title":"Into the Fire","popularity":1.167496,"poster_path":"\/b7HxdylCiztIpoib84OXgBt8Nw1.jpg","original_language":"en","original_title":"Into the Fire","genre_ids":[99],"backdrop_path":null,"adult":false,"overview":"Greece is in crisis. But the economic crisis is not the only one. An asylum crisis has gripped the country at this time of severe austerity. And it hits the most vulnerable: Refugees, including minors, who have left everything behind fleeing their countries to find safety.  In Greece, they are left destitute and on the streets, unable to apply for asylum and threatened by escalating racist attacks. Trapped in Greece, they have one message for Europe and the rest of the world: Let us leave!","release_date":"2013-04-21"},{"vote_count":1,"id":435118,"video":false,"vote_average":5,"title":"Heart of fire","popularity":1.162728,"poster_path":"\/aQZiOwFkeoCvNQqAU0U141XvA9P.jpg","original_language":"fr","original_title":"Heart of fire","genre_ids":[],"backdrop_path":"\/2wJDvHMn6c0q2AaGO9Z9CNfXG8G.jpg","adult":false,"overview":"","release_date":""},{"vote_count":2,"id":189809,"video":false,"vote_average":5,"title":"Going to the Fire","popularity":1.162541,"poster_path":"\/k2mMMOFSFUVFSyhNsvdMjEFeG5J.jpg","original_language":"en","original_title":"Going to the Fire","genre_ids":[99],"backdrop_path":null,"adult":false,"overview":"A crowd watches the Newark Fire Department respond to a call.","release_date":"1896-01-01"},{"vote_count":0,"id":490303,"video":false,"vote_average":0,"title":"Nightmare Arson Fire","popularity":1.161181,"poster_path":null,"original_language":"en","original_title":"Nightmare Arson Fire","genre_ids":[],"backdrop_path":null,"adult":false,"overview":"Nightmare Arson Fire combines multiple attempts at contact printing a badly decayed roll of film retrieved from a Brooklyn basement after a fire.","release_date":"2017-12-07"},{"vote_count":2,"id":96055,"video":false,"vote_average":5,"title":"Friendly Fire","popularity":1.100797,"poster_path":"\/zCV6QXyFyH6veRYMovQVoDrEAJ3.jpg","original_language":"pt","original_title":"Ação Entre Amigos","genre_ids":[18],"backdrop_path":null,"adult":false,"overview":"Brazil in the early 70s. Miguel, Eloi, Osvaldo and Paolo take part in armed attacks against the military dictatorship. They pay a heavy price with torture and arrest. Today the four friends still see each other. Only Miguel is politically active. On a photograph from a political meeting in Sao Paolo he recognises the policeman who tortured them 25 years ago and who was responsible for the death of Miguel's girlfriend. The policeman has been officially dead for a few years. On one of their fishing trips together, Miguel tells his friends of his discovery. When they hunt down and confront their nemesis they come into conflict with both themselves and each other.","release_date":"1998-10-15"}]}