{"page":2,"total_results":42,"total_pages":3,"results":[{"vote_count":0,"id":340749,"video":false,"vote_average":0,"title":"Furious Beauty","popularity":1.01347,"poster_path":null,"original_language":"en","original_title":"Furious Beauty","genre_ids":[],"backdrop_path":null,"adult":false,"overview":"A single mother &amp; her dance partner create a hip-hop dance company with public school students &amp; street dancers, staging their own dance show, and forming a new modern family.","release_date":"2013-12-10"},{"vote_count":0,"id":228474,"video":false,"vote_average":0,"title":"Fast and Furious","popularity":1.00125,"poster_path":null,"original_language":"en","original_title":"Fast and Furious","genre_ids":[],"backdrop_path":null,"adult":false,"overview":"Lige Conley stars in \"Fast and Furious\" (1924), a fast-paced silent comedy. Conley's sidekick in this film, as with several in this series of \"Mermaid\" comedies Conley made for Educational and Jack White, is African-American character actor Spencer Bell. The chase in reel two lifts a number of gags from Buster Keaton films.","release_date":"1924-10-11"},{"vote_count":0,"id":235894,"video":false,"vote_average":0,"title":"Feast and Furious","popularity":1.001187,"poster_path":null,"original_language":"en","original_title":"Feast and Furious","genre_ids":[],"backdrop_path":null,"adult":false,"overview":"Katnip, the hungry Kat, thinks Finny, the little goldfish, would make a good meal but all his strong-arm methods to capture Finny fail. Katnip cats a worm-baited hook into the fishbowl, but Finny puts on a napkin and eats the bait with a knife-and-fork. The cat-vs.-fish chase continues until Finny ends up in a bottle of wine, and Katnip quickly drinks the contents of the bottle, including little Finny. Katnip burps up Finny, and both the cat and fish end up as intoxicated buddies.","release_date":"1952-12-25"},{"vote_count":15,"id":46952,"video":false,"vote_average":6.1,"title":"Banshee","popularity":2.183285,"poster_path":"\/nW6NAWLnu1e7gsu08ly3HcabCfW.jpg","original_language":"en","original_title":"Banshee","genre_ids":[18,80,53],"backdrop_path":"\/A0gErbadgX8wdNXWvP1XjNFGbqu.jpg","adult":false,"overview":"A kick-ass professional car thief, Sage, (Taryn Manning), steals a classic '66 Charger on a challenge. It turns out the car belongs to a serial killer (is there another kind?), who proceeds to slice and dice her friends because he wants his car back, and wants Sage dead. Sage also deals with treacherous fellow criminals, and a cop who wants her in jail, or wants to start a relationship (he hasn't decided yet).","release_date":"2006-06-24"},{"vote_count":0,"id":492270,"video":false,"vote_average":0,"title":"The Furious Killer","popularity":1.000021,"poster_path":"\/bsTR21cTWqYX07tMAhKKxMk2tt3.jpg","original_language":"zh","original_title":"怒娃","genre_ids":[28],"backdrop_path":null,"adult":false,"overview":"A young girl witnesses the massacre of her family at the hands of cold blooded kung fu killers. She spends the next ten years mastering the martial arts in order to avenge her family tracking down the killers one by one and dispatching them in fine martial art style.","release_date":"1973-12-12"},{"vote_count":0,"id":500892,"video":false,"vote_average":0,"title":"Fast & Furious: Supercharged","popularity":1.000783,"poster_path":"\/2EOkIzzvtogr4LwCipOaIHk3Yxz.jpg","original_language":"en","original_title":"Fast & Furious: Supercharged","genre_ids":[],"backdrop_path":null,"adult":false,"overview":"Fast & Furious: Supercharged","release_date":""},{"vote_count":0,"id":15505,"video":false,"vote_average":0,"title":"HDNet Fights: Furious Finishes","popularity":1.006979,"poster_path":null,"original_language":"en","original_title":"HDNet Fights: Furious Finishes","genre_ids":[],"backdrop_path":null,"adult":false,"overview":"Furious FInishes - Best knockouts and submissions on HDNet Fights","release_date":"2008-02-01"},{"vote_count":0,"id":474368,"video":false,"vote_average":0,"title":"Insanity - Fast and Furious Abs","popularity":1.181595,"poster_path":null,"original_language":"en","original_title":"Insanity - Fast and Furious Abs","genre_ids":[],"backdrop_path":null,"adult":false,"overview":"Shaun T condenses a 45-minute workout into just 15 minutes-giving you an insane six-pack, fast  Shaun T takes you through each of his favorite INSANITY ab and core moves, now at a fast and furious pace  Short on time? Fast and Furious Abs is a \"must have\" workout to add to your INSANITY routine and is also perfect on its own","release_date":"2016-04-13"},{"vote_count":3059,"id":51497,"video":false,"vote_average":7.1,"title":"Fast Five","popularity":3.728882,"poster_path":"\/cA81CI8odKv5KHRUUzJbj83yN7c.jpg","original_language":"en","original_title":"Fast Five","genre_ids":[28,53,80],"backdrop_path":"\/nL1Q0micYpF5nNkaI2ZNeLuOLGZ.jpg","adult":false,"overview":"Former cop Brian O'Conner partners with ex-con Dom Toretto on the opposite side of the law. Since Brian and Mia Toretto broke Dom out of custody, they've blown across many borders to elude authorities. Now backed into a corner in Rio de Janeiro, they must pull one last job in order to gain their freedom.","release_date":"2011-04-20"},{"vote_count":0,"id":218366,"video":false,"vote_average":0,"title":"The Furious Force of Rhymes","popularity":1.012203,"poster_path":"\/sNipb0o6Nq2jYO5xGC3W3Ue7MJZ.jpg","original_language":"en","original_title":"The Furious Force of Rhymes","genre_ids":[99,10402],"backdrop_path":null,"adult":false,"overview":"Traveling through four continents and six countries, The Furious Force of Rhymes is a fascinating look at Hip-Hop as trans-national protest music. Over the course of the eighty-four-minute voyage, the viewer encounters characters as diverse as Israeli Jews, marginalized French Arabs, East German skinhead punks and West African feminists, all of whom share a common musical language. Originating from the ghettos of New York, Rap has found adherents in every country in the world. Recognizing themselves in the oppression of U.S. Blacks, people everywhere have adapted the American street music to their own causes. From the Bronx to Africa, this is their story.","release_date":"2010-08-11"},{"vote_count":1,"id":186022,"video":false,"vote_average":7,"title":"Furious Slaughter","popularity":1.05158,"poster_path":"\/kzXXHi3FmTnozfUJ3xLTWJxorX5.jpg","original_language":"cn","original_title":"Ba wang quan","genre_ids":[28,80],"backdrop_path":null,"adult":false,"overview":"When a martial arts expert discovers the existence of an illegal slave trade in the 1930s, he goes to great lengths to overthrow it.","release_date":"1972-03-31"},{"vote_count":0,"id":517910,"video":false,"vote_average":0,"title":"Insanity Fast & Furious: Insane 20 Minute Workout","popularity":1.33075,"poster_path":"\/ux6dhR6X2PG7F74WPDW20UJF0wo.jpg","original_language":"en","original_title":"Insanity Fast & Furious: Insane 20 Minute Workout","genre_ids":[],"backdrop_path":null,"adult":false,"overview":"Get a 45-minute INSANITY workout packed into just 20 minutes. You'll get maximum results in minimum time. So be ready to dig deep, because you'll be sweating and gasping for air!  Ready to go INSANE?","release_date":"2011-04-01"},{"vote_count":0,"id":315933,"video":false,"vote_average":0,"title":"Lou Biou - The Feast of the Furious Bull","popularity":1.008235,"poster_path":"\/rfaR3freB7JPnIDAKYCWUKWPUfs.jpg","original_language":"nl","original_title":"Lou Biou - Het feest van de fabelachtige stier","genre_ids":[99],"backdrop_path":null,"adult":false,"overview":"Lou Biou is a documentary about courage, identity and the deep seated passion for the wild bull in the French Camargue. Village festivals are impossible without bulls. they are the key to the local culture. Bull breeders, manadiers, identify with their bulls as much as with their own family. Daring young men dressed in white, raseteurs, challenge the bulls during the stunning Course Camarguaise. Speed, timing and courage are required to grab the cocarde from between the bull's horns. The bull is the hero and will never be killed. The raseteur does not know if he will leave the arena alive. When an Algerian raseteur wants to become champion, identities are put to the test.","release_date":"2010-04-15"},{"vote_count":62,"id":77959,"video":false,"vote_average":6.8,"title":"Turbo Charged Prelude to 2 Fast 2 Furious","popularity":1.346257,"poster_path":"\/pdS2kH5WlEZgV8IGxSz3BXFVOWc.jpg","original_language":"en","original_title":"Turbo Charged Prelude to 2 Fast 2 Furious","genre_ids":[28],"backdrop_path":"\/elj25hFOLVsHLrsmtV8nB6MdWqb.jpg","adult":false,"overview":"Turbo-Charged Prelude is a 2003 short film, directed by Philip Atwell, featuring Paul Walker, reprising his role as Brian O'Conner, in a short series of sequences which bridge The Fast and The Furious with its first sequel, 2 Fast 2 Furious","release_date":"2003-06-01"},{"vote_count":1,"id":467096,"video":false,"vote_average":9,"title":"Tasmanian Devil: The Fast and Furious Life of Errol Flynn","popularity":1.037026,"poster_path":"\/zfbWl3dqLfMVWpn9nnQ0dUHgLbg.jpg","original_language":"en","original_title":"Tasmanian Devil: The Fast and Furious Life of Errol Flynn","genre_ids":[99,36,10770,80],"backdrop_path":"\/o2U2L4z2tsSJLPcgdjnsmjjf0Sa.jpg","adult":false,"overview":"The story of Tasmanian-born actor Errol Flynn whose short & flamboyant life, full of scandals, adventures, loves and excess was largely played out in front of the camera - either making movies or filling the newsreels and gossip magazines. Tragically he was dead from the effects of drugs and alcohol by the time he was only 50 & the myths live on. But there is another side of Flynn that is less well known - his ambitions to be a serious writer and newspaper correspondent, his documentary films and his interest in the Spanish Civil War and Castro's Cuba","release_date":"2007-10-17"},{"vote_count":4,"id":44878,"video":false,"vote_average":5.3,"title":"Sleep Furiously","popularity":1.208953,"poster_path":"\/sKJ80wdOBW00TKlSYKVuxHVfrwB.jpg","original_language":"en","original_title":"Sleep Furiously","genre_ids":[99],"backdrop_path":"\/eGenW0K0TABej2h7OehNfcd7bv.jpg","adult":false,"overview":"Set in a small farming community in mid Wales, a place where Koppel's parents - both refugees - found a home. This is a landscape and population that is changing rapidly as small scale agriculture is disappearing and the generation who inhabited a pre-mechanised world is dying out. Much influenced by his conversations with the writer Peter Handke, the film maker leads us on a poetic and profound journey into a world of endings and beginnings; a world of stuffed owls, sheep and fire.","release_date":"2009-05-29"},{"vote_count":1,"id":58328,"video":false,"vote_average":6,"title":"The Faster And The Furiouser","popularity":1.035355,"poster_path":null,"original_language":"en","original_title":"The Faster And The Furiouser","genre_ids":[28,53],"backdrop_path":null,"adult":false,"overview":"An undercover cop infiltrates an underworld subculture of Los Angeles street racers looking to bust a hijacking ring, and soon begins to question his loyalties when his new street racing friends become the prime suspects.","release_date":""},{"vote_count":3,"id":344656,"video":false,"vote_average":4.5,"title":"Enemy Empire","popularity":1.583206,"poster_path":"\/f7o6dAu3xwo8IlI10EUe2WdnrWM.jpg","original_language":"en","original_title":"Enemy Empire","genre_ids":[12,14,878,37],"backdrop_path":"\/5i091xoAEAB6GnAhaPZvhrirEvi.jpg","adult":false,"overview":"Sol, a bold fugitive lost in a dangerous post-apocalyptic desert world, searches for a missing woman named Catherine and her illusive captor, the Nomad King. With enemies at every turn, Sol's only chance of finding Catherine is with the help of a rogue and mysterious wanderer, Cleo.","release_date":"2013-12-27"},{"vote_count":4,"id":88518,"video":false,"vote_average":5.8,"title":"Angel of Destruction","popularity":1.297181,"poster_path":"\/vEXnWnH35Cu74HPQ9ZTDE8Utgn6.jpg","original_language":"en","original_title":"Angel of Destruction","genre_ids":[28,12,53],"backdrop_path":"\/fkSUSw3NDM9QbqxhVsHlvc0IoS0.jpg","adult":false,"overview":"Undercover cop Jo Alwood is out to avenge her sisters death at the hands of a serial killer.","release_date":"1994-01-01"},{"vote_count":0,"id":418837,"video":false,"vote_average":0,"title":"La duquesa diabólica","popularity":1.002759,"poster_path":"\/zrjvOOBk4pVpngtVJK3r9sBlfT5.jpg","original_language":"es","original_title":"La duquesa diabólica","genre_ids":[27,12,14],"backdrop_path":null,"adult":false,"overview":"A rare and impossible to find Mexican adventure \/ fantasy \/ horror.","release_date":"1964-12-11"}]}