{"page":15,"total_results":1170,"total_pages":59,"results":[{"vote_count":3,"id":112853,"video":false,"vote_average":6.2,"title":"Warming by the Devil's Fire","popularity":1.309057,"poster_path":"\/u8xtMQIWzMaicimEoNyIbpmnBGJ.jpg","original_language":"en","original_title":"Warming by the Devil's Fire","genre_ids":[99,10402],"backdrop_path":null,"adult":false,"overview":"Director Charles Burnett (Killer of Sheep, My Brother's Wedding, To Sleep with Anger) presents a tale about a young boy's encounter with his family in Mississippi in the 1950s, and intergenerational tensions between the heavenly strains of gospel and the devilish moans of the blues.","release_date":"2003-01-01"},{"vote_count":0,"id":144664,"video":false,"vote_average":0,"title":"Fire in Hell","popularity":1.017537,"poster_path":"\/oXYTWqUprbzObGhd6iJtBpbJ3L.jpg","original_language":"ko","original_title":"지옥화","genre_ids":[],"backdrop_path":null,"adult":false,"overview":"Ji-wol, a Buddist monk, is excommunicated because of an inappropriate affair with a female believer. He rapes and kills another woman and leaves with her ashes for the Philippines where her family lives. However, there he falls in love with her twin sister. A shocking interpretation of karma.","release_date":"2014-11-06"},{"vote_count":1,"id":192189,"video":false,"vote_average":5,"title":"Dressed to Fire","popularity":1.337587,"poster_path":"\/5M6kCe9AkxyErE9CQXcx5x4DXnf.jpg","original_language":"en","original_title":"Dressed to Fire","genre_ids":[],"backdrop_path":"\/7tvEea3enwEhpzCiPEligvEbiQT.jpg","adult":false,"overview":"Action hero Pierre Kirby stars in this obscure Godfrey Ho film.","release_date":"1988-01-01"},{"vote_count":5,"id":367196,"video":false,"vote_average":6.6,"title":"Weeds on Fire","popularity":1.689248,"poster_path":"\/oPdlUcOgJjnXpEQBKbnnlNpV8w0.jpg","original_language":"cn","original_title":"點五步","genre_ids":[18],"backdrop_path":"\/fFqvPpNwIZTAgoRzEJlOiaoymOa.jpg","adult":false,"overview":"Inspired by the true story of Hong Kong’s first teenage baseball team. In the 1980s, two childhood friends join the Shatin Martins, a Band 3 school baseball team managed by the school principal. From these humble beginnings, the boys experience camaraderie, fall in love and make fateful decisions that resonate throughout their lives amid a changing Hong Kong and its sporting world.","release_date":"2016-04-23"},{"vote_count":0,"id":484751,"video":false,"vote_average":0,"title":"Through The Fire","popularity":1.012706,"poster_path":null,"original_language":"fr","original_title":"Sauver ou périr","genre_ids":[18],"backdrop_path":null,"adult":false,"overview":"Centres around a Paris fire-fighter, an everyday hero, who, after being involved in a serious accident during a major fire, must rebuild his life with the love of his wife — and accept that, sometimes, even saviours need saving.","release_date":""},{"vote_count":4,"id":84196,"video":false,"vote_average":5.5,"title":"A Fierce Green Fire","popularity":1.330546,"poster_path":"\/uyQI55WLJmnP0i80lArbh5tMFLB.jpg","original_language":"en","original_title":"A Fierce Green Fire","genre_ids":[99],"backdrop_path":"\/eyY8V5dHiweRLG86eXW2Ek82egc.jpg","adult":false,"overview":"It is the largest movement the world has ever seen, it may also be the most important - in terms of what's at stake. Yet it's not east being green. Environmentalists have been reviled as much as revered, for being killjoys and Cassandras. Every battle begins as a lost cause and even the victories have to be fought for again and again. Still, environmentalism is one of the great social innovations of the twentieth century, and one of the keys to the twenty-first. It has arisen at a key juncture in history, when humans have come to rival nature as a power determining the fate of the earth.","release_date":"2013-03-01"},{"vote_count":0,"id":132834,"video":true,"vote_average":0,"title":"To Build a Fire","popularity":1.006605,"poster_path":"\/5PbzOEIhACBUuVVigUFjzXfGEwO.jpg","original_language":"fr","original_title":"To Build a Fire","genre_ids":[18,28],"backdrop_path":null,"adult":false,"overview":"A man is traveling through the great North American wilderness, in temperatures of seventy degrees below zero, with only his dog for a companion. As he crosses a frozen stream, a misstep puts his foot through the ice. He knows he must find a way to build a fire to warm himself, or face death. Frenzy and desperation take over, challenging all attempts to survive..","release_date":"2003-06-26"},{"vote_count":0,"id":289069,"video":false,"vote_average":0,"title":"St. John's Fire","popularity":1.005597,"poster_path":"\/dxWPaiaMCMVYTH4wCPJ6wuGvkrw.jpg","original_language":"de","original_title":"Johannisfeuer","genre_ids":[18],"backdrop_path":null,"adult":false,"overview":"","release_date":"1939-11-03"},{"vote_count":0,"id":485919,"video":false,"vote_average":0,"title":"The Green Fire","popularity":1.004706,"poster_path":"\/2v338ucJFtcirK9LArfKs4o1A3y.jpg","original_language":"fa","original_title":"Atash-e sabz","genre_ids":[14,36],"backdrop_path":null,"adult":false,"overview":"Based on an ancient story Sang-e Sabor it's the story of a girl Nardaneh who one day hears a voice telling her that soon she will marry with a dead man. One day she enters a castle and in one of it's room finds a dead body with a book beside it. She begins to read the book and follows the instructions step by step.","release_date":"2008-09-02"},{"vote_count":0,"id":455612,"video":false,"vote_average":0,"title":"There Burns a Fire","popularity":1.002579,"poster_path":"\/dUIj3T3XjSdhVUOSzgDiT3sPOZE.jpg","original_language":"sv","original_title":"Det brinner en eld","genre_ids":[10752,18],"backdrop_path":null,"adult":false,"overview":"An allegory of Germany's WWII occupation of Norway. Members of a theater ensemble join the resistance.","release_date":"1943-08-23"},{"vote_count":0,"id":414765,"video":false,"vote_average":0,"title":"Nights of Fire","popularity":1.002444,"poster_path":"\/ggdJtzEkyMXhlPigdmCUOL0CD4d.jpg","original_language":"fr","original_title":"Nuits de feu","genre_ids":[],"backdrop_path":null,"adult":false,"overview":"19th Century Russia. State prosecutor Fedor Andreiev is presiding over the trial of a man who murdered his wife's lover. Despite a robust defence from the brilliant young lawyer Serge Rostoff, the accused man is found guilty and will be deported to Siberia. Having spoken to the condemned man, Fedor Andreiev sees a disturbing parallel with his own life...","release_date":"1937-04-16"},{"vote_count":0,"id":442367,"video":false,"vote_average":0,"title":"Playing with Fire","popularity":1.002359,"poster_path":"\/fgMkeILUu6ufjz9FA4ZFxvDOcQC.jpg","original_language":"sv","original_title":"Leka med elden","genre_ids":[],"backdrop_path":null,"adult":false,"overview":"A comedy about idleness, jealousy and passion. It all takes place in a seaside resort, one morning just before breakfast.","release_date":"2004-02-12"},{"vote_count":0,"id":397303,"video":false,"vote_average":0,"title":"Brothers of Fire","popularity":1.001772,"poster_path":"\/voWjnmarf6hD1rcRpRZgK2Sx8wX.jpg","original_language":"ja","original_title":"野火を斬る兄弟","genre_ids":[],"backdrop_path":null,"adult":false,"overview":"Japanese film.","release_date":"1960-10-26"},{"vote_count":0,"id":333743,"video":false,"vote_average":0,"title":"Cat on Fire","popularity":1.001654,"poster_path":null,"original_language":"ar","original_title":"قطة على نار","genre_ids":[],"backdrop_path":null,"adult":false,"overview":"Cat on Hot Tin Roof adaptation directed by Samir Seif.","release_date":"1977-01-02"},{"vote_count":0,"id":288551,"video":false,"vote_average":0,"title":"Shirt of Fire","popularity":1.001648,"poster_path":null,"original_language":"en","original_title":"Atesten gömlek","genre_ids":[],"backdrop_path":null,"adult":false,"overview":"Directed by Muhsin Ertugrul.","release_date":"1923-01-02"},{"vote_count":0,"id":327797,"video":false,"vote_average":0,"title":"Pillar of Fire","popularity":1.001177,"poster_path":null,"original_language":"en","original_title":"Amud Ha'Esh","genre_ids":[],"backdrop_path":null,"adult":false,"overview":"Directed by Larry Frisch.","release_date":"1963-01-02"},{"vote_count":0,"id":330159,"video":false,"vote_average":0,"title":"Fire Over Rome","popularity":1.001177,"poster_path":"\/fzI6jA5YPO0nKC0MFjpR8RK1Dk8.jpg","original_language":"it","original_title":"L'incendio di Roma","genre_ids":[18],"backdrop_path":null,"adult":false,"overview":"Marcus Valerius, a young consul, is assigned the mission to assist Menecrate, the leader of the Pretorian Guard, in the arrest and execution of as many Christians as possible. While raiding the Catacombs he has the surprise to find among the Christians the woman he loves, Giulia, who has been converted secretly to the banned religion. He helps her to escape and trouble soon follows. Stripped of his rank and arrested for defending the rebels he is condemned to fight as a gladiator...","release_date":"1965-03-20"},{"vote_count":0,"id":199513,"video":false,"vote_average":0,"title":"Dance of Fire","popularity":1.001177,"poster_path":"\/kdeqvw5fbtoLUmZlruQ3FCOg8o2.jpg","original_language":"en","original_title":"La danza del fuego","genre_ids":[],"backdrop_path":null,"adult":false,"overview":"The title of this Argentine film translates literally to Dance of Fire. It is the sometimes profound, sometimes slightly sordid tale of Emilia, (Amelia Bence), a famous concert pianist. As a child, Emilia was sexually assaulted by a circus clown (Enrique Diosdado) while the music of Manuel de Fallas' \"Ritual Dance of Fire\" could be heard from the circus tent. Since that time, Emilia has gone into hysterics every time she hears the de Fallas composition. Making matters worse, the lascivious clown is now her business manager. Exploiting Emilia's fragile emotional state, the ruthless manager dominates the poor girl. An outburst of violence against the manager is not only inevitable, but in the context of the story it's downright cathartic.","release_date":"1949-06-08"},{"vote_count":0,"id":432904,"video":false,"vote_average":0,"title":"To Build a Fire","popularity":1.001177,"poster_path":null,"original_language":"en","original_title":"Construire un feu","genre_ids":[18],"backdrop_path":null,"adult":false,"overview":"\"To Build a Fire\" is a short story by American author Jack London, published in two different versions of in 1902 and 1908. It was made into a film in 1928 by Claude Autant-Lara.","release_date":"1928-01-03"},{"vote_count":0,"id":501087,"video":false,"vote_average":0,"title":"Mad Fire, Mad Love","popularity":1.001177,"poster_path":null,"original_language":"en","original_title":"怒火情焰","genre_ids":[],"backdrop_path":null,"adult":false,"overview":"A restless Chinese sea captain makes a stopover in Hawaii. While ashore, the captain befriends a Hawaiian-Chinese family and, at the mother's request, teaches Chinese to her children. He falls in love with the daughter (Siu Fei Fei) although he must soon depart with his ship. Eventually he returns, \"rescuing her from the natives,\" and takes her back to China.","release_date":"1939-02-01"}]}