{"page":22,"total_results":567,"total_pages":29,"results":[{"vote_count":0,"id":478725,"video":false,"vote_average":0,"title":"What You See Is Where You’re At","popularity":1.001197,"poster_path":"\/73kHGPW70EmE7kPlFyraYmZLuhT.jpg","original_language":"en","original_title":"What You See Is Where You’re At","genre_ids":[],"backdrop_path":null,"adult":false,"overview":"What You See Is Where You're At is a disturbing collage of found and archived recordings constructs a profile of renegade psychotherapist R. D. Laings anti-psychiatry movement. In 1965, a community of 20 people-anti-psychiatry leaders, including Laing himself, and their former patients-move in together. Over the next five years, they collectively explore the definitions of madness. The film re-appraises the culture of oppressive psychiatry and multinational pharmaceutical companies.","release_date":"2001-01-01"},{"vote_count":0,"id":94731,"video":false,"vote_average":0,"title":"Where Did You Get That Girl?","popularity":1.001194,"poster_path":"\/5HK2bvJJIm1wwBdfSQztNkSJiXf.jpg","original_language":"en","original_title":"Where Did You Get That Girl?","genre_ids":[10402,35],"backdrop_path":"\/wlsgLQ0LQXMTnyrjOEvnjrPNonv.jpg","adult":false,"overview":"In this musical comedy, a motley band of musicians have only their extreme poverty in common. They end up writing a hit and getting a recording contract. The trouble is, the composer's works are never played without another band member doctoring them up to make them swingier. Fortunately, the composer isn't too averse to the changes as he has just won the heart of the beauty who sings his revamped songs. Songs include: \"Where Did You Get That Girl?\" (Harry Puck, Bert Kalmar, sung by Helen Parrish), \"Sergeant Swing,\" \"Rug-Cuttin' Romeo\" (Milton Rosen, Everett Carter).","release_date":"1941-01-03"},{"vote_count":0,"id":275937,"video":false,"vote_average":0,"title":"IN THE COUNTRY WHERE NOTHING HAPPENS","popularity":1.001187,"poster_path":null,"original_language":"en","original_title":"IN THE COUNTRY WHERE NOTHING HAPPENS","genre_ids":[],"backdrop_path":null,"adult":false,"overview":"n this stinging indictment of Mexican politics disguised as a screwball comedy, Elena (Julieta Egurrola) finds out the truth about her philandering husband, Dr. Enrique Laguardia (Fernando Luján), when his secretary uncovers his secret life as a drug smuggler and money launderer (he works for Con and Trix Corp.). The film won multiple awards (including Best Film, Actor and Actress) at the Guadalajara Film Festival.","release_date":"1999-01-01"},{"vote_count":0,"id":432048,"video":false,"vote_average":0,"title":"Where's Everett","popularity":1.00118,"poster_path":null,"original_language":"en","original_title":"Where's Everett","genre_ids":[878,35],"backdrop_path":null,"adult":false,"overview":"Arnold Barker starts every day by going out on his porch to pick up the milk and the newspaper but on this he brings in something different - an invisible alien baby who's been left on his doorstep.","release_date":"1966-06-24"},{"vote_count":0,"id":466757,"video":false,"vote_average":0,"title":"Where The Air Is Cool And Dark","popularity":1.001178,"poster_path":null,"original_language":"en","original_title":"Where The Air Is Cool And Dark","genre_ids":[],"backdrop_path":null,"adult":false,"overview":"Thirty-year-old Emmett LeClere, a former logger and recovering drug addict, returns from school in New York to make a film in his Olympic Peninsula hometown. To finance the project, he decides to grow marijuana with an old buddy. After an abbreviated affair with an ex-girlfriend ends in a drug binge, Emmett finds a promising but doomed new romance. Countering good intentions with dishonesty, Emmett is soon left questioning his place in the world.","release_date":"1997-11-21"},{"vote_count":0,"id":485551,"video":false,"vote_average":0,"title":"Gold is Where You Lose It","popularity":1.001177,"poster_path":null,"original_language":"en","original_title":"Gold is Where You Lose It","genre_ids":[35],"backdrop_path":null,"adult":false,"overview":"Robbers steal some gold and pass it off in Andy's store, but he and his friend think there's been a gold strike. They go off to do some prospecting.","release_date":"1944-09-01"},{"vote_count":0,"id":361248,"video":false,"vote_average":0,"title":"Where have all the flowers gone?","popularity":1.000844,"poster_path":null,"original_language":"en","original_title":"Where have all the flowers gone?","genre_ids":[],"backdrop_path":null,"adult":false,"overview":"A parallel between the hippie generation and the generation of nowadays.","release_date":""},{"vote_count":0,"id":406768,"video":false,"vote_average":0,"title":"Where's Johnny?","popularity":1.000681,"poster_path":"\/5fMPkMVKJbX2zBRYFNXruesSPJ0.jpg","original_language":"en","original_title":"Where's Johnny?","genre_ids":[10751],"backdrop_path":null,"adult":false,"overview":"Adventure story for children about the accidental discovery of a formula for invisibility and the attempts of a couple of crooks to misuse it.","release_date":"1974-04-01"},{"vote_count":0,"id":477595,"video":false,"vote_average":0,"title":"Where the Water Meets the Sky","popularity":1.000496,"poster_path":null,"original_language":"en","original_title":"Where the Water Meets the Sky","genre_ids":[],"backdrop_path":null,"adult":false,"overview":"Narrated by Academy Award winning actor, Morgan Freeman, Where the Water Meets the Sky tells the inspiring story of a group of women from a remote town in northern Zambia who are given a unique opportunity: To learn how to make a film, on a subject of their choosing. In one of poorest regions of the country, where women rarely have the chance to speak out, a courageous group of twenty-three women produce a film about an issue that has affected them all, but few will discuss: the plight of young women, orphaned by AIDS. Inspired by the strength of Penelop, a young woman who agrees to share her story on film, the group becomes a force for change, showing how a single story can unite an entire community.","release_date":""},{"vote_count":0,"id":212053,"video":false,"vote_average":0,"title":"Where Are We? Our Trip Through America","popularity":1.00021,"poster_path":null,"original_language":"en","original_title":"Where Are We? Our Trip Through America","genre_ids":[],"backdrop_path":null,"adult":false,"overview":"Accomplished documentarians Rob Epstein and Jeff Friedman (\"Common Threads: Stories from the Quilt\", \"The Celluloid Closet\") take a trip across the American South and Southwest, asking people about their hopes and fears. Along the way they interview a mobile-home salesman, gay and lesbian soldiers (including Gulf War veterans), a woman whose husband built her miniature version of Graceland, a recovering drug addict who aspires to movie stardom, a 15-year-old mother-to-be, and a casino owner whose role models include Nelson Mandela and Mother Theresa. \"Where Are We? (Our Trip Through America)\" is simple; none of the interviewees says anything profound or complex--yet the movie captures an intriguing and contradictory cross-section of the U.S., observing how people forge ahead regardless of their circumstances, seeking happiness as best they can. It's a striking portrait of resilience, illustrated with some amazing hairstyles.","release_date":""},{"vote_count":0,"id":500759,"video":false,"vote_average":0,"title":"Where's Wendy","popularity":1.000204,"poster_path":"\/jpl2M0VzQvP2jTYV94wKukKJEbl.jpg","original_language":"en","original_title":"Where's Wendy","genre_ids":[],"backdrop_path":null,"adult":false,"overview":"Where’s Wendy (2016) is a found footage film and found footage horror. When a high school graduate’s girlfriend goes missing after a series of celebratory parties, Sean and his best friend instantly start searching for Wendy and are joined by her closest girlfriend to help investigate the beach at the end of their small town where she reportedly went for a mysterious after party with other local girls who are also reported missing. As the teens continue their search, Sean quickly discovers that the hunt for his girlfriend has lead them into an irrevocably dark world.","release_date":""},{"vote_count":0,"id":469264,"video":false,"vote_average":0,"title":"Where the Forest Meets the Sea","popularity":1.000177,"poster_path":"\/rLhZ8lFDY8kbmQaBigoxJkPVynJ.jpg","original_language":"en","original_title":"Where the Forest Meets the Sea","genre_ids":[],"backdrop_path":null,"adult":false,"overview":"Using relief collage animation, artist Jeannie Baker has created a beautiful short film depicting the wilderness area between the Daintree River and Bloomfield in North Queensland, as seen through the eyes of a child. As he wanders through coastal rainforest, he marvels at its ancient magnificence and, without speaking a word, ponders the future of the area.","release_date":"1987-01-01"},{"vote_count":0,"id":5661,"video":false,"vote_average":0,"title":"Where's Willie?","popularity":1.000042,"poster_path":"\/idMdQWvkOqx0NcNg0QFrY0df6U0.jpg","original_language":"en","original_title":"Where's Willie?","genre_ids":[35,10751],"backdrop_path":null,"adult":false,"overview":"No overview found.","release_date":"1978-04-12"},{"vote_count":0,"id":392416,"video":false,"vote_average":0,"title":"Where Do We Go From Here?","popularity":1,"poster_path":null,"original_language":"en","original_title":"Where Do We Go From Here?","genre_ids":[],"backdrop_path":null,"adult":false,"overview":"BBC documentary exploring the changing lifestyles of the long-entrenched British traveller as society grows more industrialised and wary of those without a fixed abode.","release_date":""},{"vote_count":0,"id":368514,"video":false,"vote_average":0,"title":"The House Where Time Stood Still","popularity":1,"poster_path":null,"original_language":"en","original_title":"The House Where Time Stood Still","genre_ids":[],"backdrop_path":null,"adult":false,"overview":"A dramatic reconstruction of the lives of two sisters, living in the suburbs of Manchester, in a house that has never changed from its Victorian origins.","release_date":""},{"vote_count":0,"id":501396,"video":false,"vote_average":0,"title":"Where's Daddy?","popularity":1,"poster_path":null,"original_language":"en","original_title":"Where's Daddy?","genre_ids":[],"backdrop_path":null,"adult":false,"overview":"Perspectives on the child support system and the specific effect and consequences to black families. Emphasis on the experience of fathers as participants in the system. Examining the legal challenges, social implications, cultural issues and emotional impact of navigating the child support system.","release_date":""},{"vote_count":0,"id":423626,"video":false,"vote_average":0,"title":"Where Are We Going, Dad?","popularity":1.034237,"poster_path":"\/k1u5J0Lv9lHtlbp7qR0xSqhhINl.jpg","original_language":"zh","original_title":"爸爸去哪儿","genre_ids":[35],"backdrop_path":null,"adult":false,"overview":"A movie based on the reality show of the same name with celebrity fathers and their children.","release_date":"2014-01-31"},{"vote_count":0,"id":58570,"video":false,"vote_average":0,"title":"Where a Good Man Goes","popularity":1.029845,"poster_path":"\/vgV4BPVeMLCa4sEvmT7PTt7fx4N.jpg","original_language":"cn","original_title":"再见阿郎","genre_ids":[28,18,53],"backdrop_path":"\/rGHvZ53W6Nt8jFNDqXRhp2CNgng.jpg","adult":false,"overview":"Fresh from a prison term, a former Triad boss resides in a hotel in Macau, where he befriends its owner and her young son.","release_date":"1999-05-06"},{"vote_count":4,"id":119294,"video":false,"vote_average":7.9,"title":"Where's That Fire","popularity":1.309473,"poster_path":"\/c2SNrGxxXuTjGMjeTOpak2BD2G6.jpg","original_language":"en","original_title":"Where's That Fire","genre_ids":[],"backdrop_path":null,"adult":false,"overview":"Capt Viking and his incompetent fire crew accidentally foil a plot to steal the crown jewels.","release_date":"1939-06-29"},{"vote_count":0,"id":407514,"video":false,"vote_average":0,"title":"Where's The Head?","popularity":1.015294,"poster_path":"\/26LYHCWqbV3TwY06yixQihS2zOR.jpg","original_language":"cn","original_title":"陳太人頭失竊案","genre_ids":[],"backdrop_path":"\/oqINxH3T5rJ36Bfa7U7d9ifikYE.jpg","adult":false,"overview":"Living with his comically reprobate mum, a young man winds up with what seem to be the remains of a murdered neighbour and gets involved in an absurd blackmail scheme.","release_date":"2015-01-01"}]}