{"page":57,"total_results":1170,"total_pages":59,"results":[{"vote_count":17,"id":35494,"video":false,"vote_average":6.9,"title":"Hornblower: The Examination for Lieutenant","popularity":2.449405,"poster_path":"\/jA9LFYyCNLvOjVSxhPnBtICvghE.jpg","original_language":"en","original_title":"Hornblower: The Examination for Lieutenant","genre_ids":[28,12,18,10752],"backdrop_path":"\/jhrU3H8ni6pkRiwRv4cs2xsCSV3.jpg","adult":false,"overview":"The Hornblower series is based on C.S. Forester's classic maritime adventures - the story of one young man's struggle to become a leader of men. Set against the back drop of the 18th century Anglo-French wars, the bloodiest time in British naval history. Pellew, Captain of the Indefatigable, decides to put forward his protege Horatio Hornblower for the examination for lieutenant. Leading up to the exam Hornblower comes up against many challenges to prepare him for the difficult life as a lieutenant.","release_date":"1998-11-18"},{"vote_count":0,"id":251967,"video":false,"vote_average":0,"title":"La mort de Belle","popularity":1.506776,"poster_path":"\/9zyKWEQqMNeDiJawsQMZqzufXMO.jpg","original_language":"fr","original_title":"La mort de Belle","genre_ids":[9648,80,18],"backdrop_path":"\/gWVLeryVqrb62uzBPPHlzlzt1Wr.jpg","adult":false,"overview":"Stéphane Blanchon lives a quiet life in Switzerland with his wife, Christine, until a young American boarder named Belle, who was living with them, is found murdered. Despite Stéphane's innocence, the evidence points to him, and he learns that Belle harbored romantic feelings for him. Suspicions mount against him; even Christine thinks he is the culprit. Stéphane's sanity begins to crumble, and he lashes out in unprecedented ways.","release_date":"1961-03-02"},{"vote_count":147,"id":5910,"video":false,"vote_average":7.6,"title":"Fireworks","popularity":6.375818,"poster_path":"\/55EBBrHskI3WzmAwGJwGXiSoHBH.jpg","original_language":"ja","original_title":"はなび","genre_ids":[80,18],"backdrop_path":"\/hzeyvHiYRGvdIakQlsl1GJezQSc.jpg","adult":false,"overview":"A police officer leaves the force in the face of harrowing personal and professional difficulties. Spiraling into a depression, he makes questionable decisions.","release_date":"1997-09-03"},{"vote_count":1,"id":460877,"video":false,"vote_average":5,"title":"Beacon of Youth","popularity":1.037479,"poster_path":"\/3kFxUULP7SUSblaWSyQQlsegX0.jpg","original_language":"zh","original_title":"Feng huo shao nian","genre_ids":[],"backdrop_path":"\/uiQS7knlm0xmfjQ9ftRgM5VQQSM.jpg","adult":false,"overview":"Orphan Xiao Song is wounded in the Japanese attack that kills his parents and after recovering he joins the army and becomes an excellent soldier.","release_date":"1975-01-01"},{"vote_count":0,"id":418834,"video":true,"vote_average":0,"title":"Nature Amazing Places Hawaii","popularity":1.034184,"poster_path":"\/vg8WXfdsCkYRJKrj3AUBMyBItjd.jpg","original_language":"en","original_title":"Nature Amazing Places Hawaii","genre_ids":[99],"backdrop_path":null,"adult":false,"overview":"Program One KILAUEA: MOUNTAIN OF FIRE  Ecosystems on Big Island Face No Small Challenge  Kilauea, violent and beautiful, destructive and creative, continually molds Hawaii's Big Island. Kilauea: Mountain of Fire explores the incredible power of the volcano and the challenges of like in its shadow. Academy-winner F.Murry Abraham narrates. TV-G  Program Two VIOLENT HAWAII  From Rivers of Lava Springs Bedrock of Life  Imagine a lost word with lava flowing down mountainsides, violent storms, monster waves, rock sides and even heavy snows. This isn't science fiction. It's Hawaii-where spectacular beauty was forged by fire, and created by Turbulent natural forces. Tony Award-winner James Naughton narrates this riveting HD visual journey. TV-G","release_date":"2010-04-20"},{"vote_count":0,"id":350384,"video":false,"vote_average":0,"title":"Sudden Flame","popularity":1.024406,"poster_path":"\/nHqSQbjp7W4duoCeLcpCoB1k0X1.jpg","original_language":"ko","original_title":"갑자기 불꽃처럼","genre_ids":[18,10749],"backdrop_path":null,"adult":false,"overview":"Dae Bin and Hyung Joo go on a TV date program and meet Na Yeong and Jung Ae, respectively. Hyung Joo loves Jung Ae but hesitates between the two women. Dae Bin goes for Jung Ae and Hyung Joo ends up at Na Yeong's apartment. After Dae Bin and Jung Ae's engagement Jung Ae finds Hyung Joo and spends the night in his room. They take a trip to Nami island resortand got in a boat accident which killed her and left Hyung Joo paralyzed. Later, Dae Bin marries Na Yeong but she doesn't trust his love. Finally, Hyung Joo regains consciousness to confess that he loved Jung Ae. Na Yeong returns to her husband.","release_date":"1979-04-04"},{"vote_count":0,"id":416101,"video":false,"vote_average":0,"title":"Ninja Avengers","popularity":1.001121,"poster_path":"\/78gZEGMezkpLXUxaIq5DqXlkhPD.jpg","original_language":"en","original_title":"Ninja Avengers","genre_ids":[],"backdrop_path":null,"adult":false,"overview":"Just like those Thomas Tang \"so-called\" Ninja films that came out on Imperial Video. This one has a tacked in plot of Richard Harrison trying to fight off European Ninjas in footage that doesn't even match the film! The whole film is basically a RED SUN rip-off (but this time the Japanese steal a statue) that has a DJANGO like character carrying a cross that contains a gattling gun.","release_date":"1987-01-01"},{"vote_count":1,"id":225262,"video":false,"vote_average":10,"title":"The Dragon, the Hero","popularity":1.971225,"poster_path":"\/mbmVobwAtTNYsSRtouDJJPodSMB.jpg","original_language":"zh","original_title":"雜家高手","genre_ids":[28],"backdrop_path":null,"adult":false,"overview":"Dragon Lee fights foreign devils who are stealing antiquities from China.","release_date":"1979-01-01"},{"vote_count":0,"id":413651,"video":true,"vote_average":0,"title":"Search For Vengeance","popularity":1.294813,"poster_path":null,"original_language":"en","original_title":"Search For Vengeance","genre_ids":[],"backdrop_path":null,"adult":false,"overview":"When a cop gets too close to bringing down a crime ring's activities, they kill his wife and injure his son. He sets out to avenge his wife's murder and destroy the organization.","release_date":""},{"vote_count":0,"id":203476,"video":false,"vote_average":0,"title":"Queen Bee","popularity":1.293969,"poster_path":"\/m8lEpoJE7Wx5mXOD54jKXa5aSUk.jpg","original_language":"zh","original_title":"女王蜂","genre_ids":[18],"backdrop_path":null,"adult":false,"overview":"Shaw Legend Chi Kuan Chun is the Hung Kuen Fist master who trains an undercover agent known as Queen Bee. His brutal style of Kung Fu comes in handy when the Queen Bee takes on the villains. Authentic Hung Gar Style action presented!","release_date":"1981-10-08"},{"vote_count":0,"id":277392,"video":false,"vote_average":0,"title":"The Phoenix","popularity":1.294,"poster_path":"\/hOFVOmspS07DVMuY06ovK6dd4tQ.jpg","original_language":"ja","original_title":"火の鳥","genre_ids":[12,16,28],"backdrop_path":null,"adult":false,"overview":"This extraordinarily complex film is not only a send-up of every samurai film ever made, it is also an extrapolation of the value of life. The Yamatai, represented by Prince Susano-O and elderly advisor Sumuke, hire Yumihiko of Matsuro to hunt the phoenix so that Queen Himiko, sister of Susano-O can have eteranal life.","release_date":"1978-08-12"},{"vote_count":1,"id":114953,"video":false,"vote_average":7,"title":"Lolly-Madonna XXX","popularity":1.880634,"poster_path":"\/kHA8s44Hydyge4tmZmo6W3rYYua.jpg","original_language":"en","original_title":"Lolly-Madonna XXX","genre_ids":[18],"backdrop_path":"\/zoWigAEQHGysCyXtarufNhRtcxp.jpg","adult":false,"overview":"Laban Feather brews Tennessee moonshine with his sons Thrush, Zack, Hawk, and Finch. The chief rivals of the Feather Family in producing and selling illegal corn liquor are the Gutshalls, father Pap, and sons Ludie, Seb, and Villum. In addition to fighting over the white lightning market, the two families have also been feuding over some land that each believes is their property. As a prank, Ludie mails a postcard from a fictitious woman named Lolly-Madonna to the Feather household, in order to get the brothers squabbling over which son has attracted the mysterious admirer. But the joke has unexpected consequences when Thrush and Hawk kidnap a woman who was passing through town to meet her fiancée, assuming that she is Lolly Madonna.","release_date":"1973-02-21"},{"vote_count":0,"id":274068,"video":false,"vote_average":0,"title":"Wild Wind","popularity":1.000018,"poster_path":"\/fbTI3RTzAl3thsHWWgCeyrENxsU.jpg","original_language":"ru","original_title":"Дикий ветер","genre_ids":[10752],"backdrop_path":null,"adult":false,"overview":"August 1943, Europe. The tentacles of the German octopus have begun to recoil. As the Nazis retreat, their concern focuses on the supply of oil from the refineries of Romania. Without the flow of \"black gold\", Germany's doom is sealed. Armadas of American bombers from bases in North Africa have begun to assault Pioesti - and there is another threat from the Partisans across the border of Yugoslavia. Against the tableau of spectacular events, the dramatic story of WILD WIND unfolds.","release_date":"1985-11-01"},{"vote_count":3,"id":104281,"video":false,"vote_average":0.3,"title":"Cobra Thunderbolt","popularity":1.000001,"poster_path":"\/zFnSe8jVdTnPZO387pbsHghno4l.jpg","original_language":"th","original_title":"Cobra Thunderbolt","genre_ids":[28],"backdrop_path":"\/k9WKfSTVVOrVXajvE6UjXlZGs3s.jpg","adult":false,"overview":"The daughter of a brilliant Thai army colonel, who invented the machine battle Cobra Thunderbolt, takes on the lao-army to rescue his kidnapped father.","release_date":"1984-01-01"},{"vote_count":35,"id":1679,"video":false,"vote_average":5.8,"title":"Godzilla Raids Again","popularity":5.055002,"poster_path":"\/zVxtmbNHr3zkFXDW3AMVxwOIiRs.jpg","original_language":"ja","original_title":"Gojira no Gyakushū","genre_ids":[28,878,27],"backdrop_path":"\/8enTqIqDjZBL2vxjAF5Ny91LxoJ.jpg","adult":false,"overview":"In a hastily produced first-sequel to the classic \"Gojira\", two pilots race back to Japan to inform the government that two giants monsters are on the loose. Soon, the two monsters arrive in Osaka where they resume their battle.","release_date":"1955-04-24"},{"vote_count":1303,"id":12477,"video":false,"vote_average":8.3,"title":"Grave of the Fireflies","popularity":1.024153,"poster_path":"\/4u1vptE8aXuzb5zauZTmikyectV.jpg","original_language":"ja","original_title":"火垂るの墓","genre_ids":[16,18,10752],"backdrop_path":"\/fCUIuG7y4YKC3hofZ8wsj7zhCpR.jpg","adult":false,"overview":"In the final months of World War II, 14-year-old Seita and his sister Setsuko are orphaned when their mother is killed during an air raid in Kobe, Japan. After a falling out with their aunt, they move into an abandoned bomb shelter. With no surviving relatives and their emergency rations depleted, Seita and Setsuko struggle to survive.","release_date":"1988-04-16"},{"vote_count":0,"id":1889,"video":false,"vote_average":0,"title":"Make Your Bets, Ladies","popularity":1.012642,"poster_path":"\/kxmc3ey8b5YbMlS7sIMBXYZ8Y9f.jpg","original_language":"fr","original_title":"Faites vos jeux, mesdames","genre_ids":[35],"backdrop_path":null,"adult":false,"overview":"A famous American secret service agent tries to rescue a German 17 year old prodigy scientist who has been captured by the Russians.","release_date":"1965-05-21"},{"vote_count":0,"id":475919,"video":false,"vote_average":0,"title":"Le feu à la mine","popularity":1.001656,"poster_path":null,"original_language":"fr","original_title":"Le feu à la mine","genre_ids":[18],"backdrop_path":null,"adult":false,"overview":"","release_date":"1911-10-03"},{"vote_count":0,"id":422340,"video":false,"vote_average":0,"title":"Abriendo fuego","popularity":1,"poster_path":"\/8JNIfOQlOjObzTDao9Yt3iX16IP.jpg","original_language":"en","original_title":"Abriendo fuego","genre_ids":[878,28,12,14,27],"backdrop_path":null,"adult":false,"overview":"A Mexican scientific team and an Arab expedition clash over a powerful piece of metal hidden in the jungle. Oh yeah, and there's also aliens, a psychic, a sorcerer and a hostile tribe who do the occasional human sacrifice.","release_date":"1985-01-01"},{"vote_count":3,"id":57635,"video":false,"vote_average":6.2,"title":"Space Firebird","popularity":1.311595,"poster_path":"\/hUdYO27T2g55OCzEdAQWz39PdnG.jpg","original_language":"ja","original_title":"火の鳥2772 愛のコスモゾーン","genre_ids":[16,878,9648,18],"backdrop_path":null,"adult":false,"overview":"Phoenix 2772 starts with twelve minutes without dialogue, much like a silent film, recalling the birth and education of Godo. In this brave new world, children are born in test tubes and are raised by computers and robots. Godo learns the skills that will make him into a great pilot, assisted by the robotic wonder Olga. Everything that Godo needs is provided for him until he eventually goes for training with his automaton companion. He soon realizes that the world is not what he expected...","release_date":"1980-01-01"}]}