{"page":3,"total_results":43,"total_pages":3,"results":[{"vote_count":0,"id":418837,"video":false,"vote_average":0,"title":"La duquesa diabólica","popularity":1.003144,"poster_path":"\/zrjvOOBk4pVpngtVJK3r9sBlfT5.jpg","original_language":"es","original_title":"La duquesa diabólica","genre_ids":[27,12,14],"backdrop_path":null,"adult":false,"overview":"A rare and impossible to find Mexican adventure \/ fantasy \/ horror.","release_date":"1964-12-11"},{"vote_count":0,"id":272021,"video":false,"vote_average":0,"title":"Why Is Yellow the Middle of the Rainbow?","popularity":1.000055,"poster_path":"\/iON7ukx4PoZlxFt321OJuBBweyA.jpg","original_language":"en","original_title":"Bakit Dilaw Ang Kulay ng Bahaghari","genre_ids":[99],"backdrop_path":null,"adult":false,"overview":"Tahimik’s magnum opus, Why is Yellow the Middle of the Rainbow? is an epic film diary spanning the 1980s. Though each of Tahimik’s films is unique, this one defies summary simply because of the sheer volume of ground it covers. While telling the story of a family – overseas vacations, school projects, children’s first steps – it also serves as an introduction to Filipino history and geography.","release_date":"1994-01-01"},{"vote_count":74,"id":253835,"video":false,"vote_average":5.7,"title":"The Outlaws","popularity":1.316471,"poster_path":"\/iYe00vDJMUxSaJEydyC5n4R5Uil.jpg","original_language":"en","original_title":"Los Bandoleros","genre_ids":[28,18],"backdrop_path":"\/b2OuOdiUgeqEiWRUt7fa5CX7UDd.jpg","adult":false,"overview":"The film tells the back story about the characters and events leading up to the explosive oil truck heist in Fast &amp; Furious.","release_date":"2009-07-28"}]}