{"page":1,"total_results":51,"total_pages":3,"results":[{"vote_count":0,"id":383374,"video":true,"vote_average":0,"title":"Galo Sengen","popularity":1.005882,"poster_path":"\/7lu8N1xPqRp99mXAJTS3qWBbFg7.jpg","original_language":"ja","original_title":"GAL男宣言","genre_ids":[16],"backdrop_path":null,"adult":false,"overview":"The animated music video became well-known for its humorous depiction of a Japanese youth culture known as \"Gyaruo,\" which is characterized by the dark tanned skin, dyed blond hair and appreciation for dance music.  In the video, a group of men are satirically portrayed as Super Saiyans, a type of superfighters from the Japanese manga franchise Dragon Ball, who transcend into the state of \"galish\" or \"gyaru,\" a slang term derived from the Japanese pronunciation of English word \"girl.\"","release_date":"2011-01-09"},{"vote_count":3,"id":351247,"video":false,"vote_average":8.3,"title":"O Dia do Galo","popularity":1.158765,"poster_path":"\/e0uWlup2pO2QDpqj7V21wRHb9Qo.jpg","original_language":"pt","original_title":"O Dia do Galo","genre_ids":[99],"backdrop_path":null,"adult":false,"overview":"The documentary follows five fans of the Clube Atlético Mineiro, a Brazilian team that was about to play the most important match of its history: the decision of the Libertadores da América Cup.","release_date":"2015-07-23"},{"vote_count":1,"id":349166,"video":false,"vote_average":4,"title":"João, o Galo Desregulado","popularity":1.062675,"poster_path":"\/25a7FMICSqyrvv8Novbdb5ww9a2.jpg","original_language":"pt","original_title":"João, o Galo Desregulado","genre_ids":[16,35,10402],"backdrop_path":null,"adult":false,"overview":"A humorous story about a rooster who sang at the time he wanted.","release_date":"2013-05-04"},{"vote_count":0,"id":249545,"video":false,"vote_average":0,"title":"A Missa do Galo","popularity":1.005124,"poster_path":"\/896vZpjWe4Ia9qsODdbrirdmig5.jpg","original_language":"pt","original_title":"A Missa do Galo","genre_ids":[],"backdrop_path":null,"adult":false,"overview":"It's Christmas Eve and an aunt and her nephew have to deal with their platonic relationship.","release_date":"1982-01-01"},{"vote_count":0,"id":460933,"video":false,"vote_average":0,"title":"Hoje o Galo Sou Eu!","popularity":1.002334,"poster_path":"\/wixWdJFkIbLY4k4QEG1kGPSqioh.jpg","original_language":"pt","original_title":"Hoje o Galo Sou Eu!","genre_ids":[10402,35],"backdrop_path":null,"adult":false,"overview":"","release_date":"1957-01-01"},{"vote_count":0,"id":488582,"video":false,"vote_average":0,"title":"Quando o Galo Cantar Pela Terceira Vez Renegarás Tua Mãe","popularity":2.288267,"poster_path":"\/yTw4Ne8eROQFiG3wrrRRSDsiHLW.jpg","original_language":"pt","original_title":"Quando o Galo Cantar Pela Terceira Vez Renegarás Tua Mãe","genre_ids":[53],"backdrop_path":null,"adult":false,"overview":"","release_date":"2017-11-23"},{"vote_count":26,"id":264419,"video":false,"vote_average":5.4,"title":"Huevos: Little Rooster's Egg-Cellent Adventure","popularity":4.741391,"poster_path":"\/3IiDsYWlTH8jxqBjEsYfx9OIQPd.jpg","original_language":"es","original_title":"Un gallo con muchos huevos","genre_ids":[16,10751],"backdrop_path":"\/wiBfLIvQqsYm1s1Dszq0XPvCEJ6.jpg","adult":false,"overview":"Toto has grown and now is a young cock. An evil rancher tricks the female owner of the ranch where they live and forces her to bet the property in a cockfight in the arena. Toto is the only option to defend their home, so he must train in just one week and win the championship of the arena.","release_date":"2015-09-04"},{"vote_count":10,"id":75733,"video":false,"vote_average":6.6,"title":"Perceval","popularity":1.850949,"poster_path":"\/sIRUQMkhbqE5aTRtzZ2hD2a0UqH.jpg","original_language":"fr","original_title":"Perceval le Gallois","genre_ids":[10749,36,18],"backdrop_path":"\/8v2ny23MzoTDbC3oWhVTA0kWv0H.jpg","adult":false,"overview":"The film chronicles Perceval's knighthood, maturation and eventual peerage amongst the Knights of the Round Table, and also contains brief episodes from the story of Gawain and the crucifixion of Christ.","release_date":"1978-02-07"},{"vote_count":189,"id":11047,"video":false,"vote_average":6.4,"title":"Asterix the Gaul","popularity":11.030888,"poster_path":"\/5nYIjqB2ScgycBCLEbvqA5XTSUX.jpg","original_language":"fr","original_title":"Astérix le Gaulois","genre_ids":[10751,16,12,35],"backdrop_path":"\/6Bd5pJw8ZL3IdLOgFSBNbGibZbL.jpg","adult":false,"overview":"In the year 50 BC, Gaul is occupied by the Romans - nearly. But the small village of Asterix and his friends still resists the Roman legions with the aid of their druid's magic potion, which gives superhuman strength. Learning of this potion, a Roman centurion kidnaps the druid to get the secret formula out of him.","release_date":"1967-12-20"},{"vote_count":4,"id":274234,"video":false,"vote_average":6.6,"title":"The Rooster of St. Victor","popularity":1.780219,"poster_path":"\/AnIXXNercxH9Taie0O5iybWlADN.jpg","original_language":"fr","original_title":"Le coq de St-Victor","genre_ids":[10751,16,35],"backdrop_path":"\/urCuKR7deK2vx0UrK4cnI9Mahv1.jpg","adult":false,"overview":"In this fun family comedy, a village rooster's punctual (and loud!) crowing keeps everyone awake until a group of sleepy locals hatch a scheme to get rid of him.","release_date":"2014-02-21"},{"vote_count":4,"id":199573,"video":false,"vote_average":6.4,"title":"Galore","popularity":1.248804,"poster_path":"\/A1pPDa4YNLbUnk1n7PbzK9LvpxL.jpg","original_language":"en","original_title":"Galore","genre_ids":[18],"backdrop_path":null,"adult":false,"overview":"As four teens navigate the flashpoint of adolescent relationships, their lives will be forever scarred by a tragedy that engulfs their city.  Teenagers Billie and Laura, who live in Canberra’s suburban outskirts, are best friends and share everything – even, as it turns out, Laura’s boyfriend Danny, although Laura doesn’t know this. During the summer of Canberra’s bushfires, Billie’s mother welcomes the troubled Isaac into her care and his presence causes disarray in the girls’ friendship: Laura finds herself drawn to the gentle but intense newcomer while Billie’s unpredictable ways threaten self-destruction.","release_date":"2013-07-31"},{"vote_count":39,"id":16665,"video":false,"vote_average":6.9,"title":"Whisky Galore!","popularity":2.884191,"poster_path":"\/bfodCZSYPDXphX3WZ8pO4MKN8dN.jpg","original_language":"en","original_title":"Whisky Galore!","genre_ids":[35,80],"backdrop_path":"\/6PlGJs6tNefkbx0TrpIBny0NEFE.jpg","adult":false,"overview":"Based on a true story. The name of the real ship, that sunk Feb 5 1941 - during WWII - was S\/S Politician. Having left Liverpool two days earlier, heading for Jamaica, it sank outside Eriskay, The Outer Hebrides, Scotland, in bad weather, containing 250,000 bottles of whisky. The locals gathered as many bottles as they could, before the proper authorities arrived, and even today, bottles are found in the sand or in the sea every other year.","release_date":"1949-06-16"},{"vote_count":9,"id":399218,"video":false,"vote_average":7.2,"title":"Whisky Galore","popularity":2.758693,"poster_path":"\/eO5q7fAje4lvylRQkcJ17bYnjAY.jpg","original_language":"en","original_title":"Whisky Galore","genre_ids":[10749,35],"backdrop_path":"\/nfCXNs4DJBqHLXTw1W9T1tYwe01.jpg","adult":false,"overview":"The story of the inhabitants of the isolated Scottish island of Todday, in the Outer Hebrides, where gloom sets in as their wartime rationing of whisky runs out. When cargo ship the SS Cabinet Minister runs aground the shrewd islanders run rings around the buffoonish English Home Guard commander Captain Waggett and conspire to hide away cases of the precious amber nectar.","release_date":"2016-06-26"},{"vote_count":175,"id":39691,"video":false,"vote_average":4.8,"title":"Cats & Dogs: The Revenge of Kitty Galore","popularity":7.909091,"poster_path":"\/6V1TFvZsbQi2fpxIZtseqBCvuRM.jpg","original_language":"en","original_title":"Cats & Dogs: The Revenge of Kitty Galore","genre_ids":[35,10751,28,14],"backdrop_path":"\/8MJcCupnfyvh560FA3PmaHu1tMU.jpg","adult":false,"overview":"The ongoing war between the canine and feline species is put on hold when they join forces to thwart a rogue cat spy with her own sinister plans for conquest.","release_date":"2010-07-30"},{"vote_count":0,"id":295628,"video":false,"vote_average":0,"title":"The Galoshes of Happiness","popularity":1.005568,"poster_path":"\/4hVo8pxRRHDOXjMsOW0lkt2el9q.jpg","original_language":"sk","original_title":"Galoše šťastia","genre_ids":[10751,14],"backdrop_path":"\/w5fqFU7HDnmY0ONpihOXMi0f1Xw.jpg","adult":false,"overview":"","release_date":"1987-04-01"},{"vote_count":1,"id":348367,"video":false,"vote_average":9,"title":"Emilia Galotti","popularity":1.463448,"poster_path":"\/rJ6uO4VSqRXlJaZPYdGcRMP0bzs.jpg","original_language":"de","original_title":"Emilia Galotti","genre_ids":[],"backdrop_path":null,"adult":false,"overview":"TV adaptation of Michael Thalheimer's production at the Deutsches Theater Berlin.","release_date":"2002-01-01"},{"vote_count":0,"id":150780,"video":false,"vote_average":0,"title":"Rockets Galore","popularity":1.295924,"poster_path":"\/2byyzcHFbN7gbNORMHppnYIQ76h.jpg","original_language":"en","original_title":"Rockets Galore","genre_ids":[],"backdrop_path":null,"adult":false,"overview":"The inhabitants of Todday are content to live their lives in peace and quiet, until, that is, the government decides their little corner of the world would be the perfect place for a rocket launch site.","release_date":"1958-12-26"},{"vote_count":2,"id":136420,"video":false,"vote_average":7,"title":"Au Galop","popularity":1.21699,"poster_path":"\/6YEELuTrHjdEisJOqyziigeLIzc.jpg","original_language":"en","original_title":"Au Galop","genre_ids":[35,18],"backdrop_path":"\/cQqsU7CMCLufKOX7wXN03deoObI.jpg","adult":false,"overview":"Comedy by Louis-Do de Lencquesaing","release_date":"2012-05-19"},{"vote_count":0,"id":373753,"video":false,"vote_average":0,"title":"Emilia Galotti","popularity":1.026509,"poster_path":null,"original_language":"de","original_title":"Emilia Galotti","genre_ids":[18],"backdrop_path":null,"adult":false,"overview":"","release_date":"2003-01-01"},{"vote_count":0,"id":281534,"video":false,"vote_average":0,"title":"Emilia Galotti","popularity":1.009073,"poster_path":"\/ryaGQjRVzi5FEYFM6dv6HqY6yT2.jpg","original_language":"de","original_title":"Emilia Galotti","genre_ids":[36],"backdrop_path":null,"adult":false,"overview":"","release_date":"1958-03-14"}]}