{"page":31,"total_results":1170,"total_pages":59,"results":[{"vote_count":1,"id":105460,"video":false,"vote_average":6,"title":"Jane Doe: How to Fire Your Boss","popularity":1.202126,"poster_path":"\/bFrEfnc4L8tAF69oo4vCKoi0gqo.jpg","original_language":"en","original_title":"Jane Doe: How to Fire Your Boss","genre_ids":[28,53,80,9648],"backdrop_path":null,"adult":false,"overview":"Jane Doe sets out to track down a killer who is targeting fellow CSA agents.","release_date":"2007-05-09"},{"vote_count":11,"id":144425,"video":false,"vote_average":5.7,"title":"A Trip Down Market Street Before the Fire","popularity":1.669877,"poster_path":"\/vuDTEyZiXpKa5Pcb44lllczJqs8.jpg","original_language":"en","original_title":"A Trip Down Market Street Before the Fire","genre_ids":[99,36],"backdrop_path":"\/sLXaTgSIvgBLFgrYGLjIKehhVXQ.jpg","adult":false,"overview":"A Trip Down Market Street is a 13-minute actuality film recorded by placing a movie camera on the front of a cable car as it travels down San Francisco’s Market Street. A virtual time capsule from over 100 years ago, the film shows many details of daily life in a major American city, including the transportation, fashions and architecture of the era. The film begins at 8th Street and continues eastward to the cable car turntable, at The Embarcadero, in front of the San Francisco Ferry Building. It was produced by the four Miles brothers: Harry, Herbert, Earle and Joe. Harry J. Miles cranked the Bell &amp; Howell camera during the filming.","release_date":"1906-04-21"},{"vote_count":0,"id":399846,"video":false,"vote_average":0,"title":"The Fire nymph","popularity":1.241874,"poster_path":"\/k5fFzX98qlR7C8PCwfW8LqpDM68.jpg","original_language":"ru","original_title":"Огневушка-поскакушка","genre_ids":[16],"backdrop_path":"\/fJ8c3sCTfLYUwhIQs6pgDElUWtN.jpg","adult":false,"overview":"In the forest two gold digger saw a fire nymph, foreshadowing is rich in gold deposits, and had a fight. This greatly angered the nymph. This story told grandfather to his grandson. Suddenly the very same girl appeared in front of them from the flames of the candles, and tease the boy ran out of the hut.  After a while the boy again met with Ognevushka, and she invited him to her house.  In winter, the old man found out that they had in the house over the potatoes. Trying to earn a livelihood, changing home-made wooden spoons on potatoes, he fails. Then Fedya went to the forest to visit Ognevushka, hoping to take the potatoes. In response to the request Ognevushka lent the boy magic shovel. Which in the same year Fedya with his grandfather comfortably survived until the summer.","release_date":"1979-05-28"},{"vote_count":0,"id":337285,"video":false,"vote_average":0,"title":"Earth Wind & Fire: Shining Stars","popularity":1.001648,"poster_path":"\/8ABs9LYRqVp3sDhyf1kcL9VRDBB.jpg","original_language":"en","original_title":"Earth Wind & Fire: Shining Stars","genre_ids":[],"backdrop_path":null,"adult":false,"overview":"This is their story. This is their music...There is nowhere else you can go to see and hear the amazing stories and songs that form the history of Earth Wind &amp; Fire. The Earth Wind &amp; Fire story is told by the people who created it, lived it and made it happen.","release_date":"2001-08-21"},{"vote_count":0,"id":183329,"video":false,"vote_average":0,"title":"Liste noire","popularity":1.000049,"poster_path":"\/fpoiAvCb5yA703jIurbDPYfTRLO.jpg","original_language":"fr","original_title":"Liste noire","genre_ids":[],"backdrop_path":"\/p370VLkg04tI03vOtnf1xamqzdR.jpg","adult":false,"overview":"","release_date":"1984-01-01"},{"vote_count":4,"id":13901,"video":false,"vote_average":3.1,"title":"Twin Daggers","popularity":1.231214,"poster_path":"\/ycSaJts5XK0TOWYn8WgVtNi2Z5C.jpg","original_language":"en","original_title":"Twin Daggers","genre_ids":[28,12],"backdrop_path":"\/ii2zOLBu0SBeBd6HFO3FJrfgRYF.jpg","adult":false,"overview":"A shady Los Angeles martial arts assassin is hired by a beautiful woman to avenge the death of her parents, who were killed by her evil twin sister. But when the hit man tracks down his target, he finds himself strangely attracted to her. Trapped between his heart and his duty, he ultimately faces a shattering new revelation.","release_date":"2008-07-28"},{"vote_count":1,"id":213122,"video":false,"vote_average":3,"title":"The Order: Do Not Open Fire","popularity":1.230913,"poster_path":"\/nsHpMhefuVwsc34n7m3yYoYAFrK.jpg","original_language":"en","original_title":"Prikaz: Ogon ne Otkryvat","genre_ids":[10752,18,28],"backdrop_path":"\/4FnbOnWHowCvwYHjzYZEc7gDGto.jpg","adult":false,"overview":"A movie about a Soviet soldiers on the Japanese borders during 1941.","release_date":"1981-06-06"},{"vote_count":3,"id":178717,"video":false,"vote_average":5.3,"title":"A Fire in a Burlesque Theatre","popularity":1.163493,"poster_path":"\/q77UCOygDRp9uC7CUjKvyW1bH2F.jpg","original_language":"en","original_title":"A Fire in a Burlesque Theatre","genre_ids":[28,18],"backdrop_path":null,"adult":false,"overview":"This short, otherwise unremarkable feature is of some interest because of the way that it unabashedly caters to the tastes that it perceived in its audiences. Besides combining the elements of the risqué 'blue' movies of the era with the popularity of movies about fires, it also attempted to use the combination to get extra mileage out of it.  The movie's title summarises the setup, and most of the footage shows firefighters using ladders to rescue stage girls, clad in portions of their costumes, from an upper level. Although it all seems pretty tame by today's standards, it no doubt provided its male viewers with some brief moments of excitement as the various women hurried down the ladders with their costumes in disarray. (IMDb)","release_date":"1904-03-01"},{"vote_count":0,"id":359079,"video":false,"vote_average":0,"title":"The Triangle Factory Fire Scandal","popularity":1.282771,"poster_path":"\/roTHADoknpNNRtpvulrzcWBTsQt.jpg","original_language":"en","original_title":"The Triangle Factory Fire Scandal","genre_ids":[18],"backdrop_path":null,"adult":false,"overview":"The story of a fire in the Triangle Shirt Mfg. Co. building in New York City in 1911 that resulted in the deaths of 146 employees, mostly young women. The ensuing investigation revealed the company's almost total disregard for its workers' safety in pursuit of increased production and profits, and resulted, among other things, in the passage of new worker safety laws and the formation of the International Ladies Garment Workers Union.","release_date":"1979-01-30"},{"vote_count":499,"id":9779,"video":false,"vote_average":6.3,"title":"The Sisterhood of the Traveling Pants","popularity":8.424561,"poster_path":"\/dRNSxq5OqxaBLdQwarG4xMmDLAr.jpg","original_language":"en","original_title":"The Sisterhood of the Traveling Pants","genre_ids":[18,35],"backdrop_path":"\/oI5OlPwuhxxHLYgM0y5tMpLf9N0.jpg","adult":false,"overview":"Four best friends (Tibby, Lena, Carmen &amp; Bridget) who buy a mysterious pair of pants that fits each of them, despite their differing sizes, and makes whoever wears them feel fabulous. When faced with the prospect of spending their first summer apart, the pals decide they'll swap the pants so that each girl in turn can enjoy the magic.","release_date":"2005-06-01"},{"vote_count":2,"id":119432,"video":false,"vote_average":5,"title":"Arcade Fire: Madison Square Garden New York, NY 2010-08-05","popularity":2.104576,"poster_path":"\/uhXsTsNvA5GDlETmeoOtI94dqNp.jpg","original_language":"en","original_title":"Arcade Fire: Madison Square Garden New York, NY 2010-08-05","genre_ids":[10402,99],"backdrop_path":"\/7XLVP0yQN6VPxDBirLbVIZuwU7q.jpg","adult":false,"overview":"Live Concert. Directed by Terry Gilliam","release_date":"2010-08-05"},{"vote_count":1,"id":79704,"video":false,"vote_average":4,"title":"Classic Albums: Bob Marley & the Wailers - Catch a Fire","popularity":1.106365,"poster_path":"\/gi4GdOdvX5Ns8TpMrvBvAaqit94.jpg","original_language":"en","original_title":"Classic Albums: Bob Marley & the Wailers - Catch a Fire","genre_ids":[99,10402],"backdrop_path":"\/AqqhhFs9CeYKPHp3jUkfLSkP5DW.jpg","adult":false,"overview":"The Wailers, featuring the legendary Bob Marley, Peter Tosh and Bunny Wailer, became the most influential band in the history of Reggae music. \"Catch a Fire,\" their first Island album, released in 1973, introduced them to an international rock audience. The principal figures in the creation of the album tell the story of how this record was designed to \"cross-over.\" The program features a unique interview and performance with Bunny Wailer, rare archive interviews with Bob Marley and Peter Tosh and contributions in words and music from many of those who performed, Rare home movies of the Wailers in Jamaica, unseen footage lots more.","release_date":"2000-04-11"},{"vote_count":3,"id":329066,"video":false,"vote_average":5.2,"title":"Those Who Feel the Fire Burning","popularity":1.12311,"poster_path":"\/cg6wNjKhuKMk5ZmMsPNReoivfxZ.jpg","original_language":"en","original_title":"Those Who Feel the Fire Burning","genre_ids":[99],"backdrop_path":null,"adult":false,"overview":"As a group of refugees tries to enter Europe illegally by boat, a storm suddenly appears and all hell breaks loose when an old man falls overboard. His perception shifts into another dimension: a dark, hallucinatory place. Driven by a mysterious power and desperately in search of his loved ones, his soul passes by the everyday reality of many castaway refugees at the border of the alleged paradise, Europe. The old man's spirit observes people on the street being chased away like dogs, follows an illegal worker and a drug-addicted mother and slips inside crowded refugee shelters. Wandering through this limbo, the old man questions the meaning of his existence.","release_date":"2014-11-22"},{"vote_count":6,"id":99449,"video":false,"vote_average":5,"title":"The Iguana with the Tongue of Fire","popularity":1.713304,"poster_path":"\/pHIv6BfgxTQUQSQf7ubJouXYWst.jpg","original_language":"en","original_title":"L'iguana dalla lingua di fuoco","genre_ids":[18,9648,27],"backdrop_path":null,"adult":false,"overview":"In Dublin, a young woman is brutally murdered in her home by a maniac that throws acid in her face and then slits her throat with a razor. Her mangled body is later discovered in the boot of a limousine owned by the Swiss Ambassador Sobiesky. The Ambassador, who was the dead woman's lover, refuses to cooperate with the police due to his diplomatic immunity. John Norton, an ex-cop famed for his brutal working methods, is brought in to help and gets too deeply involved when he stars an affair with the Ambassador's beautiful step-daughter, Helen. Meanwhile, the brutal killings continue...","release_date":"1971-08-24"},{"vote_count":1,"id":189349,"video":false,"vote_average":5,"title":"Chunin Exam on Fire! and Naruto vs. Konohamaru!","popularity":1.070295,"poster_path":"\/9gjBGyDOd20GOqXOZxQd6E3MlUg.jpg","original_language":"ja","original_title":"炎の中忍試験! ナルトvs木ノ葉丸!!","genre_ids":[16],"backdrop_path":null,"adult":false,"overview":"Short story with Naruto.","release_date":"2004-08-21"},{"vote_count":11,"id":36567,"video":false,"vote_average":6,"title":"Best of the Best 4: Without Warning","popularity":5.025801,"poster_path":"\/mWkdM2xjjKwz5rZIhWjI4sDhGP0.jpg","original_language":"en","original_title":"Best of the Best 4: Without Warning","genre_ids":[28,53,12],"backdrop_path":"\/6VQEfjNPaspZeccPQPf3gWQHUt9.jpg","adult":false,"overview":"A group of Russian mobsters have stolen a huge supply of paper for printing U.S. currency, and are now flooding the market with conterfeit bills. When one of the mobsters decides to give herself in and hand over a data CD to the DA, she is shot and killed, but not before handing the disc to an unsuspecting Tommy Lee. Despite working with the police as a martial arts instructor, Lee doesn't go to the cops with the disc, but instead goes on the run, giving the mafia time to kidnap his daughter and hold as a hostage in exchange for return of the disc. Will Tommy ever see his daughter again?","release_date":"1998-10-10"},{"vote_count":1,"id":197259,"video":false,"vote_average":4,"title":"Fire Monsters Against the Son of Hercules","popularity":2.23332,"poster_path":"\/o8srXDghUyP1Wy67PdedSCMWX98.jpg","original_language":"it","original_title":"Maciste contro i mostri","genre_ids":[10749,28,12,14],"backdrop_path":null,"adult":false,"overview":"Wandering strongman Maxxus comes upon two warring tribes, the Sun worshipers and the Moon worshipers...and fights monsters !","release_date":"1963-06-14"},{"vote_count":1,"id":232120,"video":false,"vote_average":5,"title":"Annual Parade, New York Fire Department","popularity":1.100978,"poster_path":null,"original_language":"en","original_title":"Annual Parade, New York Fire Department","genre_ids":[],"backdrop_path":null,"adult":false,"overview":"Taken in front of the reviewing stand at Madison Square, New York city. Shows the arrival of Mayor McClellan, and other New York officials. The parade is headed by Chief Croker and battalion chiefs. The firemen march in double columns reaching across the street from curb to curb and are followed by engines, hook and ladder trucks, water-towers, etc. The life-saving crews carry scaling ladders, nets and other paraphernalia.","release_date":"1904-05-01"},{"vote_count":0,"id":513192,"video":false,"vote_average":0,"title":"From Ice to Fire: The Incredible Science of Temperature","popularity":1.511778,"poster_path":"\/xErA2LWFadNoFtWJAroyZVTSyBz.jpg","original_language":"en","original_title":"From Ice to Fire: The Incredible Science of Temperature","genre_ids":[99],"backdrop_path":"\/3U3jhbxSIJ4UE5tMZSiEwHQEmnv.jpg","adult":false,"overview":"Dr Helen Czerski goes on a spectacular journey to the extremes of the temperature scale, where everyday laws of physics break down and a new world of scientific possibility begins.","release_date":"2018-02-15"},{"vote_count":4,"id":139873,"video":false,"vote_average":6.3,"title":"San Francisco Earthquake & Fire: April 18, 1906","popularity":1.199487,"poster_path":"\/ch2sWAEMy2sSVFILs1tIAF3p9go.jpg","original_language":"en","original_title":"San Francisco Earthquake & Fire: April 18, 1906","genre_ids":[],"backdrop_path":null,"adult":false,"overview":"Film showing the results of an earthquake in San Francisco on 18th April 1906 which caused great destruction.","release_date":"1906-04-30"}]}