{"page":26,"total_results":1170,"total_pages":59,"results":[{"vote_count":0,"id":472841,"video":false,"vote_average":0,"title":"Gold Through the Fire","popularity":1,"poster_path":"\/z4d6qxqAXZStKuJvCZPDXl5iW2k.jpg","original_language":"en","original_title":"Gold Through the Fire","genre_ids":[],"backdrop_path":null,"adult":false,"overview":"Peter's American dream came true.  But the trial of his faith had just begun...","release_date":"1987-01-01"},{"vote_count":0,"id":342520,"video":false,"vote_average":0,"title":"National Fire Truck","popularity":1,"poster_path":null,"original_language":"en","original_title":"National Fire Truck","genre_ids":[],"backdrop_path":null,"adult":false,"overview":"A film shot on the day that the fire truck came to town.","release_date":""},{"vote_count":0,"id":392946,"video":false,"vote_average":0,"title":"Wheels on Fire","popularity":1,"poster_path":"\/3NRiLNMEV5A6Zb2fWAdp7dU6xqH.jpg","original_language":"en","original_title":"Wheels on Fire","genre_ids":[],"backdrop_path":null,"adult":false,"overview":"Gary Young's \"Wheels On Fire\" is one of the classic motor sports documentaries of all time.  Mostly filmed in Liverpool, Sydney, in 1973, the documentary appeals to both \"rev heads\" and the wider audience, who want to re live the Australian history of the drag strip.","release_date":"1973-12-04"},{"vote_count":0,"id":336756,"video":true,"vote_average":0,"title":"Fire And Rain","popularity":1,"poster_path":null,"original_language":"en","original_title":"Fire And Rain","genre_ids":[],"backdrop_path":null,"adult":false,"overview":"airplane crash","release_date":""},{"vote_count":3,"id":132515,"video":false,"vote_average":5,"title":"DNA Sights 999.9","popularity":1.239592,"poster_path":"\/mof4JuumoBEyBJ4DXRb3ZG6zImS.jpg","original_language":"fr","original_title":"Kasei ryodan Danasight Four-Nine","genre_ids":[12,878],"backdrop_path":"\/9xhovMVKHhSBIiiw8pcozGPlWzV.jpg","adult":false,"overview":"After a meteor hits Earth, traitor forces have (for all intents and purposes) taken over, and the people are suffering. In the chaos, a boy named Tetsuro Daiba, who had lost his parents in the meteor hit, is paid a visit by Mello, a mysterious woman appearing in a bright light. When Daiba comes to, he finds itself in a spaceship infirmary under observation. Stealing a fighter that he didn't know how to pilot (until he tried it), he breaks out, flying like a total pro.","release_date":"1998-01-01"},{"vote_count":12,"id":334651,"video":false,"vote_average":5.7,"title":"De feu et de glace","popularity":1.725027,"poster_path":"\/hP8XM6KNOIS7auy0LGlHNaTr386.jpg","original_language":"fr","original_title":"De feu et de glace","genre_ids":[],"backdrop_path":"\/qhb9V3swjRv1I1RNRnnZ3Pd4jXR.jpg","adult":false,"overview":"","release_date":"2008-11-08"},{"vote_count":2,"id":393939,"video":false,"vote_average":7,"title":"Set the Thames on Fire","popularity":1.245799,"poster_path":"\/dE7kDivgQzTV8mvg38Iv9GbqQJ1.jpg","original_language":"en","original_title":"Set the Thames on Fire","genre_ids":[878,35,14],"backdrop_path":"\/rrzJOkZvhUzEkCO1mzRdSMhB97b.jpg","adult":false,"overview":"Two young men plot to escape a dystopian future London ruled by corporate tyrant The Impresario","release_date":"2016-09-15"},{"vote_count":3,"id":82249,"video":false,"vote_average":8.5,"title":"U2: The Unforgettable Fire Collection","popularity":1.237415,"poster_path":"\/tDgdTpfLjbHKMA2gEDa23dX5344.jpg","original_language":"en","original_title":"U2: The Unforgettable Fire Collection","genre_ids":[10402,99],"backdrop_path":"\/1rBSp4YPrtfecJPbEtTrQpyjWW0.jpg","adult":false,"overview":"With 1984's The Unforgettable Fire, U2 were catapulted from cult status in the United States to full-blown superstardom, giving America a chance to discover what the United Kingdom and Europe already knew -- that U2 were a gifted, powerful, and uncommonly passionate rock band.","release_date":"1984-10-01"},{"vote_count":10,"id":56251,"video":false,"vote_average":7.2,"title":"Prison On Fire II","popularity":2.256028,"poster_path":"\/qmzeNMKlaq7dAGANiRWpLXPQTL2.jpg","original_language":"cn","original_title":"監獄風雲 II : 道犯","genre_ids":[28],"backdrop_path":"\/vFd4mfKjxP6iF8JtfHb60PnB9DP.jpg","adult":false,"overview":"Ching is a prisoner in a Honk Kong jail that has a large population of Mainland Chinese prisoners. Ching escapes to see his young son, who he has been put in an orphanage. He surrenders himself to authorities, but the vengeful chief of security, Zau, arranges for Ching to be set up in the eyes of the Mainland gang, led by the affable Dragon. Dragon and Ching both then escape separately, and while fugitives, hook up together and bond. Ching is recaptured and instigates a riot to save his own hide from the Mainlanders. In the chaos Ching gets revenge on Skull (who, working with Zau, set him up) and Zau","release_date":"1991-06-22"},{"vote_count":333,"id":9754,"video":false,"vote_average":5.6,"title":"Firewall","popularity":8.973815,"poster_path":"\/bp0BTphk7bgBof20XAfKkujRxwI.jpg","original_language":"en","original_title":"Firewall","genre_ids":[53],"backdrop_path":"\/jC6pdiupSoUuuQdQ39cWxG6OiA1.jpg","adult":false,"overview":"State-of-the-art security system creator, Jack Stanfield has cemented his reputation as a man who's thought of everything. But when a criminal finds a way into Jack's personal life, everything Jack holds dear is suddenly at stake.","release_date":"2006-02-10"},{"vote_count":3,"id":286896,"video":false,"vote_average":3.2,"title":"Father of Four: Onkel Sofus Returns","popularity":1.706767,"poster_path":"\/wWglQfDmqLhLbU2Ok3k1IxD07fy.jpg","original_language":"da","original_title":"Far til fire - Onkel Sofus vender tilbage","genre_ids":[35,10751],"backdrop_path":"\/7RW83JSDuEHKJJMDnWoWHP5pJ5B.jpg","adult":false,"overview":"Father and his family comes to visit onkel Anders' twin brother, Sofus, who comes all the way from Australia with a cow in tow. Unfortunately, Sofus equally surly and grumpy, as Anders is good and kind. Sofus takes his cow with Herefords to win milking competition. But when the cow refuses to give milk may Lille Per, Mie, Ole and Seas learn Sofus that words are leading the way to be good to others.","release_date":"2014-02-06"},{"vote_count":8,"id":271954,"video":false,"vote_average":6.3,"title":"Water and Fire","popularity":1.675314,"poster_path":"\/f3qVlyuVLGU2lnVUWUrRnVYmELO.jpg","original_language":"tr","original_title":"Su ve Ateş","genre_ids":[18,10749],"backdrop_path":"\/aGvEAodWrI1wwbhmOUzhIvAuGIc.jpg","adult":false,"overview":"A pretty young girl falls for an enigmatic, shy man who sweeps her off her feet. She becomes pregnant but is not allowed to tell him. His advisers are adamant. Back home, they have set up a wedding with the daughter of an antagonistic family and marriage will put an end to the blood feud between them.","release_date":"2013-11-15"},{"vote_count":3,"id":19642,"video":false,"vote_average":5.3,"title":"Father of Four: The Whole Shebang","popularity":1.559374,"poster_path":"\/hddEsxt6Ks3jNk3sSnwl9fiKynx.jpg","original_language":"da","original_title":"Far til fire med fuld musik","genre_ids":[10402,35,10751],"backdrop_path":"\/AmA0HnvKbjVVP1qZjnh0nvlyQ4Y.jpg","adult":false,"overview":"Tiny Per has come of school age, and he has certainly not become any duller. He has joined a soccer team and they must play against the Swedes.","release_date":"1961-12-15"},{"vote_count":2,"id":267763,"video":true,"vote_average":5.3,"title":"Arcade Fire: Lollapalooza Brasil 2014","popularity":1.177292,"poster_path":"\/aDbraIZz2w4HOpOIQxv4kqdL3jQ.jpg","original_language":"en","original_title":"Arcade Fire: Lollapalooza Brasil 2014","genre_ids":[10402],"backdrop_path":"\/dHYgsnOIQgEJbp4kbt0LONiJsZv.jpg","adult":false,"overview":"Arcade Fire gets to Rio to present their new album \"Reflektor\" and among other tracks of the best hits from their career. Lollapalooze is the scenery of this concert where brazilians reveice one of the currently greatest bands in the world, presenting their latest album on this well known festival.","release_date":"2014-04-10"},{"vote_count":0,"id":224372,"video":false,"vote_average":0,"title":"The Fire-Trap","popularity":1.155779,"poster_path":"\/5gZoXfE0YmkKu9LOz9gLFcaZl6R.jpg","original_language":"en","original_title":"The Fire-Trap","genre_ids":[],"backdrop_path":null,"adult":false,"overview":"An insurance investigator tracks down an arson ring involved in insurance fraud.","release_date":"1935-11-26"},{"vote_count":7,"id":378423,"video":false,"vote_average":6.4,"title":"Storm - Letter of Fire","popularity":5.839845,"poster_path":"\/rqfnk0DRzDHc9TZSv3Z1lTmVFIA.jpg","original_language":"nl","original_title":"Storm: Letters van vuur","genre_ids":[12,10751,36],"backdrop_path":"\/nNVlyRoWzK438oE6j2JYUz236j2.jpg","adult":false,"overview":"The film is set in 1521 Antwerp, in a Europe ravaged by religious wars, and during the early years of the Reformation. It tells the story of the twelve year old, Falko Voeten – a printer’s son. When Falko’s father, Klaas Voeten, a printer of forbidden literature, is caught by the Inquisition for printing a letter written by Maarten Luther; Falko is unwittingly propelled into helping his father and into searching for the letter. Threatened by the Inquisition but aided by Marieke, a Catholic orphan girl from the underground sewers, Falko is faced with a race against time if he is to save his father from being executed for heresy.","release_date":"2017-01-19"},{"vote_count":4,"id":464539,"video":true,"vote_average":7.5,"title":"WWE Great Balls of Fire 2017","popularity":1.534461,"poster_path":"\/7bvjSWVrjlS0am1b7ddgW6zsrbr.jpg","original_language":"en","original_title":"WWE Great Balls of Fire 2017","genre_ids":[10770],"backdrop_path":null,"adult":false,"overview":"Great Balls of Fire is an upcoming professional wrestling pay-per-view (PPV) event and WWE Network event produced by WWE for the Raw brand. It will take place on July 9, 2017, at the American Airlines Center in Dallas, Texas. It will be the first event under the Great Balls of Fire chronology.","release_date":"2017-07-09"},{"vote_count":2,"id":193920,"video":false,"vote_average":4,"title":"Tilly and the Fire Engines","popularity":1.141207,"poster_path":"\/bcxMESCDFkATfVCbr6LETxGNPjY.jpg","original_language":"en","original_title":"Tilly and the Fire Engines","genre_ids":[35],"backdrop_path":null,"adult":false,"overview":"Tomboys drive a fire engine through a fairground and hose the firemen.","release_date":"1911-09-16"},{"vote_count":3,"id":19645,"video":false,"vote_average":5.7,"title":"Father of Four: In the Countryside","popularity":1.614617,"poster_path":"\/s2JhvsgfwcJ4vFpIoKRYWB4Axwg.jpg","original_language":"da","original_title":"Far til fire på landet","genre_ids":[10751,35],"backdrop_path":"\/qCfbh2cT7TIfJISjKSumyX6licP.jpg","adult":false,"overview":"Its summer and everyone are going on holiday to a small fisher town in Jutland.","release_date":"1955-11-07"},{"vote_count":143,"id":14438,"video":false,"vote_average":7,"title":"Fireproof","popularity":8.082506,"poster_path":"\/wVqX0qMl9CccLtmo3vwpmjyyDzf.jpg","original_language":"en","original_title":"Fireproof","genre_ids":[18],"backdrop_path":"\/j8YEhZCRi3uTpMZbAS7WJLbDuIw.jpg","adult":false,"overview":"In Albany, the marriage of Caleb and Catherine Holt is in crisis and they decide to divorce. However, Caleb's father, John, proposes that his son delays their separation process for forty days and follow a procedure called \"The Love Dare\" to make them love each other again.","release_date":"2008-09-26"}]}