{"page":42,"total_results":1170,"total_pages":59,"results":[{"vote_count":0,"id":255730,"video":false,"vote_average":0,"title":"Firefly","popularity":1.604921,"poster_path":"\/lBCgMDvOgrUE2qBw8d2kXuElqix.jpg","original_language":"ja","original_title":"火垂","genre_ids":[18],"backdrop_path":"\/mvuDcEYEqC3IujLkdhmdFJlUaOk.jpg","adult":false,"overview":"Emotionally withdrawn strip club dancer Ayako has never recovered from her mother's suicide when she was young. She begins a relationship with patient potter Daiji, but leaves him behind when she quits her job and returns to her home town after a 10 year absence.","release_date":"2000-08-08"},{"vote_count":2,"id":50971,"video":false,"vote_average":6.5,"title":"Johnny Firecloud","popularity":1.405665,"poster_path":"\/lAD1tOYshvXrI4svMZjZgrQZc86.jpg","original_language":"en","original_title":"Johnny Firecloud","genre_ids":[80,18,53],"backdrop_path":null,"adult":false,"overview":"An American Indian war veteran avenges the hanging of his grandfather by local thugs.","release_date":"1975-08-01"},{"vote_count":27,"id":44341,"video":false,"vote_average":6.2,"title":"Life of an American Fireman","popularity":2.865827,"poster_path":"\/tWzJ0D6egvM3nzyUgncEnYkLOWy.jpg","original_language":"en","original_title":"Life of an American Fireman","genre_ids":[28],"backdrop_path":null,"adult":false,"overview":"Porter's sequential continuity editing links several shots to form a narrative of firemen responding to a house fire. They leave the station with their horse drawn pumper, arrive on the scene, and effect the safe rescue of a woman from the burning house. But wait, she tells them of her child yet asleep in the burning bedroom...","release_date":"1903-01-21"},{"vote_count":0,"id":448237,"video":true,"vote_average":0,"title":"Fireman Sam - Fireworks","popularity":1.005625,"poster_path":"\/ndsmGJD7ek0rRqZ403WlAB3uGmA.jpg","original_language":"en","original_title":"Fireman Sam - Fireworks","genre_ids":[],"backdrop_path":null,"adult":false,"overview":"","release_date":""},{"vote_count":18,"id":33545,"video":false,"vote_average":5.4,"title":"The Siege of Firebase Gloria","popularity":2.757988,"poster_path":"\/5xCAf7RdxuPOsAMsHH6UPVkjKVm.jpg","original_language":"en","original_title":"The Siege of Firebase Gloria","genre_ids":[28,10752],"backdrop_path":"\/3rJPgNzOGgCTWvcSRbrUZiebm2L.jpg","adult":false,"overview":"A Marine patrol stops at Firebase Gloria at the start of the Tet Offensive during the Vietnam war. With the firebase attacked, the patrol remains to help defend it. The Marines barely hold off the VC (Viet Cong), but in the end, hold the base.","release_date":"1989-01-27"},{"vote_count":1,"id":225742,"video":false,"vote_average":3,"title":"The Firebird","popularity":1.353878,"poster_path":"\/zCQLq48AVSe7yFXpIz0VYwtlOE6.jpg","original_language":"en","original_title":"The Firebird","genre_ids":[10749,9648,18],"backdrop_path":null,"adult":false,"overview":"Prohibited from seeing her actor sweetheart Herman Brandt (Ricardo Cortez) by her tyrannical parents, sweet young Vienesse lass Mariette (Anita Louise) defies authority by regularly visiting Brandt's downstairs apartment. The lovers' signal is a song called \"The Firebird,\" which Brandt sings whenever he wants Mariette to visit him. When the actor is murdered, poor Mariette and her parents are prime suspects. But the truth is a bit more complicated than that, involving as it does a haughty aristocrat (Veree Teasdale), a powerful diplomat (Lionel Atwill) and a most unusual \"candid camera\" device.","release_date":"1934-11-03"},{"vote_count":3,"id":111193,"video":false,"vote_average":3.7,"title":"The Fireworks Woman","popularity":1.994945,"poster_path":"\/k0SopDpH647oOXYT8RLuyk1pgJF.jpg","original_language":"en","original_title":"The Fireworks Woman","genre_ids":[18],"backdrop_path":null,"adult":false,"overview":"Angela and Peter are siblings and have loved each other since they were kids. They are both physically attracted to each other but Peter is studying to become a priest. She finally gets in bed with him and after that Peter start to have second thoughts on his plans for the future.","release_date":"1975-07-15"},{"vote_count":0,"id":440593,"video":false,"vote_average":0,"title":"Mojave Firebrand","popularity":1.018479,"poster_path":"\/2jvrBEFx5O8E3NJYuuRRPnGhtEN.jpg","original_language":"en","original_title":"Mojave Firebrand","genre_ids":[37],"backdrop_path":"\/wkqQ3FKUG0dZlsosvZ3IEE6W7sm.jpg","adult":false,"overview":"In this western, a crusty old sourdough finally finds the silver mine of his dreams only to find his mine threatened by vicious outlaws. Fortunately, a cowboy hero rides up to save him, but not until considerable rootin' tootin' action.","release_date":"1944-03-19"},{"vote_count":1,"id":468016,"video":false,"vote_average":6,"title":"Minnaminungu The Firefly","popularity":1.885872,"poster_path":"\/onZ5qArMJrD5WxARh1WnHGoeTds.jpg","original_language":"ml","original_title":"മിന്നാമിനുങ്ങ് The Firefly","genre_ids":[18],"backdrop_path":"\/9E5DFhw36KyJA5g3ovgmK1ltleY.jpg","adult":false,"overview":"Charu has been very close to her mom, who is a single mother. When she gets into a relationship, she tries to migrate to Canada with her boyfriend and she doesn’t reveal it to her mom. The mother, who does numerous odd jobs to make ends meet, is now on the mission to acquire Rs 6 lakh for her daughter, under the assumption that she is leaving the country for higher studies.","release_date":"2017-07-21"},{"vote_count":0,"id":491101,"video":false,"vote_average":0,"title":"The Firebrand","popularity":1.002307,"poster_path":"\/hYTEYeN7XQApkFEpHGR8UbF7FHu.jpg","original_language":"en","original_title":"The Firebrand","genre_ids":[],"backdrop_path":null,"adult":false,"overview":"A Mexican outlaw begins a one-man war against corrupt California Rangers who are harassing Hispanic locals during the California Gold Rush.","release_date":"1962-08-07"},{"vote_count":1,"id":271465,"video":false,"vote_average":5,"title":"Firecrest","popularity":1.330064,"poster_path":"\/nzGsy4z23xlefOHXlQv4omFNJy1.jpg","original_language":"en","original_title":"Çalıkuşu","genre_ids":[12,18,10749],"backdrop_path":null,"adult":false,"overview":"An adaptation of Reşat Nuri Güntekin’s 1922 novel, about the destiny of heartbroken young Turkish woman who becomes a teacher in Anatolia.","release_date":"1966-01-01"},{"vote_count":2,"id":192179,"video":false,"vote_average":3.5,"title":"Liars Fires and Bears","popularity":1.618009,"poster_path":"\/rYYSXb6A3dWXvmhdvWYomhUoS16.jpg","original_language":"en","original_title":"Liars Fires and Bears","genre_ids":[],"backdrop_path":"\/fpURBsAnjArEl9A3IdmRhVm7Ugz.jpg","adult":false,"overview":"The poignant story of nine-year old Eve, a street savvy orphan, who crosses paths with Dave, a man-child, accidentally on the run from the law. Dave embarks on a mission to help Eve reunite with her older brother, and consequently clear his name along the way.","release_date":"2012-06-01"},{"vote_count":6,"id":428849,"video":false,"vote_average":6,"title":"A Firehouse Christmas","popularity":1.805514,"poster_path":"\/wqTdKIJOTPieCzWA5gveYeZhsKc.jpg","original_language":"en","original_title":"A Firehouse Christmas","genre_ids":[35,18,10749,10770],"backdrop_path":"\/ecreqiTcq2oieCCquZrkmM4MO76.jpg","adult":false,"overview":"With Christmas approaching, life appears to be good for Tom, an ex-Olympic hockey star, and his girlfriend, Jenny, a firefighter -- at least until Mary, a former Olympic figure skater, Tom's soon-to-be ex-wife and the author of a book of tips on relationships, is convinced that appearing to be still happy with Tom will help sell her book. Tom's strong desire to spend the holidays with his and Mary's daughter provides a test of true love and, ultimately, reveals who the true heroes are.","release_date":"2016-12-03"},{"vote_count":1,"id":278862,"video":false,"vote_average":5,"title":"Fireball Forward","popularity":1.154207,"poster_path":"\/p5wCyPl1zhHadwWXUyuphHJeNeH.jpg","original_language":"en","original_title":"Fireball Forward","genre_ids":[],"backdrop_path":null,"adult":false,"overview":"A hard-nose general takes over a division with a bad combat record.","release_date":"1972-03-05"},{"vote_count":1,"id":313007,"video":true,"vote_average":5,"title":"Fireside Reflections","popularity":1.153664,"poster_path":"\/p1J2Af29wcKJJB2sekDZp2ADDKS.jpg","original_language":"en","original_title":"Fireside Reflections","genre_ids":[10751],"backdrop_path":"\/1dlg6XZflxBfu2p1sKL4L83xX7A.jpg","adult":false,"overview":"An ambient fireplace that serves as the perfect centerpiece for your next Christmas party.  This DVD also includes music by the St. James Harp Quartet to help you snuggle up on the couch with hot cocoa and someone special as you bask in your own, personal, digital fireplace.","release_date":"2009-12-01"},{"vote_count":1,"id":43866,"video":false,"vote_average":7,"title":"The Firefly","popularity":1.127308,"poster_path":"\/hapt4Ms3Qn8lkG9TGUVYBvRPmQt.jpg","original_language":"en","original_title":"The Firefly","genre_ids":[36,10402,18],"backdrop_path":"\/oiu9FetZFgoLLx3NabsMqSzutnM.jpg","adult":false,"overview":"Nina Maria Azara is the beautiful and alluring singing spy for Spain during the Napoleonic Wars. Her mission is to seduce French Officers, in order for them to reveal Napolean's intentions toward Spain. She is sent to Bayonne, France to gather military secrets. Prior to this, she meets, Don Diego while performing at a club. Unknown to her, Don Diego is actually Captain Andre, who is sent to Spain to spy on her. While in France, Nina discovers Diego's true identity, only after she has fallen in love with him. Nina Maria outwits her potential captors and returns to Spain, and goes into hiding. Napoleon's troops invade Spain, resulting in Nina's capture. In a strange twist of fate, Nina and Captain Andre are reunited, but, the 2 nations are now at war... Written by Kelly","release_date":"1937-11-05"},{"vote_count":1,"id":453048,"video":false,"vote_average":2,"title":"Fireangels: A Drifter's Fury","popularity":2.216799,"poster_path":"\/3maFHKYU6baYORcebN3MWBGg5JB.jpg","original_language":"en","original_title":"Fireangels: A Drifter's Fury","genre_ids":[27,53],"backdrop_path":"\/A0xkPaTf7v38EGmGZjowlLx5Ngt.jpg","adult":false,"overview":"When a professional drifting race car driver Ryu Takashi, an American adopted by a Japanese mechanic moves to America. He is tricked by the devil and must deliver the fire of God.","release_date":"2017-06-23"},{"vote_count":4,"id":326927,"video":false,"vote_average":6.5,"title":"Fireman","popularity":1.21582,"poster_path":"\/qXFTCxVWfDdz8WDdpBe1etIXY2t.jpg","original_language":"ml","original_title":"ഫയര്‍മാന്‍","genre_ids":[53],"backdrop_path":"\/rIPx3wSxSGKGvERARJ5Epq4i8mv.jpg","adult":false,"overview":"The movie is all about the lives of firefighters who are often unrewarded even after making great efforts and  sacrifices to support their fellow citizens.","release_date":"2015-02-19"},{"vote_count":2,"id":247060,"video":false,"vote_average":2.5,"title":"The Fireplace","popularity":1.112322,"poster_path":"\/m9GiYPuWz8IkAztRzdRvCGioN5W.jpg","original_language":"en","original_title":"The Fireplace","genre_ids":[16],"backdrop_path":null,"adult":false,"overview":"An animated fireplace by Academy Award Nominee PES.","release_date":"2008-11-17"},{"vote_count":3,"id":196642,"video":false,"vote_average":3,"title":"Fireside Reminiscences","popularity":1.107457,"poster_path":null,"original_language":"en","original_title":"Fireside Reminiscences","genre_ids":[],"backdrop_path":null,"adult":false,"overview":"A broken-hearted husband thinks about the past as he sits by the fireplace.","release_date":"1908-01-23"}]}