{"page":56,"total_results":1170,"total_pages":59,"results":[{"vote_count":0,"id":267037,"video":false,"vote_average":0,"title":"Master Samurai","popularity":1,"poster_path":"\/opZTOzZ4tOTDCiuCLRW69WUXZsl.jpg","original_language":"en","original_title":"Master Samurai","genre_ids":[],"backdrop_path":null,"adult":false,"overview":"Not really note worthy action movie from the Philippines.","release_date":"1983-01-01"},{"vote_count":0,"id":427021,"video":false,"vote_average":0,"title":"Das Spiel mit dem Feuer","popularity":1.002327,"poster_path":null,"original_language":"de","original_title":"Das Spiel mit dem Feuer","genre_ids":[],"backdrop_path":null,"adult":false,"overview":"a silent movie by Robert Wiene","release_date":"1921-05-19"},{"vote_count":0,"id":433649,"video":false,"vote_average":0,"title":"Vi masthuggspojkar","popularity":1.00181,"poster_path":"\/pR7LWO1nalNxsmhnvww2g9m9B9Q.jpg","original_language":"sv","original_title":"Vi masthuggspojkar","genre_ids":[35],"backdrop_path":null,"adult":false,"overview":"","release_date":"1940-10-23"},{"vote_count":0,"id":410563,"video":false,"vote_average":0,"title":"Sisila Gini Gani","popularity":1.000844,"poster_path":"\/xuxuZx2eD0Cu92aY5mnifGt48Q9.jpg","original_language":"si","original_title":"Sisila Gini Gani","genre_ids":[18],"backdrop_path":null,"adult":false,"overview":"During a Mayoral election in a small town in the Hill Capital, the son of the opposing candidate is missing while on a trip to Worlds End. The opposing candidate who is a leading lawyer has a mistress named Annette, who now becomes the main suspect. A search begins around Worlds End involving the police and the army, thereby involving the media and people to follow the story.","release_date":"1991-01-04"},{"vote_count":9,"id":16398,"video":false,"vote_average":2.6,"title":"Dragonquest","popularity":2.292376,"poster_path":"\/copmFpWEGiLgrnVeg2UkOAxyLlr.jpg","original_language":"en","original_title":"Dragonquest","genre_ids":[14,28,12],"backdrop_path":"\/uEfN7dVfV3wKZ4ObPgfbaw7TVfp.jpg","adult":false,"overview":"When an ancient warlord summons a mythological beast, a young hero must complete a series of quests to awaken the dragon that will defeat the monster.","release_date":"2009-03-31"},{"vote_count":5,"id":54498,"video":false,"vote_average":5.3,"title":"The Junkman","popularity":1.219524,"poster_path":"\/4qECoy9qsXhggQVXZPZRk5eWrfv.jpg","original_language":"en","original_title":"The Junkman","genre_ids":[80,28,53,35],"backdrop_path":"\/1xHUMMnpRP7p1OrZYRetmpIs2fN.jpg","adult":false,"overview":"As film-maker Harlan Hollis drives to a James Dean festival, he's unaware that killers are tracking his every move. The fast and furious race to avoid their net, stay alive and discover who is behind this lethal plan, will take Hollis through a fiery battle, turning highways and city streets into a blazing junkyard.","release_date":"1982-08-28"},{"vote_count":3,"id":99875,"video":false,"vote_average":5.7,"title":"The Italian Straw Hat","popularity":1.213487,"poster_path":"\/2wBBy0TEZY0V4SwiS8EVeTEqWVR.jpg","original_language":"fr","original_title":"Un chapeau de paille d'Italie","genre_ids":[35],"backdrop_path":"\/p1jhf2oNDPpSdtKuNSLFmJEuZ0b.jpg","adult":false,"overview":"On the day of Fadinard's wedding, his horse eats a lady's hat on a bush at the roadside, while the lady is hidden behind the bush with her lover Lieutenant Tavernier. Because she is married, she cannot return home hatless without being compromised, and Tavernier orders Fadinard to replace the hat with one exactly like it - or else he will wreck his new home. In an elaborate sequence of complications, Fadinard tries to find a hat while keeping to his marriage schedule","release_date":"1928-01-13"},{"vote_count":2,"id":109302,"video":false,"vote_average":7,"title":"Fireworks, Should We See It from the Side or the Bottom?","popularity":1.454432,"poster_path":"\/b3WJtCshZphVrvFYbMxBMxXR2tn.jpg","original_language":"ja","original_title":"打ち上げ花火、下から見るか? 横から見るか?","genre_ids":[],"backdrop_path":null,"adult":false,"overview":"One summer day a group of sixth-grade boys have an argument about whether fireworks are round or flat when viewed from different angles and embark on a journey for the answer during the annual firework festival. Meanwhile, one of their classmates, Nazuna, is troubled by her parents' separation and decides to choose one of the boys to run away with.","release_date":"1995-08-12"},{"vote_count":8,"id":33370,"video":false,"vote_average":6.8,"title":"Done the Impossible","popularity":2.244095,"poster_path":"\/9jIljlKeEOgpeL9ESu33R77cItw.jpg","original_language":"en","original_title":"Done the Impossible","genre_ids":[99],"backdrop_path":"\/9QfNuMxTMnrOENd7bcqIJARckeK.jpg","adult":false,"overview":"A documentary covering Firefly's birth, death and rebirth from the perspective of both the fans and the cast and crew of both productions.","release_date":"2006-07-28"},{"vote_count":0,"id":95261,"video":false,"vote_average":0,"title":"Stravinsky and the Ballets Russes: The Firebird \/ The Rite of Spring","popularity":1.004748,"poster_path":"\/lyV5OewedSmBM6RwaWIj72u7nPF.jpg","original_language":"en","original_title":"Stravinsky et les Ballets Russes: L'oiseau de feu \/ Le Sacre du Printemps","genre_ids":[10402],"backdrop_path":null,"adult":false,"overview":"Two ballets - The Firebird and The Rite of Spring - composed by Igor Stravinsky. Conducted by Valery Gergiev.","release_date":"2009-01-01"},{"vote_count":2,"id":257516,"video":false,"vote_average":4.8,"title":"The Dawn of the Renaissance - Florence Cathedral","popularity":1.075309,"poster_path":"\/jAPV1IEbA6GoUE2qRnPkpvxbiSH.jpg","original_language":"en","original_title":"The Dawn of the Renaissance - Florence Cathedral","genre_ids":[99,36],"backdrop_path":"\/bw9CJ5px5Xwm3AaHIaqq3XRWBit.jpg","adult":false,"overview":"The Basilica di Santa Maria del Fiore is the main church of Florence, Italy.  It was one of the most impressive projects of the Renaissance.  Il Duomo di Firenze, as it is ordinarily called, was begun in 1296 in the Gothic style to the design of Arnolfo di Cambio and completed in 1436 with the dome engineered by Filippo Brunelleschi. The exterior of the basilica is faced with marble panels in various shades of green and pink bordered by white.  The basilica is one of Italy's largest churches and, until development of new structural materials in the modern era was the largest in the world. It remains the largest brick dome ever constructed.","release_date":"2010-03-01"},{"vote_count":1,"id":149476,"video":false,"vote_average":6,"title":"Gangsters '70","popularity":1.891663,"poster_path":"\/lCAlOOWMxeLcIXSNJWVskVGi2tn.jpg","original_language":"it","original_title":"Gangsters '70","genre_ids":[80],"backdrop_path":null,"adult":false,"overview":"An elderly gangster just released from prison plans one last job, and gathers a small crew to do the job, but the plan goes sour when one of the crew betrays the details of the operation to a rival gangster.","release_date":"1968-04-29"},{"vote_count":0,"id":446945,"video":false,"vote_average":0,"title":"Black Spot","popularity":1.000464,"poster_path":"\/1KHMNx4JliaYtuTcaUBYrsYtMaj.jpg","original_language":"zh","original_title":"黑色走廊","genre_ids":[],"backdrop_path":null,"adult":false,"overview":"To survive, Huang, former opium trafficker, engages in illegal karate fights, a discipline which he is the undisputed master. He is contacted by Interpol, who asked him to infiltrate the opium networks of the Golden Triangle. At a secret meeting in Manila, Huang contacts Wei Chen, Hong Kong network leader, who entrusted him with an important mission in Thailand. Hung discovers that then heroin takes on a new road and interpol does not know the new road. Quickly suspected by traffickers, Huang with the force of his fists, engages a death struggle against the drug cartel.","release_date":"1990-05-30"},{"vote_count":0,"id":452938,"video":true,"vote_average":0,"title":"Boysetsfire Farewell Show - June 9th, The Trocadero, Philadelphia, PA","popularity":1.004706,"poster_path":"\/qDAAwC8exQojzZBj3qdROL2dFb.jpg","original_language":"en","original_title":"Boysetsfire Farewell Show - June 9th, The Trocadero, Philadelphia, PA","genre_ids":[10402],"backdrop_path":null,"adult":false,"overview":"June 9th, 2007 - The Trocadero: Watch boysetsfire perform their final show for their friends, family and hometown fans. An emotional night from start to finish, the boys from Newark run through a long energetic set comprised of 21 passionate songs. Experience in intimate detail the music, the sweat, and the tears that made up this historic night in Phillly's Chinatown.\r Setlist:\r 1. Release The Dogs\r 2. Pure\r 3. Cavity\r 4. Walk Astray\r 5. My Life In The Knife Trade\r 6. Requiem\r 7. Twelve Step Hammer Program\r 8. With Every Intention\r 9. Ten And Counting\r 10. Still Waiting For The Punchline\r 11. With Cold Eyes\r 12. The Final Communique\r 13. Empire\r 14. The Power Remains The Same\r 15. Falling Out Theme\r 16. Handful Of Redemption\r 17. So Long And Thanks For The Crutches\r 18. The Force Majure\r 19. Vehicle\r 20. Rookie\r 21. After The Eulogy","release_date":"2009-06-01"},{"vote_count":0,"id":122911,"video":false,"vote_average":0,"title":"Daughter of the Flames","popularity":1.000783,"poster_path":"\/UKQOg1beYJRviqUr1sRlLphsNn.jpg","original_language":"ko","original_title":"불의 딸","genre_ids":[18],"backdrop_path":null,"adult":false,"overview":"A man married to a Christian, but from a shamanistic upbringing, attempts to come to terms with the spirit of his mother who visits him in dreams.","release_date":"1983-11-05"},{"vote_count":12,"id":31221,"video":false,"vote_average":3.7,"title":"Dragon Hunter","popularity":2.557282,"poster_path":"\/sqVqt3sWWmnL3Y6lMmg2BDEjpzk.jpg","original_language":"en","original_title":"Dragon Hunter","genre_ids":[14],"backdrop_path":"\/vEMhwf9KzzU3WpXaGoBfPFktUSv.jpg","adult":false,"overview":"Orphaned as a baby when his parents were killed in a vicious orc attack, Kendrick of Elwood was raised by his elder brother, Darius. Now, after years of absence, a new danger emerges, more lethal than the threat of orcs or men. Reports of dragon attacks spread like wildfire through the panicked land.","release_date":"2008-12-01"},{"vote_count":2,"id":240938,"video":false,"vote_average":5,"title":"How to Catch a Feather from the Firebird","popularity":1.670395,"poster_path":"\/jqERqo0fV65fAGCJy29o4YsWgKI.jpg","original_language":"ru","original_title":"Как поймать перо Жар-Птицы","genre_ids":[16],"backdrop_path":"\/76ZCiosucLaSkdARK0vqTjvJV91.jpg","adult":false,"overview":"Following king Berendey's orders, his youngest son, Ivan is sent to find the wonderful Firebird. In his search he is accompanied by his loyal friend and helper - Sery Volk, who, through his wits is always there to help his lightheaded friend. Fascinating and dangerous adventures , the executions of Ivan's cruel brothers and his fated encounter with Elena Prekrasnaia, are awaiting our heroes.  The young spectators would be absorbed by the magical world of russian tales, with their traditions and characteristical aesthetics wonderfully mixing up with modern cinema. As for the parents, they will most certainly appreciate the humor and music especially written by popular rock artists.","release_date":"2013-10-24"},{"vote_count":2,"id":279874,"video":false,"vote_average":5,"title":"Legion of the Damned","popularity":4.493718,"poster_path":"\/zFW66W6owS9nP5D6ZFVjef15808.jpg","original_language":"it","original_title":"La legione dei dannati","genre_ids":[28,10752],"backdrop_path":"\/uG3mX5pEW78i7wszi6yqdzXQwU4.jpg","adult":false,"overview":"A British Colonel is angry with his superiors after his entire platoon is slaughtered by the Germans in what he saw as a suicide mission. So for his next mission, he takes along a platoon a convicted criminals - to prepare the Normandy beaches for the D-Day landings. Wartime drama from Italy, starring Jack Palance, Wolfgang Preiss and Curd Jurgens.","release_date":"1969-08-11"},{"vote_count":9,"id":104287,"video":false,"vote_average":7.8,"title":"Dangerous Encounters of the First Kind","popularity":2.229717,"poster_path":"\/mB2CEeOn7EcpzSHxbOyaL0pV3EH.jpg","original_language":"cn","original_title":"第一類型危險","genre_ids":[28,80,53],"backdrop_path":"\/uQT1mk0xWxJ1MhdTKKHYjjWEcTv.jpg","adult":false,"overview":"A sociopathic beauty urges three nerdy pranksters to embark on a deranged rampage.","release_date":"1980-12-04"},{"vote_count":4,"id":68590,"video":false,"vote_average":7.1,"title":"Legacy of Rage","popularity":3.405237,"poster_path":"\/vDMgrN2Hfp5EbAynt1daKi2L8x2.jpg","original_language":"en","original_title":"Long zai jiang hu","genre_ids":[28,53],"backdrop_path":"\/4vGbYBxZ5DVPHn6FmfYTpVMMiaG.jpg","adult":false,"overview":"Brandon plays Brandon Ma, a regular working Joe who holds down two jobs, so he can support his girlfriend May and his dream of owning a motorcycle. Brandon's best friend is Michael, an ambitious and murderous dope peddler. Michael covets May and so he comes up with a plan that will win her for him, and solves a problem he's been having. It seems that an undercover cop named Sharky has been using his police connections to dominate the local cocaine trade, so Michael has him killed and uses Brandon as the fall guy. Brandon goes to jail, though he thinks that he will be released soon thanks to the efforts of his good buddy Michael. Eight years later Brandon finally gets out of jail and vows revenge.","release_date":"1986-12-20"}]}