{"page":35,"total_results":1170,"total_pages":59,"results":[{"vote_count":0,"id":322080,"video":true,"vote_average":0,"title":"Bullet for My Valentine Scream Aim Fire DVD Conent","popularity":1.25,"poster_path":null,"original_language":"en","original_title":"Bullet for My Valentine Scream Aim Fire DVD Conent","genre_ids":[],"backdrop_path":null,"adult":false,"overview":"Videos:  Scream Aim Fire  Waking the Demon  Hearts Burst into Fire  Bullet TV:  Drinking  Switzerland  Japan  Travel to Oz  Australia\/New Zealand","release_date":""},{"vote_count":0,"id":300850,"video":false,"vote_average":0,"title":"Reformation, Plague and Fire in Renaissance London","popularity":1.010767,"poster_path":null,"original_language":"en","original_title":"Reformation, Plague and Fire in Renaissance London","genre_ids":[],"backdrop_path":null,"adult":false,"overview":"Reformation, Plague and Fire in Renaissance London. The Tudor Reformation saw the destruction of dozens of London's oldest and largest ecclesiastical structures. But during the tumultuous days of the Reformation, Civil War, and Restoration, the city grew by leaps and bounds. The bubonic plague returned in 1665. No sooner had the city recovered, than the Great Fire of 1666 reduced London to ashes.","release_date":"2013-01-01"},{"vote_count":0,"id":339782,"video":true,"vote_average":0,"title":"Peppa Pig: The Fire Engine and Other Stories","popularity":1.008729,"poster_path":"\/9EkqwGf3Xov9PJtb14JcvVmxIdO.jpg","original_language":"en","original_title":"Peppa Pig: The Fire Engine and Other Stories","genre_ids":[16,10751],"backdrop_path":"\/fDhM3LKlvAy93nU4PfZpKGtgvSZ.jpg","adult":false,"overview":"Peppa is a lovable, cheeky little piggy who lives with her younger brother George, Mummy Pig and Daddy Pig. Peppa loves playing games, dressing up, visiting exciting places and making new friends, but her absolutely favourite thing is jumping up and down in muddy puddles. Her adventures always end happily with loud snorts of laughter.","release_date":"2012-05-03"},{"vote_count":0,"id":291456,"video":false,"vote_average":0,"title":"Father of Four: Songs from the Heart","popularity":1.006927,"poster_path":"\/2wkeV0MXvZUh2YUwXjrPwaTK4QL.jpg","original_language":"da","original_title":"Far til Fire - Sange fra Hjertet","genre_ids":[10402],"backdrop_path":"\/6IoJ2V0YN9nqkPmZXVnYdLb6xUx.jpg","adult":false,"overview":"Original songs and video clips from the movies Father of Four.","release_date":"2006-03-21"},{"vote_count":0,"id":356403,"video":false,"vote_average":0,"title":"Arcade Fire - Live At Oxegen Festival","popularity":1.005882,"poster_path":null,"original_language":"pt","original_title":"Arcade Fire - Live At Oxegen Festival","genre_ids":[99,10402],"backdrop_path":null,"adult":false,"overview":"","release_date":"2010-08-27"},{"vote_count":0,"id":318447,"video":false,"vote_average":0,"title":"Power Rangers: Mystic Force: Vol. 3: Fire Heart","popularity":1.005586,"poster_path":"\/2EG6yuUma6chAZ2RxMU2Ecp6F3T.jpg","original_language":"en","original_title":"Power Rangers: Mystic Force: Vol. 3: Fire Heart","genre_ids":[],"backdrop_path":"\/p4X8E1yHgpPw3oCie2GiuDwNY3x.jpg","adult":false,"overview":"This disc includes the following episodes: \"Fire Heart,\" \"Petrified Xander\" and \"Scaredy Cat.\" Also included is the bonus episode \"Ranger Down.\"","release_date":"2006-11-08"},{"vote_count":0,"id":261598,"video":false,"vote_average":0,"title":"Steel of Fire Warriors 2010 A.D.","popularity":1.004849,"poster_path":"\/x0lNWdpJOVho9K7jw82HHwRTK6g.jpg","original_language":"en","original_title":"Steel of Fire Warriors 2010 A.D.","genre_ids":[28,35,14],"backdrop_path":"\/80wnckPfvRUNnkimpLcckU2TWVy.jpg","adult":false,"overview":"First the world was normal, everyone was happy. Then, the apocalypse happened and everything changed. Politics failed. Civilization fell into disarray. Out of the muck of this primordial devastation rose the hideous, deformed and evil Mutantzoids destroying everything in sight with their horrible mutant powers and appearances. None would stand in their swath of destruction, with the possible exception of... STEEL OF FIRE WARRIORS 2010 A.D. Written by Kevin Clarke","release_date":"2008-11-21"},{"vote_count":0,"id":80882,"video":false,"vote_average":0,"title":"Cult of Luna - Fire Was Born","popularity":1.004706,"poster_path":"\/T90KbUVrwUPrK0zgFLwKygiGzJ.jpg","original_language":"en","original_title":"Cult of Luna - Fire Was Born","genre_ids":[10402],"backdrop_path":"\/oAQ4LzZ75g0EloRmgrjs9kYIEUy.jpg","adult":false,"overview":"Fire Was Born is the first DVD release by the Umeå post-metal band Cult of Luna. It features an entire live performance, the three music videos, and an interview with guitarist\/vocalist Johannes Persson and keyboardist Anders Teglund, in which they answer fan-submitted questions.","release_date":"2009-04-27"},{"vote_count":3,"id":84192,"video":false,"vote_average":8,"title":"Escape Fire: The Fight to Rescue American Healthcare","popularity":1.239021,"poster_path":"\/cS4pmIc8OU8XCAUjdL8HEwFNRgq.jpg","original_language":"en","original_title":"Escape Fire: The Fight to Rescue American Healthcare","genre_ids":[99],"backdrop_path":"\/4SwF74MR6Ik7AkHqDmQGzjojsct.jpg","adult":false,"overview":"Our healthcare system is broken. Potent forces fight to maintain the status quo in a medical industry created for quick fixes, rather than prevention; for profit-driven, rather than patient-driven, care. Healthcare is at the center of an intense political firestorm in our nation's capital. But the current battle over cost and access does not ultimately address the root of the problem: we have a disease-care system, not a health-care one. After decades of opposition, a movement to introduce innovative high-touch, low-cost methods of prevention and healing is finally gaining ground.","release_date":"2012-10-05"},{"vote_count":0,"id":318113,"video":false,"vote_average":0,"title":"Earth, Wind & Fire: The Collection","popularity":1.003609,"poster_path":"\/8EikSAOEeA3NolwEYGvaMT3bq5B.jpg","original_language":"en","original_title":"Earth, Wind & Fire: The Collection","genre_ids":[],"backdrop_path":"\/ewuBQtd4wpcaYe03q1F8ZaUZHoo.jpg","adult":false,"overview":"Blending rhythm and blues, funk, soul and disco, Earth, Wind &amp; Fire has electrified audiences worldwide since the 1970s. This incandescent compilation rounds up videos and performance footage from the band's entire career, ranging from an update of 1978's \"September\" to later hits such as \"Magnetic.\" Other tracks include \"Serpentine Fire,\" \"Boogie Wonderland\" and live versions of \"Fantasy,\" \"Sing a Song\" and the smash \"After the Love Has Gone.\"","release_date":"2004-06-01"},{"vote_count":0,"id":397159,"video":false,"vote_average":0,"title":"After The Fire - Live at the Greenbelt","popularity":1.00353,"poster_path":"\/tooyKKkQ0FTG55yCFlmz9ffNskL.jpg","original_language":"en","original_title":"After The Fire - Live at the Greenbelt","genre_ids":[10402],"backdrop_path":null,"adult":false,"overview":"After performing at the legendary Greenbelt Arts Festival in 1979, After The Fire return 25 years later marking their return with this live performance. Originally filmed as a private recording of the event, they decided to release the show on DVD.","release_date":"2006-04-25"},{"vote_count":2,"id":59583,"video":false,"vote_average":3.5,"title":"Heat Wave","popularity":1.379598,"poster_path":"\/wbvUlCHZ7zkHbMO7v2RRAPkBLz0.jpg","original_language":"fr","original_title":"Heat Wave","genre_ids":[53],"backdrop_path":null,"adult":false,"overview":"When a sudden, unexplained rise in local temperatures threatens to turn Los Angeles County into a parched, lifeless desert, one scientist must put her theories to the test in a desperate effort to prevent the catastrophe.","release_date":"2010-02-28"},{"vote_count":0,"id":168836,"video":false,"vote_average":0,"title":"Earth, Wind & Fire: Live by Request","popularity":1.001247,"poster_path":"\/6K3vAZaIvr098cEHevqHy3558sU.jpg","original_language":"en","original_title":"Earth, Wind & Fire: Live by Request","genre_ids":[],"backdrop_path":null,"adult":false,"overview":"Broadcast live at July 17th 1999 on A&amp;E Network from Sony Music Studios in New York","release_date":"2002-02-25"},{"vote_count":0,"id":147437,"video":false,"vote_average":0,"title":"Manowar: Hell On Earth II, Fire and Blood","popularity":1.001177,"poster_path":"\/c7Kw2g9lKR0kRdDKAHNblat2ZFv.jpg","original_language":"en","original_title":"Manowar: Hell On Earth II, Fire and Blood","genre_ids":[],"backdrop_path":"\/b2vWg5v9TX8gCQSp2E77P4g1g4l.jpg","adult":false,"overview":"Fire and Blood is a double-DVD from American heavy metal band Manowar. The first DVD is a documentary that features part 2 of the series \"Hell on Earth\". With almost two hours of running time \"Hell on Earth Part 2\" documents the 1998 \"Hell on Stage\" European Tour with almost 30 shows. The second DVD, Blood in Brazil is their live performance at the Philips Monsters Of Rock in São Paulo, Brazil on September 26, 1998. This was the first a complete concert performance captured in the band's career.","release_date":"1998-09-26"},{"vote_count":0,"id":367184,"video":false,"vote_average":0,"title":"Fire and Ice: The Rocket Richard Riot","popularity":1.000078,"poster_path":null,"original_language":"en","original_title":"Fire and Ice: The Rocket Richard Riot","genre_ids":[],"backdrop_path":null,"adult":false,"overview":"A documentary on the Canadian ice hockey legend Maurice Richard.","release_date":""},{"vote_count":0,"id":464076,"video":false,"vote_average":0,"title":"Santa Cruz Skateboards - Streets On Fire","popularity":1.000001,"poster_path":"\/asuoR7zyaAijD2r2hKS2yRBF5g7.jpg","original_language":"en","original_title":"Santa Cruz Skateboards - Streets On Fire","genre_ids":[99],"backdrop_path":null,"adult":false,"overview":"Jason Jessee goes to jail and dreams of shredding the gnar.","release_date":"1989-08-23"},{"vote_count":0,"id":171463,"video":false,"vote_average":0,"title":"Earth, Wind and Fire Oakland CA","popularity":1,"poster_path":"\/ajYqQsomxecHsQGlvRbMF5qYq9U.jpg","original_language":"en","original_title":"Earth, Wind and Fire Oakland CA","genre_ids":[],"backdrop_path":null,"adult":false,"overview":"Recorded live at the Oakland Coliseum in 1981, this brilliant performance by the Grammy-winning flamboyant funk group captures the hard-driving rhythms, the soothing melodies, the scintillating horns and the special effects that have dazzled concertgoers around the world. Included are \"Sing a Song,\" \"Fantasy,\" \"Shining Star,\" \"Kalimba Tree,\" \"Let Your Feelings Show,\" \"In the Stone\" and \"Phoenix Intro.\"","release_date":""},{"vote_count":0,"id":488540,"video":false,"vote_average":0,"title":"Arcade Fire- MTV World Stage 2010","popularity":1,"poster_path":"\/fIGwzQ1qwq7HWfm1e9sjcamlzZe.jpg","original_language":"es","original_title":"Arcade Fire- MTV World Stage 2010","genre_ids":[],"backdrop_path":"\/wLx5XqqdrsA9lGf9wrcoMwUCyt5.jpg","adult":false,"overview":"","release_date":""},{"vote_count":0,"id":413759,"video":true,"vote_average":0,"title":"Firefighter George & Fire Engines Volume 1","popularity":1,"poster_path":null,"original_language":"en","original_title":"Firefighter George & Fire Engines Volume 1","genre_ids":[],"backdrop_path":null,"adult":false,"overview":"Every boy and girl dreams about the thrill of riding on a fire engine and using a firefighter's special gear.  Our video will let your little ones live this dream and learn about fire safety and fire equipment with Firefighter George and Firefighter Christy of Start Smarter.  Come along with us in our first of two exciting and action packed videos as we teach your Junior Firefighters all about the equipment on a Fire Engine.  Then watch as real firefighters show how the equipment works in live action!","release_date":""},{"vote_count":2,"id":52596,"video":false,"vote_average":7,"title":"Flaming Fire Chief","popularity":1.740946,"poster_path":"\/t8I5yNmnmzmZAFMWez7bpRE095q.jpg","original_language":"da","original_title":"Brand-Børge rykker ud","genre_ids":[35],"backdrop_path":"\/lfmYufZ4yd8X7256nBrhnqCwXjv.jpg","adult":false,"overview":"A festive crime comedy about a confused innkeeper who involuntarily finds himself becoming entangled in a larger crime-affair where the villains have stolen and smuggled a precious diamond baked in a cake ...","release_date":"1976-02-20"}]}