{"page":52,"total_results":1170,"total_pages":59,"results":[{"vote_count":3,"id":159185,"video":false,"vote_average":7,"title":"Red Firecracker, Green Firecracker","popularity":1.480509,"poster_path":"\/gM516lPBoHPYjgrLrmZKoNfNm6X.jpg","original_language":"zh","original_title":"Pao Da Shuang Deng","genre_ids":[18],"backdrop_path":null,"adult":false,"overview":"A woman inherits her father's fireworks factory, as he had no son. The business does well and everything works in an orderly fashion until one day, an itinerant painter is hired to decorate the doors and vases at the factory. The woman, forbidden to marry and thereby involve outsiders in the factory ownership, finds herself drawn to the headstrong painter. When they fall in love, the situation throws her entire life into disarray","release_date":"1994-10-14"},{"vote_count":1,"id":455965,"video":false,"vote_average":5,"title":"The Firemen's Choir","popularity":1.036483,"poster_path":"\/hfCQBU2TybGI5Hbt1LQpKUaEjt5.jpg","original_language":"ro","original_title":"Corul pompierilor","genre_ids":[18],"backdrop_path":null,"adult":false,"overview":"","release_date":"2000-01-01"},{"vote_count":1,"id":195820,"video":false,"vote_average":7,"title":"Three Steps to the Gallows","popularity":2.162219,"poster_path":"\/9xXzsYUSD8yWuEvn1gcMQaraccl.jpg","original_language":"en","original_title":"Three Steps to the Gallows","genre_ids":[80,18],"backdrop_path":"\/1SY832cfwKGZBPE9dsSZrbGGrs4.jpg","adult":false,"overview":"A U.S. sailor (Scott Brady) docks in London and in three days tries to save his brother from the gallows.","release_date":"1953-12-01"},{"vote_count":30,"id":43766,"video":false,"vote_average":7.7,"title":"Fireworks Wednesday","popularity":3.028458,"poster_path":"\/AaEThAQF5iLRXn16yipenMQcbeU.jpg","original_language":"fa","original_title":"چهارشنبه سوری","genre_ids":[18],"backdrop_path":"\/9FtWYccy3GT0VLVhcwxBQg7Z27W.jpg","adult":false,"overview":"On the day before their holiday trip to Dubai, a wife who believes her husband is unfaithful enlists the help of Roohi, a young woman sent by an agency to clean the house. She asks Roohi to make an appointment and gather information at the salon of the woman she suspects. Roohi is betrothed, innocent of marital discord. Over the course of the day, she, the couple, their small son, the wife's sister and husband, and the beautician engage in a series of exchanges, confrontations, and prevarications. Are the wife's suspicions unwarranted; is her behavior imperiling her marriage? Acts of kindness may go awry. And the trip to Dubai?","release_date":"2006-02-08"},{"vote_count":4,"id":105420,"video":false,"vote_average":2.8,"title":"Aurora: Operation Intercept","popularity":1.461005,"poster_path":"\/nk6bh1KihKvFYrg3CueGI7ycvSZ.jpg","original_language":"en","original_title":"Aurora: Operation Intercept","genre_ids":[28],"backdrop_path":null,"adult":false,"overview":"There have been two mysterious plane crashes in only 48 hours. The aircraft suddenly lose control and crash, killing everyone aboard. A woman of Russian descent, Francesca Zaborszin, the daughter of a slain Federal investigator, claims responsibility for the crashes. She believes her father was killed by the FBI as part of a cover-up operation and wishes to avenge his death by threatening to down more aircraft using the same electromagnetic pulse method. She also intends to crash a stolen military jet into the White House. There's no time to ground the planes: just enough time to try to stop her.","release_date":"1995-01-01"},{"vote_count":73,"id":12235,"video":false,"vote_average":6.5,"title":"Jagged Edge","popularity":7.409419,"poster_path":"\/imgKjDQfYbIxuuvNtqoENiCURDU.jpg","original_language":"en","original_title":"Jagged Edge","genre_ids":[9648,53],"backdrop_path":"\/9Aq5HCF0r6JRkIMkDbmXjovQARU.jpg","adult":false,"overview":"San Francisco heiress Page Forrester is brutally murdered in her remote beach house. Her husband Jack is devastated by the crime but soon finds himself accused of her murder. He hires lawyer Teddy Barnes to defend him, despite the fact she hasn't handled a criminal case for many years. There's a certain chemistry between them and Teddy soon finds herself defending the man she loves.","release_date":"1985-10-04"},{"vote_count":1,"id":246344,"video":false,"vote_average":3,"title":"The Firebird","popularity":1.157931,"poster_path":"\/dkmnosJYDwnIcP3TBAhwpL9qwOA.jpg","original_language":"en","original_title":"Eldfågeln","genre_ids":[18,10749],"backdrop_path":null,"adult":false,"overview":"Italian singer Mario Vanni visits the Royal Opera in Stockholm and fall in love with ballet dancer Linda Corina.","release_date":"1952-08-11"},{"vote_count":0,"id":74312,"video":false,"vote_average":0,"title":"Between Two Fires","popularity":1.033249,"poster_path":"\/95ruB4gEylnGGbmsWGmC6sE08SF.jpg","original_language":"pl","original_title":"Dwa ognie","genre_ids":[18,10749,53],"backdrop_path":"\/2fBltt7PVJjB509dPrfdEdn7NR3.jpg","adult":false,"overview":"A young mother with her daughter escapes child trafficking in their home country Belarus just to end up in a refugee camp in northern Sweden. In her vulnerable situation she becomes a easy target for her surrounding. Soon enough she get put in front of extreme choices which turns her life to a nightmare.","release_date":"2010-10-13"},{"vote_count":0,"id":439117,"video":false,"vote_average":0,"title":"Natsumi's Firefly","popularity":1.460039,"poster_path":"\/4R6LJg1pj8BBmO1Z4jjbr9iq7bu.jpg","original_language":"ja","original_title":"夏美のホタル","genre_ids":[18],"backdrop_path":"\/7RLV9E32BI1tWnKm43FYohMzFYP.jpg","adult":false,"overview":"Natsumi wants to become a photographer. She takes a bike which her late father left behind and goes to a forest to find a firefly she saw with her father. In the forest, Natsumi meets old mother Yasu and old son Jizo. They run a general store. Natsumi learns how to live in nature from them. She has happy summer days there. One day, Jizo tells her that he became estranged from his son in the past.","release_date":"2016-06-11"},{"vote_count":1,"id":375680,"video":false,"vote_average":5,"title":"Grand Display of Brock's Fireworks at the Crystal Palace","popularity":1.036471,"poster_path":"\/pf9azGj5c8cvJoK3X0J6zkN7wPR.jpg","original_language":"xx","original_title":"Grand Display of Brock's Fireworks at the Crystal Palace","genre_ids":[99],"backdrop_path":null,"adult":false,"overview":"An actuality of the Brock's fireworks factory to celebrate its 40th anniversary organizes. The final shot has two flaming portraits of King Edward VII and Queen Alexandra, originally presented by Brock's at the coronation in 1902. The film is a cornucopia of colors, as it was originally a hand-painted film. The 2011 restoration has tried to revive the brilliance and the impact of colors through digital reproduction. The original film archival print is at the National Cinema Museum.","release_date":"1904-01-01"},{"vote_count":57,"id":11413,"video":false,"vote_average":5.9,"title":"Employee of the Month","popularity":4.98397,"poster_path":"\/7akcCjfiQkXDOrptsxSGp3obegf.jpg","original_language":"en","original_title":"Employee of the Month","genre_ids":[28,35],"backdrop_path":"\/3rXeF8JVsUNTZ6TxPcvMBScI1T0.jpg","adult":false,"overview":"\"Employee of the Month\" is about a guy whose day spirals from bad to worse when he gets fired from his dream job at the bank and is dumped by his fiancée Sara. David's best friend Jack tries to convince him it's for the best, but the opposite occurs when bank robberies and millions of dollars become part of his day from hell.","release_date":"2004-01-17"},{"vote_count":1,"id":107371,"video":false,"vote_average":6,"title":"Firefist of Incredible Dragon","popularity":1.096848,"poster_path":"\/2anxLhOdW0InrbuZACdZ7PGxVMZ.jpg","original_language":"en","original_title":"Solimsa jucheongwidong","genre_ids":[],"backdrop_path":null,"adult":false,"overview":"The plot is about a bloodthirsty lord called Pi Hao who have young girls kidnapped to satisfy his lusty desires. He orders the killing of Shao Shao, one of the young girls, and his henchmen burry her body in the forest. Her sister Sho Kown goes after her and - as the two sister were very much look-alike - Pi Hao send his men to check the place where the body is buried. But the grave is empty and all the men who were sent to burry it are found dead...","release_date":"1982-06-19"},{"vote_count":0,"id":316213,"video":false,"vote_average":0,"title":"New York Firefighters: The Brotherhood of September 11","popularity":1.001177,"poster_path":null,"original_language":"en","original_title":"New York Firefighters: The Brotherhood of September 11","genre_ids":[],"backdrop_path":null,"adult":false,"overview":"This poignant documentary, narrated by award-winning actress Stockard Channing, profiles the firemen of Rescue 3, who used strength and solidarity to prevail against unbearable pain and loss during the terrorist attacks of September 11, 2001.","release_date":"2002-01-01"},{"vote_count":0,"id":62828,"video":false,"vote_average":0,"title":"Popular Mechanics for kids: Firefighters and Other Life Saving Heroes","popularity":1.000172,"poster_path":"\/7ObKJWvgPJYsbvAQVqAhjfzC4Jt.jpg","original_language":"en","original_title":"Popular Mechanics for kids: Firefighters and Other Life Saving Heroes","genre_ids":[99,10751],"backdrop_path":"\/iyDOCZK55SpPyKsvR4mrliiXgvv.jpg","adult":false,"overview":"The hosts of this popular children's series hit the streets with several teams of daring rescue workers to see what their fast-paced life and livelihood are all about. Elisha Cuthbert joins firefighters as they put out a blaze, while Jay Baruchel suits up for a firefighting training session. Tyler Kyte heads out to the ocean to see if a lifeguard's job is truly a day at the beach, then meets a team of rescue dogs with some well-trained noses.","release_date":""},{"vote_count":0,"id":467747,"video":false,"vote_average":0,"title":"Filles du feu","popularity":1.089304,"poster_path":null,"original_language":"ku","original_title":"Filles du feu","genre_ids":[],"backdrop_path":null,"adult":false,"overview":"","release_date":"2017-08-24"},{"vote_count":1,"id":75551,"video":false,"vote_average":4,"title":"The Firemen of Viggiu","popularity":1.036477,"poster_path":"\/lEAK1QH48aAPx1MmIcaufZ1QGCl.jpg","original_language":"it","original_title":"I pompieri di Viggiù","genre_ids":[35],"backdrop_path":"\/a1ucOVRvKVuS02OYboot5xvXpHl.jpg","adult":false,"overview":"","release_date":"1949-04-16"},{"vote_count":0,"id":147643,"video":false,"vote_average":0,"title":"A Dangerous Summer","popularity":1.812245,"poster_path":"\/rJarR2a4sHbo27TqOKrPvApZIze.jpg","original_language":"en","original_title":"A Dangerous Summer","genre_ids":[],"backdrop_path":null,"adult":false,"overview":"Building is Howard's passion, and he is so absorbed in his plans to build an elaborate resort in the Blue Mountains of Australia that he ignores certain obvious signals that his business partner is not entirely on the up-and-up. After a brush fire destroys the resort, an insurance investigator comes nosing around, whom Howard's partner deals with in a drastic manner. By the time Lloyds of London's senior investigator George Engels (James Mason in one of his last roles) arrives on the scene, Howard (Tom Skerritt) is anxious to set things to rights.","release_date":"1982-10-22"},{"vote_count":0,"id":295617,"video":false,"vote_average":0,"title":"Glow of the Firefly","popularity":1.015167,"poster_path":"\/wolqVlsRtJEPuN3zZsEEm1RXe2X.jpg","original_language":"en","original_title":"Jonakir Alo","genre_ids":[10751,18,10749],"backdrop_path":null,"adult":false,"overview":"An aspiring social worker is torn between adopting a child and being a spouse.","release_date":"2014-09-21"},{"vote_count":0,"id":382419,"video":false,"vote_average":0,"title":"Woman of a Thousand Fires","popularity":1.25,"poster_path":null,"original_language":"es","original_title":"Mujer de Milfuegos","genre_ids":[],"backdrop_path":null,"adult":false,"overview":"An expressionistic, surrealistic portrait of a Latin American woman.","release_date":"1976-02-12"},{"vote_count":0,"id":483812,"video":false,"vote_average":0,"title":"Desire for Fired","popularity":1.002307,"poster_path":"\/rrY03zXd7P4oPWmgqdNGRReseeR.jpg","original_language":"zh","original_title":"情不自禁","genre_ids":[],"backdrop_path":null,"adult":false,"overview":"","release_date":"2001-12-31"}]}