{"page":17,"total_results":567,"total_pages":29,"results":[{"vote_count":0,"id":474929,"video":false,"vote_average":0,"title":"Land Where My Fathers Died","popularity":1.000011,"poster_path":null,"original_language":"en","original_title":"Land Where My Fathers Died","genre_ids":[],"backdrop_path":null,"adult":false,"overview":"When a fiercely independent young African American woman and her nouveau-nationalist photographer boyfriend decide to visit the father she hasn't seen in years, the tragicomic reunion shatters her illusions and provokes the two lovers to reveal that they are both the wounded children of alcoholics. The revelation changes their perception of themselves and each other and serves as a springboard to a new way of relating.  This award winning short narrative co-stars Daresha Kyi and Isaiah Washington in his first film.","release_date":"1991-01-01"},{"vote_count":0,"id":332761,"video":false,"vote_average":0,"title":"Crash Where You Land","popularity":1,"poster_path":"\/q139ZbF5EWsswRSAb2DBms2YItr.jpg","original_language":"en","original_title":"Crash Where You Land","genre_ids":[],"backdrop_path":null,"adult":false,"overview":"A glimpse into the world of seven homeless teenagers, who strive to live life on their terms in the mean streets of New Orleans' infamous French Quarter.","release_date":""},{"vote_count":0,"id":390928,"video":false,"vote_average":0,"title":"Sharunas Bartas: Where am I Now","popularity":1.03624,"poster_path":"\/ctvw6k21AFORjZ9e5YIJI7owJ9w.jpg","original_language":"lt","original_title":"Šarūnas Bartas: kur aš esu šiandien","genre_ids":[99],"backdrop_path":null,"adult":false,"overview":"In the short film \"Sharunas Bartas: where am I now\" director looks for an answer to the question retrospectively and with a perspective towards the future. Reflections on meaning of life and cinema blends in as do autoportrait and portrait genres. In laconic manner director Sharunas Bartas gives quintesense of his thoughts and ideas, more importantly, his feelings and experiences. The film was initiated by Pompidou Art Centre, which recently organized Retrospective of Sharunas Bartas.","release_date":"2016-04-01"},{"vote_count":0,"id":284127,"video":false,"vote_average":0,"title":"Where Do Lilacs Come From","popularity":1.015275,"poster_path":"\/etQVDGwDBJ9BJu8KUVAjHLAkyRO.jpg","original_language":"en","original_title":"Where Do Lilacs Come From","genre_ids":[18],"backdrop_path":null,"adult":false,"overview":"Chris, an elderly Alzheimer's sufferer, is confined to his home. His son, Michael, is his primary caregiver. For months Chris' mind has been fading away and with it his grasp on reality. He is desperately trying to hold onto his mind. Chris is passing further and further from recognition. Michael is left wracked by survivors guilt. But to Chris, the world around him has become nothing more than a waking dream, the bounds of reality and reason bent and warped as his life cycles over and over around him. The only way he can hope to find clarity is to retrace these fractured memories from childhood to his elderly infirmity, in a desperate attempt to understand his condition.","release_date":"2014-07-16"},{"vote_count":0,"id":169824,"video":false,"vote_average":0,"title":"This Is Where We Live","popularity":1.012987,"poster_path":"\/x93mYdTJ2jUeqIDOjob4WZZrk5k.jpg","original_language":"en","original_title":"This Is Where We Live","genre_ids":[10751,18],"backdrop_path":null,"adult":false,"overview":"A struggling family’s dynamics are challenged and a unique friendship is born when a small-town Texas handyman becomes caregiver to their son with cerebral palsy.","release_date":"2013-10-17"},{"vote_count":0,"id":511580,"video":false,"vote_average":0,"title":"No Fish Where to Go","popularity":1.011767,"poster_path":null,"original_language":"en","original_title":"No Fish Where to Go","genre_ids":[],"backdrop_path":null,"adult":false,"overview":"Marie-Francine Hébert based the script for No Fish Where to Go on her book, which was published in 2003 and illustrated by Janice Nadeau. Directed by Nicola Lemay and Nadeau, this modern tale compassionately and poetically addresses intolerance and the consequences of war.","release_date":"2014-01-01"},{"vote_count":0,"id":345683,"video":false,"vote_average":0,"title":"From This Day to Where","popularity":1.010478,"poster_path":null,"original_language":"en","original_title":"From This Day to Where","genre_ids":[],"backdrop_path":null,"adult":false,"overview":"An average day in the life of a woman whose existence is far from average. In the war-torn territories of the eastern Congo, she navigates through a maze of suffering in search for dignity.","release_date":"2011-06-15"},{"vote_count":0,"id":321959,"video":false,"vote_average":0,"title":"Down Where The Buffalo Go","popularity":1.007224,"poster_path":null,"original_language":"en","original_title":"Down Where The Buffalo Go","genre_ids":[18],"backdrop_path":null,"adult":false,"overview":"Carl is a US Navy Shore patrol officer (played by Keitel) who is based at the Holy Loch naval base in Scotland. Armed only with a nightstick, his primary function is to ensure that sailors on shore leave do not become too rowdy, and to provide help to sailors in need of assistance. Carl is married to a local girl and their relationship is at breaking point - she wants to leave Scotland and settle in America while he wants to remain in Scotland. With his brother-in-law Willie, who is already estranged from his wife and under threat of redundancy from his shipyard job, the two men forge a friendship to help each other through.","release_date":"1988-01-19"},{"vote_count":0,"id":173345,"video":false,"vote_average":0,"title":"Where the Dogs Divide Her","popularity":1.007062,"poster_path":"\/4yWf1qLSalqYI41ndU6MYYWO8vP.jpg","original_language":"en","original_title":"Where the Dogs Divide Her","genre_ids":[],"backdrop_path":null,"adult":false,"overview":"Where the Dogs Divide Her begins amid the aftermath of a family massacre. A nameless man sits in an unfamiliar bathroom, his bloodied hands trembling as he ponders his crime of passion. An amnesiac without an identity, he goes in search of himself, only to unearth a long-buried family secret surrounding the bizarre deaths of his parents. An abstract ghost story populated by ever-threatening specters, shadowy souls with evil motives who inhabit a nightmare world within a troubled killer's psyche. They might offer a smile or a kind word, but their only purpose is to snare others into their Hell. Before the killer can come to terms with his deeds and escape this esoteric prison, he must confront his dead parents and make good on an infant's promise made thirty years ago.","release_date":"2011-11-22"},{"vote_count":0,"id":387152,"video":false,"vote_average":0,"title":"Where Is the Black Beast","popularity":1.006986,"poster_path":null,"original_language":"en","original_title":"Where Is the Black Beast","genre_ids":[],"backdrop_path":null,"adult":false,"overview":"Experimental film based on a poem.","release_date":"2010-01-01"},{"vote_count":0,"id":200851,"video":false,"vote_average":0,"title":"Westlife Where We Are Tour","popularity":1.005882,"poster_path":"\/2XdvQxrqhfWyUiXFABnYs3uQzOV.jpg","original_language":"en","original_title":"Westlife Where We Are Tour","genre_ids":[],"backdrop_path":null,"adult":false,"overview":"This DVD's exclusive concert performance from London's O2 Arena captures Westlife's most thrilling tour yet, created with visionary William Baker (Kylie, Leona Lewis, Bjork), that wowed UK arenas in May this year. The show includes the band's biggest and best-loved hits and new tracks taken from the band's 2009 album 'Where We Are'. 'The Where We Are Tour - Live From The 02' also gives fans a rare, intimate glimpse into the lives of Nicky Byrne, Kian Egan, Mark Feehily and Shane Filan with the bonus 'Where We Are - The Documentary'. This compelling behind the scenes documentary provides a fly on the wall insight into the lives of the band in the run up and during the tour.","release_date":"2010-12-07"},{"vote_count":0,"id":339211,"video":false,"vote_average":0,"title":"Ian Fleming: Where Bond Began","popularity":1.004706,"poster_path":null,"original_language":"en","original_title":"Ian Fleming: Where Bond Began","genre_ids":[99],"backdrop_path":null,"adult":false,"overview":"Ian Fleming: Where Bond Began","release_date":"2008-10-19"},{"vote_count":0,"id":268257,"video":false,"vote_average":0,"title":"Where Hazel Met the Villain","popularity":1.004617,"poster_path":null,"original_language":"en","original_title":"Where Hazel Met the Villain","genre_ids":[35],"backdrop_path":null,"adult":false,"overview":"Where Hazel Met the Villain is a 1914 movie starring Roscoe Arbuckle and Phyllis Allen.","release_date":"1914-04-22"},{"vote_count":0,"id":362459,"video":false,"vote_average":0,"title":"Where Has Poor Mickey Gone?","popularity":1.004157,"poster_path":"\/6fpfbzg0vmru9i4ynknZ6usYCxm.jpg","original_language":"en","original_title":"Where Has Poor Mickey Gone?","genre_ids":[9648,80],"backdrop_path":null,"adult":false,"overview":"Things go terribly wrong for four youths, ejected from a London nightclub for rowdiness, after they decide to break into a Magic shop, where they tie up and terrorize the owner. They find to their cost that he deals in more than illusions...","release_date":"1964-10-04"},{"vote_count":0,"id":48438,"video":false,"vote_average":0,"title":"Where Does the Evidence Lead?","popularity":1.002374,"poster_path":"\/9Wh6BE7YNmBU7wpvE5HBilORvcy.jpg","original_language":"en","original_title":"Where Does the Evidence Lead?","genre_ids":[99],"backdrop_path":null,"adult":false,"overview":"A documentary investigating the evidence used to support evolution.","release_date":"2005-05-01"},{"vote_count":0,"id":467552,"video":true,"vote_average":0,"title":"Where Did God Come From?","popularity":1.002353,"poster_path":null,"original_language":"en","original_title":"Where Did God Come From?","genre_ids":[],"backdrop_path":null,"adult":false,"overview":"Ken Ham's powerful presentation teaches Christians the right way to defend their faith when they argue creation versus evolution. Learn answers to such compelling questions as:  * How can we know there is a God?  * Can we see any evidence of God's handiwork today?  * Can the Bible be defended by real science?  * Does creation really explain the evidence in the present?","release_date":"2003-01-01"},{"vote_count":0,"id":316296,"video":false,"vote_average":0,"title":"Where the North Holds Sway","popularity":1.001662,"poster_path":"\/fwFgUpZ5HdklhzfhpetP5Mzupio.jpg","original_language":"en","original_title":"Where the North Holds Sway","genre_ids":[28],"backdrop_path":null,"adult":false,"overview":"A Northwest mounted policeman leaves the service to seek revenge for his brother's murder.","release_date":"1927-01-01"},{"vote_count":0,"id":282691,"video":false,"vote_average":0,"title":"Where Did Our Love Go","popularity":1.001312,"poster_path":null,"original_language":"en","original_title":"Where Did Our Love Go","genre_ids":[],"backdrop_path":null,"adult":false,"overview":"Warhol Factory days... serendipity visits, Janis and Castelli and Bellevue glances... Malanga at work ... glances at Le Mépris and North by Northwest... girl rock groups and a disco opening... a romp through the Modern. My second film.","release_date":"1966-01-01"},{"vote_count":0,"id":256446,"video":false,"vote_average":0,"title":"Where I Am Is Here","popularity":1.001188,"poster_path":"\/1snRo6kVV04dOCVtyryvp2gKWBF.jpg","original_language":"en","original_title":"Where I Am Is Here","genre_ids":[],"backdrop_path":null,"adult":false,"overview":"\"Starting with a six-line script which just noted down a kind of event to occur, and recur, my aim was to construct a film with its own logic, its own correspondences within itself, and its own echoes and rhymes and comparisons, all through close exploration of the everyday, the commonplace, in the city of Edinburgh.\" - MT","release_date":"1964-01-01"},{"vote_count":0,"id":295212,"video":false,"vote_average":0,"title":"9\/11: Where Were You?","popularity":1.001177,"poster_path":null,"original_language":"en","original_title":"9\/11: Where Were You?","genre_ids":[],"backdrop_path":null,"adult":false,"overview":"Explore the life and death decisions people made amid the chaos of the 9\/11 attacks and their aftermath. National Geographic.","release_date":"2001-08-30"}]}