{"page":2,"total_results":1170,"total_pages":59,"results":[{"vote_count":1,"id":86243,"video":false,"vote_average":7,"title":"Fire!","popularity":1.638442,"poster_path":"\/s0PwQI3BwYY9dF7tzBSc9C7dQtR.jpg","original_language":"en","original_title":"Fire!","genre_ids":[28,10770],"backdrop_path":"\/swzB5BTPfsDBvMqmFxZsNRlE2jc.jpg","adult":false,"overview":"The sheer terror and unearthly beauty of a raging forest fire is breathlessly captured in this compelling Irwin Allen production boasting a big-name cast and enough blazing special effects to turn night into day. Involved are a lumber mill owner (Ernest Borgnine), the widowed operator of a forest lodge (Vera Miles), a teacher on a class outing (Donna Mills), a country doctor (Lloyd Nolan), a couple (Patty Duke Astin and Alex Cord) whose shaky marriage is healed when battling the blaze brings out their better natures, and escaping convicts (Neville Brand and Erik Estrada) who use the conflagration to cover their tracks. Like Allen’s crowd-pleasers The Poseidon Adventure and The Towering Inferno, Fire sizzles with suspense and excitement. Turn up the heat!","release_date":"1977-05-08"},{"vote_count":268,"id":9443,"video":false,"vote_average":6.8,"title":"Chariots of Fire","popularity":8.453663,"poster_path":"\/tDt0QreHAiM44km0Iek0UwLdyIW.jpg","original_language":"en","original_title":"Chariots of Fire","genre_ids":[18,36],"backdrop_path":"\/dAAP1FCksIfAdqarHL5cToLZlAi.jpg","adult":false,"overview":"The true story of British athletes preparing for and competing in the 1924 Summer Olympics.","release_date":"1981-05-15"},{"vote_count":23,"id":340488,"video":false,"vote_average":5.5,"title":"Salt and Fire","popularity":4.26144,"poster_path":"\/wlIJMkqqWZLGui1VQ1Ekybt78Yc.jpg","original_language":"en","original_title":"Salt and Fire","genre_ids":[53],"backdrop_path":"\/eysCgsc8qLGgKE2OCZDXEYVdgz6.jpg","adult":false,"overview":"A scientist blames the head of a large company for an ecological disaster in South America. But when a volcano begins to show signs of erupting, they must unite to avoid a disaster.","release_date":"2016-11-17"},{"vote_count":151,"id":15613,"video":false,"vote_average":6.5,"title":"Fire in the Sky","popularity":7.622461,"poster_path":"\/hnkSlNotn3otswZdtq3JlKe8AEW.jpg","original_language":"en","original_title":"Fire in the Sky","genre_ids":[878],"backdrop_path":"\/sAvq9OhnKbSqSN4MgHlRTvq0qjs.jpg","adult":false,"overview":"A group of men who were clearing bush for the government arrive back in town, claiming that their friend was abducted by aliens. Nobody believes them, and despite a lack of motive and no evidence of foul play, their friends' disappearance is treated as murder.","release_date":"1993-03-12"},{"vote_count":55,"id":295490,"video":false,"vote_average":5.2,"title":"Digging for Fire","popularity":7.453614,"poster_path":"\/9uIPPVuWDxmE0uLxI0xxLtzX53e.jpg","original_language":"en","original_title":"Digging for Fire","genre_ids":[18],"backdrop_path":"\/n3DmxXHZa5Qks21YV3K4VvKc6p8.jpg","adult":false,"overview":"Tim and Lee are married with a young child. The chance to stay at a fancy home in the Hollywood Hills is complicated by Tim's discovery of a bone and a rusty old gun in the yard. Tim is excited by the idea of a mystery, but Lee doesn't want him to dig any further, preferring that he focus on the family taxes, which he promised to do weeks ago. This disagreement sends them on separate and unexpected adventures over the course of a weekend, as Tim and his friends seek clues to the mystery while Lee searches for answers to the bigger questions of marriage and parenthood.","release_date":"2015-08-21"},{"vote_count":2,"id":271691,"video":false,"vote_average":5,"title":"Fire!","popularity":1.093677,"poster_path":"\/om1hKtVnLUNaAKQImouIrGxcKiz.jpg","original_language":"bm","original_title":"Ta Dona","genre_ids":[18],"backdrop_path":null,"adult":false,"overview":"Life in the African country of Mali in the 1990s is vividly highlighted in this mild drama. In the story, a young forest ranger who sees that his work holds the key to the future of his country (through reforestation) is disgusted at the short-sighted, money-grubbing ways of his superiors. He has a much better relationship with local villagers than with his agency's bosses. As the movie opens, the villagers are preparing to hold a hunting ceremony but are not sure whether they will do it the old fashioned way, with a bonfire, or will obey a government decree that open fires are too dangerous. There is a lot of sexual teasing between the villagers, including some harmless horseplay. For instance, when a man whispers another woman's name in his sleep, his wife pours water into his ear in revenge.","release_date":"1990-01-02"},{"vote_count":6,"id":179038,"video":false,"vote_average":6.3,"title":"Fire!","popularity":1.430157,"poster_path":"\/g7cXEFWtc2kFO3O3P9PQ7eqCDZk.jpg","original_language":"it","original_title":"Fire!","genre_ids":[28,18],"backdrop_path":null,"adult":false,"overview":"Firefighters ring for help, and here comes the ladder cart; they hitch a horse to it. A second horse-drawn truck joins the first, and they head down the street to a house fire. Inside a man sleeps, he awakes amidst flames and throws himself back on the bed. In comes a firefighter, hosing down the blaze. He carries out the victim, down a ladder to safety. Other firefighters enter the house to save belongings, and out comes one with a baby. The saved man rejoices, but it's not over yet.","release_date":"1901-10-15"},{"vote_count":68,"id":340027,"video":false,"vote_average":7.6,"title":"Brain on Fire","popularity":6.889999,"poster_path":"\/q6ccPYj1eWoNaEDWi7ALCKqOPv5.jpg","original_language":"en","original_title":"Brain on Fire","genre_ids":[18],"backdrop_path":"\/a09NeywCuAevxKDG8JmqBpittTT.jpg","adult":false,"overview":"A look at a young woman's rapid descent into insanity.","release_date":"2017-02-22"},{"vote_count":30,"id":362409,"video":false,"vote_average":6,"title":"Trash Fire","popularity":3.704662,"poster_path":"\/hXAy6tbOivPzLqx48nqM6xOCuEt.jpg","original_language":"en","original_title":"Trash Fire","genre_ids":[35,27,10749],"backdrop_path":"\/8AROhRdER7Mze9RnjzsQLlhz1nW.jpg","adult":false,"overview":"A man forced to confront his past when he and his girlfriend end up entangled in a web of lies.","release_date":"2016-11-03"},{"vote_count":492,"id":9386,"video":false,"vote_average":6.8,"title":"In the Line of Fire","popularity":9.732105,"poster_path":"\/vXgWOXa7m3cEhOhYjR5q2UZCBBp.jpg","original_language":"en","original_title":"In the Line of Fire","genre_ids":[28,18,53,80,9648],"backdrop_path":"\/lWmRtLisFIZzfvhbFeyx61af0zZ.jpg","adult":false,"overview":"Veteran Secret Service agent Frank Horrigan is a man haunted by his failure to save President Kennedy while serving protection detail in Dallas. Thirty years later, a man calling himself \"Booth\" threatens the life of the current President, forcing Horrigan to come back to protection detail to confront the ghosts from his past.","release_date":"1993-07-08"},{"vote_count":7511,"id":674,"video":false,"vote_average":7.6,"title":"Harry Potter and the Goblet of Fire","popularity":20.217917,"poster_path":"\/6sASqcdrEHXxUhA3nFpjrRecPD2.jpg","original_language":"en","original_title":"Harry Potter and the Goblet of Fire","genre_ids":[12,14,10751],"backdrop_path":"\/gzKW3emulMxIHzuXxZoyDB1lei9.jpg","adult":false,"overview":"Harry starts his fourth year at Hogwarts, competes in the treacherous Triwizard Tournament and faces the evil Lord Voldemort. Ron and Hermione help Harry manage the pressure – but Voldemort lurks, awaiting his chance to destroy Harry and all that he stands for.","release_date":"2005-11-16"},{"vote_count":0,"id":269999,"video":false,"vote_average":0,"title":"Fire!","popularity":1.012158,"poster_path":"\/cnq4wGKRozi1amuZu2jTwCrQFPy.jpg","original_language":"en","original_title":"Fuoco!","genre_ids":[],"backdrop_path":null,"adult":false,"overview":"A man opens fire on the statue of the Virgin during the 15th August procession. Barricaded in his home with his wife and daughter, he continues to shoot wildly. He refuses to open the door to the carabinieri and he refuses everything he needs, including water.","release_date":"1968-09-04"},{"vote_count":0,"id":268180,"video":false,"vote_average":0,"title":"Fire","popularity":1.010576,"poster_path":"\/b3xuhmWr1DtEMeSJl4Q9lNioJT0.jpg","original_language":"pt","original_title":"Incêndio","genre_ids":[],"backdrop_path":null,"adult":false,"overview":"The best class ends with a lesson.","release_date":"2011-05-04"},{"vote_count":0,"id":360989,"video":false,"vote_average":0,"title":"Fire","popularity":1.00751,"poster_path":null,"original_language":"nl","original_title":"Brand","genre_ids":[16],"backdrop_path":null,"adult":false,"overview":"Dawn and nature awake. The sun rises higher and higher, spreading its light over the modern world, getting hotter and hotter and hotter ...","release_date":"2011-08-25"},{"vote_count":0,"id":283677,"video":false,"vote_average":0,"title":"Fire","popularity":1.00196,"poster_path":"\/brCU3a36cLJj54EgnprcGErewAU.jpg","original_language":"en","original_title":"Pozar","genre_ids":[],"backdrop_path":null,"adult":false,"overview":"Directed by Witold Giersz.","release_date":"1975-01-02"},{"vote_count":32,"id":42120,"video":false,"vote_average":7.2,"title":"City on Fire","popularity":4.083277,"poster_path":"\/zO2MFwAiFoHC2mGjfxTc5JFlXGU.jpg","original_language":"cn","original_title":"龍虎風雲","genre_ids":[53,28],"backdrop_path":"\/jgUiP6QSdspr52sQDcCw8xaeHVS.jpg","adult":false,"overview":"Ko Chow is an undercover cop who is under pressure from all sides. His boss, Inspector Lau, wants him to infiltrate a gang of ruthless jewel thieves; in order to do this he must obtain some handguns; his girlfriend wants him to commit to marriage or she will leave Hong Kong with another lover; and he is being pursued by other cops who are unaware that he is a colleague.What is more Chow would rather quit the force. He feels guilty about having to betray people who have become his friends, even if they do happen to be killers, drug dealers, loan sharks and protection racketeers: \"I do my job, but I betray my friends.\"To add to his problems, he begins to bond with Fu, a member of the gang.","release_date":"1987-02-13"},{"vote_count":37,"id":1123,"video":false,"vote_average":6.3,"title":"Catch a Fire","popularity":5.180844,"poster_path":"\/2sgujWX2yWH7REnDI35ZZXsqPiV.jpg","original_language":"en","original_title":"Catch a Fire","genre_ids":[28,18,53],"backdrop_path":"\/zPaZzRQZT0iNCmcEgJEa6gIVu8T.jpg","adult":false,"overview":"The true story of anti-apartheid activists in South Africa, and particularly the life of Patrick Chamusso, a timid foreman at Secunda CTL, the largest synthetic fuel plant in the world. Patrick is wrongly accused, imprisoned and tortured for an attempt to bomb the plant, with the injustice transforming the apolitical worker into a radicalised insurgent, who then carries out his own successful sabotage mission.","release_date":"2006-10-27"},{"vote_count":0,"id":516558,"video":false,"vote_average":0,"title":"Fire Lily","popularity":2.080829,"poster_path":"\/mNDEceHZzZBNkKYQiIEPJTF1nX6.jpg","original_language":"et","original_title":"Tuliliilia","genre_ids":[53],"backdrop_path":null,"adult":false,"overview":"The mystical and thrilling drama asks what sort of reality can give our life meaning. The film tells the story of Pia (38), an ophthalmologist, whose marriage has recently ended because she was not able to have children. As she strives to move forward with her life, Pia learns the unknown but also finds her inner strength. Unexpectedly, her deepest wish to become a mother materializes, but not quite in the way she imagined it.","release_date":"2018-05-11"},{"vote_count":45,"id":29884,"video":false,"vote_average":7.4,"title":"Ball of Fire","popularity":4.883956,"poster_path":"\/rAQjB9M7phVjoP5Y5j70NhUyvQ7.jpg","original_language":"en","original_title":"Ball of Fire","genre_ids":[35,10749],"backdrop_path":"\/i16QQ9QpPphqVBupWanNmeXUs2R.jpg","adult":false,"overview":"A group of academics have spent years shut up in a house working on the definitive encyclopedia. When one of them discovers that his entry on slang is hopelessly outdated, he ventures into the wide world to learn about the evolving language. Here he meets Sugarpuss O'Shea, a nightclub singer, who's on top of all the slang and, it just so happens, needs a place to stay.","release_date":"1941-12-02"},{"vote_count":8,"id":11491,"video":false,"vote_average":4.8,"title":"Fire, Ice & Dynamite","popularity":4.038151,"poster_path":"\/njOA8E3hU8dFM04wT1aT4WdgFo6.jpg","original_language":"en","original_title":"Fire, Ice & Dynamite","genre_ids":[28,12,35],"backdrop_path":"\/u2t4XLPjenxTmuqcECt6Xi9J0cV.jpg","adult":false,"overview":"Action-comedy about a wealthy man who fakes suicide for the amusement of watching his family and creditors compete for his wealth. Many cameo appearances!","release_date":"1990-10-18"}]}