{"page":6,"total_results":1170,"total_pages":59,"results":[{"vote_count":1,"id":414077,"video":false,"vote_average":4,"title":"Maid on Fire!","popularity":1.600097,"poster_path":null,"original_language":"sv","original_title":"Pigan brinner!","genre_ids":[],"backdrop_path":null,"adult":false,"overview":"A Maid slaves in a Swedish family high-etc kitchen in the year of 2008, serving some twin brats, a hungry Nosferatu-teenager and a father \"dying\" in a cold. All tensed up, she suddenly starts to burn and SELF-COMBUST!","release_date":"2008-01-27"},{"vote_count":3,"id":19650,"video":false,"vote_average":6,"title":"Father of Four: On Bornholm","popularity":2.926267,"poster_path":"\/gII8feWY3y7pgKkad9rKVXWhtJ2.jpg","original_language":"da","original_title":"Far til fire på Bornholm","genre_ids":[10751,35],"backdrop_path":"\/z8vvq7G32HY8NIiesjLplwbuvth.jpg","adult":false,"overview":"The popular Danish family are vacationing on the island of Bornholm. Unfortunately, they have not been able to get hotel rooms, but Tiny Per, always resourceful, have come up with the idea that they must sleep in a tent. Father and Uncle Anders are not quite enthusiastic about the idea, but there is nothing else to do.","release_date":"1959-12-26"},{"vote_count":0,"id":263573,"video":false,"vote_average":0,"title":"Fisherman's Fire","popularity":1.001205,"poster_path":"\/4iIbhnPilFL7md6priZoIBFovFO.jpg","original_language":"ko","original_title":"어화","genre_ids":[18],"backdrop_path":null,"adult":false,"overview":"Fisherman Choon-sam (Yoon Buk-yang) is suffering financially because of a prolonged scarcity of fish. Pestered by miserly Mr. Jang to pay back his debt, Choon-sam goes out to sea in hopes of a catch but meets a watery end instead. As payment for the debt, Mr. Jang tries to take Choon-sam's daughter In-soon as his second wife. Meanwhile, In-soon (Park Noh-kyung) is mutually in love with Chun-suk (Park Hak), but torn about the suggestion of Ok-bun (Chun Hyo-bong), who lives in Seoul, to join her in the city. In order to get a job and pay back her father's debt, In-soon follows Mr. Jang's son Chul-soo to Seoul, not knowing that he harbors illicit intentions toward her.","release_date":"1939-01-01"},{"vote_count":0,"id":262880,"video":false,"vote_average":0,"title":"I'm Fire","popularity":1.000001,"poster_path":"\/oALnc5VK2wVMuDtAyPV0PNvvAaG.jpg","original_language":"en","original_title":"Soy Fuego","genre_ids":[],"backdrop_path":"\/22jjOWeppWv205kl99CEXpIIrGP.jpg","adult":false,"overview":"Soledad is a very lonely woman who falls into a big depression where she'll find a series of dreams in which she slowly transforms in to fire. She will try her best to escape from both dreams and reality, finding another state of mind.","release_date":""},{"vote_count":0,"id":375561,"video":true,"vote_average":0,"title":"Venus on Fire","popularity":1.580244,"poster_path":"\/pK27GDw9InfnTqqWL2E6B71p7Cx.jpg","original_language":"fr","original_title":"Vénus","genre_ids":[18],"backdrop_path":null,"adult":false,"overview":"Two American executives for a cosmetics company travel to the Greek islands in search for a model for their new line of suntan lotion, \"Venus\". They run into more than they bargained for","release_date":"1984-05-16"},{"vote_count":7,"id":89625,"video":false,"vote_average":6.4,"title":"The Inextinguishable Fire","popularity":1.578525,"poster_path":"\/ecSnmsghKAvKaqAia4MMU96mWBc.jpg","original_language":"de","original_title":"Nicht löschbares Feuer","genre_ids":[99],"backdrop_path":null,"adult":false,"overview":"An austere treatise on the military-industrial complex that produces napalm.","release_date":"1969-07-26"},{"vote_count":1,"id":343928,"video":false,"vote_average":5,"title":"Fire Drill","popularity":1.054222,"poster_path":null,"original_language":"es","original_title":"Simulacro de incendio","genre_ids":[99],"backdrop_path":null,"adult":false,"overview":"The film had a skirmish to Firefighters from Havana pulling guard barracks pump, reel and carriage for help, two staircases and fire rising up to the roof, carrying hoses.","release_date":"1897-06-07"},{"vote_count":15,"id":49712,"video":false,"vote_average":6.1,"title":"Man on Fire","popularity":2.136757,"poster_path":"\/l0JcRxuZJVsrracoKxSRnt4xNhV.jpg","original_language":"en","original_title":"Man on Fire","genre_ids":[28,18,53],"backdrop_path":"\/iWK39L2BHQJbafmCXrJHSuiVFyh.jpg","adult":false,"overview":"An ex-CIA agent is hired to protect the daughter of a rich American family.","release_date":"1987-09-04"},{"vote_count":0,"id":114322,"video":false,"vote_average":0,"title":"Time Under Fire","popularity":2.133702,"poster_path":"\/tCPgnk6gXTXkitTgzUeMeQIzJmA.jpg","original_language":"en","original_title":"Time Under Fire","genre_ids":[878,28],"backdrop_path":"\/AqYWf2Hi5xyWjHbSL0TPJhtZQ1w.jpg","adult":false,"overview":"A US submarine runs into a time rift. A special unit goes on a mission to see what's on the other side. They find themselves in an alternate dystopian America, now a one-man dictatorship. They decide to help the rebels.","release_date":"1997-11-12"},{"vote_count":10,"id":129971,"video":false,"vote_average":6.4,"title":"Islands of Fire","popularity":1.393581,"poster_path":"\/kThoxqdXKnHjpQFNzZFx4ldfMo0.jpg","original_language":"it","original_title":"Isole di fuoco","genre_ids":[18,99],"backdrop_path":null,"adult":false,"overview":"The first light of dawn. The sound of a boat and the screech of birds fill the wide expanse of sea. Black rocks emerge from the water, the “sciara” – the volcanic scoria – of Stromboli, the underwater sulfurous emanations, the layers of reddish rock eroded by the sea. The roar of the volcano can be heard, the flames and the liquid lava are thrown skyward. As nature unleashes itself, the fishermen row toward the shore, the sheep stray and the women return home.","release_date":"1955-04-01"},{"vote_count":0,"id":468655,"video":true,"vote_average":0,"title":"On Fire","popularity":1.04399,"poster_path":"\/fCOcJ2jTanMEpjmzps7WrE5z1y6.jpg","original_language":"ar","original_title":"ولعانة","genre_ids":[35,28,10749],"backdrop_path":null,"adult":false,"overview":"Samar is a beautiful girl living with her sisters. When someone tried to exploit her in some illegal activities, Samar decides to volunteer for civil defense. There, she falls in love with one of her colleagues.","release_date":"2016-12-15"},{"vote_count":0,"id":215558,"video":false,"vote_average":0,"title":"Quiet Fire","popularity":1.381169,"poster_path":"\/rRB3dHGNdmUiweJlniSe1KncS5N.jpg","original_language":"en","original_title":"Quiet Fire","genre_ids":[18,28],"backdrop_path":null,"adult":false,"overview":"Jesse Palmer, is a Vietnam Veteran who must discomfit his ex-commanding officer turned crooked senate candidate named Whalen from conspiring to turn over part of the U.S. Government to terrorists. Whalen has all the help that he can afford. Mercenaries, a surveillance tracking system, endless firepower, and hired killers are at this corrupt senator's disposal. Palmer, on the other hand, only has his wits, fists and a few other surprises to help put an end to a greedy politician's guileful schemes. This one innocent man must expose this corrupt senator before he wins the election... Written by David Choi","release_date":"1991-10-31"},{"vote_count":1,"id":59832,"video":false,"vote_average":6,"title":"Dragons: Fire & Ice","popularity":1.876666,"poster_path":"\/ufV1iPBufPg7xk5oR9d7EvRMQfE.jpg","original_language":"en","original_title":"Dragons: Fire & Ice","genre_ids":[14,16,878,10751],"backdrop_path":"\/ux9FylDAgmbtQFqir7qmiVUAUJo.jpg","adult":false,"overview":"Two young rival dragon riding warriors fight to end a 1000 year old war despite the hidden manipulator opposing them.","release_date":"2004-09-11"},{"vote_count":10,"id":98084,"video":false,"vote_average":2.9,"title":"Legion of Fire: Killer Ants","popularity":2.79874,"poster_path":"\/zelLJEEEFVE2ZQ9dV5DxSXCiXLA.jpg","original_language":"en","original_title":"Legion of Fire: Killer Ants","genre_ids":[27,10770],"backdrop_path":"\/bbGj2ksZNlyUDNcc1nNjgrfeMoF.jpg","adult":false,"overview":"When a hive of deadly killer ants attack a town in Alaska, a small group races to survive and to find a way to stop the ruthless ants.","release_date":"1998-06-24"},{"vote_count":0,"id":179843,"video":false,"vote_average":0,"title":"The Fire","popularity":1.023607,"poster_path":"\/9KRhcw1BcfMy8LWOQU9s21ngr0y.jpg","original_language":"de","original_title":"Der Brand","genre_ids":[18],"backdrop_path":"\/heksgOgB8gcwWusVUWuhE2rlgNJ.jpg","adult":false,"overview":"Judith decides to go on her own to the salsa-dancing night, even though her boyfriend, with whom she goes there every week, can’t accompany her. A stranger, with whom she briefly dances, offers to walk her home. Next morning, upon returning home, Judith refuses at first to accept that she’s a rape victim, but in the end decides to go to a doctor and press charges - which prove inadequate to have the rapist convicted. Under the influence of sweeping bodily and mainly psychological oscillations, Judith decides she has to follow an unorthodox path in order to prove the perpetrator’s guilt.","release_date":"2011-01-18"},{"vote_count":0,"id":297763,"video":false,"vote_average":0,"title":"Fire Phoenix","popularity":1.011656,"poster_path":"\/zlhALbsGBlpBC2LD3P8mjcZhc1a.jpg","original_language":"en","original_title":"Waang chung jik jong foh fung wong","genre_ids":[],"backdrop_path":null,"adult":false,"overview":"After stumbling across a mob hit, a man must run for his life, trying to stay ahead of vicious mercenaries after the $1 million bounty placed on his head.","release_date":"1990-10-12"},{"vote_count":1,"id":351719,"video":false,"vote_average":6,"title":"Fire Dragon","popularity":1.335107,"poster_path":"\/4fxTz3X00fcC8z7AOgwHSxZAhHz.jpg","original_language":"zh","original_title":"Fire Dragon","genre_ids":[28],"backdrop_path":null,"adult":false,"overview":"\"Cut-and-paste\" transformation of FANTASY MISSION FORCE (directed by Kevin Chu Yen-ping) with new footage directed by Chester Wong Chung-Gwong into a nearly different movie focused on John (Kwan Chung) and Sandy (Lu I-Chan) seeking revenge for men that killed her father and raped her.","release_date":"1983-09-02"},{"vote_count":1,"id":102853,"video":false,"vote_average":6,"title":"By the Fire","popularity":1.489124,"poster_path":"\/2BRTZki0g1veiYYlYHcWX5U9CUH.jpg","original_language":"es","original_title":"Sentados frente al fuego","genre_ids":[18,10751],"backdrop_path":null,"adult":false,"overview":"Daniel and Alejandra, a working class couple in their late 30s, move to the countryside near the Andes Mountains to begin the next chapter of their life together. Alejandra is ill, and Daniel looks after her, his soul mate. He scratches out a living doing farm work, while dreaming of buying his own plot of land. Over the course of a year, director Alejandro Fernández Almendras captures a life of love and frustration as Alejandra’s condition worsens, and Daniel can do nothing but keep on struggling.","release_date":"2013-08-22"},{"vote_count":0,"id":440752,"video":false,"vote_average":0,"title":"Fire Keeper","popularity":1.004936,"poster_path":"\/uzcb0ZoKOCEWrxUYG0KGL43PTZb.jpg","original_language":"fa","original_title":"Fire Keeper","genre_ids":[35],"backdrop_path":null,"adult":false,"overview":"Forty-eight-year-old Sohrab, head of the workers of the Isfahan Foundry, has just had his fourth daughter.","release_date":"2009-02-10"},{"vote_count":0,"id":141926,"video":false,"vote_average":0,"title":"The Fire","popularity":1.001656,"poster_path":"\/lC4EAzJ3rKXEG4mYq6v1kk7eXYH.jpg","original_language":"it","original_title":"Il fuoco (la favilla - la vampa - la cenere)","genre_ids":[18],"backdrop_path":"\/2fDr1YHeF1s4zx0dMozp4xVmSty.jpg","adult":false,"overview":"It's another Pastrone collaboration with silent-cinema hottie Pina Menichelli, who ruins a painter's life just for ths sheer fun of it.","release_date":"1916-04-16"}]}