{"page":38,"total_results":1170,"total_pages":59,"results":[{"vote_count":0,"id":514143,"video":false,"vote_average":0,"title":"Surviving the Game - Making The Hunger Games: Catching Fire","popularity":1.000006,"poster_path":null,"original_language":"en","original_title":"Surviving the Game - Making The Hunger Games: Catching Fire","genre_ids":[],"backdrop_path":null,"adult":false,"overview":"Documentary film about the making of The Hunger Games: Catching Fire.","release_date":""},{"vote_count":13,"id":313788,"video":false,"vote_average":4.2,"title":"Firequake","popularity":2.653741,"poster_path":"\/9uj7aViHZSgpzlxQPLppSDXpA69.jpg","original_language":"en","original_title":"Firequake","genre_ids":[53,28,878],"backdrop_path":"\/kGmkVSuOSncKMkVf5jKbP0xSLkh.jpg","adult":false,"overview":"Promethean Kinetics has created Helios, a revolutionary clean coal energy source so powerful it rivals the force of the sun and will solve the energy crisis. But when certain governments start cutting safety measures required by Helios, the highly-explosive product begins to seep deep below the Earth's crust, producing giant blasts of fire and violent earthquakes above the surface. As cities shake and oceans boil, Eve Adams, creator of the Helios technology, rushes to investigate the subterranean phenomenon. As the situation becomes ever more dire, she is the only one who can save mankind, not to mention reputation.","release_date":"2014-12-22"},{"vote_count":66,"id":10107,"video":false,"vote_average":5.8,"title":"Firehouse Dog","popularity":8.850903,"poster_path":"\/nTSQl0895tXPjYl4yLfA7XLGfXS.jpg","original_language":"en","original_title":"Firehouse Dog","genre_ids":[28,35,10751],"backdrop_path":"\/9otcGkMW9m1WYkntGQEXxt047M2.jpg","adult":false,"overview":"Rexxx, Hollywood's top canine star, gets lost and is adopted into a shabby firehouse. He teams up with a young kid to get the station back on its feet.","release_date":"2007-04-04"},{"vote_count":5,"id":362058,"video":false,"vote_average":8.8,"title":"The Snow Queen 3: Fire and Ice","popularity":3.625347,"poster_path":"\/fewzNvOFM4TBcuOwsfGXyIUrwS2.jpg","original_language":"ru","original_title":"Снежная королева 3. Огонь и лед","genre_ids":[10751,16,14],"backdrop_path":"\/AvlUZEQIbQbk6kME4pbisKPh9oo.jpg","adult":false,"overview":"After heroically defeating both the Snow Queen and the Snow King, Gerda still cannot find peace. Her dream is to find her parents who were once taken away from them by the North Wind and finally reunite the family. Thus, Gerda and her friends embark on an exiting journey to find her parents and encounter new challenges along the way: they discover an ancient magical artifact of the trolls, the Stone of Fire and Ice. From that moment on, things don't go according to the initial plan...Will Gerda be able to tame the mighty forces of the magical elements and get her family back? The answer will be reveled in 2016. This is a story which encompasses everything you love about Wizart: kindness, bravery, friendship, mystery, love of one's family, and a happy ending, of course!","release_date":"2016-12-29"},{"vote_count":12,"id":54283,"video":false,"vote_average":6.3,"title":"Zatôichi Goes to the Fire Festival","popularity":2.621964,"poster_path":"\/xsJAud5fjpymmF3ldVpcXHNUHI8.jpg","original_language":"ja","original_title":"Zatōichi abare-himatsuri","genre_ids":[12,28,18],"backdrop_path":"\/stcHsRBu9Zf1Bs0UlSyaywUIiU.jpg","adult":false,"overview":"Zatoichi is mentored by the blind leader of a secret organization as he contends with both the Yakuza and a jealous husband.","release_date":"1970-08-12"},{"vote_count":0,"id":383903,"video":false,"vote_average":0,"title":"A Woman and Her Four Men","popularity":1.297525,"poster_path":"\/v6rT4Rgc1m8OjJl7Xc3XVMGSlAo.jpg","original_language":"lt","original_title":"Moteris ir keturi jos vyrai","genre_ids":[18,9648],"backdrop_path":null,"adult":false,"overview":"An epic tale set at the turn of the 20th century in a struggling fishing community, following the life of a woman widowed at the beginning of the film.","release_date":"1983-04-01"},{"vote_count":2,"id":207629,"video":false,"vote_average":4,"title":"Firestorm","popularity":2.504814,"poster_path":"\/67KUuFCVUfmFyoHjLbgsdBFGMvW.jpg","original_language":"en","original_title":"Firestorm","genre_ids":[53,28,878],"backdrop_path":"\/fLVjTBe6w7tz9zp9jRthbv9HrW2.jpg","adult":false,"overview":"In the year 2024, a fierce battle rages between a ruthless villain and an android resistance group","release_date":"1997-06-01"},{"vote_count":8,"id":40136,"video":false,"vote_average":3.1,"title":"Fireball","popularity":2.494241,"poster_path":"\/3IhXfA13idJNKJDPYUdxEGol6AM.jpg","original_language":"en","original_title":"Fireball","genre_ids":[53,878],"backdrop_path":"\/trRiDXBsghqwdvt00i9zc6Ceujf.jpg","adult":false,"overview":"Inspector Ava Williams investigates a prison fire to its source, a prisoner seeking revenge against those who put him behind bars.","release_date":"2009-01-02"},{"vote_count":17,"id":44296,"video":false,"vote_average":5.9,"title":"Fireworks","popularity":2.482425,"poster_path":"\/1ifeszb6nlfPgJYL1Jjjeoxc41C.jpg","original_language":"en","original_title":"Fireworks","genre_ids":[18],"backdrop_path":"\/vMS9vK9fLTt3tSet8M6B3tWvXSn.jpg","adult":false,"overview":"Fireworks revolves around a young man (played by Anger himself) associating with various navy sailors, who eventually turn on him, stripping him naked and beating him to death, ripping open his chest to find a clock ticking inside. Several fireworks then explode, accompanied by a burning Christmas tree and the final shot shows the young man lying in bed next to another topless man.","release_date":"1947-01-01"},{"vote_count":0,"id":144358,"video":false,"vote_average":0,"title":"Dollar Of Fire","popularity":1.013287,"poster_path":"\/l0rEDq4jzaF2ldJfw6OwdrSxvc0.jpg","original_language":"it","original_title":"Un Dollaro di fuoco","genre_ids":[37],"backdrop_path":null,"adult":false,"overview":"Western drama of the fight of a sheriff against a band of thugs led by a rich banker.  Source: SWDB www.spaghetii-western.net","release_date":"1966-01-01"},{"vote_count":0,"id":337630,"video":false,"vote_average":0,"title":"The Brief Lifespan of Fire, Act 2, Scene 2: Suring and the Kuk-ok","popularity":1.001177,"poster_path":"\/nvjbqXirzw8QcGhYIPtHoe4n1pP.jpg","original_language":"en","original_title":"Suring at ang kuk-ok","genre_ids":[],"backdrop_path":null,"adult":false,"overview":"The short film tells the myth of Suring, who casts a spell of immense beauty but is still judged by humanity. She retreats to the forests where she is far from the prying eyes of humans, and there, she befriends the Kuk-ok, a creature who can transform into any form.","release_date":"1995-01-01"},{"vote_count":243,"id":17927,"video":false,"vote_average":6,"title":"Fired Up!","popularity":7.821901,"poster_path":"\/bHhLZIg9VKsconJdnwIoUTqakEG.jpg","original_language":"en","original_title":"Fired Up!","genre_ids":[35],"backdrop_path":"\/eFjBKsIYSp6fipRJrCqOzSeJ2V1.jpg","adult":false,"overview":"2 Guys. 300 Girls. You Do the Math. The two most popular guys in high school decide to ditch football camp for cheerleader camp. For the girls and for the glory.","release_date":"2009-02-20"},{"vote_count":4,"id":83963,"video":false,"vote_average":6.6,"title":"The Fire That Burns","popularity":1.143634,"poster_path":"\/40W3qTuFNP3r9CnLGdGRt0ckWvH.jpg","original_language":"en","original_title":"La ville dont le prince est un enfant","genre_ids":[18],"backdrop_path":null,"adult":false,"overview":"Two boys in their early teens in a strictly-run pre-WWII Catholic School form a firm friendship which is troubled by an abbot who is obsessed with the younger of the students.","release_date":"1997-03-07"},{"vote_count":14,"id":5261,"video":false,"vote_average":6.3,"title":"What to Do in Case of Fire?","popularity":3.439265,"poster_path":"\/mwArzIF6kOjBUM1CyfvQOBvdpTc.jpg","original_language":"de","original_title":"Was tun, wenn's brennt?","genre_ids":[53,18,35,28,10749],"backdrop_path":"\/hqGRGfhRtdhATMwth3BS4a745Vk.jpg","adult":false,"overview":"What To Do In Case of Fire? tells the humorous and touching story of six former creative anarchists who lived as house squatters in Berlin during its heyday in the 80s when Berlin was still an island in the middle of the former eastern Germany. At the end of the 80s they went their separate ways with the exception of Tim and Hotte, who have remained true to their ideals and continue to fight the issues they did as a group. In 2000, with Berlin as Germany's new capital, an event happens forcing the group out of existential reason to reunite and, ultimately, come to grips with the reason they separated 12 years ago.","release_date":"2001-11-01"},{"vote_count":4,"id":122401,"video":false,"vote_average":4,"title":"Dragon Ball: Goku's Fire Fighting Regiment","popularity":1.442309,"poster_path":"\/xdbuHagBAGsKg7j0iZVBky1FqRy.jpg","original_language":"ja","original_title":"Doragon bôru: Gokû no shôbô-tai - ドラゴンボール悟空の消防隊","genre_ids":[16],"backdrop_path":"\/55fikLZz0O6wHSvAqYarGiHtoaW.jpg","adult":false,"overview":"It's a ten minute video, which aired in Japan in June 1988, features Goku and his friends as firefighters, explain how to deal with fire.","release_date":"1988-01-01"},{"vote_count":0,"id":329859,"video":false,"vote_average":0,"title":"God Answers by Fire - Elijah and the Prophets of Baal","popularity":1.015294,"poster_path":null,"original_language":"en","original_title":"God Answers by Fire - Elijah and the Prophets of Baal","genre_ids":[],"backdrop_path":null,"adult":false,"overview":"When God wants to start a movement, He never raises up a committee, He raises up a leader. 1 Kings 17 - 18 records the preparation of Elijah to be the leader God needed at the time. From Mount Carmel you can have a breath taking view of Israel from the Mediterranean Sea in the west to Mount Hermon in the north and the Jordan River in the east. All the different elements of the story of Elijah and the Baal prophets can be visualized, including the brook Kishon, where the priests of Baal were slain","release_date":"2014-11-07"},{"vote_count":5,"id":47561,"video":false,"vote_average":5.6,"title":"Firepower","popularity":2.060646,"poster_path":"\/fw9vLyEUHD6HHwElcBARgrCMtHB.jpg","original_language":"en","original_title":"Firepower","genre_ids":[28,12],"backdrop_path":"\/zfKBWs3sD286Lw1vNhH9tm9CcZY.jpg","adult":false,"overview":"A mercenary is hired by the FBI to track down a powerful recluse criminal, a woman is also trying to track him down for her own personal vendetta.","release_date":"1979-04-27"},{"vote_count":0,"id":340486,"video":false,"vote_average":0,"title":"Earth Wind Fire Experience feat. Al McKay - AVO Session Basel 2011","popularity":1.007059,"poster_path":"\/7wck32bKQp9SCcVM9YtNSbxr72c.jpg","original_language":"en","original_title":"Earth Wind Fire Experience feat. Al McKay - AVO Session Basel 2011","genre_ids":[10402],"backdrop_path":"\/eQ0yJE3mZP6qem0XvIgyNuwQMsP.jpg","adult":false,"overview":"Earth Wind Fire Experience featuring Al McKay, AVO Session Basel 2011","release_date":"2011-11-16"},{"vote_count":0,"id":142700,"video":false,"vote_average":0,"title":"Wings on Their Heels: The Making of 'Chariots of Fire'","popularity":1.002356,"poster_path":null,"original_language":"en","original_title":"Wings on Their Heels: The Making of 'Chariots of Fire'","genre_ids":[99],"backdrop_path":null,"adult":false,"overview":"","release_date":"2005-01-01"},{"vote_count":1,"id":334788,"video":false,"vote_average":8,"title":"Panoramic View of Market Street San Francisco After the Earthquake and Fire","popularity":1.035294,"poster_path":null,"original_language":"en","original_title":"Panoramic View of Market Street San Francisco After the Earthquake and Fire","genre_ids":[],"backdrop_path":null,"adult":false,"overview":"A panoramic view of Market Street San Francisco after the earthquake and fire of 1906","release_date":""}]}