{"page":49,"total_results":1170,"total_pages":59,"results":[{"vote_count":0,"id":359897,"video":false,"vote_average":0,"title":"Rabbit Ears - Mose the Fireman","popularity":1,"poster_path":"\/r2z6d5eikrPPELfJjDFXJGUwl74.jpg","original_language":"en","original_title":"Rabbit Ears - Mose the Fireman","genre_ids":[],"backdrop_path":null,"adult":false,"overview":"Jump to the clang of the fire bell and take a colorful ride through New York in the 1800's with Mose the Fireman. With its upbeat ragtime music, this delightful comic history echoes all the sights and sounds of early New York through the outrageous exploits and adventures of America's most famous fireman.","release_date":"1991-09-14"},{"vote_count":0,"id":280441,"video":false,"vote_average":0,"title":"Fireworks Filmed With A Drone","popularity":1.012941,"poster_path":"\/c7fCR3FcL35uMxVDH8WjqbedJtX.jpg","original_language":"en","original_title":"Fireworks Filmed With A Drone","genre_ids":[],"backdrop_path":null,"adult":false,"overview":"Flying through a firework show with a DJI Phantom 2 and filming it with a GoPro Hero 3 silver. The quad was not damaged.","release_date":"2014-05-13"},{"vote_count":0,"id":299676,"video":false,"vote_average":0,"title":"Fireman Sam: Brave New Rescues","popularity":1.007482,"poster_path":"\/tuOTGUuBnc6Uxrm1SksmZmqEEFK.jpg","original_language":"en","original_title":"Fireman Sam: Brave New Rescues","genre_ids":[10751],"backdrop_path":null,"adult":false,"overview":"Fireman Sam is back for more heroic adventures in fire safety! Fireman Sam and his friends in Pontypandy work together to save the day when Mike’s kitchen catches fire, Dilys gets stuck out at sea and Norman cries wolf! Come along with the hero next door and his brave brigade for some courageous adventures and daring new rescues the whole family will enjoy!","release_date":"2011-07-05"},{"vote_count":0,"id":320329,"video":true,"vote_average":0,"title":"Fireman Sam: Brave New Rescues","popularity":1.007124,"poster_path":"\/9XxsRO76OTc1z71gaFNH1nQsSzo.jpg","original_language":"en","original_title":"Fireman Sam: Brave New Rescues","genre_ids":[],"backdrop_path":null,"adult":false,"overview":"Fireman Sam is back for more heroic adventures in fire safety! Fireman Sam and his friends in Pontypandy work together to save the day when Mike’s kitchen catches fire, Dilys gets stuck out at sea and Norman cries wolf! Come along with the hero next door and his brave brigade for some courageous adventures and daring new rescues the whole family will enjoy!","release_date":"2011-07-05"},{"vote_count":0,"id":503439,"video":true,"vote_average":0,"title":"Alien live at Firefest VIII","popularity":1.007122,"poster_path":"\/nyOgCyx77Kk5HJU0dLTYQIG5ARQ.jpg","original_language":"en","original_title":"Alien live at Firefest VIII","genre_ids":[],"backdrop_path":null,"adult":false,"overview":"Alien live at Firefest VIII at Rock City, Nottingham, England on the October 23rd 2011.  Setlist:  Brave New Love\r Go Easy\r Tears Don't Put Out the Fire\r Dying by the Golden Rule\r Only One Woman (The Marbles cover)\r Jaimie Remember\r Feel My Love\r I've Been Waiting  Encore:\r Touch My Fire\r Ready To Fly","release_date":"2011-10-23"},{"vote_count":0,"id":292098,"video":false,"vote_average":0,"title":"Firefall: An Epic Family Adventure","popularity":1.007059,"poster_path":null,"original_language":"en","original_title":"Firefall: An Epic Family Adventure","genre_ids":[],"backdrop_path":null,"adult":false,"overview":"A group of travelers descends on The Park to witness one last Firefall. They come from different backgrounds and walks of life, but their paths will crash together in hilarious ways, as a film crew document (Mockuments) their crazy antics. The characters comprised of: Scottish \"Free\" Climbers, a disgraced outdoor survival television host and his nephew, a former welter-weight bodybuilding champion who's let himself go, a dysfunctional family in denial, Park Rangers, a hiding hippie who has been living in The Park for years, and a Mutant Bear will experience amazing, terrifying and hilarious situations as they discover their true character and values on their way to the final Firefall.","release_date":"2012-01-01"},{"vote_count":0,"id":299882,"video":false,"vote_average":0,"title":"Fireman Sam: Help Is Here!","popularity":1.00678,"poster_path":"\/dR8f6iDc75o9DDlnjROVD8eCSPh.jpg","original_language":"en","original_title":"Fireman Sam: Help Is Here!","genre_ids":[10751],"backdrop_path":"\/mpdg99KJ2LYbkqnbuxgJrIlWTPQ.jpg","adult":false,"overview":"See Fireman Sam in action in this thrilling collection of firefighting adventures! Join your pals, Fireman Sam, Norman, Mandy, and Radar as they make courageous rescues throughout the town of Pontypandy. Fireman Sam saves the supermarket on Fire Prevention Day, helps the rescue dogs find missing people, shares important safety tips, and makes a daring helicopter rescue in the midst of a forest fire. Fireman Sam is here to help you learn about fire safety, teamwork, and having fun with your friends.","release_date":"2009-08-25"},{"vote_count":0,"id":154033,"video":false,"vote_average":0,"title":"Brother Firetribe: Live at Apollo","popularity":1.004821,"poster_path":"\/3XriAqTrHidtgTr0jEMSDOlzaIB.jpg","original_language":"en","original_title":"Brother Firetribe: Live at Apollo","genre_ids":[10402],"backdrop_path":null,"adult":false,"overview":"Live recording video &amp; audio from Finnish Rock Band, recorded in Apollo, Helsinki 15 April 2009 and includes Anette Olzon (ex-Nightwish, ex-Alyson Avenue) singing on \"Heart Full of Fire\"","release_date":"2010-02-11"},{"vote_count":0,"id":277007,"video":false,"vote_average":0,"title":"American Firefighters: Heroes in Action","popularity":1.002353,"poster_path":null,"original_language":"en","original_title":"American Firefighters: Heroes in Action","genre_ids":[],"backdrop_path":null,"adult":false,"overview":"Despite the numerous hazards of battling blazes -- exposure to toxic gases and smoke, burns, falling objects and collapsing structures -- firefighters put everything on the line to save lives and property. This comprehensive documentary looks at the lives of these intrepid American heroes in action as they race against time to snuff out infernos large and small, from burning buildings to car fires.","release_date":"2003-01-01"},{"vote_count":0,"id":361826,"video":true,"vote_average":0,"title":"Firemen Sam – Saves The Day","popularity":1.002353,"poster_path":"\/aP2oFGKr51VBIpjff6oDEzmehWQ.jpg","original_language":"da","original_title":"Firemen Sam – Saves The Day","genre_ids":[],"backdrop_path":null,"adult":false,"overview":"","release_date":"2005-07-11"},{"vote_count":0,"id":319534,"video":false,"vote_average":0,"title":"The Firesign Theatre: Weirdly Cool","popularity":1.001189,"poster_path":null,"original_language":"en","original_title":"The Firesign Theatre: Weirdly Cool","genre_ids":[],"backdrop_path":null,"adult":false,"overview":"This PBS special, concocted in support of the wickedly witty Firesign Theatre's \"The Bride of Firesign\" CD, has the comedy troupe delivering high-octane humor in a number of classic bits. Featured are skits such as \"How Can You Be in Two Places at Once When You're Not Anywhere at All\" and \"Hand Me the Pliers,\" and characters such as Nick Danger, Jack Poet and Bebop Lobo. Extras include a documentary, excerpts from audio rehearsals and more.","release_date":"2001-01-01"},{"vote_count":0,"id":415551,"video":false,"vote_average":0,"title":"Life of an English Fireman","popularity":1.001177,"poster_path":null,"original_language":"en","original_title":"Life of an English Fireman","genre_ids":[18],"backdrop_path":null,"adult":false,"overview":"Firemen are awakened by an alarm, drive through London and rescue fire victims.","release_date":"1903-05-01"},{"vote_count":0,"id":357622,"video":false,"vote_average":0,"title":"New Year Fireball Festival, Stonehaven","popularity":1.001177,"poster_path":null,"original_language":"en","original_title":"New Year Fireball Festival, Stonehaven","genre_ids":[],"backdrop_path":null,"adult":false,"overview":"British documentary.","release_date":"1965-01-02"},{"vote_count":0,"id":253886,"video":false,"vote_average":0,"title":"Fireman Sam: Lights, Sirens, Action!","popularity":1.000127,"poster_path":null,"original_language":"en","original_title":"Fireman Sam: Lights, Sirens, Action!","genre_ids":[],"backdrop_path":null,"adult":false,"overview":"Turn on the sirens as action abounds in this collection of six exciting episodes!","release_date":""},{"vote_count":20,"id":431819,"video":false,"vote_average":5.3,"title":"Fireworks, Should We See It from the Side or the Bottom?","popularity":8.361676,"poster_path":"\/sKb5gyHmxed6dLwW6twAZ9Mn24A.jpg","original_language":"ja","original_title":"打ち上げ花火、下から見るか？横から見るか？","genre_ids":[16],"backdrop_path":"\/3WUI0PgNfQtu7GueWt1ZeQI8MdX.jpg","adult":false,"overview":"Schoolchildren Norimichi, Yuusuke, and Junichi want to know if fireworks look round or flat from the side. They make a plan to find the answer at a fireworks display, while Nazuna schemes to run away with Norimichi or Yuusuke, whoever wins at the pool.","release_date":"2017-08-18"},{"vote_count":0,"id":485399,"video":false,"vote_average":0,"title":"Fireman, Save My Choo-Choo","popularity":1.001262,"poster_path":null,"original_language":"en","original_title":"Fireman, Save My Choo-Choo","genre_ids":[35],"backdrop_path":null,"adult":false,"overview":"Andy races his train against a modern bus; the winner receives a government franchise.","release_date":"1940-08-09"},{"vote_count":0,"id":404268,"video":false,"vote_average":0,"title":"Firesign Theatre Presents 'Hot Shorts'","popularity":1.00001,"poster_path":"\/vSuVIuxyXRv9DRhtE1V1uPPJFj2.jpg","original_language":"en","original_title":"Firesign Theatre Presents 'Hot Shorts'","genre_ids":[35],"backdrop_path":null,"adult":false,"overview":"The comedy group Firesign Theatre satirizes the old Saturday afternoon cliffhangers by taking clips from many Republic Pictures serials and substituting their own comedy dialogue.","release_date":"1985-04-01"},{"vote_count":0,"id":466442,"video":true,"vote_average":0,"title":"Fireman Sam: Off-duty Sam","popularity":1,"poster_path":"\/5Q2yBcQDIcS47Yc8nLxwsguz8AI.jpg","original_language":"en","original_title":"Fireman Sam: Off-duty Sam","genre_ids":[],"backdrop_path":null,"adult":false,"overview":"","release_date":""},{"vote_count":7,"id":283710,"video":false,"vote_average":5.1,"title":"Fires on the Plain","popularity":2.524338,"poster_path":"\/JnLPMBZTg8tCpt5F54bNlLiwZA.jpg","original_language":"ja","original_title":"野火","genre_ids":[18,36],"backdrop_path":"\/cJc13wHSKjHI7rUbKkfmXzRRlFn.jpg","adult":false,"overview":"In the final days of World War II, occupying Japanese forces in the Philippines face resistance from the local population and the American offensive. The dwindling Japanese soldiers attempt to survive through the horrors of war.","release_date":"2014-08-30"},{"vote_count":0,"id":415606,"video":false,"vote_average":0,"title":"Anima, Silueta de Cohetes (Firework Piece)","popularity":1.25,"poster_path":"\/tAzu9KKnltkJBQDg2hMUqbmK56i.jpg","original_language":"en","original_title":"Anima, Silueta de Cohetes (Firework Piece)","genre_ids":[],"backdrop_path":null,"adult":false,"overview":"In Ana Mendieta’s Anima, Silueta de Cohetes (Firework Piece), the artist’s silhouetted form is replicated as an effigy with blazing fireworks, the flickering embers gradually extinguishing until there is but a single spark left to stave off total darkness.","release_date":"1976-09-12"}]}