{"page":24,"total_results":567,"total_pages":29,"results":[{"vote_count":1,"id":280900,"video":false,"vote_average":8,"title":"Take That: Where Did It All Go Right ?","popularity":1.042481,"poster_path":"\/bNihNswaBsM3RFzZy1pb2g4WxCH.jpg","original_language":"en","original_title":"Take That: Where Did It All Go Right ?","genre_ids":[],"backdrop_path":"\/a2IO9JhPIbD042L8IBFkBio6QQH.jpg","adult":false,"overview":"Documentary charting the rise, fall and meteoric rise again of superstar British boy band Take That. Originally aired on 4th February 2009 on Britain's Channel 5.","release_date":"2009-02-04"},{"vote_count":1,"id":372204,"video":false,"vote_average":5.5,"title":"Heavy Metal Parking Lot Alumni: Where Are They Now?","popularity":1.03765,"poster_path":"\/hnfnDk7yc1GYZdHuWJiJvvNg0oF.jpg","original_language":"en","original_title":"Heavy Metal Parking Lot Alumni: Where Are They Now?","genre_ids":[10402,99],"backdrop_path":null,"adult":false,"overview":"Twenty years later, the producers of \"Heavy Metal Parking Lot\" track down and interview some of the heavy-metal fans originally featured in the 1986 cult classic.","release_date":"2006-01-01"},{"vote_count":1,"id":154507,"video":false,"vote_average":7,"title":"Bee Gees: This Is Where I Came In","popularity":1.037258,"poster_path":"\/2oVJyfjsIw4Ougr6HBUj6Kr42fn.jpg","original_language":"en","original_title":"Bee Gees: This Is Where I Came In","genre_ids":[],"backdrop_path":null,"adult":false,"overview":"This Is Where I Came In is the Bee Gees' 22nd and final studio album (twentieth worldwide), released in 2001. It is the only album of all-new material released by them on the Universal Music label (which had acquired the rights to the group's releases on Polydor Records when they bought that label's parent PolyGram). The album peaked at #6 in the UK, while the single, \"This Is Where I Came In\", reached #18. In the US, the album peaked at #16. The group appeared on the A&amp;E concert series Live by Request in April, 2001 to promote the new album.","release_date":"2001-04-24"},{"vote_count":0,"id":37027,"video":false,"vote_average":0,"title":"Going Where I've Never Been: The Photography of Diane Arbus","popularity":1.325,"poster_path":"\/cgEzQwT3yDxiTBN2JIVnP6jJm3c.jpg","original_language":"en","original_title":"Going Where I've Never Been: The Photography of Diane Arbus","genre_ids":[10770,99],"backdrop_path":null,"adult":false,"overview":"The work of photographer Diane Arbus as explained by her daughter, friends, critics, and in her own words as recorded in her journals. Illustrated with many of her photographs. Mary Clare Costello, narrator Themes: Arbus' quirky go-it-alone approach. Her attraction to the bizarre, people on the fringes of society: sexual deviants, odd types, the extremes, styles in questionable taste, poses and situations that inspire irony or wonder. Where most people would look away she photographed.","release_date":"1972-11-21"},{"vote_count":0,"id":190205,"video":false,"vote_average":0,"title":"Oh boy, oh boy, where is your porcelain toy?","popularity":1.028617,"poster_path":"\/gXdMMGq081p3bNSmP2XZsQwYiAB.jpg","original_language":"no","original_title":"Oh boy, oh boy, where is your porcelain toy?","genre_ids":[35,9648],"backdrop_path":null,"adult":false,"overview":"A man is looking for his porcelain toy","release_date":"2011-01-28"},{"vote_count":0,"id":298461,"video":false,"vote_average":0,"title":"Where's the Fair","popularity":1.014249,"poster_path":null,"original_language":"en","original_title":"Where's the Fair","genre_ids":[],"backdrop_path":null,"adult":false,"overview":"The simple question, 'What happened to the World's Fair?' launches a journey that uncovers the sorted past, present, and future of the United State's role in the largest global event in human history.","release_date":"2014-09-23"},{"vote_count":0,"id":330184,"video":false,"vote_average":0,"title":"Where's The Love?","popularity":1.012942,"poster_path":"\/klt4qGoGxDxznbaQWjC5XNhQf5R.jpg","original_language":"en","original_title":"Where's The Love?","genre_ids":[],"backdrop_path":null,"adult":false,"overview":"As two popular, married TV talk show hosts dispense relationship advice, their own marriage begins to crumble.","release_date":"2014-05-03"},{"vote_count":0,"id":304938,"video":false,"vote_average":0,"title":"Where's the T?","popularity":1.012941,"poster_path":null,"original_language":"en","original_title":"Where's the T?","genre_ids":[],"backdrop_path":null,"adult":false,"overview":"A documentary that explores the challenges, successes and lives of five transgender women. These five women represent normality and abnormality seamlessly in their daily efforts to achieve a daily balance of both feminine and masculine.","release_date":"2014-07-11"},{"vote_count":0,"id":476699,"video":false,"vote_average":0,"title":"Fairport Convention: Who Knows Where the Time Goes?","popularity":1.011553,"poster_path":"\/yG9x04j0O4pqZiQlFCnyEvycp5s.jpg","original_language":"en","original_title":"Fairport Convention: Who Knows Where the Time Goes?","genre_ids":[99,10402],"backdrop_path":null,"adult":false,"overview":"Documentary following English folk-rock pioneers Fairport Convention as they celebrate their 45th anniversary in 2012. Fairport's iconic 1969 album Liege and Lief featured some of folk music's biggest names - including singer Sandy Denny, guitarist Richard Thompson and fiddler Dave Swarbrick - and was voted by Radio 2 listeners as the most influential folk album of all time.","release_date":"2012-09-14"},{"vote_count":0,"id":305281,"video":false,"vote_average":0,"title":"Where's My Food?!","popularity":1.009412,"poster_path":null,"original_language":"en","original_title":"Where's My Food?!","genre_ids":[],"backdrop_path":null,"adult":false,"overview":"\"Where's My Food?!\" is a new documentary that serves up the surprising truth about waiters and waitresses.","release_date":"2013-01-01"},{"vote_count":0,"id":339348,"video":false,"vote_average":0,"title":"Where Was God? Stories of Hope After the Storm","popularity":1.007875,"poster_path":null,"original_language":"en","original_title":"Where Was God? Stories of Hope After the Storm","genre_ids":[],"backdrop_path":null,"adult":false,"overview":"In May 2013, an EF5 tornado ripped through Moore, Oklahoma. The magnitude of devastation measured over eight times greater than the atomic bomb that leveled Hiroshima. As the world watched, one question continued to surface - Where Was God? Several families and individuals recount the timeline of destruction and share their experiences of both devastating and miraculous events that changed their lives forever. These are their stories of hope after the storm.","release_date":""},{"vote_count":0,"id":350716,"video":false,"vote_average":0,"title":"Blanket Statement #1: Home is Where the Heart Is","popularity":1.00706,"poster_path":"\/pLh82VirZklbkVqlsvMeoLdYiND.jpg","original_language":"en","original_title":"Blanket Statement #1: Home is Where the Heart Is","genre_ids":[16],"backdrop_path":null,"adult":false,"overview":"Discordant dysfunction down to the nitty griddy.","release_date":"2012-01-01"},{"vote_count":0,"id":233249,"video":false,"vote_average":0,"title":"Where's My Goat?","popularity":1.004706,"poster_path":"\/6NKlAlXCQkHnR6Kmio98lVpBEpI.jpg","original_language":"en","original_title":"Where's My Goat?","genre_ids":[],"backdrop_path":null,"adult":false,"overview":"Filmmaker Christopher Richardson buys goats for third world families as thank-you gifts for clients. It's a fresh approach to promotional giveaways, but as the list of gifted goats grows, some clients question the existence of their goat. Christopher decides to travel to Zambia to track down a client's goat and discover for himself if ethical gifts are the positive developing world life changers they are advertised to be.","release_date":"2010-02-02"},{"vote_count":0,"id":441426,"video":false,"vote_average":0,"title":"Origami: The Universe of Origami Akira Yoshizawa - The Hands Where God Resides","popularity":1.003606,"poster_path":"\/91APsFlMnJHKBRC0OK2zY4fxnTg.jpg","original_language":"ja","original_title":"ORIGAMI 吉澤章[神・宿る手]","genre_ids":[],"backdrop_path":null,"adult":false,"overview":"No overview found.","release_date":"2007-01-01"},{"vote_count":0,"id":165670,"video":false,"vote_average":0,"title":"Where's That Tiger?","popularity":1.001665,"poster_path":null,"original_language":"en","original_title":"Where's That Tiger?","genre_ids":[],"backdrop_path":null,"adult":false,"overview":"Borrah Minnevitch and his Harmonica Rascals are practicing in the basement of a building owned by a nasty landlord. He has them arrested for disturbing the peace but Borrah and the Rascals serenade the judge and the charges are dismissed.","release_date":"1933-01-30"},{"vote_count":0,"id":327496,"video":false,"vote_average":0,"title":"Where's the Bus?","popularity":1.001183,"poster_path":null,"original_language":"en","original_title":"Where's the Bus?","genre_ids":[35],"backdrop_path":null,"adult":false,"overview":"A young starlet is upset after being turned down for yet another audition. While waiting for a bus to arrive at a stop on Hollywood Boulevard, she is overcome by the urge to dance.","release_date":"1966-02-26"},{"vote_count":0,"id":271872,"video":false,"vote_average":0,"title":"Dutch Harbor: Where the Sea Breaks its Back","popularity":1.001177,"poster_path":"\/xFevFrmbunLl9JN7R57z8pR6HoR.jpg","original_language":"en","original_title":"Dutch Harbor: Where the Sea Breaks its Back","genre_ids":[],"backdrop_path":null,"adult":false,"overview":"Having toured extensively in the U.S.and Europe with live, improvised soundtrack accompaniment by the critically acclaimed Boxhead Ensemble, Dutch Harbor sits at the forefront of a movement that opened new doors for independent distribution and cinematic experience.","release_date":"1998-01-01"},{"vote_count":0,"id":468651,"video":false,"vote_average":0,"title":"The Town Where Main Street Is A Dead End","popularity":1,"poster_path":null,"original_language":"en","original_title":"The Town Where Main Street Is A Dead End","genre_ids":[],"backdrop_path":null,"adult":false,"overview":"A non-conformist millennial drives around his small hometown while struggling with his hostile feelings towards the bleak and mundane, set to a psychedelic soundtrack.","release_date":""},{"vote_count":12,"id":42569,"video":false,"vote_average":7.1,"title":"Where’s Poppa?","popularity":3.016157,"poster_path":"\/3Ria0kkWlx1U1CAZc2IRmP7v09F.jpg","original_language":"en","original_title":"Where’s Poppa?","genre_ids":[35],"backdrop_path":"\/dNZKupTIBW0zOFkFfZF7aUvI7s6.jpg","adult":false,"overview":"When New York attorney Gordon Hocheiser meets Louise Callan, the girl of his dreams, he schemes to eliminate his aging, senile mother, even though he promised his late father that he'd always take care of her. He fears that his batty mom's eccentricities will shortly lead to Louise's departure.","release_date":"1970-11-10"},{"vote_count":0,"id":318830,"video":false,"vote_average":0,"title":"Devil Come to Hell and Stay Where You Belong","popularity":1.010265,"poster_path":"\/7BKBNlm8oJHucX2IR9XhTATchiF.jpg","original_language":"en","original_title":"Devil Come to Hell and Stay Where You Belong","genre_ids":[99,37],"backdrop_path":null,"adult":false,"overview":"From a small cabin in the mountains of New York, Nina Breeder and Massimilian Breeder begin a journey across the United States. California is just the initial destination, but just as the edge of the surrounding landscape expands, so does their ultimate destination. A contemplation of nature and time along a raw journey in the American landscape.","release_date":"2008-06-01"}]}