{"page":40,"total_results":1170,"total_pages":59,"results":[{"vote_count":3,"id":86477,"video":false,"vote_average":5.3,"title":"Firepower","popularity":1.443938,"poster_path":"\/lT1G3vmZOrvtlsKjzA3azPFKPt1.jpg","original_language":"en","original_title":"Firepower","genre_ids":[28,878],"backdrop_path":"\/mlvAT2GGSZkhDXiIHYsruxBIIW7.jpg","adult":false,"overview":"In the year 2007, crime has risen at an exponential rate. Once highly populated metropolises such as Los Angeles are no longer inhabitable. These cities have transformed into \"Hell Zones,\" ruled by violent street gangs. The Hell Zone, formerly called the \"Zone of Personal Freedom,\" is a safe-haven for criminal warpaths everywhere. This Hell Zone in LA is controlled by a criminal mastermind named Drexal (Joseph Ruskin). For the sake of entertaining his crowds of decadent losers and underlings, Drexal has staged a series of lethal, no-holds-barred matches in the \"Death Ring,\" where the winner takes all of the glory...while the defeated one shall lose his self-respect (or maybe just his head). Meanwhile, two brave cops, Braniff (Chad McQueen), and Sledge (Gary Daniels) must risk their badges...and their lives when they enter Los Angeles's \"Hell Zone.\"","release_date":"1994-01-19"},{"vote_count":1,"id":220827,"video":false,"vote_average":5,"title":"Firehouse","popularity":1.428224,"poster_path":"\/wbFE1X0sOJiGMNOpfR4Zp9myAxG.jpg","original_language":"en","original_title":"Firehouse","genre_ids":[28,18,10770],"backdrop_path":null,"adult":false,"overview":"TV-movie drama directed by Alan Smithee.","release_date":"1997-01-01"},{"vote_count":3,"id":39193,"video":false,"vote_average":7.3,"title":"Firecracker","popularity":1.412154,"poster_path":"\/izFZTNtkTOwRSXju6fgNSyNWpvO.jpg","original_language":"en","original_title":"Firecracker","genre_ids":[9648,53],"backdrop_path":null,"adult":false,"overview":"A tale of murder in small-town Kansas. When Jimmy is lured away from his abusive family by a traveling sideshow carnival, he encounters Sandra, one of the main attractions. The happiness they find together causes them to confront the darkness in their lives","release_date":"2005-10-11"},{"vote_count":0,"id":115526,"video":false,"vote_average":0,"title":"Adriatic Sea of Fire","popularity":1.008144,"poster_path":"\/AeTeIM8zjfysA9vj8FO2yvXFrvi.jpg","original_language":"fr","original_title":"Flammes sur l'Adriatique","genre_ids":[18,10752],"backdrop_path":null,"adult":false,"overview":"The film tells the story of the Yugoslav destroyer Zagreb which fights against Germany in 1941, and how some of the crew members try to organise a mutiny to keep fighting when the commander is ordered to surrender.","release_date":"1968-10-08"},{"vote_count":0,"id":353186,"video":false,"vote_average":0,"title":"Dragonforce: In the Line of Fire...Larger Than Live","popularity":1.018854,"poster_path":"\/rLwZwcfC1RcHaMzwjgTzNFjGI8b.jpg","original_language":"en","original_title":"Dragonforce: In the Line of Fire...Larger Than Live","genre_ids":[10402],"backdrop_path":"\/2KC9LdVwHFIOkCGvnhMZYFB7vSM.jpg","adult":false,"overview":"\"In the Line of Fire...Larger Than Live\" is the debut video release from metal maestro's DragonForce. Shot during the band's Ultimate Stage headline show at 2014's Loud Park Festival in the Saitama Super Arena, Tokyo, the band used over 10 camera angles to capture the raw energy of their show and instrumental dexterity for which they are rightly celebrated worldwide. The track listing features a mixture of new songs combined with the bands' classic foot stomping anthems and lightning fast shred-fests. \"In the Line of Fire...Larger Than Live\" also features special insight into the DragonForce \"Maximum Overload World Tour\" with off tour, behind the scenes, and backstage footage.","release_date":"2015-07-10"},{"vote_count":2,"id":61373,"video":false,"vote_average":4.5,"title":"Eva & Adam: Four Birthdays and a Fiasco","popularity":1.077504,"poster_path":"\/695Ds2YpZ7An8zeByFY8UBhoPMV.jpg","original_language":"sv","original_title":"Eva och Adam - Fyra födelsedagar och ett fiasko","genre_ids":[10751,10749],"backdrop_path":null,"adult":false,"overview":"Already a couple for 3 years, teenagers Eva and Adam are happy together. But when friends start joking about an impending marriage, Eva is angered and decides to dump Adam. Hurt and upset, Adam seeks comfort with Petra. But when Eva learns about Adam's new romance, she realizes she's made a mistake and sets out to win him back.","release_date":"2001-01-19"},{"vote_count":19,"id":34297,"video":false,"vote_average":6.6,"title":"Inuyasha the Movie 4: Fire on the Mystic Island","popularity":2.431801,"poster_path":"\/7Nda6Tp4hPpErL63OLqCPB2gdm5.jpg","original_language":"ja","original_title":"犬夜叉 紅蓮の蓬莱島","genre_ids":[28,16,12,878],"backdrop_path":"\/h3Y3bWqTxKSpKyPspXBMRIM9NTy.jpg","adult":false,"overview":"The mysterious island of Houraijima has reappeared after 50 years, and with its reappearance has brought the attack of four gods, the Shitoushin, who have their eyes set on the powers that protect and sustain the island. Now it's up to Inuyasha and his friends, along with Sesshoumaru, to find a way to defeat the powerful Shitoushin.","release_date":"2004-12-23"},{"vote_count":682,"id":24253,"video":false,"vote_average":7,"title":"The Girl Who Played with Fire","popularity":10.82399,"poster_path":"\/qHRpU2d9NWB0WDulwgFwg6a9JRK.jpg","original_language":"sv","original_title":"Flickan som lekte med elden","genre_ids":[18,28,53,80,9648],"backdrop_path":"\/qMDiCjxfv6Y8JN2DFViTX5D1ORH.jpg","adult":false,"overview":"Mikael Blomkvist, publisher of Millennium magazine, has made his living exposing the crooked and corrupt practices of establishment Swedish figures. So when a young journalist approaches him with a meticulously researched thesis about sex trafficking in Sweden and those in high office who abuse underage girls, Blomkvist immediately throws himself into the investigation.","release_date":"2009-09-18"},{"vote_count":1,"id":430602,"video":false,"vote_average":7,"title":"Firebringer","popularity":1.17397,"poster_path":"\/fGDAcuD9Du8q4NOgR0NosThomsZ.jpg","original_language":"en","original_title":"Firebringer","genre_ids":[35,10402],"backdrop_path":"\/c48Z15mAajAeSkMRJLQhpYGi1qS.jpg","adult":false,"overview":"At the dawn of humanity, one tribe of cave-people survives the many trials of prehistoric life under the wise leadership of Jemilla, The Peacemaker. Jemilla taught her people to express themselves, rather than bashing each others' heads with rocks and eating each others' babies. But one member of the tribe doesn't seem to fit in: Zazzalil. She's always trying to invent things to make life easier… for herself. While out hatching her latest scheme, Zazzalil stumbles upon the most important discovery in history. One that will pit her tribe against wooly mammoths, saber-toothed tigers, and change the world forever. She'll travel from omega to alpha, and become… the Firebringer!","release_date":"2017-01-01"},{"vote_count":4,"id":319616,"video":false,"vote_average":5.5,"title":"Fireworks","popularity":1.152141,"poster_path":"\/hNDHarbqpiGb5F8IenyJc70NgBK.jpg","original_language":"en","original_title":"Fireworks","genre_ids":[],"backdrop_path":null,"adult":false,"overview":"An animated fireworks display made of coins, candy, and other colourful objects.","release_date":"2004-01-01"},{"vote_count":1,"id":89472,"video":false,"vote_average":2,"title":"Firefight","popularity":1.133053,"poster_path":"\/7TuXNnSFSenYfHuZHvvjFKJZcMw.jpg","original_language":"en","original_title":"Firefight","genre_ids":[28,53],"backdrop_path":"\/3YOPFQmjIc3RAUsITB3oFVcCVbS.jpg","adult":false,"overview":"","release_date":"2003-11-18"},{"vote_count":19,"id":53417,"video":false,"vote_average":6.3,"title":"The Fireman","popularity":2.753401,"poster_path":"\/qv0Ztunygb0ubC8f0TlRLyL0W2R.jpg","original_language":"en","original_title":"The Fireman","genre_ids":[35],"backdrop_path":"\/qIpQpUvw2XmHPurM830a4fL18wc.jpg","adult":false,"overview":"Charlie is a fireman who always does everything wrong. A man talks the Fire Chief into ignoring his burning home (he wants the insurance money) unaware that his daughter (the love of the Chief) is upstairs in the house. When the house next door catches fire its owner rouses Charlie who rouses the force.","release_date":"1916-06-12"},{"vote_count":0,"id":458823,"video":false,"vote_average":0,"title":"Acorn and the Firestorm","popularity":3.994865,"poster_path":"\/1c94Rc2BY9DgKGArtbYSSvgTXj4.jpg","original_language":"en","original_title":"Acorn and the Firestorm","genre_ids":[36,99,18],"backdrop_path":"\/r5a2avd6yTH33B1OYjL5HA8pbFD.jpg","adult":false,"overview":"For 40 years, the community-organizing group ACORN advocated for America’s poorest communities, while its detractors accused it of promoting the worst of liberal policies. Riding high on the momentum of Barack Obama’s presidential victory in 2008, ACORN was at its political zenith when a hidden-camera video sparked a national scandal and brought it crashing down. The story involves voter fraud, a fake prostitute, and the rise of Breitbart.com.","release_date":"2018-04-06"},{"vote_count":1,"id":335735,"video":false,"vote_average":8,"title":"Liberation: The Fire Bulge","popularity":1.066896,"poster_path":"\/8xi3QUFOyWU9T3hVhTMwPgUPXIJ.jpg","original_language":"ru","original_title":"Освобождение: Огненная Дуга","genre_ids":[18,10752],"backdrop_path":"\/pKdrunlz31ryq0teZlUkEKMPQPy.jpg","adult":false,"overview":"","release_date":"1970-05-06"},{"vote_count":0,"id":517485,"video":false,"vote_average":0,"title":"Firearm","popularity":1.0525,"poster_path":"\/lAREEaTmpetCDjvgmy6UnWqCPBq.jpg","original_language":"en","original_title":"Firearm","genre_ids":[],"backdrop_path":null,"adult":false,"overview":"The first movie that's faithful to the comic book... because it IS the comic book!  This VHS film was bundled with Malibu Comics' Firearm #0, part of its Ultraverse line.","release_date":"1993-11-01"},{"vote_count":1,"id":146287,"video":false,"vote_average":7,"title":"Fireman","popularity":1.040701,"poster_path":"\/ujM4aeWgmJBQbUkZEhmMsZq5NuK.jpg","original_language":"en","original_title":"Fireman","genre_ids":[],"backdrop_path":null,"adult":false,"overview":"Red Coleman was a hero, a fireman and a father until a gang of ruthless pyromaniacs killed him and his family. Now he's back and he has a thirst for REVENGE!","release_date":"2009-10-24"},{"vote_count":0,"id":320368,"video":false,"vote_average":0,"title":"Firelight","popularity":1.0375,"poster_path":null,"original_language":"en","original_title":"Firelight","genre_ids":[],"backdrop_path":null,"adult":false,"overview":"To pay off her father's overwhelming debt, Elisabeth Laurier (Sophie Marceau) agrees to conceive a child with British aristocrat Charles Godwin (Stephen Dillane) -- whose paralyzed wife can't bear children -- and give him the baby once it's born. Seven years later, when Godwin's sister-in-law, Constance (Lia Williams), hires Elisabeth as a governess, she's reunited with her daughter, Louisa (Dominique Belcourt).","release_date":"1987-01-01"},{"vote_count":0,"id":495603,"video":false,"vote_average":0,"title":"Fireflies","popularity":1.030254,"poster_path":"\/8lexMizAGpXf3oqc7Tgz42bo4AM.jpg","original_language":"hi","original_title":"Fireflies","genre_ids":[18,10751],"backdrop_path":null,"adult":false,"overview":"Fireflies come out in the night, just to light up the darkness. They live as long as the glow lasts. Even if it is a lifetime, being lived in a day. FIREFLIES is the story of two estranged brothers, Shiv and Rana. Living disparate lives, sometimes illuminated by unexpected intimacies and newfound hope, the brothers still remain shackled to the darkness of their past. Haunting memories of a tragic incident must be resolved before they can be brothers again.","release_date":"2014-10-31"},{"vote_count":0,"id":439595,"video":false,"vote_average":0,"title":"Firefly","popularity":1.020755,"poster_path":"\/tp0gXHlvEeBjckg79Sl7fpJxjSe.jpg","original_language":"zh","original_title":"Firefly","genre_ids":[28,35],"backdrop_path":null,"adult":false,"overview":"Tells the story of Huat, an ordinary uncle who dresses up as a superhero to fight crime. Firefly becomes an icon in the city when he successfully saves many people from being victims of crime. His success is not attributed because of his skills, but due to pure luck. Firefly soon meets a group of vigilantes who has real skills but who is brutal in carrying out their crime fighting mission.","release_date":"2013-11-14"},{"vote_count":0,"id":281179,"video":false,"vote_average":0,"title":"Firefall","popularity":1.007059,"poster_path":null,"original_language":"en","original_title":"Firefall","genre_ids":[],"backdrop_path":null,"adult":false,"overview":"While visiting Yosemite National Park, in California, five groups of people will embark on an epic adventure. Facing family challenges, the perils of the wilderness, and an enraged mutant bear, each family will discover who they really are, what really matters, and will fight to survive on their way to witness the flaming waterfall of fire: The FIREFALL.","release_date":"2012-01-01"}]}