{"page":5,"total_results":1170,"total_pages":59,"results":[{"vote_count":0,"id":399418,"video":false,"vote_average":0,"title":"Black Fire","popularity":1.023675,"poster_path":"\/5b72IS7cv0zviw9M0c7qaw2zIA3.jpg","original_language":"es","original_title":"Fuego Negro","genre_ids":[37,18],"backdrop_path":null,"adult":false,"overview":"Bloody slave drama from the southern states of hatred, murder, revenge- and impossible love.","release_date":"1979-09-20"},{"vote_count":43,"id":51200,"video":false,"vote_average":7,"title":"71: Into the Fire","popularity":4.375848,"poster_path":"\/1v4XKKlJJKpUVhaDKy5XWV3A9pG.jpg","original_language":"ko","original_title":"포화 속으로","genre_ids":[10752],"backdrop_path":"\/cNTFHKDEIMMwxN5jvgZcyNbZa53.jpg","adult":false,"overview":"A civil war broke out in the 1950s between North and South Korea which changed the country forever. 71: Into the Fire centers on the struggles of 71 student soldiers who fought through the Korean War. Using real people and events based on the opening moves of the Battle of P'ohang-dong, the film exposes the personal and physical conflicts that these students faced when finding themselves on the last line of defense at P'ohang-dong Girl's Middle School against the NKPA's advancement, needing to hold out until back up from other Korean troops and the Allies arrived.","release_date":"2010-06-16"},{"vote_count":4,"id":353730,"video":false,"vote_average":5.8,"title":"Fire Song","popularity":1.64482,"poster_path":"\/rQLm9upk57c3vS0RiB9QIxGGS7l.jpg","original_language":"en","original_title":"Fire Song","genre_ids":[18],"backdrop_path":null,"adult":false,"overview":"Shane, a gay Anishnabe teenager in Northern Ontario, is struggling to support his family in the aftermath of his sister's suicide. If he fails, he will be forced to choose between his family's home and his own future.","release_date":"2015-09-13"},{"vote_count":69,"id":24102,"video":false,"vote_average":5.9,"title":"The Land Before Time VII: The Stone of Cold Fire","popularity":8.882919,"poster_path":"\/nFQUwWxcjw38V8whGkaKDDn2AQ6.jpg","original_language":"en","original_title":"The Land Before Time VII: The Stone of Cold Fire","genre_ids":[12,14,16,878,10751],"backdrop_path":"\/b4sJ4bRxfcSgcrwbk3suXyyb7Qp.jpg","adult":false,"overview":"Littlefoot and his pals set off in search of a \"stone of cold fire\" that fell from the night sky. Since he's the only one who has seen it though, nobody really believes him. Littlefoot's uncle Pterano offers support only because he thinks the stone has secret powers and wants it for himself but conceals this from the rest. The young dinos must figure out the truth, before Pterano gets the power.","release_date":"2000-12-05"},{"vote_count":6,"id":89921,"video":false,"vote_average":5.3,"title":"White Fire","popularity":1.572655,"poster_path":"\/8lpXvBHr5RnoCNSxVa7cLnrZRVl.jpg","original_language":"en","original_title":"Vivre pour survivre","genre_ids":[28,53],"backdrop_path":"\/2mDaCkhM860nsJYt5GJb5WWSBGM.jpg","adult":false,"overview":"When Bo was a child, a mysterious stranger sadistically murdered his parents. Only Bo and his sister, Ingrid survived the bloodshed. Now, twenty years later... Bo and his sister are grown up. They are now employees at a diamond mineshaft located in the desert. As mischievous as they are, they stumble upon the discovery of a legendary diamond, the \"White Fire.\" However, this rapture for the diamond has provoked the angst of some short-tempered, not-so-nice villains. The quest to capture the most sought-out diamond in the world is afoot...","release_date":"1984-07-05"},{"vote_count":2,"id":168535,"video":false,"vote_average":5.5,"title":"The Substance of Fire","popularity":2.546804,"poster_path":"\/kH5bjhWoHe0f8J2yMKGoTEhcngY.jpg","original_language":"en","original_title":"The Substance of Fire","genre_ids":[18],"backdrop_path":"\/bSFFpS1oW2G6aDSbKkPMwC7X6GT.jpg","adult":false,"overview":"Isaac Geldhart is a Holocaust survivor who, overcome by grief at the recent death of his wife, seems determined to run his publishing firm into the ground by printing books that have no hope of financial success. His son Aaron, who also works at the company, grows frustrated with Isaac's emotional decline and attempts to take over the firm. The resulting crisis involves Isaac's other two children, his daughter Sarah and his dying son Martin.","release_date":"1996-09-11"},{"vote_count":2,"id":254785,"video":false,"vote_average":6,"title":"Ninja Fist of Fire","popularity":1.816548,"poster_path":"\/cOco2KXOnlUatRmPL5cq7P4AOh.jpg","original_language":"zh","original_title":"奪命拳王","genre_ids":[28],"backdrop_path":null,"adult":false,"overview":"Martial arts action with a ninja prince trying to overcome the odds and gain hid rightful place on the throne.","release_date":"1972-07-07"},{"vote_count":1,"id":422827,"video":false,"vote_average":7,"title":"Sensual Fire","popularity":1.594995,"poster_path":"\/4deO8wR0kzPBSH7NLtLAwhYzfTr.jpg","original_language":"en","original_title":"Sensual Fire","genre_ids":[],"backdrop_path":"\/vUSbdKRUZ7KOp1QM0jMAseIYAws.jpg","adult":false,"overview":"A man lusts after his nubile stepdaughter, knowing the sinful nature of his desires. Can he satisfy his lust with others or will his secret fantasies send him over the edge?","release_date":"1979-07-01"},{"vote_count":6,"id":207063,"video":false,"vote_average":7.2,"title":"Boston Fire","popularity":1.577273,"poster_path":"\/hD0Z9sCE1wrq8G3mMymV6oMesYq.jpg","original_language":"en","original_title":"Boston Fire","genre_ids":[],"backdrop_path":null,"adult":false,"overview":"BOSTON FIRE finds grandeur in smoke rising eloquently from a city blaze. Billowing puffs of darkness blend with fountains of water streaming in from offscreen to orchestrate a play of primal elements. The beautiful texture of the smoke coupled with the isolation from the source of the fire erases the destructive impact of the event. The camera, lost in the immense dark clouds, produces images for meditation removed from the causes or consequences of the scene. The tiny firemen, seen as distant silhouettes, gaze in awe, helpless before nature’s power.","release_date":"1979-04-30"},{"vote_count":1,"id":437627,"video":false,"vote_average":4,"title":"Father of Four: At The Top","popularity":3.302733,"poster_path":"\/5U1pb2x7YLpYjIpWJBUaOAw6apY.jpg","original_language":"da","original_title":"Far Til Fire På Toppen","genre_ids":[10751,28,35],"backdrop_path":"\/nC2FHH2AHtqIAS5BtaYv5HOlcrd.jpg","adult":false,"overview":"Everyone is afraid of something. Also Father. He suffers from a terrible case of fear of heights. And for him to not decline a new job opportunity, located on the 27th floor, which could save the family from moving across the country, the family decides to travel to Norway to cure his phobia. But it will soon be clear that Father's phobia isn't the only obstacle standing in their way.","release_date":"2017-02-09"},{"vote_count":0,"id":407079,"video":false,"vote_average":0,"title":"Fire Away","popularity":1.561959,"poster_path":"\/s93vqBuordkjvTeUaP6my0cicVt.jpg","original_language":"en","original_title":"Fire Away","genre_ids":[18,10402],"backdrop_path":null,"adult":false,"overview":"Music video short for Chris Stapleton's single, Fire Away.","release_date":"2016-02-29"},{"vote_count":4,"id":144819,"video":false,"vote_average":7,"title":"Autumn Fire","popularity":1.552758,"poster_path":"\/qfoCOEEdUlbSyedDl68Naknyd63.jpg","original_language":"en","original_title":"Autumn Fire","genre_ids":[18,10749],"backdrop_path":null,"adult":false,"overview":"A story told with few words. We see a solitary man and a solitary woman, each alone with their thoughts. She is in the country, staring out a window. Nature is quiet, waiting for spring, trees are bare. He is in the city, walking from the docks, watching, somewhat aimless. She walks a country lane. Both are alone. She writes him a letter, offering an opportunity. Will he take it?","release_date":"1931-11-21"},{"vote_count":3,"id":56335,"video":false,"vote_average":4.3,"title":"Fire Festival","popularity":1.158483,"poster_path":"\/yCxdKNLPN9MeWkmo5ttOqQUxWOD.jpg","original_language":"ja","original_title":"Himatsuri","genre_ids":[18],"backdrop_path":null,"adult":false,"overview":"Tatsuo, a reverent lumberjack, seeks to disrupt plans to build a marine park on his family land, instead promoting his traditions in reactionary ways.","release_date":"1985-10-03"},{"vote_count":6,"id":208084,"video":false,"vote_average":6.2,"title":"Fire & Rain","popularity":1.541081,"poster_path":"\/s7wKC30nL3Hh8UAuk1vnJ2Lj29B.jpg","original_language":"en","original_title":"Fire & Rain","genre_ids":[99],"backdrop_path":null,"adult":false,"overview":"How do you make something last just a minute that actually takes ten times as long? You boil it down. \"I took the steel rolling process that takes about 10 minutes\", James Benning writes about Fire &amp; Rain, \"and condensed it down to one minute by cutting out portions and hiding the ellipses in time with dissolves\".","release_date":"2009-09-16"},{"vote_count":42,"id":40080,"video":false,"vote_average":5.7,"title":"The Cutting Edge: Fire & Ice","popularity":5.28308,"poster_path":"\/wQmauHdo0gGAAe7W7AggFXJJkv5.jpg","original_language":"en","original_title":"The Cutting Edge: Fire & Ice","genre_ids":[18,10749],"backdrop_path":"\/sqMHLzE51TorT432JHL5DsyopIs.jpg","adult":false,"overview":"Alexandra \"Alex\" Delgado, a pairs figure skater, found her career come to an abrupt halt after her partner (on and off the ice) became injured. As their love affair cooled, a heartbroken Alex stopped competing and turned to teaching. Enter James Van Behr the smoldering bad boy of speed skating, who has had fiery Alex in his sights as a skating partner ever since he was banned from speed skating. There aren't many girls who say no to him but she may well be the first. However, he pushes her buttons, challenging her like no one else - and her fighting spirit returns. She agrees to be his partner and they begin a grueling practice regimen fueled (and occasionally derailed) by their own tempestuous relationship, which heats up as they get closer to competition. But will their passion destroy Alex's chance to bring home the gold again?","release_date":"2010-03-14"},{"vote_count":7,"id":6958,"video":false,"vote_average":4.3,"title":"Walker, Texas Ranger Trial by Fire","popularity":4.480751,"poster_path":"\/8ZfgIoDsgpOqLgGdrjwx0nXEKUB.jpg","original_language":"en","original_title":"Walker, Texas Ranger Trial by Fire","genre_ids":[28,53],"backdrop_path":null,"adult":false,"overview":"Walker investigates a murder connected with a missing government weapon. In addition, he tries to track down a teen on the run from a crime syndicate.","release_date":"2005-10-16"},{"vote_count":1,"id":179068,"video":false,"vote_average":6,"title":"Batallions Ask for Fire","popularity":1.665536,"poster_path":"\/u3ouyR2J5uRmKI6BwjxgicFUc8S.jpg","original_language":"ru","original_title":"Батальоны просят огня","genre_ids":[36,10752,18],"backdrop_path":"\/pbV3rQI5rJb6GXQWIose4nUnfnH.jpg","adult":false,"overview":"A story of a several days of intense fighting on the Eastern Front during one of the Soviet offensives in WWII.","release_date":"1985-02-18"},{"vote_count":7,"id":156284,"video":false,"vote_average":7.7,"title":"Fire In The Blood","popularity":2.264138,"poster_path":"\/fEVxqDoFoVUO4AXLneZr4Yo1Cuu.jpg","original_language":"en","original_title":"Fire In The Blood","genre_ids":[99],"backdrop_path":"\/9fMEafwgTEyol9hye5pc2D3sLf.jpg","adult":false,"overview":"An intricate tale of \"medicine, monopoly and malice\", FIRE IN THE BLOOD tells the story of how Western pharmaceutical companies and governments blocked access to low-cost AIDS drugs for the countries of the global south in the years after 1996 - causing ten million or more unnecessary deaths - and the improbable group of people who decided to fight back. Shot on four continents and including contributions from global figures such as Bill Clinton, Desmond Tutu and Joseph Stiglitz, FIRE IN THE BLOOD is the never-before-told true story of the remarkable coalition which came together to stop 'the crime of the century' and save millions of lives in the process.","release_date":"2013-09-06"},{"vote_count":19,"id":304441,"video":false,"vote_average":4.6,"title":"Pants on Fire","popularity":2.226605,"poster_path":"\/2Aunu5eUN8UjtwK6Fmva4XG3YT3.jpg","original_language":"en","original_title":"Pants on Fire","genre_ids":[35],"backdrop_path":"\/kPFLySiBCcxDvDV7QFu1VauMAwj.jpg","adult":false,"overview":"Jack Parker has always skated by on his lies, especially the one about Mikey, an underprivileged (and made-up) teen who Jack \"tutors\"... until one day \"Mikey\" shows up for real, and all Jack's lies start coming true.","release_date":"2014-01-01"},{"vote_count":1,"id":277658,"video":false,"vote_average":8,"title":"A Fire","popularity":1.086274,"poster_path":"\/bIqKmGGCQnoHjkRKTZKfDFSIqnM.jpg","original_language":"fa","original_title":"یک آتش","genre_ids":[99],"backdrop_path":null,"adult":false,"overview":"A short documentary about a massive oil fire and the attempts over several weeks to put it out by various means. The film also shows how the lives of villagers and farmers nearby are affected.","release_date":"1961-04-01"}]}