{"page":29,"total_results":567,"total_pages":29,"results":[{"vote_count":118,"id":15244,"video":false,"vote_average":7.9,"title":"A Man Escaped","popularity":7.568513,"poster_path":"\/7f8ROxooI3fn85CVqIG5QwPFsdE.jpg","original_language":"fr","original_title":"Un condamné à mort s'est échappé","genre_ids":[53,18,10752],"backdrop_path":"\/tXOTo7M7KFhsMUEPsdC5WS9xiJi.jpg","adult":false,"overview":"A captured French Resistance fighter during World War II engineers a daunting escape from prison.","release_date":"1956-11-11"},{"vote_count":9,"id":54457,"video":false,"vote_average":5.8,"title":"The Case of Itaewon Homicide","popularity":1.33867,"poster_path":"\/u6GsctVMYQCtErsM9Lz5WBwCMbP.jpg","original_language":"ko","original_title":"이태원 살인사건","genre_ids":[80],"backdrop_path":"\/3RnBrkObCx3WcS1JDuxD6qz7Hfr.jpg","adult":false,"overview":"On the night of April 8, 1997, an innocent college student was brutally murdered in a burger shop washroom for no apparent reason. 2 Korean-American teenagers are brought for questioning and are charged with murder and possession of lethal weapon and withholding evidence. Neither is remorseful for their heinous crimes and blames each other for the killing.","release_date":"2010-09-09"},{"vote_count":1,"id":40473,"video":false,"vote_average":5.5,"title":"Pickup on 101","popularity":1.445571,"poster_path":"\/cO1v7GOaGGsm6a5SVKFavy5s1dm.jpg","original_language":"en","original_title":"Pickup on 101","genre_ids":[18],"backdrop_path":"\/1Y4j73VDVNDH1jGTq4lEHRDQNyC.jpg","adult":false,"overview":"An elderly wanderer, a sexy young girl running away from home and a folk singer looking for stardom hitch-hike their way cross-country, trying to get to California.","release_date":"1972-05-01"},{"vote_count":1,"id":83420,"video":false,"vote_average":8,"title":"Do You See Seoul?","popularity":1.109565,"poster_path":"\/zsxZsI3tAzn1FMWOmPuWF58m9aG.jpg","original_language":"ko","original_title":"서울이 보이냐?","genre_ids":[18],"backdrop_path":"\/rTD9wuC46sAqmOxyNKwXkvN9e1l.jpg","adult":false,"overview":"In 1976 on a remote island, schoolteacher Eun-young wants to take her students on a field trip to a cookie factory in Seoul. Even though the parents don't like the idea, Eun-young succeeds in taking them. But once they arrive in the complicated city, students become fascinated with high-tech bicycles and get lost.","release_date":"2008-05-08"},{"vote_count":6,"id":35156,"video":false,"vote_average":5.9,"title":"The End of the Line","popularity":1.519745,"poster_path":"\/tOqV6G2gcEKmMJoRAwmOPAjdAe6.jpg","original_language":"en","original_title":"The End of the Line","genre_ids":[99],"backdrop_path":"\/4vUiGeZYQE2ByNkLEbXwmjecRjB.jpg","adult":false,"overview":"Imagine an ocean without fish. Imagine your meals without seafood. Imagine the global consequences. This is the future if we do not stop, think and act.In the film we see firsthand the effects of our global love affair with fish as food.It examines the imminent extinction of bluefin tuna, brought on by increasing western demand for sushi; the impact on marine life resulting in huge overpopulation of jellyfish; and the profound implications of a future world with no fish that would bring certain mass starvation.Filmed over two years, The End of the Line follows the investigative reporter Charles Clover as he confronts politicians and celebrity restaurateurs, who exhibit little regard for the damage they are doing to the oceans.Filmed across the world – from the Straits of Gibraltar to the coasts of Senegal and Alaska to the Tokyo fish market – featuring top scientists, indigenous fishermen and fisheries enforcement officials, The End of the Line is a wake-up call to the world.","release_date":"2009-06-12"},{"vote_count":1,"id":419294,"video":true,"vote_average":7,"title":"Stray","popularity":1.054265,"poster_path":null,"original_language":"en","original_title":"Stray","genre_ids":[],"backdrop_path":null,"adult":false,"overview":"Set in a parallel universe where the sexual bias favors homosexuals, Eric, a struggling heterosexual, admits himself into a straight conversion camp. What begins as a cure to his deviant lifestyle, becomes a journey of self acceptance.","release_date":"2015-01-15"},{"vote_count":0,"id":296248,"video":false,"vote_average":0,"title":"Harassed","popularity":1.001649,"poster_path":"\/erehGR2TOqyP2QGtTqUktC4F7ol.jpg","original_language":"es","original_title":"Acosada","genre_ids":[18],"backdrop_path":null,"adult":false,"overview":"An attractive songstress (Libertad Leblanc) lands herself a performing contract and leaves her home in Buenos Aires. She travels to Venezuela, and when arriving in Caracas, she soon discovers that her contract is a hoax made by a major drug baron. She finds that she is knee-deep in trouble herself and must be careful if she is to get out of her predicament in one piece in this 70-minute sexually oriented action feature from Argentina. When imported to the U.S., the film was dubbed into English, new footage (shot in New York City) was added and it was given the memorably salacious title The Pink Pussy: Where Sin Lives.","release_date":"1964-10-05"}]}