{"page":48,"total_results":1170,"total_pages":59,"results":[{"vote_count":0,"id":470421,"video":true,"vote_average":0,"title":"Fireman Sam: Snow Trouble","popularity":1,"poster_path":null,"original_language":"en","original_title":"Fireman Sam: Snow Trouble","genre_ids":[],"backdrop_path":null,"adult":false,"overview":"A big freeze has fallen over Pontypandy, and with the snow comes lots of trouble! Sarah and James attempt to take the winning photograph for a competition, but they accidentally cause an avalanche and find themselves trapped in a cave. When Trevor is distracted, showing off to Dilys, he loses control of his bus full of passengers and they find themselves stranded on a frozen lake. Meanwhile Norman and Derek get up to their usual pranks and unknowingly create a giant snowball that starts to roll around Pontypandy. Thank goodness for Fireman Sam - join him and the rest of the rescue team as they save the day!","release_date":""},{"vote_count":0,"id":473390,"video":false,"vote_average":0,"title":"Fireman Sam: Red alert","popularity":1,"poster_path":"\/1frVJ9i2D75dhPvrebBGfkQNZzi.jpg","original_language":"en","original_title":"Fireman Sam: Red alert","genre_ids":[10751],"backdrop_path":null,"adult":false,"overview":"","release_date":""},{"vote_count":0,"id":386169,"video":false,"vote_average":0,"title":"Legend of Firefly Marsh","popularity":1,"poster_path":"\/bRjddQsERLb6uuBW3n9HahNwkWN.jpg","original_language":"en","original_title":"Legend of Firefly Marsh","genre_ids":[12,10751,14],"backdrop_path":null,"adult":false,"overview":"Firefly Marsh is a fog-enshrouded corner of the world, steeped in mystery. Stories of what lurks in the dark waters date back to Indian lore. But could Firefly Marsh really hide a prehistoric creature like the one in Loch Ness? Twelve year-old Charlie Curtis and his friend Jim may have found the answer after \"something\" swamps their dingy in the marsh. Was it the monster? For Charlie, that night sparks a personal odyssey that will take over half a century to finish. The memory of what he saw becomes his obsession, his lifelong passion. When Charlie's grandson, Kevin, comes to visit for the summer, he becomes caught up in his grandfather's stories. Are Charlie's stories just to entertain the local children or is there some truth to the old man's tale? Soon the curious teenager begins his own adventure, a quest to solve the mystery behind The Legend of Firefly Marsh. - Written by Gabe Torres","release_date":"1987-01-01"},{"vote_count":0,"id":282651,"video":true,"vote_average":0,"title":"Max & Ruby - Fireman Max","popularity":1.25,"poster_path":null,"original_language":"en","original_title":"Max & Ruby - Fireman Max","genre_ids":[],"backdrop_path":null,"adult":false,"overview":"Ruby wants to practice jumping rope for the Bunny Scout Jump-a-thon but Max wants to play Fireman and keeps tripping her up. INCLUDES 6 Episodes: Fireman Max \/ Max's Check Up \/ Ruby's Candy Store \/ Max's Shadow \/ Max Drives Away \/ Max's Bath","release_date":""},{"vote_count":6,"id":378089,"video":false,"vote_average":8.3,"title":"Florence and the Uffizi Gallery 3D\/4K","popularity":1.569789,"poster_path":"\/lspyXkA92rSiTmheBG7E9CzSb3v.jpg","original_language":"it","original_title":"Firenze e gli Uffizi 3D\/4K","genre_ids":[99],"backdrop_path":"\/wIbc3BDIkcTsApayoe4mWHUBRMb.jpg","adult":false,"overview":"The first 3D film tour through the wonders of Florence and the Uffizi Gallery.","release_date":"2016-01-18"},{"vote_count":2,"id":193399,"video":false,"vote_average":5,"title":"Firemen Rescuing Men and Women","popularity":1.143755,"poster_path":null,"original_language":"en","original_title":"Firemen Rescuing Men and Women","genre_ids":[],"backdrop_path":null,"adult":false,"overview":"No Overview","release_date":"1899-06-30"},{"vote_count":1,"id":196001,"video":false,"vote_average":4,"title":"Fireboat 'New Yorker' in Action","popularity":1.119911,"poster_path":null,"original_language":"en","original_title":"Fireboat 'New Yorker' in Action","genre_ids":[],"backdrop_path":null,"adult":false,"overview":"A magnificent picture of this boat making a run and starting the water from a least a dozen nozzles at once...","release_date":"1903-05-22"},{"vote_count":0,"id":372060,"video":false,"vote_average":0,"title":"Little Einsteins: Rocket's Firebird Rescue","popularity":1.125422,"poster_path":"\/xmZ4ANiR4ixFZInm2mjXP0czcaZ.jpg","original_language":"en","original_title":"Little Einsteins: Rocket's Firebird Rescue","genre_ids":[10751],"backdrop_path":null,"adult":false,"overview":"Leo, Quincy, Annie, June and Rocket travel to Russia to help save Rocket's new friend, Firebird! Firebird is a mysterious bird who sprinkles magic everywhere she flies. This magic brings beauty and music to the world. But a heartless ogre captures Firebird and locks her in a cage. It's up to the Little Einsteins and Rocket to set Firebird free and bring music back to the world.","release_date":"2007-08-21"},{"vote_count":0,"id":318075,"video":false,"vote_average":0,"title":"Rock 'n' Roll Greats: Firefall","popularity":1.075,"poster_path":null,"original_language":"en","original_title":"Rock 'n' Roll Greats: Firefall","genre_ids":[],"backdrop_path":null,"adult":false,"overview":"Firefall -- a well-respected country band whose heyday was in the 1970s -- drew on country traditions and infused them with some choice melancholy rock overtones. If you're a fan of Buffalo Springfield and The Eagles, you'll love this video. And for those who already are fans of the band, this video is a wonderful aural &amp;NFi;and&amp;NFi_; visual treat. Here, the band reforms after 20 years and delivers a set that underscores the beauty of their soulful tunes.","release_date":""},{"vote_count":1,"id":231954,"video":false,"vote_average":5,"title":"Parade of 'Exempt' Firemen","popularity":1.036471,"poster_path":null,"original_language":"en","original_title":"Parade of 'Exempt' Firemen","genre_ids":[],"backdrop_path":null,"adult":false,"overview":"A bunch of men strolling across a bridge.","release_date":"1903-10-31"},{"vote_count":0,"id":316804,"video":false,"vote_average":0,"title":"Fireman Sam - Hero at Sea","popularity":1.03428,"poster_path":"\/52O0Ny7txxzjzFklYyLVfDuYKTc.jpg","original_language":"en","original_title":"Fireman Sam - Hero at Sea","genre_ids":[],"backdrop_path":null,"adult":false,"overview":"The beaches of Pontypandy are packed with daring rescues as Fireman Sam is a Hero at Sea! During a trip out to sea with the kids, Charlie nets the biggest catch Pontypandy has ever seen but his boat is damaged – will they sink or swim? Find out all this and more in this collection of heroic adventures.","release_date":"2014-02-05"},{"vote_count":0,"id":332917,"video":true,"vote_average":0,"title":"Fireman Sam - Ready for Action","popularity":1.011824,"poster_path":"\/6JowyvVhcVdMt5ocWYybzADVrIz.jpg","original_language":"en","original_title":"Fireman Sam - Ready for Action","genre_ids":[],"backdrop_path":null,"adult":false,"overview":"Five animated episodes from everyone's favourite Welsh fireman. Episodes include: 'Elvis Sings the Blues', 'Heap of Trouble', 'Flood's Flood', 'Fireman James' and 'Dily's Big Surprise'.","release_date":"2011-03-14"},{"vote_count":0,"id":505608,"video":false,"vote_average":0,"title":"In The Land Of Fireworks","popularity":1.009515,"poster_path":"\/4QdSxiC9Y85SW5OpLBOTUBIQBQc.jpg","original_language":"en","original_title":"In The Land Of Fireworks","genre_ids":[18],"backdrop_path":null,"adult":false,"overview":"A successful businessman sees his professional and personal life veer out of control after his girlfriend announces she is pregnant.","release_date":"2013-02-26"},{"vote_count":0,"id":389066,"video":false,"vote_average":0,"title":"New Years Eve Fireworks London","popularity":1.023534,"poster_path":null,"original_language":"en","original_title":"New Years Eve Fireworks London","genre_ids":[],"backdrop_path":null,"adult":false,"overview":"In the past few years the popularity of London’s New Year’s Eve fireworks display has rocketed, and that's probably got something to do with the spine-tingling spectacle we pulled off in 2011 to welcome in the Olympic year.","release_date":"2015-12-31"},{"vote_count":0,"id":361825,"video":true,"vote_average":0,"title":"Fireman Sam - the Big Freeze","popularity":1.00353,"poster_path":"\/js7zISkDaeBrpEZ1axvxdIpQzbu.jpg","original_language":"da","original_title":"Fireman Sam - the Big Freeze","genre_ids":[],"backdrop_path":null,"adult":false,"overview":"","release_date":"2006-09-13"},{"vote_count":0,"id":361824,"video":true,"vote_average":0,"title":"Fireman Sam - Let It Snow","popularity":1.002353,"poster_path":"\/mdmmjxumpjZ1PzSVaHrjwH9zKHn.jpg","original_language":"da","original_title":"Fireman Sam - Let It Snow","genre_ids":[],"backdrop_path":"\/2QrtknKVsIGMaxKyrzdjxsJGtQW.jpg","adult":false,"overview":"","release_date":"2005-11-07"},{"vote_count":0,"id":359911,"video":false,"vote_average":0,"title":"Rabbit Ears - The Firebird","popularity":1.000323,"poster_path":"\/8LlpnJNSpusZnYsJ1Q7z81LgWVq.jpg","original_language":"en","original_title":"Rabbit Ears - The Firebird","genre_ids":[],"backdrop_path":null,"adult":false,"overview":"This is a Russian legend about an archer named Ivan and his inseparable companion, The Horse of Power. When Ivan brings a golden feather from the Firebird to the Tsar, he is ordered to present the entire bird, or lose his life. Then, he is commanded to retrieve the princess Vassalisa from the end of the earth, so that the Tsar might marry her. Inevitably, the archer himself falls in love with the princess. Ivan and the Horse of Power must ultimately find a way to thwart the Tsar. This tale captures the essence of old world Russsia.","release_date":"1991-09-14"},{"vote_count":0,"id":411760,"video":true,"vote_average":0,"title":"Fireman Sam - Sticky situation","popularity":1.000127,"poster_path":null,"original_language":"no","original_title":"Fireman Sam - Sticky situation","genre_ids":[],"backdrop_path":null,"adult":false,"overview":"","release_date":""},{"vote_count":0,"id":432491,"video":true,"vote_average":0,"title":"Fireman Sam - Action Stations!","popularity":1.000006,"poster_path":"\/9z2CXk94YecSFEgEGVvFIdfLcDm.jpg","original_language":"en","original_title":"Fireman Sam - Action Stations!","genre_ids":[],"backdrop_path":"\/pGbBl991URLz6ogz6qc1AUdyr9i.jpg","adult":false,"overview":"Twelve adventures with everybody's favourite fireman. Episodes are: 'Flat Tyre', 'Lost Cat', 'Camping', 'Treasure Hunt', 'Sam's Day Off', 'Thief in Pontypandy', 'Chemistry Set', 'Wishing Well', 'Sam - The Great Inventor', 'A Spot of Bother', 'Lost Ring' and 'Home from Rome'.","release_date":""},{"vote_count":0,"id":200769,"video":false,"vote_average":0,"title":"Forest of Bandi: Fireflies","popularity":1,"poster_path":null,"original_language":"en","original_title":"Forest of Bandi: Fireflies","genre_ids":[],"backdrop_path":null,"adult":false,"overview":"Documentary of a journey deep into the wilderness of South Korea to showcase the region's fireflies, insects so beloved that locals in the district of Muju hold a celebrated annual eco-festival devoted to the luminescent creatures.","release_date":""}]}