{"page":7,"total_results":1170,"total_pages":59,"results":[{"vote_count":0,"id":403799,"video":false,"vote_average":0,"title":"Fire Bulls","popularity":1.001247,"poster_path":"\/hNENLVJavJbKUP9iOjp4hDoaYdc.jpg","original_language":"en","original_title":"英雄烈女","genre_ids":[28,10752,18],"backdrop_path":null,"adult":false,"overview":"The Warring States Period was a time of regional conflict as warlords sought to annex their neighbors and consolidate power across China. Set amidst this backdrop, \"Fire Bulls\" is an epic tale of the survival of a people and the heroism of one man. As the Yen army gathers on the outskirts of Chi seeking to gobble up its neighbor, the people of Chi are faced with the fall of the capital.","release_date":"1966-10-21"},{"vote_count":0,"id":374769,"video":false,"vote_average":0,"title":"Fire Line","popularity":1.001177,"poster_path":"\/2QFDNfgtWNNXAcdjIpNKBvZknci.jpg","original_language":"en","original_title":"Kasen chitai","genre_ids":[],"backdrop_path":null,"adult":false,"overview":"Two young crooks who scam betters in the race track are employed by a yakuza gang called the Shigemori Syndicate to steal a shipment of handguns from a rival gang. Somewhere in the process they find themselves on the run from their own gang and one of them becomes himself romantically entangled with the boss's girlfriend. An ambitious underboss of the gang offers them a way out if they murder the previous boss but things don't turn out as planned (for everyone).","release_date":"1961-05-24"},{"vote_count":0,"id":493584,"video":false,"vote_average":0,"title":"Eternal Fire","popularity":1.000037,"poster_path":null,"original_language":"es","original_title":"Fuego eterno","genre_ids":[36],"backdrop_path":null,"adult":false,"overview":"The movie is based on a popular tale from the Basque Country and tells the story of a woman that becomes a widow the same day she gets married, and decides to keep living with the husband's dead body for 6 years.","release_date":"1985-05-13"},{"vote_count":0,"id":439323,"video":false,"vote_average":0,"title":"Black Fire","popularity":1.00003,"poster_path":"\/9KtNCdALhoJfturvotHb78MuyO8.jpg","original_language":"zh","original_title":"黑火","genre_ids":[18,80],"backdrop_path":null,"adult":false,"overview":"Mengyu wants to go straight after inheriting his father's crime empire but evil police Captain Zhang pressures him to continue the criminal activities.","release_date":"1993-01-01"},{"vote_count":0,"id":107610,"video":false,"vote_average":0,"title":"Impetuous Fire","popularity":1,"poster_path":"\/wGptwDarSkxkLMsvu8qEHebvKtS.jpg","original_language":"zh","original_title":"怒火","genre_ids":[],"backdrop_path":null,"adult":false,"overview":"The search for the essence of Kung Fu leads our dynamic duo Cherry Pai and Champion Cheng into an adventure of terror, intrigue and blood lust - horrific fighting with spirits of dead warriors! Electrifying brutality!","release_date":"1973-01-01"},{"vote_count":0,"id":479566,"video":false,"vote_average":0,"title":"Fire Whip","popularity":1,"poster_path":null,"original_language":"id","original_title":"Ilmu Cambuk Api","genre_ids":[],"backdrop_path":null,"adult":false,"overview":"Angga (Chairil JM) witnesses his adoptive father being tortured, but when he tries to rescue him, Angga is thrown into a river. Angga is given his inheritance, a box containing a necklace and a lash called the Fire Whip, which has the power to make his body as strong and hard as stone. With his new power and the help of some martial arts misfits, Angga seeks revenge against the murderous gang of robbers behind his father's death.","release_date":""},{"vote_count":0,"id":439250,"video":false,"vote_average":0,"title":"Operation \"Fire\"","popularity":1,"poster_path":"\/3viruH1xOsgQH3J9t037QhCBR4Z.jpg","original_language":"sq","original_title":"Operacioni Zjarri","genre_ids":[18],"backdrop_path":null,"adult":false,"overview":"Kreshnik Martini is a spy who has infiltrated the ranks of an enemy agency.","release_date":"1973-05-01"},{"vote_count":1,"id":45415,"video":false,"vote_average":6,"title":"Dry Wood, Fierce Fire","popularity":1.473935,"poster_path":"\/6GjF2IVXuptBP62C6wh1lFFHtfb.jpg","original_language":"cn","original_title":"乾柴烈火","genre_ids":[],"backdrop_path":null,"adult":false,"overview":"A Chinese doctor\/herbalist has the uncanny ability to discern a problem with just a superficial touch on the pulse and look at the tongue. This little romantic comedy about such a person could benefit from such an exam.","release_date":"2002-01-01"},{"vote_count":0,"id":316441,"video":false,"vote_average":0,"title":"Rock on Fire","popularity":1.4706,"poster_path":"\/w9gM1S9Z9QXICkFA4ohZG0Ipj8y.jpg","original_language":"cn","original_title":"機密檔案之致命誘惑","genre_ids":[],"backdrop_path":"\/iGxJjUMHrHf2GLcd0dsZuDjRDmo.jpg","adult":false,"overview":"Some dope cops trying to bust the \"Big Boss\", but faces stiff opposition in the form of his fiery minions.","release_date":"1994-08-18"},{"vote_count":0,"id":251917,"video":false,"vote_average":0,"title":"Fire & Ice","popularity":1.329519,"poster_path":"\/8ZPZUzCwuqpa6jhcBxWB7DoKuFN.jpg","original_language":"en","original_title":"Fire & Ice","genre_ids":[10770],"backdrop_path":null,"adult":false,"overview":"While many celebrities believe their fame gives them good luck with the opposite gender, one man with a successful television career discovers fame is spoiling his chances with the woman he loves in the made-for-TV romantic drama. Holly Aimes (Lark Voorhies) is the daughter of a prominent politician (Glynn Turman), and recently broke off her engagement with a well-known actor. Holly has spent most of her life in the spotlight, and wants nothing more than to be left alone without the glare of public scrutiny. When Holly meets talk show host Michael Williams (Kadeem Hardison), he's soon convinced that she's the woman with whom he wants to share his life, but can he convince her of his sincerity so she will brave another high-profile romance? Based on the popular romance novel by Carla Fredd, Fire and Ice also features Tempestt Bledsoe and Freda Payne. ~ Mark Deming, Rovi","release_date":"2001-01-22"},{"vote_count":0,"id":189178,"video":false,"vote_average":0,"title":"Blood and Fire","popularity":1.005229,"poster_path":"\/rtlPrnRQdLsTIp11ei73Q9dUwlk.jpg","original_language":"sv","original_title":"Blod och eld","genre_ids":[18],"backdrop_path":null,"adult":false,"overview":"Thomas is an officer in the Salvation Army. He has religious doubts and questions the meaning of his work.","release_date":"1945-06-10"},{"vote_count":0,"id":291889,"video":false,"vote_average":0,"title":"Love-Fire","popularity":1.002257,"poster_path":"\/jILjhleOhin3JNC6ixyDPGIijrh.jpg","original_language":"en","original_title":"Prem Aggan","genre_ids":[],"backdrop_path":null,"adult":false,"overview":"Jai Kumar is a wealthy industrialist, and lives in a palatial house with his wife: Sheena, son: Vishal, and daughter: Sapna. He has made arrangements for Sapna to get married to Vishal, who is the son of his partner in a business venture. But Sapna is in love with Suraj Singh, who plays in an orchestra, and is the son of an army captain, Veer Bahadur Singh. When Sapna introduces her dad to Suraj, he is rude to Suraj, and upset that Sapna has spoiled his plans for him. Jai does not speak out openly against Suraj when he is with Sapna, for fear of antagonizing her, but discusses this issue with Vishal, and together they concoct a scheme that will separate Sapna and Suraj forever.","release_date":"1998-10-30"},{"vote_count":0,"id":263086,"video":false,"vote_average":0,"title":"Friendly Fire","popularity":1.295658,"poster_path":"\/wKA9GEYrlKZ7jFJdnLGaDQcAisk.jpg","original_language":"en","original_title":"Friendly Fire","genre_ids":[18,10752,10770],"backdrop_path":null,"adult":false,"overview":"In March 1970, a U.S. Army officer arrived at the Iowa farm of Peg and Gene Mullen and informed them that their son Michael had been killed in Vietnam by \"friendly fire.\" Their determined attempts to learn more about the circumstances of their son's death are the subject of this true account film.","release_date":"1979-01-01"},{"vote_count":0,"id":408097,"video":false,"vote_average":0,"title":"A Letter of Fire","popularity":1.447251,"poster_path":"\/rA0RzzkRnK2UP8XRZlM8Rv99rca.jpg","original_language":"si","original_title":"Aksharaya","genre_ids":[18],"backdrop_path":"\/eY3DN9riLdOAAjBFbzFAk08y2EN.jpg","adult":false,"overview":"A schoolboy and his friend are caught at school looking at pornography on the computer. Punished, they wrongly believe that the police are going to arrest them so they hide in an abandoned building and as the boys feel cornered, and fearing for their lives, one of them accidentally kills a prostitute with a dagger thinking she was a mugger...","release_date":"2005-09-25"},{"vote_count":0,"id":417215,"video":false,"vote_average":0,"title":"Fire-Lighter","popularity":1.000043,"poster_path":null,"original_language":"ko","original_title":"불씨","genre_ids":[18],"backdrop_path":null,"adult":false,"overview":"A young female ex-convict tries to start a new life once she regains her freedom. With the help of her parole officer, she is able to open a successful outdoor cafe. However, she quickly learns that she has a larger debt to pay to society than she thought.","release_date":"1987-02-14"},{"vote_count":0,"id":222351,"video":false,"vote_average":0,"title":"Field of Fire","popularity":1.965663,"poster_path":"\/A8Z0ir4YlkP8KbAv5aKJavqxLWA.jpg","original_language":"en","original_title":"Field of Fire","genre_ids":[],"backdrop_path":null,"adult":false,"overview":"Sergeant Thomas Duncan takes his men behind enemy lines to recover a secret government fighter copter and its pilot, a secret weapon all his own. But once stationed in the dense jungle brush of Vietnam, their radio goes out all hope of contacting their home base is out, and it is up to Duncan and his men to get to the hook up point by the agreed time. A traitor in the home camp is sending messages to the enemy side; Duncan must hurry!","release_date":"1991-01-01"},{"vote_count":4,"id":57846,"video":false,"vote_average":6.8,"title":"Night Fire","popularity":1.290612,"poster_path":"\/xpCLDHL8UeIytgSGhgLKzThZRQs.jpg","original_language":"en","original_title":"Night Fire","genre_ids":[10749,53],"backdrop_path":"\/ApUC4J2XCWU6rVLN7Eml6W2h8jf.jpg","adult":false,"overview":"A wife with burning desire. A husband with dangerous motives. The quest for ecstasy can turn into a struggle for survival.","release_date":"1994-01-01"},{"vote_count":4,"id":65330,"video":false,"vote_average":7.6,"title":"The Prodigy: World's On Fire","popularity":1.877471,"poster_path":"\/1U39HCcXLeDLoidjuf04yKrHzbx.jpg","original_language":"en","original_title":"The Prodigy: World's On Fire","genre_ids":[10402],"backdrop_path":"\/eCmEPhARRgcxqVxWxyXi3vV4qdM.jpg","adult":false,"overview":"Recorded before 65,000 fans, World’s On Fire is the debut live film documenting The Prodigy’s Warrior's Dance festival from The National Bowl at Milton Keynes on July 24th, 2010.","release_date":"2011-03-11"},{"vote_count":3,"id":19634,"video":false,"vote_average":6.7,"title":"Father of Four","popularity":1.924154,"poster_path":"\/jx7s9x4cob81CaXmFVnU311189n.jpg","original_language":"da","original_title":"Far til fire","genre_ids":[10751,35],"backdrop_path":"\/b18a9vii8Mcww4B3uMF7yfknBzX.jpg","adult":false,"overview":"Everyday portrayal of a single father with four children","release_date":"1953-11-02"},{"vote_count":1,"id":253509,"video":false,"vote_average":7,"title":"De tre måske fire","popularity":1.913516,"poster_path":"\/kL1yppbsrdxBCIczp6EbRdYNRCx.jpg","original_language":"da","original_title":"De tre måske fire","genre_ids":[35],"backdrop_path":"\/5LFK4c5wGKOB8NTfJzqxqHYJsOp.jpg","adult":false,"overview":"","release_date":"1939-02-27"}]}