{"page":28,"total_results":567,"total_pages":29,"results":[{"vote_count":5,"id":80677,"video":false,"vote_average":6.6,"title":"The Law","popularity":2.010712,"poster_path":"\/7dkujJW7ESth5BNwDQ7wg0s4gvR.jpg","original_language":"fr","original_title":"La Legge","genre_ids":[18],"backdrop_path":"\/6Wp1yNNDnWYDZD4JQsGK0ZmkKjp.jpg","adult":false,"overview":"A cook turns to theft so she and her lover can marry.","release_date":"1959-01-25"},{"vote_count":2,"id":338952,"video":false,"vote_average":0,"title":"Fantastic Beasts: The Crimes of Grindelwald","popularity":6.946765,"poster_path":"\/tTOonZ4RoSAaTMoOzVg1F4h5EJw.jpg","original_language":"en","original_title":"Fantastic Beasts: The Crimes of Grindelwald","genre_ids":[18,10751,14],"backdrop_path":"\/wDN3FIcQQ1HI7mz1OOKYHSQtaiE.jpg","adult":false,"overview":"Gellert Grindelwald has escaped imprisonment and has begun gathering followers to his cause—elevating wizards above all non-magical beings. The only one capable of putting a stop to him is the wizard he once called his closest friend, Albus Dumbledore. However, Dumbledore will need to seek help from the wizard who had thwarted Grindelwald once before, his former student Newt Scamander.","release_date":"2018-11-08"},{"vote_count":1,"id":446126,"video":false,"vote_average":6,"title":"Gdzie jestes, Luizo?","popularity":1.0368,"poster_path":"\/kpFx4i4GYE8OGzwvtYeJkixqdTo.jpg","original_language":"es","original_title":"Gdzie jestes, Luizo?","genre_ids":[878],"backdrop_path":"\/vv3QU7NRUB3Jxdi7VyDDBETUNAM.jpg","adult":false,"overview":"","release_date":"1964-06-06"},{"vote_count":3,"id":338694,"video":false,"vote_average":5.5,"title":"Chandrettan Evideya","popularity":1.26284,"poster_path":"\/nJKAGEHLETz2tHimwnkWNbJI9Fr.jpg","original_language":"ml","original_title":"ചന്ദ്രേട്ടൻ എവിടെയാ","genre_ids":[35,18,10751],"backdrop_path":"\/c86foZhXyShMqhPIw7m9jT8GskX.jpg","adult":false,"overview":"The story of \"Chandrettan Evideya\" revolves around Chandramohan (Dileep), who is a government servant and also an ardent classical dance follower and his wife Sushama(Anusree) is also a government employee. But the doubting wife keeps track of each and every thing her husband does. Chandramohan is well known among art followers as a good critic of classical dance. His reviews are often published in leading magazines. Considering his close association with beautiful dancers, his wife Sushama keeps close tabs on him by making phone calls every now and then. One fine day, they decide to go for a trip to Thanjavur where they meet an astrologer who tells them certain aspects of Chandramohan's previous life, which forms the crux of the story.","release_date":"2015-05-01"},{"vote_count":3,"id":79615,"video":false,"vote_average":5.3,"title":"Square Dance","popularity":1.703743,"poster_path":"\/l8QYOoo3v5RGrNXsKSPnf0iI92N.jpg","original_language":"sv","original_title":"Square Dance","genre_ids":[18,10749],"backdrop_path":"\/rtqI7kvIRBQZiguTFb2NpunHAqC.jpg","adult":false,"overview":"An awkward 13-year-old (Winona Ryder) leaves her cranky grandfather (Jason Robards) in rural Texas, to live with her mother (Jane Alexander) in Fort Worth.","release_date":"1987-03-01"},{"vote_count":0,"id":505809,"video":false,"vote_average":0,"title":"¿Dónde está mi gente?","popularity":1.000001,"poster_path":"\/a1gb0oBh6Uv9BGv8hIDDAr4asou.jpg","original_language":"es","original_title":"¿Dónde está mi gente?","genre_ids":[],"backdrop_path":null,"adult":false,"overview":"","release_date":"1987-02-17"},{"vote_count":4,"id":25758,"video":false,"vote_average":3.5,"title":"Christmas Is Here Again","popularity":3.028168,"poster_path":"\/kZ8fgU32o7IxHRKYnvzOWqNizbC.jpg","original_language":"en","original_title":"Christmas Is Here Again","genre_ids":[16,35,10751],"backdrop_path":"\/516lSmlSa7Hmg22jJUCJwD0pLbN.jpg","adult":false,"overview":"When the evil Krad steals Santa's toy bag, he crushes the holiday spirit- and over time, the world's children forget all about Christmas. Now, a wide-eyed orphan and her band of friends will embark on the polar adventure of a lifetime, as they try to stop Krad from destroying Christmas once and for all!","release_date":"2007-10-20"},{"vote_count":1,"id":251854,"video":false,"vote_average":9.5,"title":"Dr. Seuss: Pontoffel Pock & His Magic Piano","popularity":1.035737,"poster_path":"\/bNVV3dL1R8bvfS2jrkbPFrxnauA.jpg","original_language":"en","original_title":"Dr. Seuss: Pontoffel Pock & His Magic Piano","genre_ids":[],"backdrop_path":"\/nWkFRymVRqA9GgtqcEkICnGZnye.jpg","adult":false,"overview":"From the mind of the legendary Dr. Seuss comes this animated musical originally broadcast on ABC in 1980. After a bout of bad luck, Pontoffel Pock wishes he could escape his life. A fairy grants his wish, bestowing a magical piano on him that takes him on a fantastical adventure","release_date":"1984-06-11"},{"vote_count":0,"id":182457,"video":false,"vote_average":0,"title":"Robbie Williams: Live at Slane Castle","popularity":1.001746,"poster_path":"\/jAZnqMAcNxCSxxlLFs2dGPncOwU.jpg","original_language":"en","original_title":"Robbie Williams: Live at Slane Castle","genre_ids":[],"backdrop_path":null,"adult":false,"overview":"The legendary Robbie Williams performs at Slane Castle","release_date":"2000-11-13"},{"vote_count":0,"id":260853,"video":false,"vote_average":0,"title":"Dove volano i corvi d'argento","popularity":1.014634,"poster_path":"\/xPkLfqdgenGUPxDTYOlk2RTkHkb.jpg","original_language":"en","original_title":"Dove volano i corvi d'argento","genre_ids":[18,80],"backdrop_path":null,"adult":false,"overview":"Former shepherds return to Sardinia from Milan in order to avenge a brother wantonly killed by bandits. In describing the grinding contrasts between places and personages of old and new Sardinia, director Piero Livi does not falter, photographing faithfully a desolated land, stuck in the past but alienated from traditional beliefs.","release_date":"1977-01-01"},{"vote_count":0,"id":189395,"video":false,"vote_average":0,"title":"Hvor lyset kommer ind","popularity":1.010793,"poster_path":"\/dMw1MOwctaDgeZqcbKZOnoqsqyi.jpg","original_language":"da","original_title":"Hvor lyset kommer ind","genre_ids":[],"backdrop_path":null,"adult":false,"overview":"","release_date":"2013-04-09"},{"vote_count":5,"id":379300,"video":false,"vote_average":7.2,"title":"Erased","popularity":2.657639,"poster_path":"\/g2RedORwCtkQwmSJrVsUN93GM2g.jpg","original_language":"ja","original_title":"僕だけがいない街","genre_ids":[53,14],"backdrop_path":"\/rDP3bdj9Vt2h1qGMaE28XZvDP4i.jpg","adult":false,"overview":"Struggling manga author Satoru Fujinuma is beset by his fear to express himself. However, he has a supernatural ability of being forced to prevent deaths and catastrophes by being sent back in time before the incident occurred, repeating time until the accident is prevented. One day, he gets involved in an accident that has him framed as a murderer. Desperate to save the victim, he sends himself back in time only to find himself as a grade-schooler one month before fellow classmate Kayo Hinazuki went missing. Satoru now embarks on a new quest: to save Kayo and solve the mystery behind her disappearance.","release_date":"2016-08-18"},{"vote_count":0,"id":211192,"video":false,"vote_average":0,"title":"Marching On!","popularity":1.001922,"poster_path":"\/rScSfSFmOsgOVh3M7avjYCJpidZ.jpg","original_language":"en","original_title":"Marching On!","genre_ids":[10752],"backdrop_path":null,"adult":false,"overview":"During World War II, a young African American is forced to continue his family’s tradition of military service when he is drafted into the United States Army. Despite complications that arise during his basic training, including his jealousy following his girlfriend's flirtatious attention to his sergeant, the young soldier becomes a hero when he locates Japanese saboteurs operating a radio station outside of his military base.","release_date":"1943-01-01"},{"vote_count":1,"id":437216,"video":false,"vote_average":7,"title":"Cherry Returns","popularity":1.163041,"poster_path":"\/o39osq023bSfkHhTX4DIFg1Wn4c.jpg","original_language":"zh","original_title":"那年夏天你去了哪裡","genre_ids":[10751,18,9648,53],"backdrop_path":null,"adult":false,"overview":"The story revolves around Ah Ying, a young girl who was kidnapped and declared missing for over a decade. She suddenly returns to her family after 12 years, and older sister Ning Jing soon discovers that something is wrong with Ah Ying. It turns out Ah Ying has been carrying out crimes on the orders of her abductor, and Ning Jing employs the help of friendly police officer to unravel her younger sister’s conspiracy.","release_date":"2016-12-30"},{"vote_count":3,"id":366313,"video":false,"vote_average":7.8,"title":"Wong Ka Yan","popularity":1.427076,"poster_path":"\/w0TWAyAJXJNVVl4Mf5yNZWzmPnU.jpg","original_language":"cn","original_title":"王家欣","genre_ids":[10749,18],"backdrop_path":"\/NDRQ5JWgy3w89QjUPXOXEjfekZ.jpg","adult":false,"overview":"In 1992, on a small island in Hong Kong, a boy fell for Yan crazily searched for her by dozens of unbelievable means. Although every 'Yan' he met turned out to be someone else, they did bring life-changing influences to each other. 22 years later, when the story is finally unveiled, middle-aged Yan is deeply moved.","release_date":"2015-10-22"},{"vote_count":0,"id":461317,"video":false,"vote_average":0,"title":"Mami, ¡ya sé dónde está el dinero!","popularity":1.000007,"poster_path":"\/83ZDd4gOszlzKD5qtHExVJ8Dpr1.jpg","original_language":"en","original_title":"Mami, ¡ya sé dónde está el dinero!","genre_ids":[99],"backdrop_path":null,"adult":false,"overview":"Whenever a mother asks, there is an obligation to look for an answer, whatever it takes…  Spurred by the economic crisis, with no job, with no projects in sight and unable to afford the due payments on my mortgage, I leave my house in the city and go back to the village where I was born, to my octogenarian parents’ home. My mother does not understand what is happening and is looking for answers that I must find, even if I need to tramp half of the world.","release_date":""},{"vote_count":3,"id":60157,"video":false,"vote_average":5.3,"title":"Bee Gees - Live By Request","popularity":1.295518,"poster_path":"\/2XmxqVTNvi7jWi4zh02oAIDIu0R.jpg","original_language":"en","original_title":"Bee Gees - Live By Request","genre_ids":[10402],"backdrop_path":"\/h0OSuQWOMtyT0P6jfjQrolkWMtq.jpg","adult":false,"overview":"Celebrating 35 years of hitmaking, the Bee Gees take the stage in New York City with host Mark McEwen taking the requests as Barry, Maurice and Robin play your favorite songs from the last four decades. From A&amp;E's popular \"Live By Request\" music series, the brothers Gibb perform five new classics and over a dozen all-time favorites in this unique, intimate concert captured in glorious surround sound. Songs: This Is Where I Came In, She Keeps on Coming, Sacred Trust, Man in the Middle, Massachusetts, To Love Somebody, I Started a Joke, Jive Talkin', How Can You Mend a Broken Heart, Gotta Get a Message To You, Acoustic Medley: New York Mining Disaster\/Run to Me\/Too Much Heaven\/Islands in the Stream\/Holiday\/A Woman in Love\/Guilty\/Nights on Broadway, Wedding Day, Lonely Days, How Deep Is Your Love, You Should Be Dancin'.","release_date":"2001-04-27"},{"vote_count":1,"id":447675,"video":false,"vote_average":6,"title":"Ubasuteyama","popularity":1.038669,"poster_path":"\/t6I5IyvuffYpXvThELjyaPJqVvC.jpg","original_language":"ja","original_title":"Ubasuteyama","genre_ids":[18,10751,36],"backdrop_path":"\/mnXccr2dyF9uQ9LitNl7K68Pm6N.jpg","adult":false,"overview":"Based on a Japanese legend, this animated short tells the story of a farmer who attempts to hide his mother from the wrath of a Lord who forces all people 60 and older from his village.","release_date":"1925-01-01"},{"vote_count":0,"id":345696,"video":false,"vote_average":0,"title":"Dangerous Seduction","popularity":1.191934,"poster_path":"\/xEdpor32Aifgoc4cFtjKbYIWl4Y.jpg","original_language":"en","original_title":"Dangerous Seduction","genre_ids":[18,10749],"backdrop_path":"\/byBCFKWRaoMIn7FwzrvVw3N4wCr.jpg","adult":false,"overview":"A man approaches a woman who is about to go out of her mind from loneliness. \"Do you love me...?\"","release_date":"2014-09-17"},{"vote_count":1,"id":129700,"video":false,"vote_average":5,"title":"All Under the Moon","popularity":1.06119,"poster_path":"\/lV2vZ6vu6ft52TEnhsBKkXyXk5X.jpg","original_language":"ja","original_title":"月はどっちに出ている","genre_ids":[18,35],"backdrop_path":null,"adult":false,"overview":"A Korean taxi-driver interacts both humorously and tragically with his customers and employers in '90s Tokyo.","release_date":"1993-11-06"}]}