{"page":3,"total_results":51,"total_pages":3,"results":[{"vote_count":8,"id":113252,"video":false,"vote_average":6.1,"title":"The Gallopin' Gaucho","popularity":1.909095,"poster_path":"\/vlsd2dfT63yRDu4wt9qCKHuS6DH.jpg","original_language":"en","original_title":"The Gallopin' Gaucho","genre_ids":[37,35,16,10751],"backdrop_path":"\/hDhEmDkjtjjMsIU8ibosbmbcmio.jpg","adult":false,"overview":"Mickey rides up to a cantina and does a tango with Minnie. When a big cat steals her away, Mickey gives chase, riding a drunken ostrich. At the hideout, Mickey has a swordfight with the cat.","release_date":"1928-08-01"},{"vote_count":7,"id":43810,"video":false,"vote_average":5.8,"title":"Down Argentine Way","popularity":1.441554,"poster_path":"\/vTnGr6W788W1mVZwInaq5W9GOVO.jpg","original_language":"en","original_title":"Down Argentine Way","genre_ids":[35,18,10402,10749],"backdrop_path":"\/m7JwGtr42p649QnS7NvYBGpooJf.jpg","adult":false,"overview":"An American girl on vacation in Argentina falls for a wealthy racehorse owner.","release_date":"1940-10-11"},{"vote_count":59,"id":11939,"video":false,"vote_average":7.5,"title":"A Day at the Races","popularity":6.134461,"poster_path":"\/qNtOKRDnGuKpgWmtlamdRa1D1Tg.jpg","original_language":"en","original_title":"A Day at the Races","genre_ids":[35],"backdrop_path":"\/28dtEnAeWee590n3gFP1jUaW9xG.jpg","adult":false,"overview":"Doctor Hugo Hackenbush, Tony, and Stuffy try and save Judy's farm by winning a big race with her horse. There are a few problems. Hackenbush runs a high priced clinic for the wealthy who don't know he has his degree in Veterinary Medicine.","release_date":"1937-06-11"},{"vote_count":6,"id":53581,"video":false,"vote_average":5.5,"title":"Money From Home","popularity":2.189275,"poster_path":"\/pokwiDJO8U2DjfNcDaQIA4QeRTG.jpg","original_language":"en","original_title":"Money From Home","genre_ids":[35,10402],"backdrop_path":"\/34rMDb4ZshDjeNdtvaBt3APHyn6.jpg","adult":false,"overview":"Herman owes a lot of gambling debts. To pay them off, he promises the mob he'll fix a horse, so that it does not run. He intends to trick his animal-loving cousin, Virgil, an apprentice veterinarian, into helping him. Of course, he doesn't tell Virgil what he is really up to. Mistaken identities are assumed, while along the way, Virgil meets a female vet and Herman falls for the owner of the horse. Goons and mobsters are also lurking around; so beware!","release_date":"1953-12-31"},{"vote_count":2230,"id":762,"video":false,"vote_average":7.8,"title":"Monty Python and the Holy Grail","popularity":19.672721,"poster_path":"\/jRx1nDUA4sb2NEKQaukXKBz6pCf.jpg","original_language":"en","original_title":"Monty Python and the Holy Grail","genre_ids":[12,35,14],"backdrop_path":"\/6fqmcCVci3cSBCgJw8NGXE4ST8G.jpg","adult":false,"overview":"King Arthur, accompanied by his squire, recruits his Knights of the Round Table, including Sir Bedevere the Wise, Sir Lancelot the Brave, Sir Robin the Not-Quite-So-Brave-As-Sir-Lancelot and Sir Galahad the Pure. On the way, Arthur battles the Black Knight who, despite having had all his limbs chopped off, insists he can still fight. They reach Camelot, but Arthur decides not  to enter, as \"it is a silly place\".","release_date":"1975-03-13"},{"vote_count":2350,"id":3049,"video":false,"vote_average":6.5,"title":"Ace Ventura: Pet Detective","popularity":12.087416,"poster_path":"\/nZirljb8XYbKTWsRQTplDGhx39Q.jpg","original_language":"en","original_title":"Ace Ventura: Pet Detective","genre_ids":[35,9648],"backdrop_path":"\/fAX6bvEKcWQmZMlB5NZzSoJkRuG.jpg","adult":false,"overview":"He's Ace Ventura: Pet Detective. Jim Carrey is on the case to find the Miami Dolphins' missing mascot and quarterback Dan Marino. He goes eyeball to eyeball with a man-eating shark, stakes out the Miami Dolphins and woos and wows the ladies. Whether he's undercover, under fire or underwater, he always gets his man . . . or beast!","release_date":"1994-02-04"},{"vote_count":1580,"id":9273,"video":false,"vote_average":6.2,"title":"Ace Ventura: When Nature Calls","popularity":9.649861,"poster_path":"\/wRlGnJhEzcxBjvWtvbjhDSU1cIY.jpg","original_language":"en","original_title":"Ace Ventura: When Nature Calls","genre_ids":[80,35,12],"backdrop_path":"\/qFYwztFX1gx9PZLnTEokQw5q04G.jpg","adult":false,"overview":"Summoned from an ashram in Tibet, Ace finds himself on a perilous journey into the jungles of Africa to find Shikaka, the missing sacred animal of the friendly Wachati tribe. He must accomplish this before the wedding of the Wachati's Princess to the prince of the warrior Wachootoos. If Ace fails, the result will be a vicious tribal war.","release_date":"1995-11-10"},{"vote_count":0,"id":366922,"video":false,"vote_average":0,"title":"Champagnegaloppen","popularity":1.001947,"poster_path":"\/iBE0VcBKAtTZhfAfzAOKdV0ensM.jpg","original_language":"da","original_title":"Champagnegaloppen","genre_ids":[],"backdrop_path":null,"adult":false,"overview":"","release_date":"1960-04-28"},{"vote_count":0,"id":523840,"video":false,"vote_average":0,"title":"Sex en gros","popularity":1,"poster_path":null,"original_language":"da","original_title":"Sex en gros","genre_ids":[99],"backdrop_path":null,"adult":false,"overview":"\"Sex Galore!\" - The aftermath of the summer of pornography 1970 in Copenhagen, Denmark. Live-show-clubs close down. Young Christians protest against the lack of morals.","release_date":"1971-06-03"},{"vote_count":5,"id":137119,"video":false,"vote_average":5.8,"title":"A Straightforward Boy","popularity":1.709892,"poster_path":"\/cHwFGyBuWN8IsoOaAZcodhYXFw.jpg","original_language":"ja","original_title":"突貫小僧","genre_ids":[35,80],"backdrop_path":null,"adult":false,"overview":"A kidnapped boy proves to be more than his abductor can handle.","release_date":"1929-11-24"},{"vote_count":715,"id":24253,"video":false,"vote_average":7,"title":"The Girl Who Played with Fire","popularity":9.105974,"poster_path":"\/qHRpU2d9NWB0WDulwgFwg6a9JRK.jpg","original_language":"sv","original_title":"Flickan som lekte med elden","genre_ids":[18,28,53,80,9648],"backdrop_path":"\/qMDiCjxfv6Y8JN2DFViTX5D1ORH.jpg","adult":false,"overview":"Mikael Blomkvist, publisher of Millennium magazine, has made his living exposing the crooked and corrupt practices of establishment Swedish figures. So when a young journalist approaches him with a meticulously researched thesis about sex trafficking in Sweden and those in high office who abuse underage girls, Blomkvist immediately throws himself into the investigation.","release_date":"2009-09-18"}]}