{"page":47,"total_results":1170,"total_pages":59,"results":[{"vote_count":0,"id":190828,"video":false,"vote_average":0,"title":"Fireman, Save My Gal!","popularity":1.002446,"poster_path":null,"original_language":"en","original_title":"Fireman, Save My Gal!","genre_ids":[],"backdrop_path":null,"adult":false,"overview":"After George bests a rival suitor for the fire chief's daughter, the rival tries revenge by attempting to burning down their house. Meanwhile, the fire department has been taken over by a gang of bathing beauty chorines.","release_date":"1919-12-28"},{"vote_count":0,"id":228786,"video":false,"vote_average":0,"title":"He Gets Fired","popularity":1.002405,"poster_path":"\/gRkUe2YpfAFLBOs6QdmGn0AJUPn.jpg","original_language":"en","original_title":"He Gets Fired","genre_ids":[],"backdrop_path":null,"adult":false,"overview":"C\/U of the artists hand as he draws Jerry's lower half. Jerry keeps walking around so the artist doesn't have a chance to finish the drawing. Jerry jumps around. The artist writes the words: \"Come here!!\" Jerry stamps his foot and says NO. The two have an argument. The artist gets a drawing pin and pins Jerry's foot in place. The artist draws the rest of him. He is punching the air and looking very cross. Shot of Jerry on a piece of paper balanced on the artists drawing board. Jerry looks scared and shakes his head.","release_date":"1926-10-18"},{"vote_count":0,"id":311253,"video":false,"vote_average":0,"title":"Song of the Firefly","popularity":1.002379,"poster_path":"\/5Wkv9ahjgLh1AcqdMUM3PtjvFZ7.jpg","original_language":"en","original_title":"Song of the Firefly","genre_ids":[],"backdrop_path":null,"adult":false,"overview":"“Song of the Firefly” is a visual poem which utilizes the camera-less photogram technique that was introduced in Pruska-Oldenhof's 2001 film “Light Magic.” “Song of the Firefly” transports the viewer to an open field on a warm summer night, where the luminous dance of the fireflies can be experienced. The exhuberant display of light, as each flash illuminates different portions of the field, reveals fragments of the space in which we are contained, leaving us always waiting in anticipation to see more.","release_date":"2002-07-15"},{"vote_count":0,"id":375031,"video":false,"vote_average":0,"title":"Harvey Middleman, Fireman","popularity":1.002372,"poster_path":"\/AaGaKNom85zzAUuAk1VXV4BEHZu.jpg","original_language":"en","original_title":"Harvey Middleman, Fireman","genre_ids":[35,18],"backdrop_path":null,"adult":false,"overview":"Harvey Middleman (Eugene Troobnick), a New York fireman, lives a very ordinary life with his wife (Arlene Golonka) and children. After he rescues a beautiful girl (Patricia Harty) from a fire, he fancies himself to be in love with her, leaving his wife and seeking help, in the process, from a nutty Psychiatrist (Hermione Gingold).","release_date":"1965-07-12"},{"vote_count":0,"id":271507,"video":false,"vote_average":0,"title":"Firemen of the Bronx","popularity":1.002353,"poster_path":null,"original_language":"en","original_title":"Firemen of the Bronx","genre_ids":[],"backdrop_path":null,"adult":false,"overview":"The firemen of the Bronx are the most active in the world. The 65 fire stations situated in the Bronx receive fire calls about 160,000 times a year, that is to say 200 times a day. Some are false alarms, but many are very dangerous situations.The fires are caused by different reasons, but most of the fires are cases of arson. A special fire brigade including sheriffs has been created to combat this. We follow police inspector Haynes who investigates the motives for the fires which caused the death of 9 firemen who died this year in arson blazes. This film spends 14 harrowing days with the firemen of the Bronx as they fight fires and perform a last-minute rescue of a baby who fainted in the smoke.","release_date":"2005-01-01"},{"vote_count":0,"id":417786,"video":false,"vote_average":0,"title":"Firemen to the Rescue","popularity":1.002342,"poster_path":null,"original_language":"en","original_title":"Firemen to the Rescue","genre_ids":[],"backdrop_path":null,"adult":false,"overview":"Six scenes: A child knocks clothes into fire; alarm at station; engines emerge; engines rush down street; arrival; fireman breaks through wall and saves child.","release_date":"1903-11-24"},{"vote_count":0,"id":351132,"video":false,"vote_average":0,"title":"Fireman, Save My Child","popularity":1.002318,"poster_path":null,"original_language":"en","original_title":"Fireman, Save My Child","genre_ids":[],"backdrop_path":null,"adult":false,"overview":"A Terrytoons cartoon released 22 February 1935.","release_date":"1935-02-22"},{"vote_count":0,"id":234768,"video":false,"vote_average":0,"title":"The Fabulous Firework Family","popularity":1.002309,"poster_path":null,"original_language":"en","original_title":"The Fabulous Firework Family","genre_ids":[],"backdrop_path":null,"adult":false,"overview":"A young Mexican boy, son of the greatest fireworks maker in all of Mexico, saves the day when his father's fireworks fail to go off as planned at the big festival.","release_date":"1959-08-09"},{"vote_count":0,"id":83129,"video":false,"vote_average":0,"title":"Fireman, Save My Child","popularity":1.001438,"poster_path":"\/uazTS3CrQCFQ5n2ZwnszjwhyFLk.jpg","original_language":"en","original_title":"Fireman, Save My Child","genre_ids":[35],"backdrop_path":"\/cqPygQ2ofpn7S4oZxI0QX46Wu6P.jpg","adult":false,"overview":"Joe Grant is an inventor, fireman and baseball player in his small home town. He gets an offer to play in a big team, he hopes to get more money for his inventions. But he is invited to present his invention to a fire-extinguisher company at the same time when he is supposed to play. Will he be able to show the effectiveness of his invention and win the game?","release_date":"1932-02-20"},{"vote_count":0,"id":474567,"video":false,"vote_average":0,"title":"Fireman Sam: In Action","popularity":1.001414,"poster_path":"\/2IiiCQbFJMJNyFojFfQ8FXFJcAf.jpg","original_language":"en","original_title":"Fireman Sam: In Action","genre_ids":[10751],"backdrop_path":"\/dkv18EEpDFOwz3340roO9sjE7gW.jpg","adult":false,"overview":"Fireman Sam In Action is a 1996 live-action stage play and a 62-minute film featuring three stories, Fire Station Flood Alert, Dilys’ Attic Fire and Pontypandy Fireworks Party. It was especially filmed for video, based on the Welsh stop-motion TV series, Fireman Sam.","release_date":"1996-03-31"},{"vote_count":0,"id":478106,"video":false,"vote_average":0,"title":"Fires of Fate","popularity":1.001223,"poster_path":null,"original_language":"en","original_title":"Fires of Fate","genre_ids":[12],"backdrop_path":null,"adult":false,"overview":"A British adventure film directed by Norman Walker","release_date":"1932-09-06"},{"vote_count":0,"id":329947,"video":false,"vote_average":0,"title":"The Rookie Fireman","popularity":1.001177,"poster_path":null,"original_language":"en","original_title":"The Rookie Fireman","genre_ids":[35],"backdrop_path":null,"adult":false,"overview":"Another of the \"Variety Views\" continuing adventures with Shorty the Chimp getting loose and running amok. Tired of waiting at the fire house for a blaze, Shorty sets one in the building himself. At another fire, Shorty makes a jungle-style rescue by climbing hand-over-hand on wires leading into a building.","release_date":"1936-05-31"},{"vote_count":0,"id":174716,"video":false,"vote_average":0,"title":"The Fires of Youth","popularity":1.001177,"poster_path":null,"original_language":"en","original_title":"The Fires of Youth","genre_ids":[],"backdrop_path":null,"adult":false,"overview":"The Thanhouser Co. has reissued a number of its surviving films on video. FIRES OF YOUTH existed at around 52 minutes in its original release. A shortened version running just over 31 minutes has survived at the George Eastman House and has now been released by Thanhouser. Jeanne Eagels does well as the neglected young daughter in a factory town. She appears in 22 scenes and delivers a sensitive performance.","release_date":"1917-06-16"},{"vote_count":0,"id":492057,"video":false,"vote_average":0,"title":"TV as a Fireplace","popularity":1.001177,"poster_path":null,"original_language":"en","original_title":"TV as a Fireplace","genre_ids":[],"backdrop_path":null,"adult":false,"overview":"A conceptual art film composed of several, long single-take color reels of a simple wood fire. Broadcast on German television in the late-'60s, it represents perhaps the first example of the now commercialized 'TV fireplace.'","release_date":"1969-12-24"},{"vote_count":0,"id":480188,"video":false,"vote_average":0,"title":"Sparky the Firefly","popularity":1.001177,"poster_path":null,"original_language":"en","original_title":"Sparky the Firefly","genre_ids":[],"backdrop_path":null,"adult":false,"overview":"A Terrytoon that runs a couple of minutes longer than the average finds Sparky, a firefly, who loses is light and is ostracized by his own kind. His friend, the bookworm, advises him to replace his light with a flashlight bulb. His light is even more powerful than ever but his fellow fireflies now consider him a freak. But ol' Sparky saves the day when he acts as the guiding light at an airport.","release_date":"1953-06-12"},{"vote_count":0,"id":514047,"video":false,"vote_average":0,"title":"Fireman Save My Child","popularity":1.000102,"poster_path":null,"original_language":"en","original_title":"Fireman Save My Child","genre_ids":[],"backdrop_path":null,"adult":false,"overview":"A film intended for Bud Abbott and Lou Costello that ended up starring Hugh O'Brian and Buddy Hackett.","release_date":""},{"vote_count":0,"id":466305,"video":true,"vote_average":0,"title":"Fireman Sam: Mountain Rescue","popularity":1.000015,"poster_path":"\/ztgbDlrL9eMO391RCNIqXKPpKmh.jpg","original_language":"en","original_title":"Fireman Sam: Mountain Rescue","genre_ids":[],"backdrop_path":null,"adult":false,"overview":"With even more action, excitement and rescues, Fireman Sam is busier than ever! In these all-new episodes, Sam pulls off a daring rescue to stop a runaway train, Elvis and Mike have a cliff hanging accident involving a giant guitar and Sam and Penny race to the rescue when Norman accidentally drives Jupiter through Pontypandy!","release_date":""},{"vote_count":0,"id":407592,"video":false,"vote_average":0,"title":"The Firebird Conspiracy","popularity":1.000003,"poster_path":"\/fk7eJXzFreQLP4227yYjuOEr0LB.jpg","original_language":"en","original_title":"The Firebird Conspiracy","genre_ids":[28],"backdrop_path":null,"adult":false,"overview":"The story of a father and daughter's desperate struggle to survive the ravages of the Vietnam war.","release_date":"1984-01-01"},{"vote_count":0,"id":466444,"video":true,"vote_average":0,"title":"Fireman Sam: Santa overboard","popularity":1.000001,"poster_path":"\/d0Dy5CwYInMXPX7GUI8dYXYhltO.jpg","original_language":"en","original_title":"Fireman Sam: Santa overboard","genre_ids":[],"backdrop_path":null,"adult":false,"overview":"","release_date":""},{"vote_count":0,"id":411767,"video":true,"vote_average":0,"title":"Best of fireman Sam","popularity":1,"poster_path":null,"original_language":"no","original_title":"Best of fireman Sam","genre_ids":[],"backdrop_path":null,"adult":false,"overview":"","release_date":""}]}