{"page":15,"total_results":567,"total_pages":29,"results":[{"vote_count":25,"id":12179,"video":false,"vote_average":6.2,"title":"Where in the World Is Osama Bin Laden?","popularity":2.185048,"poster_path":"\/tUtc3rL7NbsqfhzDnAdRpUawMS8.jpg","original_language":"en","original_title":"Where in the World Is Osama Bin Laden?","genre_ids":[99],"backdrop_path":"\/oweMrpifKRPe3rpoGRR7Wmqp2qe.jpg","adult":false,"overview":"Morgan Spurlock (Super Size Me) tours the Middle East to discuss the war on terror with Arabic people.","release_date":"2008-01-21"},{"vote_count":1,"id":49762,"video":false,"vote_average":5.5,"title":"Where the Rivers Flow North","popularity":1.159496,"poster_path":"\/4D3HKRsuRMet80ZFHaaAaut1YAv.jpg","original_language":"en","original_title":"Where the Rivers Flow North","genre_ids":[18],"backdrop_path":"\/hvXSK3o7fmw9vmOfGNlW75qAAxQ.jpg","adult":false,"overview":"Sleeper with a top notch cast in the story of a lone wolf logger who fights developers, bankers and the modern world to maintain his way of life.","release_date":"1993-06-14"},{"vote_count":6,"id":42687,"video":false,"vote_average":6.3,"title":"Where Were You When the Lights Went Out?","popularity":2.177406,"poster_path":"\/sywXdDOCuTYHHieXERneGw6NMWn.jpg","original_language":"en","original_title":"Where Were You When the Lights Went Out?","genre_ids":[35],"backdrop_path":"\/dKPvepUfdOCkSO3aOjBdcgSPMTb.jpg","adult":false,"overview":"When the Great Northeast Blackout of 1965 hit, millions of people were left in the dark, including Waldo Zane, a New York executive in the process of stealing a fortune from his company, and two people whose paths he's destined to cross, Broadway actress Margaret Garrison and her husband, Peter.","release_date":"1968-01-01"},{"vote_count":0,"id":509415,"video":false,"vote_average":0,"title":"Where Dreams Go To Die","popularity":1.155666,"poster_path":"\/b3iet3xxYJJFBxINnqNJb5ODgr2.jpg","original_language":"en","original_title":"Where Dreams Go To Die","genre_ids":[99],"backdrop_path":null,"adult":false,"overview":"Where Dreams Go To Die is a documentary created by Ethan Newberry (The Ginger Runner) that follows Canadian ultrarunner, Gary Robbins, during his two attempts at completing The Barkley Marathons - a 100+ mile event many consider the toughest endurance run on Earth. Spanning more than 2 years, this journey is emotional, powerful and truly inspirational. Find out what it takes to attempt the impossible and the demons that follow. Learn the sacrifices that come with dedicating one's life to this endeavor. Follow our intimate look at why The Barkley is where dreams go to die.","release_date":"2017-10-12"},{"vote_count":0,"id":363955,"video":false,"vote_average":0,"title":"Where 'D' Girls 'R'","popularity":1.167238,"poster_path":"\/9UgvxMVrqeoI37Zxo4Kvkg5uSGg.jpg","original_language":"en","original_title":"Where 'D' Girls 'R'","genre_ids":[35],"backdrop_path":null,"adult":false,"overview":"A clumsy young man named Andong earns the ire of his uncle who has been the unlucky recipient of his bunglings. Left with no choice but to leave home, he sets off for manila where he meets Roberto, a rich young man suffering from amnesia. Ignorant of the ways of the city they encounter four cunning juveniles who eventually becomes their friend and in one of their mischief s, they meet the apples of their eyes.","release_date":"1996-08-07"},{"vote_count":3,"id":77439,"video":false,"vote_average":5.8,"title":"Where The Road Meets The Sun","popularity":1.505954,"poster_path":"\/lLtgme2f6xaBVJjQzKJrQ5Sabai.jpg","original_language":"en","original_title":"Where The Road Meets The Sun","genre_ids":[18,80],"backdrop_path":"\/8P1TCyU1ZCyAwfLxB8LVPTzvdJz.jpg","adult":false,"overview":"A drama centered on a man dealing with the aftereffects of being in a coma caused by a car accident.","release_date":"2011-06-29"},{"vote_count":2,"id":341567,"video":false,"vote_average":7.5,"title":"And Where Do We Go from Here?","popularity":1.162072,"poster_path":"\/sLpAPM2cchTJuWyeVWpWZHi41q6.jpg","original_language":"bg","original_title":"А сега накъде?","genre_ids":[],"backdrop_path":null,"adult":false,"overview":"This film is about an imaginary actors exam. In order to choose the best one the exam jury uses even immoral ways of selecting - spying, making conflicts, humiliating the applicants, taking advantage of its power.","release_date":"1988-10-17"},{"vote_count":0,"id":477242,"video":false,"vote_average":0,"title":"Where is My Heart?","popularity":1.158957,"poster_path":"\/7WZop1QDO2rUXKMBDaz21rNqSo9.jpg","original_language":"ar","original_title":"فين قلبي ؟","genre_ids":[],"backdrop_path":"\/8ePyqV1FkjNtwsA9ZWuUqnSjHf9.jpg","adult":false,"overview":"A man who married from the women he loved, yet after marriage somewhere in his heart his old love is still alive and beating, to live in a struggle between both of them.","release_date":"2017-01-18"},{"vote_count":0,"id":490379,"video":false,"vote_average":0,"title":"Where I Belong","popularity":1.146171,"poster_path":"\/6ZaoKxGt37FMvcmONI4JGmpy3Pg.jpg","original_language":"ja","original_title":"しゃぼん玉","genre_ids":[18],"backdrop_path":"\/mnlC01hG0wLKk737M3UzI4xTX26.jpg","adult":false,"overview":"Izumi (Kento Hayashi) was abandoned by his parents. He now commits burglary, targeting women and the elderly. He is chased by the cops. While on the run, in the mountains of Miyazaki Prefecture, he helps an injured elderly woman, Suma (Etsuko Ichihara). Izumi then stays at Suma's home. At first, Izumi keeps an eye for money that he can steal. The people though in the village think Izumi is Suma's grandson and take care of him. A change takes place in Izumi.","release_date":"2017-03-04"},{"vote_count":3,"id":126472,"video":false,"vote_average":4.7,"title":"Where the Toys Come From","popularity":1.106836,"poster_path":"\/2oJbeMKCfFgbtbi0gmTradwaXdo.jpg","original_language":"en","original_title":"Where the Toys Come From","genre_ids":[10751],"backdrop_path":"\/9K6KZpBldZU1zKpQrnXHbo9MJV.jpg","adult":false,"overview":"Two curious toys, Peepers and Zoom, wonder about how they become toys. Aided by Robin, their equally curious owner, Zoom and Peepers visit a toy museum - \"Home for Old Toys\" to discover their existence.","release_date":"1984-08-01"},{"vote_count":0,"id":458430,"video":false,"vote_average":0,"title":"Where it is seen, where it is heard","popularity":1.25,"poster_path":"\/yy7bU1h39Jeibn0xSlfLmrowb7M.jpg","original_language":"ru","original_title":"Где это видано, где это слыхано","genre_ids":[35],"backdrop_path":null,"adult":false,"overview":"Short-length feature film directed by Valentin Gorlov, based on \"Deniska's stories\" by Victor Dragunsky.","release_date":"1973-01-01"},{"vote_count":3,"id":260387,"video":false,"vote_average":5.3,"title":"I Know Where I'm Going","popularity":1.117766,"poster_path":"\/wO422Zq42Wyxu8iMneNrKAdGFca.jpg","original_language":"en","original_title":"I Know Where I'm Going","genre_ids":[],"backdrop_path":null,"adult":false,"overview":"A film by Ben Rivers","release_date":"2009-03-21"},{"vote_count":2,"id":255760,"video":false,"vote_average":8.8,"title":"Where Have All the Flowers Gone","popularity":1.118362,"poster_path":"\/5DfiAz8MS0bRoGUo8yQqcZnBLtF.jpg","original_language":"zh","original_title":"那时花开","genre_ids":[],"backdrop_path":null,"adult":false,"overview":"Gao Ju (Xia Yu) and Zhang Yang (Pu Shu) were best of friends, but they fall in love with Huanzi (Zhou Xun). Huanzi loves both of them and thus they formed an unbalanced trinity. A simple promise not to meet ever again after college ended up in disaster when Gao cannot resist wooing Huanzi again","release_date":"2002-05-01"},{"vote_count":0,"id":87987,"video":false,"vote_average":0,"title":"Where It Is Cold in the Sun","popularity":1.1125,"poster_path":"\/tnIMRsvgwbmMBrpdgtNEEmmvyeR.jpg","original_language":"ro","original_title":"Unde la soare e frig","genre_ids":[18,10749],"backdrop_path":null,"adult":false,"overview":"Along the Black Sea coast, we see a man and a woman arguing. They are apparently vacationers. Before long, the man has gotten back into their car and driven off, stranding the woman in a remote area. She hitches a ride with a delivery truck driver. At one of his stops, she gets off his truck to go to get some water. When the driver comes back to his truck and sees her gone, he assumes she has found another ride, and leave her. Once again, she is stranded. This time, the location is a lighthouse. She and the keeper have no recourse but to become acquainted, and for the next few days, that is what they do. Eventually, the man who left her in the lurch comes back to look for her, and finds her at the lighthouse.","release_date":"1991-01-01"},{"vote_count":1,"id":287421,"video":false,"vote_average":8.5,"title":"Once Were Warriors: Where Are They Now?","popularity":1.425115,"poster_path":"\/y4UXK9AjyCE3z90lx6u6P4S3UnB.jpg","original_language":"en","original_title":"Once Were Warriors: Where Are They Now?","genre_ids":[99],"backdrop_path":null,"adult":false,"overview":"It's been 20 years snce Once Were Warriors was made. Julian Arahanga aka 'Nig' takes us on a journey to meet the cast and see where they are now.","release_date":"2014-08-18"},{"vote_count":1,"id":503610,"video":false,"vote_average":9,"title":"Where We're Meant to Be","popularity":1.103781,"poster_path":"\/s9OPXuHgCK1uLUvnjxgnBYdGflY.jpg","original_language":"en","original_title":"Where We're Meant to Be","genre_ids":[18],"backdrop_path":null,"adult":false,"overview":"Small moments can change an entire path in life. Travel in and out of the lives of a number of vastly different people as each one connects to the next during their most pivotal moments.","release_date":"2016-04-08"},{"vote_count":1,"id":454170,"video":false,"vote_average":1,"title":"Where Birds Don't Fly","popularity":1.100123,"poster_path":"\/lgnOFEJD52S0lcNdXZS6xBhv8qs.jpg","original_language":"en","original_title":"Where Birds Don't Fly","genre_ids":[],"backdrop_path":null,"adult":false,"overview":"A team of hardened detectives come face to face with evil as they investigate a killing spree in San Bernardino California.","release_date":"2017-03-01"},{"vote_count":2,"id":105562,"video":false,"vote_average":6,"title":"Where Are You Taking Me?","popularity":1.077647,"poster_path":"\/tzyL59XF5n85vz2XCzdZwEeCGaY.jpg","original_language":"en","original_title":"Where Are You Taking Me?","genre_ids":[],"backdrop_path":"\/dpiFHqUxhjXUcLWjunn7ET8hSTB.jpg","adult":false,"overview":"A high society wedding, bustling city streets, a center for former child soldiers, a nightclub full of music and laughter: these are the many faces of today's Uganda, as wonderfully captured by filmmaker Kimi Takesue. Whether exploring the pulsating energy of the city or contemplating quiet moments in the country, her artful camera compositions and the lyrical pacing of the film allow us to truly engage and process the foreign land on our own terms. Documenting Uganda while it deals with day-to-day realities and the aftermath of its civil wars, Takesue, well aware of her perspective as an outsider, strives for simple, unadorned honesty. Employing a largely observational style, Takesue allows the sight and sounds-and the people-of Uganda to speak for themselves. Usually the people she records simply ignore the camera, but when someone does engage-whether it's a group of school children...","release_date":"2012-03-02"},{"vote_count":0,"id":507034,"video":false,"vote_average":0,"title":"The House Where the Mermaid Sleeps","popularity":1.098321,"poster_path":null,"original_language":"ja","original_title":"人魚の眠る家","genre_ids":[],"backdrop_path":null,"adult":false,"overview":"Kaoruko and Kazumasa Harima are a separated couple with two children. They plan to divorce once their daughter, Mizuho, enters elementary school. One day, they receive devastating news of their daughter falling into a coma after a near-drowning accident at a pool. The doctors declare her brain dead with no prospect of recovery and the couple must decide if they should donate her organs to others in need or to wait until her heart stops beating.","release_date":"2018-11-30"},{"vote_count":0,"id":408190,"video":false,"vote_average":0,"title":"Comrade, Where Are You Today?","popularity":1.069891,"poster_path":"\/iLk1G7osyE8gk7a3ndKtkw22hfA.jpg","original_language":"de","original_title":"Comrade, Where Are You Today?","genre_ids":[99],"backdrop_path":"\/kTQEqIeO0SXkDroZ56L29m6BHlm.jpg","adult":false,"overview":"In 1988, 20-year-old Kirsi Marie Liimatainen travels from Finland to the GDR, to study Marxism-Leninism at the International Youth Academy. In summer of´89 the course ends and the students spread out over the world. Afew months later, the Berlin Wall falls. 24 years later Kirsi, sets out on a cinematic journey to Nicaragua, South Africa, Chile, Bolivia, Lebanon, Germany and Finland to meet up once more with her former fellow students. What remains of their dream of the liberation of the oppressed?","release_date":"2016-08-18"}]}