{"page":37,"total_results":1170,"total_pages":59,"results":[{"vote_count":0,"id":203604,"video":false,"vote_average":0,"title":"No Fire Zone: The Killing Fields of Sri Lanka","popularity":1.034632,"poster_path":"\/q0Ab5fhHQzNspjHkoQQ0DhIK4Q5.jpg","original_language":"en","original_title":"No Fire Zone: The Killing Fields of Sri Lanka","genre_ids":[99,10752],"backdrop_path":"\/4wVtP3wEP3KAXvhUJ46fS7VqTgM.jpg","adult":false,"overview":"No Fire Zone is a feature length film about the final awful months of the 26 year long Sri Lankan civil war told by the people who lived through it.","release_date":"2013-06-28"},{"vote_count":0,"id":414858,"video":true,"vote_average":0,"title":"Chicago and Earth, Wind & Fire - Heart and Soul Tour 2015","popularity":1.021177,"poster_path":"\/vbhT0ke2ZEH7Wa6kuAFKNwKkDp5.jpg","original_language":"en","original_title":"Chicago and Earth, Wind & Fire - Heart and Soul Tour 2015","genre_ids":[10402],"backdrop_path":"\/b5vY5q0CBvy97CDGbhH0405amwn.jpg","adult":false,"overview":"Chicago and Earth, Wind &amp; Fire live on Heart and Soul Tour 2015  v2.0","release_date":"2015-10-09"},{"vote_count":0,"id":121471,"video":false,"vote_average":0,"title":"Shouting Fire: Stories from the Edge of Free Speech","popularity":1.018082,"poster_path":"\/guPyowTW1fQyG9C9fgusd2HDuHn.jpg","original_language":"en","original_title":"Shouting Fire: Stories from the Edge of Free Speech","genre_ids":[99],"backdrop_path":null,"adult":false,"overview":"A documentary look at the changing interpretations of the first amendment of the U.S. Constitution - laws and court cases that have alternatively broadened and narrowed the amendment's protection of free speech and assembly. The film's thesis is that post-9\/11 the government has seized unprecedented license to surveil, intimidate, arrest, and detain citizens and foreigners alike. The film also looks back to the Pentagon Papers' case and compares it to cases since 9\/11 dealing with high school students' speech and protesters marching in New York City during the 2004 Republican convention. Comment comes from a range of scholars, pundits, and advocates.","release_date":"2009-01-20"},{"vote_count":0,"id":376566,"video":false,"vote_average":0,"title":"Fire in the Sky: A Daily Planet Special","popularity":1.009412,"poster_path":null,"original_language":"cs","original_title":"Fire in the Sky: A Daily Planet Special","genre_ids":[99],"backdrop_path":null,"adult":false,"overview":"","release_date":"2013-01-08"},{"vote_count":0,"id":165410,"video":false,"vote_average":0,"title":"Divine Fire The Story Of Jedi Mind Tricks","popularity":1.009226,"poster_path":"\/brViZSjyyStrZYRvFhF85rgwNMf.jpg","original_language":"en","original_title":"Divine Fire The Story Of Jedi Mind Tricks","genre_ids":[],"backdrop_path":"\/55d655ILUReQZbbIQBy3EK1SQPr.jpg","adult":false,"overview":"Since their debut in 1996, the hip-hop outfit Jedi Mind Tricks has gained a tremendous underground following with their aggressive, homegrown sound. DIVINE FIRE chronicles the rise of the group from the local Philly scene to national stardom, and offers an in-depth retrospective of the albums that earned them widespread street cred.","release_date":"2009-01-26"},{"vote_count":0,"id":81953,"video":false,"vote_average":0,"title":"Trial By Fire: A North of 60 Mystery","popularity":1.00922,"poster_path":"\/u3IgMVvh2X2ADuufW4SCUiJqRnP.jpg","original_language":"en","original_title":"Trial By Fire: A North of 60 Mystery","genre_ids":[18],"backdrop_path":null,"adult":false,"overview":"Blood may be thicker than water, but when RCMP officer Michelle Kenidi’s brother becomes a suspect in a deadly case of arson, only one thing matters – the truth. As the evidence against her brother continues to mount, Michelle tries to defend him – but gradually realizes that he has been lying to her. Torn between her sense of duty and her loyalty to her brother, she must trust her instincts to find out what Peter has been hiding – no matter what the cost.","release_date":"2000-01-01"},{"vote_count":9,"id":2464,"video":false,"vote_average":4.9,"title":"Firetrap","popularity":2.770624,"poster_path":"\/viMwQGorkwkbwQjpL6wu1qbjtIU.jpg","original_language":"en","original_title":"Firetrap","genre_ids":[28,80,53],"backdrop_path":"\/buamv5xBv7Bc2nsNISnt7SKFu2c.jpg","adult":false,"overview":"Master burglar Max Hopper is released early after three years and soon gets an exceptional job: stealing an advanced computer-chip from the IQ Industries headquarters. His first attempt fails; when he enters in cop uniform during an emergency board meeting, a fire quickly spreads- he considers it a godsend opportunity and stays, but soon has his hands too full saving other lives and just surviving to concentrate on the chip; only the owner, his wife who just filed for divorce and a few employees remain, but it soon turns out one of them stole company secrets but the arsonist and\/or another chip-thieves are among them.","release_date":"2001-03-16"},{"vote_count":0,"id":414296,"video":true,"vote_average":0,"title":"The Woodsmaster Volume 01 Spark Based Fire Starting","popularity":1.004706,"poster_path":"\/MWbUPFmlknouXFax9G3ZpP6OUP.jpg","original_language":"en","original_title":"The Woodsmaster Volume 01 Spark Based Fire Starting","genre_ids":[],"backdrop_path":null,"adult":false,"overview":"The Firebow! Now you can learn how to make fire by friction! Learn how to use Flint and Steel, the Metal Match, and a Flashlight Fire! This tape covers materials selection and amazing special tips. This is essential information for any woods person.","release_date":"2010-01-07"},{"vote_count":0,"id":71454,"video":false,"vote_average":0,"title":"All About Big Red Fire Engines\/All About Construction","popularity":1.004612,"poster_path":"\/5BfaXKwcCXEr29MbMxwinw3UDGE.jpg","original_language":"en","original_title":"All About Big Red Fire Engines\/All About Construction","genre_ids":[],"backdrop_path":null,"adult":false,"overview":"Big Red Fire Engines It's four-alarm fun learning about engines, ladders, and much more as you find out what it's like to be on that big red truck, rushing out to fight a fire on an exciting, fun-filled video trip with real firefighters. Watch in awe as they use a tower ladder and bucket to battle a blaze, find out how to work the truck's controls, hook a hydrant up to a pumper, and even spend some time with the firehouse mascot, Spot! Construction Hop in the driver's seat and take a magic ride with Hard Hat Harry?, the construction genie, as he shows you the \"biggest, baddest, most awesome construction equipment in the whole wide world\" : bulldozers, excavators, clam diggers, forklifts, compacters, pile drivers, trackhoe buckets, barrier movers, and an off-road dump truck that's so heavy it would crack a road in two just by driving over it!","release_date":"2005-08-16"},{"vote_count":0,"id":473477,"video":false,"vote_average":0,"title":"Gift of Fire: Nineteen (Obscure) Frames That Changed The World","popularity":1.003561,"poster_path":null,"original_language":"en","original_title":"Gift of Fire: Nineteen (Obscure) Frames That Changed The World","genre_ids":[],"backdrop_path":null,"adult":false,"overview":"Originally presented as an installation in the exhibition Evolution 2007 at Lumen in Leeds, GIFT OF FIRE devotes fetishistic attention to what is probably the first film in history: Louis-Aimé-Augustin Le Prince’s 1888 footage of traffic crossing Leeds Bridge.","release_date":"2007-09-01"},{"vote_count":0,"id":331513,"video":false,"vote_average":0,"title":"New York's Bravest - A Fire Fighting Odyssey, Part 1","popularity":1.002353,"poster_path":null,"original_language":"en","original_title":"New York's Bravest - A Fire Fighting Odyssey, Part 1","genre_ids":[],"backdrop_path":null,"adult":false,"overview":"In New York City there is a long history of brave men and women who dedicate their lives to making sure that fires are quickly brought under control.","release_date":"2004-01-01"},{"vote_count":0,"id":230337,"video":false,"vote_average":0,"title":"I Am Alone and My Head Is On Fire","popularity":1.018869,"poster_path":"\/lum8T605TE5tP7lwsFYqxOfahja.jpg","original_language":"en","original_title":"I Am Alone and My Head Is On Fire","genre_ids":[16],"backdrop_path":null,"adult":false,"overview":"A David O'Reilly short film.","release_date":"2013-06-05"},{"vote_count":0,"id":305348,"video":false,"vote_average":0,"title":"The Last Chance Detectives: Escape from Fire Lake","popularity":1.00136,"poster_path":"\/v214462pMhxzgmi9gCfl4GGAnlz.jpg","original_language":"en","original_title":"The Last Chance Detectives: Escape from Fire Lake","genre_ids":[],"backdrop_path":null,"adult":false,"overview":"When Mike fails to show up by day's end, our young sleuths have their biggest and most important case yet. A cliffhanger to end all cliffhangers, Escape From Fire Lake teaches kids the importance of perseverance.","release_date":"1996-01-01"},{"vote_count":0,"id":443510,"video":false,"vote_average":0,"title":"And There Was Fire in the Center of the Earth","popularity":1.000844,"poster_path":null,"original_language":"en","original_title":"And There Was Fire in the Center of the Earth","genre_ids":[],"backdrop_path":null,"adult":false,"overview":"Though set in Quito, Ecuador this languid documentary is more preoccupied with the ghosts of European history and with the ways memory of sin and suffering unite a 98-year old Jewish émigré and a young Austrian director.","release_date":""},{"vote_count":0,"id":295142,"video":false,"vote_average":0,"title":"Yngwie Malmsteen Trial by Fire: Live in Leningrad","popularity":1.000006,"poster_path":"\/1BerjW2AUlCASYxZK0WkpfAq1C2.jpg","original_language":"it","original_title":"Yngwie Malmsteen Trial by Fire: Live in Leningrad","genre_ids":[10402],"backdrop_path":"\/ltxMKjmRPdS4qJh9lpYV3ZwFY9H.jpg","adult":false,"overview":"An extended live set that concluded Malmsteen's reign as one of the premier guitar heroes of the '80s, this set is comprised of many of his \"hits\" along with his two legendary guitar performances (\"Black Star\" and \"Far Beyond the Sun\"). There is also a self-indulgent, cliché-infected guitar solo that must have excited every 13 year old in the building. Malmsteen's playing on this set is decent, but time has not been good to this recording. It was recorded during the heyday of hair metal and the genre's influences can be heard throughout this session. The weak pop songs that plagued Malmsteen's releases after Rising Force mar too much of this session to recommend it to anyone who is not exclusively infatuated with guitar pyrotechnics or '80s metal.","release_date":"1989-10-16"},{"vote_count":0,"id":411239,"video":true,"vote_average":0,"title":"Safety Smart Science with Bill Nye the Science Guy: Fire","popularity":1,"poster_path":null,"original_language":"en","original_title":"Safety Smart Science with Bill Nye the Science Guy: Fire","genre_ids":[],"backdrop_path":null,"adult":false,"overview":"Bill Nye the Science Guy ignites learning as he shows students how to be Safety Smart around fire. By explaining the science of fire, including the roles heat, fuel and oxygen play, Bill demonstrates how knowledge and awareness provide the opportunities to learn and practice safe behaviors. Public Performance Rights. Spanish language track. Exclusive educational bonus features and assessment tools to reinforce key lessons.","release_date":""},{"vote_count":0,"id":217140,"video":false,"vote_average":0,"title":"Rock and Roll Hall of Fame Live: Light My Fire","popularity":1.013804,"poster_path":"\/79v32vt5ykZUrLu3IUw00mxWGL9.jpg","original_language":"en","original_title":"Rock and Roll Hall of Fame Live: Light My Fire","genre_ids":[10402],"backdrop_path":null,"adult":false,"overview":"A presentation of some of the best moments of speeches, performances and backstage moments of the annual Rock and Roll Hall of Fame ceremonies. Footage was culled from the RockHalls archives and represent 24 years of events","release_date":"2009-10-20"},{"vote_count":0,"id":300846,"video":false,"vote_average":0,"title":"Love Under Fire: The Story of Bertha and Potter Palmer","popularity":1.010767,"poster_path":"\/wEYUUcjpifoWM81MPHmdhGYnhsJ.jpg","original_language":"en","original_title":"Love Under Fire: The Story of Bertha and Potter Palmer","genre_ids":[],"backdrop_path":null,"adult":false,"overview":"\"Love Under Fire: The Story of Bertha and Potter Palmer\" tells the inspirational true story of Chicago's first power couple, Bertha and Potter Palmer. From inventing the modern day department store and inspiring Harry Gordon Selfridge (of the PBS Masterpiece series \"Mr. Selfridge\"), to their instrumental roles in rebuilding Chicago after The Great Fire and bringing The Columbian Exposition to their adopted hometown (the backdrop for \"Devil in the White City\"), Bertha and Potter Palmer's epic tale will surprise and inspire even the most ardent history buff.","release_date":"2013-01-01"},{"vote_count":1,"id":206648,"video":false,"vote_average":1,"title":"Red Bells Part I: Mexico on Fire","popularity":1.096512,"poster_path":"\/ko14w1FmmdviZ8Lioyc4PreJvXs.jpg","original_language":"en","original_title":"Krasnye kolokola, film pervyy - Meksika v ogne","genre_ids":[18,37],"backdrop_path":null,"adult":false,"overview":"A chronicle of the Russian and Mexican revolutions in the early 20th century.","release_date":"1982-10-01"},{"vote_count":0,"id":475504,"video":false,"vote_average":0,"title":"Triangle Fire: The Tragedy That Forever Changed Labor and Industry","popularity":1.005883,"poster_path":"\/6hZsEECIsTqhhiqd2ewyTxkzmuv.jpg","original_language":"en","original_title":"Triangle Fire: The Tragedy That Forever Changed Labor and Industry","genre_ids":[],"backdrop_path":null,"adult":false,"overview":"From PBS and American Experience - The Triangle Fire chronicles the fire that tore through the Triangle Shirtwaist Factory in New York City killing one hundred and forty-eight young women and forever changed the relationship between labor and industry in the United States.","release_date":"2011-03-01"}]}