{"page":8,"total_results":1170,"total_pages":59,"results":[{"vote_count":7,"id":174352,"video":false,"vote_average":7.3,"title":"Let the Fire Burn","popularity":1.91043,"poster_path":"\/v2QCsdQRFYPdrgGlWhpkAnZT8kq.jpg","original_language":"en","original_title":"Let the Fire Burn","genre_ids":[99],"backdrop_path":"\/s8Kg3og2fK3c3VNRX99lbb8TpW4.jpg","adult":false,"overview":"Jason Osder makes an impressive feature film debut through his unbiased and thorough account of the incidents leading up to and during the 1985 standoff between the extremist African-American organization MOVE and Philadelphia authorities. The dramatic clash claimed eleven lives and literally and figuratively devastated an entire community. Let the Fire Burn is a real-life Wild West story absent the luxury of identifying its heroes by the color of their hats.","release_date":"2013-10-02"},{"vote_count":9,"id":31280,"video":false,"vote_average":2.2,"title":"Fire Maidens of Outer Space","popularity":2.494564,"poster_path":"\/cITwrutRePXugZ2lv9kWkiTpMmp.jpg","original_language":"en","original_title":"Fire Maidens of Outer Space","genre_ids":[878],"backdrop_path":"\/p30eib16K0JxSQJXLFrrZoXQus8.jpg","adult":false,"overview":"An astronaut (Anthony Dexter) and crew land on Jupiter's 13th moon and find a monster and women from Atlantis.","release_date":"1956-07-01"},{"vote_count":0,"id":473710,"video":false,"vote_average":0,"title":"Urban Fire","popularity":1.25,"poster_path":"\/ykmDIGSTs4RKsOOeiWrycsizNxC.jpg","original_language":"en","original_title":"Urban Fire","genre_ids":[],"backdrop_path":null,"adult":false,"overview":"A child is given birth in the womb of its dead mother. Child’s eyes perceive the death of a city. The last birth combined with the fire and destruction.","release_date":"1982-09-02"},{"vote_count":0,"id":496650,"video":false,"vote_average":0,"title":"Friendly Fire","popularity":1.25,"poster_path":null,"original_language":"en","original_title":"Friendly Fire","genre_ids":[],"backdrop_path":null,"adult":false,"overview":"Short by Martha Colburn.","release_date":""},{"vote_count":6,"id":7177,"video":false,"vote_average":3.3,"title":"Fire From Below","popularity":1.893254,"poster_path":"\/p4ku7KGAOXINF8AfBcLZD8WSVPo.jpg","original_language":"en","original_title":"Fire From Below","genre_ids":[28,12,878,53],"backdrop_path":"\/rZrGRqbmfMqrRbuoe9pRFA6s4Nv.jpg","adult":false,"overview":"Digging at a nearby cave, a careless industrialist unearths a vein of pure base Lithium and inadvertently brings it to the surface, where the Lithium combusts when coming into contact with water and begins to wreak havoc on the country side.","release_date":"2009-01-01"},{"vote_count":10,"id":56491,"video":false,"vote_average":3.4,"title":"In Her Line of Fire","popularity":2.483496,"poster_path":"\/9fAL8xcOWw6tPDVGf3lDFFUPfj1.jpg","original_language":"en","original_title":"In Her Line of Fire","genre_ids":[28,53],"backdrop_path":"\/abLGpaOPQIFLD21Q4w1QCLlXwpe.jpg","adult":false,"overview":"When the Vice President's plane goes down near a remote Pacific island, he is kidnapped by rebel forces and held for ransom. It is up to his female Secret Service agent and a press secretary to infiltrate the camp and save him.","release_date":"2006-04-21"},{"vote_count":3,"id":348960,"video":false,"vote_average":5.7,"title":"Arcade Fire - The Reflektor Tapes","popularity":1.786687,"poster_path":"\/w7VJwfPGTPMrAW3804HYJzY56U3.jpg","original_language":"en","original_title":"Arcade Fire - The Reflektor Tapes","genre_ids":[99,10402],"backdrop_path":"\/hCUo3amS2hXL92AK4hSFKVljxjC.jpg","adult":false,"overview":"Arcade Fire’s first feature film is called 'The Reflektor Tapes'. The project is “a unique cinematic experience, meeting at the crossroads of documentary, music, art and personal history.”","release_date":"2015-09-12"},{"vote_count":78,"id":355020,"video":false,"vote_average":8.1,"title":"Winter on Fire: Ukraine's Fight for Freedom","popularity":5.005946,"poster_path":"\/tIfw9XIYnP0oygZgwPScK421yHW.jpg","original_language":"uk","original_title":"Winter on Fire: Ukraine's Fight for Freedom","genre_ids":[99],"backdrop_path":"\/wWX8L8ujV8AL8dFZ8h9quqcewE.jpg","adult":false,"overview":"A documentary on the unrest in Ukraine during 2013 and 2014, as student demonstrations supporting European integration grew into a violent revolution calling for the resignation of President Viktor F. Yanukovich.","release_date":"2015-10-09"},{"vote_count":2,"id":101264,"video":false,"vote_average":4,"title":"Nature Unleashed: Fire","popularity":1.874499,"poster_path":"\/ukcyfrupgH6BJh8EEzbH2cAhKHh.jpg","original_language":"en","original_title":"Nature Unleashed: Fire","genre_ids":[28],"backdrop_path":null,"adult":false,"overview":"A rescue goes terribly wrong for a sheriff when trying to save four dirt bikers when they are trapped by growing forest fires. Desperate, they seek shelter in an abandoned mine, never realizing they are headed straight for evil from the sheriff's past","release_date":"2004-11-02"},{"vote_count":7,"id":54502,"video":false,"vote_average":6.9,"title":"Frazetta: Painting with Fire","popularity":1.873631,"poster_path":"\/vMVdTgZm6E6QlkBRSqaRUw0Kyus.jpg","original_language":"en","original_title":"Frazetta: Painting with Fire","genre_ids":[99],"backdrop_path":"\/r3FYuqdISEfvN9uOLDVti7vlGiW.jpg","adult":false,"overview":"A documentary on the life of painter Frank Frazetta, who revolutionized science fiction, fantasy and comic art with breathtaking realistic paintings of fantastic heroes, most famously Conan the Barbarian.","release_date":"2003-01-01"},{"vote_count":1,"id":232825,"video":false,"vote_average":6,"title":"Three Men on Fire","popularity":1.853087,"poster_path":"\/qx9kcScVAC7qMNBpoGLDiWmGwB3.jpg","original_language":"en","original_title":"Three Men on Fire","genre_ids":[],"backdrop_path":null,"adult":false,"overview":"A Cameroonese police officer (Alphonse Beni) and a CIA agent (Richard Harrison) try to prevent the Pope from being assassinated by Italian terrorists during his African tour.","release_date":"1986-11-04"},{"vote_count":2,"id":354757,"video":false,"vote_average":6.5,"title":"Before the fire","popularity":1.363115,"poster_path":"\/rKOYyFTFepUvrqG3tqqtNx62DXg.jpg","original_language":"es","original_title":"Antes del fuego","genre_ids":[],"backdrop_path":null,"adult":false,"overview":"The journalist Alvaro Mendoza investigates the murder of his best friend and colleague. With the help of a journalism student, they discover the plan of the guerilla, the mafia and the military to attack the Colombian justice palace.","release_date":"2015-08-06"},{"vote_count":25,"id":16999,"video":false,"vote_average":4.5,"title":"Fire and Ice: The Dragon Chronicles","popularity":3.942896,"poster_path":"\/u9hbLOJW0mvM16uzuhvJa5nbt0B.jpg","original_language":"en","original_title":"Fire and Ice: The Dragon Chronicles","genre_ids":[18,14,12],"backdrop_path":"\/k3tGfBfqtYMdQx1CkbWrQxtpl3N.jpg","adult":false,"overview":"Princess Luisa and knight Gabriel must face a dragon to save their kingdom.","release_date":"2008-09-18"},{"vote_count":6,"id":107319,"video":false,"vote_average":4.9,"title":"Wheels of Fire","popularity":1.825489,"poster_path":"\/1NleYbbxuliafmorewaeEZDv1YN.jpg","original_language":"en","original_title":"Wheels of Fire","genre_ids":[28,12,878],"backdrop_path":"\/675DXZbZiFHk2BFAordoyMxTCgO.jpg","adult":false,"overview":"The Future is now. There are no rules and no place to hide from the deadly Highway Warriors who ravage the roads in machines of destruction.","release_date":"1985-04-11"},{"vote_count":6,"id":140648,"video":false,"vote_average":6.3,"title":"City on Fire","popularity":1.818349,"poster_path":"\/7YrfnPmiO5WnzLbvyiVyrLHEmpU.jpg","original_language":"en","original_title":"City on Fire","genre_ids":[28,18],"backdrop_path":"\/gE28FEY1wvMcfrmB0UwPRGuWpo2.jpg","adult":false,"overview":"A pyromaniac, ex-employee of a city oil refinery creates an explosion at the facility which starts a chain-reaction of fires that engulf the entire city.","release_date":"1979-07-11"},{"vote_count":3,"id":198214,"video":false,"vote_average":5.5,"title":"Ring of Fire","popularity":1.804584,"poster_path":"\/daZkX7fHw1lwMuzGjAJaVX4igqs.jpg","original_language":"en","original_title":"Ring of Fire","genre_ids":[18],"backdrop_path":"\/yYplX7uxHUwLuPGihIrQQacN31T.jpg","adult":false,"overview":"“Ring of Fire” recounts June’s meteoric rise to fame with The Carter Family, considered the First Family of country music, before breaking out on her own to perform, when she would become a legend in her own right. Taking a personal look at June’s first two marriages, life with her daughters and touching relationship with her son, the movie showcases her infamous courtship with Cash and June’s heroic role in saving his life during his battles with substance abuse, as well as how her unwavering faith in God, confidence and talent has taught lessons to generations.","release_date":"2013-05-27"},{"vote_count":1,"id":268994,"video":false,"vote_average":6,"title":"Into the Fire","popularity":1.801227,"poster_path":"\/yJey5mMOtZx7WnInq2QjgVVL0it.jpg","original_language":"en","original_title":"Into the Fire","genre_ids":[18],"backdrop_path":"\/d5SnvrjWuelHCR3CV8cEBbaNIQc.jpg","adult":false,"overview":"TV Movie Drama - Sean Patrick Flanery, Melina Kanakaredes, JoBeth Williams","release_date":"2005-09-23"},{"vote_count":5,"id":66211,"video":false,"vote_average":5.2,"title":"Fire in Babylon","popularity":1.328049,"poster_path":"\/34Yxnqnz9EcBlrss03BUuYCmTcl.jpg","original_language":"en","original_title":"Fire in Babylon","genre_ids":[99],"backdrop_path":"\/8jO2qZMfMsTvdIstCmQ2YHLOWmA.jpg","adult":false,"overview":"Feature documentary about the great West Indies cricket team of the 1970s and '80s. Fire In Babylon is the breathtaking story of how the West Indies triumphed over its colonial masters through the achievements of one of the most gifted teams in sporting history. In a turbulent era of apartheid in South Africa, race riots in England and civil unrest in the Caribbean, the West Indian cricketers, led by the enigmatic Viv Richards, struck a defiant blow at the forces of white prejudice worldwide. Their undisputed skill, combined with a fearless spirit, allowed them to dominate the genteel game at the highest level, replaying it on their own terms. This is their story, told in their own words.","release_date":"2011-07-22"},{"vote_count":5,"id":111584,"video":false,"vote_average":4.2,"title":"Lightning: Fire from the Sky","popularity":2.350159,"poster_path":"\/gKHddd53R8fRq0KvUx3lYBsUuv7.jpg","original_language":"en","original_title":"Lightning: Fire from the Sky","genre_ids":[28,18],"backdrop_path":"\/p9U1xDGqYuCKD0PayhgP29yL9ij.jpg","adult":false,"overview":"Overwhelmed by a disastrous lightning storm that his son predicted, a man must learn to trust his son in order to save his family and the whole community.","release_date":"2001-11-03"},{"vote_count":5,"id":18592,"video":false,"vote_average":3.2,"title":"Around the Fire","popularity":1.790514,"poster_path":"\/hCMnsgHRA9cJqi9Hx45e8I3mGH5.jpg","original_language":"en","original_title":"Around the Fire","genre_ids":[18,10749],"backdrop_path":null,"adult":false,"overview":"Simon is an intelligent and privileged young man whose family expects him to become a Princeton graduate. Crying out for attention from his reserved and cool hearted family, Simon commits numerous petty crimes and is soon sent away to boarding school where he befriends a \"Deadhead,\" adopts the \"hippie\" lifestyle and dabbles in many drugs in his search for acceptance.","release_date":"1998-09-26"}]}