{"page":25,"total_results":1170,"total_pages":59,"results":[{"vote_count":3,"id":132515,"video":false,"vote_average":5,"title":"DNA Sights 999.9","popularity":1.239592,"poster_path":"\/mof4JuumoBEyBJ4DXRb3ZG6zImS.jpg","original_language":"fr","original_title":"Kasei ryodan Danasight Four-Nine","genre_ids":[12,878],"backdrop_path":"\/9xhovMVKHhSBIiiw8pcozGPlWzV.jpg","adult":false,"overview":"After a meteor hits Earth, traitor forces have (for all intents and purposes) taken over, and the people are suffering. In the chaos, a boy named Tetsuro Daiba, who had lost his parents in the meteor hit, is paid a visit by Mello, a mysterious woman appearing in a bright light. When Daiba comes to, he finds itself in a spaceship infirmary under observation. Stealing a fighter that he didn't know how to pilot (until he tried it), he breaks out, flying like a total pro.","release_date":"1998-01-01"},{"vote_count":180,"id":10724,"video":false,"vote_average":5.7,"title":"Firefox","popularity":9.500118,"poster_path":"\/1QK1xhmvnLLZhDC8DNaFt08psp9.jpg","original_language":"en","original_title":"Firefox","genre_ids":[878,28,12,53],"backdrop_path":"\/yIvxB5Gbq27ZexGgmKLcuDVTq1c.jpg","adult":false,"overview":"The Soviets have developed a revolutionary new jet fighter, called \"Firefox\". Naturally, the British are worried that the jet will be used as a first-strike weapon, as rumours say that the jet is indetectable on radar. They send ex-Vietnam War pilot Mitchell Gant on a covert mission into the Soviet Union to steal Firefox.","release_date":"1982-06-13"},{"vote_count":0,"id":226743,"video":false,"vote_average":0,"title":"Fire in the Night","popularity":1.00028,"poster_path":null,"original_language":"en","original_title":"Fire in the Night","genre_ids":[],"backdrop_path":null,"adult":false,"overview":"Action film directed by John Steven Soet.","release_date":"1986-01-01"},{"vote_count":0,"id":321576,"video":false,"vote_average":0,"title":"Fire in the Dark","popularity":1.000253,"poster_path":"\/r3TqnppMkvlprs7hLJgmvzopTyW.jpg","original_language":"de","original_title":"Fire in the Dark","genre_ids":[],"backdrop_path":null,"adult":false,"overview":"","release_date":"1991-07-01"},{"vote_count":0,"id":494615,"video":false,"vote_average":0,"title":"The Rhythm Club Fire","popularity":1.000177,"poster_path":"\/ygzNkf4WEhPnhdRsIvj5F3GsX2t.jpg","original_language":"en","original_title":"The Rhythm Club Fire","genre_ids":[99],"backdrop_path":null,"adult":false,"overview":"The story of a tragic fire that took the lives of 209 people on April 23rd 1940 at The Rhythm Night Club in Natchez,Mississippi. To this day, this is the 2nd deadliest club fire in US history.","release_date":""},{"vote_count":0,"id":299908,"video":false,"vote_average":0,"title":"Andy Lights the Fire","popularity":1.000027,"poster_path":"\/xvxI2k01D3YcuDuRJ7HFOIsmacm.jpg","original_language":"en","original_title":"Andy Lights the Fire","genre_ids":[18],"backdrop_path":null,"adult":false,"overview":"Andy arrives home from school, and goes to light the fire in the living room. His sister, Sal, warns him against this, but Andy is adamant that if he's careful everything will be OK. Unfortunately a smouldering match lands on a copy of The Beano…","release_date":"1980-01-01"},{"vote_count":0,"id":492548,"video":true,"vote_average":0,"title":"HD Moods: Fire","popularity":1.000022,"poster_path":"\/6UiSPpmcYbwc4LETZ3yXmC956St.jpg","original_language":"en","original_title":"HD Moods: Fire","genre_ids":[],"backdrop_path":null,"adult":false,"overview":"Enjoy the comfort of a fireplace without all the hassle. HD Moods Fire gives you five soothing scenes to choose from. Snuggle up to the sights and sounds of a crackling wood-burning fire, enjoy the peaceful blaze of a modern gas fireplace, or head to the beach and don t forget the s mores! Seasonal fires include a gothic-style fireplace with a spooky soundtrack and a cozy hearth complete with festive decorations and holiday tunes. Each fireplace includes several unique soundtracks to choose from in 5.1 surround sound or stereo. Relax and enjoy a non-invasive form of entertainment that is perfect for winding down, cocktail parties, or just showing off the superior image that a Blu-ray player coupled to a hi-def flat screen TV can produce.","release_date":""},{"vote_count":0,"id":364401,"video":false,"vote_average":0,"title":"Logic on Fire","popularity":1.000016,"poster_path":"\/2l8iHP1jGZVoJ5ZtN77ETmM5Hgi.jpg","original_language":"en","original_title":"Logic on Fire","genre_ids":[99],"backdrop_path":"\/mtQ6LuC0ObFZ3w9CtF9bXtCBihy.jpg","adult":false,"overview":"Logic on Fire: The Life and Legacy of Dr. Martyn Lloyd-Jones is a  documentary feature film examining  the life, work, and continued impact of one widely recognized as one of the greatest Christian preachers of the 20th century.","release_date":""},{"vote_count":0,"id":492725,"video":false,"vote_average":0,"title":"Fire Safety For Kids","popularity":1.000004,"poster_path":"\/1QhWL7P2elEy8Ovdoww4AP2Hkvj.jpg","original_language":"en","original_title":"Fire Safety For Kids","genre_ids":[],"backdrop_path":null,"adult":false,"overview":"Educational video for children about fire safety. Beasel the Easel and Hector the Smoke Detector teach fire safety along with 5 original sing-along safety songs.","release_date":"1994-01-01"},{"vote_count":0,"id":346137,"video":false,"vote_average":0,"title":"Fire on the Water","popularity":1.000001,"poster_path":null,"original_language":"en","original_title":"Fire on the Water","genre_ids":[99],"backdrop_path":null,"adult":false,"overview":"A small Texas town is inundated with Vietnamese refugees, leading to inter-racial tension.","release_date":"1982-09-13"},{"vote_count":0,"id":378411,"video":false,"vote_average":0,"title":"Born of Fire","popularity":1.000001,"poster_path":"\/aCBPO2fTBzDsuzMxnO01ym6H9S7.jpg","original_language":"en","original_title":"Born of Fire","genre_ids":[],"backdrop_path":null,"adult":false,"overview":"A martial arts film directed by Ulysses Au-Yeung Jun.","release_date":"1980-01-01"},{"vote_count":0,"id":336756,"video":true,"vote_average":0,"title":"Fire And Rain","popularity":1,"poster_path":null,"original_language":"en","original_title":"Fire And Rain","genre_ids":[],"backdrop_path":null,"adult":false,"overview":"airplane crash","release_date":""},{"vote_count":0,"id":342520,"video":false,"vote_average":0,"title":"National Fire Truck","popularity":1,"poster_path":null,"original_language":"en","original_title":"National Fire Truck","genre_ids":[],"backdrop_path":null,"adult":false,"overview":"A film shot on the day that the fire truck came to town.","release_date":""},{"vote_count":0,"id":311412,"video":false,"vote_average":0,"title":"Volcano: Fountains of Fire","popularity":1,"poster_path":null,"original_language":"en","original_title":"Volcano: Fountains of Fire","genre_ids":[],"backdrop_path":null,"adult":false,"overview":"Experience its magnificence as you explore pitch black lava caves, walk on the still molten floor of Kilauea Iki crater and fly past fiery lava fountains.","release_date":""},{"vote_count":0,"id":306826,"video":false,"vote_average":0,"title":"Dance dance fire dance","popularity":1,"poster_path":null,"original_language":"en","original_title":"Dance dance fire dance","genre_ids":[],"backdrop_path":null,"adult":false,"overview":"An experience where fire turns into snow, positive into negative, a beautiful dance of destruction.","release_date":""},{"vote_count":0,"id":318684,"video":false,"vote_average":0,"title":"Heartbreaker: Streets of Fire","popularity":1,"poster_path":null,"original_language":"en","original_title":"Heartbreaker: Streets of Fire","genre_ids":[],"backdrop_path":null,"adult":false,"overview":"Los Angeles's underground street-racing scene takes center stage in this action-packed film. The leader of a local street-racing crew gets more than he bargained for when he and a rival gang member fall in love with the same girl. A gang war ensues as both sides fight for love and honor. Apollonia Kotero and Miguel Ferrer star.","release_date":""},{"vote_count":0,"id":149333,"video":false,"vote_average":0,"title":"Walls of Fire","popularity":1,"poster_path":"\/jhttH0h0Vxq4XINbgB9Xo7TT8k1.jpg","original_language":"en","original_title":"Walls of Fire","genre_ids":[99],"backdrop_path":null,"adult":false,"overview":"Narrated by Ricardo Montalbán, this documentary examines the history of Mexican murals and their artists. Among the works examined are those by José Clemente Orozco, Diego Rivera and David Alfaro Siqueiros.","release_date":"1971-01-01"},{"vote_count":0,"id":278547,"video":false,"vote_average":0,"title":"How the Fire Fell","popularity":1,"poster_path":"\/knXUjfYXlhSjgsfx1YOYsivpZCO.jpg","original_language":"en","original_title":"How the Fire Fell","genre_ids":[],"backdrop_path":null,"adult":false,"overview":"Inspired by true events, this powerful drama follows self-proclaimed prophet Edmund Creffield as he gathers a flock of dedicated followers dubbed the 'Brides of Christ' in 1903 Oregon. As rumors surface of extreme teaching and perverse goings-on inside the mysterious cult, angry families seek revenge, culminating in a dramatic and deadly conclusion.","release_date":""},{"vote_count":0,"id":496967,"video":false,"vote_average":0,"title":"The Fire Next Time","popularity":1,"poster_path":null,"original_language":"en","original_title":"The Fire Next Time","genre_ids":[],"backdrop_path":null,"adult":false,"overview":"Fire Next Time tells the story of Adel, a young 16-year old woman from Dakar, whose fast-paced existence – a job as a beautician, going out with friends, drinking, drugs and consuming whatever’s going on the free market – is totally upset by the sudden disappearance of her lover, Souleimane. Soon her boyfriend is counted as missing, believed dead, especially when the bodies of some of his friends are washed up on a Dakar beach. The youngsters must have gone to sea in one of the many boats that leave the Senegal shores in search of a better life elsewhere. Souleimane’s body, however, is not found.","release_date":""},{"vote_count":0,"id":494030,"video":false,"vote_average":0,"title":"Lake of Fire","popularity":1,"poster_path":null,"original_language":"en","original_title":"Lake of Fire","genre_ids":[],"backdrop_path":null,"adult":false,"overview":"This story follows the lives of two teenagers from the Midwest, MAX and MAGGIE, the town misfits. Physically and socially they are total opposites. Maggie is a gifted high school runner from a dysfunctional family and Max is a shy boy with a clubfoot who hails from one of the town's most respected families. In spite of their differences and perhaps because of them, the two outcasts grow to become best friends, and all through school they help each other over the rough spots and lend a shoulder to cry on when needed.","release_date":""}]}