{"page":45,"total_results":1170,"total_pages":59,"results":[{"vote_count":54,"id":60047,"video":false,"vote_average":6.1,"title":"Fuochi d'artificio","popularity":3.287328,"poster_path":"\/5vimg1ptzEVDn33CLdlg2ir2Eos.jpg","original_language":"it","original_title":"Fuochi d'artificio","genre_ids":[35],"backdrop_path":"\/yZzqK6F1CfefvoOhHUAwk1xw6wd.jpg","adult":false,"overview":"","release_date":"1997-10-10"},{"vote_count":0,"id":349240,"video":false,"vote_average":0,"title":"Firebird","popularity":1.001187,"poster_path":null,"original_language":"ko","original_title":"불새","genre_ids":[],"backdrop_path":null,"adult":false,"overview":"A man aids his friend by assisting him in disposing of the body of his ex-girlfriend.","release_date":"1997-02-01"},{"vote_count":0,"id":499843,"video":false,"vote_average":0,"title":"Fireworks","popularity":1.001177,"poster_path":null,"original_language":"ja","original_title":"Hanabi","genre_ids":[28],"backdrop_path":null,"adult":false,"overview":"Chiezo Kataoka plays a cowardly samurai, whose honor is on the line when it becomes necessary to avenge the murder of his father. The culminating duel takes place on a night of fireworks.","release_date":"1931-08-26"},{"vote_count":1,"id":415886,"video":false,"vote_average":6,"title":"Home Fires Burning","popularity":1.329767,"poster_path":"\/9Q4SfU01vVpWQVaNLtqfCT6pQwq.jpg","original_language":"en","original_title":"Home Fires Burning","genre_ids":[18],"backdrop_path":null,"adult":false,"overview":"When a WW2 veteran comes back home,he realizes how the war affected Americans by seeing the changes in his wife,family,and best friend.","release_date":"1989-01-29"},{"vote_count":12,"id":30305,"video":false,"vote_average":4.5,"title":"Fireball","popularity":1.885968,"poster_path":"\/wUXPF00lG1KFLLJgdkIqU8ZAZWh.jpg","original_language":"th","original_title":"Ta chon","genre_ids":[12,28,878],"backdrop_path":"\/j4dyXrJzEtz7BWf7JxdIsgoxLXs.jpg","adult":false,"overview":"Tai gets out of jail and discovers that his twin brother, Tan has been in coma for the past year. Tan has entered the world of Fireball, a violent game based on basketball hosted by underground criminal gangs, to raise money for Tai's early release. However, he was brutally beaten by another player, Tun. Tai agrees to join Den's team so that he can track down the man who hospitalised his brother. Tai is befriended by his teammates: Singh, a Thai boxing champion who wants to prove that he is the best; Muk, a Thai-African guy who needs money to support his family; IQ, a cheerful character who only wants to help his mother; and K, an old friend of Tan who has a mysterious past. He and his teammates must risk their lives and fight their way to the final round of the deadly Fireball championships so that Tai can avenge his brother on the court.","release_date":"2009-01-29"},{"vote_count":2,"id":52876,"video":false,"vote_average":5,"title":"Washington, You're Fired!","popularity":1.101223,"poster_path":"\/2AdZacEZEeg13U8DVh5fZ22GpGO.jpg","original_language":"en","original_title":"Washington, You're Fired!","genre_ids":[99],"backdrop_path":null,"adult":false,"overview":"Washington, You’re Fired captures the spirit and zest of an old fashioned Boston tea party and captivatingly delivers the audience an education into detrimental legislation that will affect them and generations of Americans to come. Solutions and game plans are laid on a table of change... it's up to you to pick up the just cause of liberty and light the fires of freedom.","release_date":""},{"vote_count":2,"id":411718,"video":true,"vote_average":6.5,"title":"WWE: Monday Night War Vol. 1: Shots Fired","popularity":2.373014,"poster_path":null,"original_language":"en","original_title":"WWE: Monday Night War Vol. 1: Shots Fired","genre_ids":[99],"backdrop_path":null,"adult":false,"overview":"Two companies. One goal - to be the only name in sports-entertainment. This 20-episode WWE Network series delivers the in-depth stories of both Vince McMahon's WWE and Ted Turner's WCW, as they battle head to head in a primetime power struggle that forever changed the face of sports entertainment. Part four follows the path of Stone Cold Steve Austin from relative no-name in WCW to era-defining megastar in WWE. WCW unveils a potent new weapon, Goldberg. Plus, WCW cruiserweights take to the skies.","release_date":"2015-07-07"},{"vote_count":1,"id":363870,"video":false,"vote_average":4,"title":"Firestorm: 72 Hours in Oakland","popularity":1.518395,"poster_path":null,"original_language":"en","original_title":"Firestorm: 72 Hours in Oakland","genre_ids":[10770,28,18],"backdrop_path":null,"adult":false,"overview":"Based on the actual events of the 1991 brush fires that swept across Northern California which left countless people without homes. A rookie fire chief who just started his new job must deal with the raging fires.","release_date":"1993-02-07"},{"vote_count":2,"id":137270,"video":false,"vote_average":9,"title":"Jake and Amir: Fired","popularity":1.078346,"poster_path":"\/t0CfP2trNBdtAjY4muReYQchiMb.jpg","original_language":"en","original_title":"Jake and Amir: Fired","genre_ids":[35],"backdrop_path":null,"adult":false,"overview":"CollegeHumor's new CEO Alan Avery makes Jake an offer he can't refuse: fire Amir and get a promotion. However, Jake soon realizes that life without Amir isn't everything he expected.","release_date":"2011-12-01"},{"vote_count":1,"id":346552,"video":false,"vote_average":6,"title":"Firebrands Of Arizona","popularity":1.078334,"poster_path":"\/ubSeRAzYVgx1bBcmr8GgMyR1MAO.jpg","original_language":"en","original_title":"Firebrands Of Arizona","genre_ids":[37],"backdrop_path":"\/mhIlhjLQSbz2uXRPlPWrDnEQvfZ.jpg","adult":false,"overview":"The sheriff camps outside of town and tries to arrest Froggy and Sunset, but a gang of outlaws helps them get away.","release_date":"1944-12-01"},{"vote_count":1,"id":197022,"video":true,"vote_average":10,"title":"Disney's Magical Fireplace","popularity":1.041153,"poster_path":"\/uehlAjGs9Th14TZdS1yMeKejeN8.jpg","original_language":"en","original_title":"Disney's Magical Fireplace","genre_ids":[],"backdrop_path":null,"adult":false,"overview":"There's nothing like gathering your family around a roaring fire during the holidays. But what would happen if you added a little Disney magic? Introducing Disney's MAGICAL FIREPLACE, a virtual fireplace that's the next best thing to a real fire and a whole lot more fun! Filled with Disney Magic, it's nothing you've ever seen before! Look for hidden Mickeys and other favorite Disney characters as they mysteriously appear in the shadows. Everyone will \"ooh\" and \"aah\" as the glowing red flames dance to a symphony of fireworks, shimmering colors and spectacular surprises like only Disney can bring. How many classic Disney characters can you find? Choose from classic holiday music, with two beloved songs performed by Disney characters, or the snap, crackle and pop of a roaring fire! So wrap up the season with Disney's MAGICAL FIREPLACE -- it's the perfect way to say \"welcome home\" any day of the year.","release_date":"2008-01-30"},{"vote_count":6,"id":114816,"video":false,"vote_average":5.8,"title":"Firefly Dreams","popularity":2.081771,"poster_path":"\/c73RUqMcJPAX9NtvdgMHJduTXju.jpg","original_language":"en","original_title":"Ichiban utsukushî natsu","genre_ids":[18],"backdrop_path":null,"adult":false,"overview":"Naomi, a seventeen year-old city brat from Nagoya, finds her world turned upside down after the breakup of her parents' marriage. Packed off to the country, she reluctantly works at her aunt's inn until being asked to care for Mrs. Koide, an aging relative with Alzheimer's disease. At first, Naomi dislikes looking after the old woman, but over the course of the summer, the two develop an extraordinary friendship that transcends age and experience. The debut feature from international filmmaker John Williams (Midnight Spin), Firefly Dreams stars veteran Japanese actress Yoshie Minami (Akira Kurosawa's Ikiru) and newcomer Maho Ukai in a critically acclaimed performance.","release_date":"2001-06-05"},{"vote_count":1,"id":60033,"video":false,"vote_average":3,"title":"This World, Then the Fireworks","popularity":1.500139,"poster_path":"\/vXO9T4rbJFVRF6BbABHe7VKJdj9.jpg","original_language":"en","original_title":"This World, Then the Fireworks","genre_ids":[80,18,53],"backdrop_path":"\/jl2WoGLqAMQI8ornrIk6U9kMnCm.jpg","adult":false,"overview":"Marty Lakewood is a reporter forced to leave Chicago and his family because he had uncovered too much police corruption. He returns to his small home town on the California coast to his ailing mother and prostitute sister, with whom he had an incestuous affair. Being short of money, he seduces a woman cop in order to sell her house.","release_date":"1997-07-11"},{"vote_count":1,"id":163517,"video":false,"vote_average":2,"title":"Firebird 2015 AD","popularity":1.17073,"poster_path":"\/3cHfmciPUsF0YWbhyLKGn5DCNu.jpg","original_language":"en","original_title":"Firebird 2015 AD","genre_ids":[28,878,10749],"backdrop_path":"\/kB4DVGepLxedWZtOu32GKbwec3N.jpg","adult":false,"overview":"In one of many unpopular and unsupported policy decisions, the US government of the near future outlaws vehicle petrol in an effort to curb the overuse of limited natural resources - except, of course, for official purposes. There are many renegades who oppose the authorities, and will stop at nothing to allow themselves the freedom of burning around the countryside.","release_date":"1981-09-18"},{"vote_count":2,"id":90127,"video":false,"vote_average":4,"title":"Firewind: Live Premonition","popularity":1.149243,"poster_path":"\/hYSuzhamxr6KINQymfOUzdvfCfH.jpg","original_language":"en","original_title":"Firewind: Live Premonition","genre_ids":[10402],"backdrop_path":"\/qIVnuVy435tay7f9a9H1cah9zX2.jpg","adult":false,"overview":"Live Premonition is the first live DVD from the Greek band Firewind. It had 22 songs and is released on 2 CDs or 1 DVD there is also a combo pack. Songs 3-10 are from the Firewind album The Premonition all the other songs with exception of the solos are from prior Firewind albums It was filmed on 12 January 2008 and it was released 28 November 2008 The DVD contains a 22 song live concert and Extras.","release_date":"2008-11-28"},{"vote_count":0,"id":53733,"video":false,"vote_average":0,"title":"Luke's Fireworks Fizzle","popularity":1.002079,"poster_path":null,"original_language":"en","original_title":"Luke's Fireworks Fizzle","genre_ids":[35],"backdrop_path":null,"adult":false,"overview":"Luke, working in a fireworks factory.","release_date":"1916-12-17"},{"vote_count":3,"id":243955,"video":false,"vote_average":5.7,"title":"Firefly and the Coffee Machine","popularity":1.383581,"poster_path":"\/euS1TM0OQfayyNRWDBXPzLDiF3k.jpg","original_language":"en","original_title":"Firefly and the Coffee Machine","genre_ids":[16],"backdrop_path":null,"adult":false,"overview":"A forgotten robo-coffee-maker lives in the shadow of his inventor’s latest creation.","release_date":""},{"vote_count":0,"id":112728,"video":false,"vote_average":0,"title":"Flash and the Firecat","popularity":1.009144,"poster_path":"\/tgJwaq9GDtG8MqrZ6qMBaXRPf9a.jpg","original_language":"en","original_title":"Flash and the Firecat","genre_ids":[],"backdrop_path":null,"adult":false,"overview":"Gang of robbers use dune buggies for their big heist.","release_date":"1976-09-03"},{"vote_count":1,"id":271942,"video":false,"vote_average":3,"title":"Fireplace: Visions of Tranquility","popularity":1.110715,"poster_path":"\/pQTFfnAJKf3bmr6yxuN7oSavRpU.jpg","original_language":"en","original_title":"Fireplace: Visions of Tranquility","genre_ids":[99],"backdrop_path":"\/hUCl1lBVQSooT5wyttud31IXCWf.jpg","adult":false,"overview":"Four different fireplace flames allow the viewer to choose a fire and soundtrack to set the right mood. Sit back, relax, and enjoy the dancing flames and crackling roar of Fireplace.","release_date":"2007-10-30"},{"vote_count":2,"id":31697,"video":false,"vote_average":5,"title":"Fireplace in a Box","popularity":1.107841,"poster_path":"\/lOwAhI44l9DVOp2uOmumUFyqjxa.jpg","original_language":"en","original_title":"Fireplace in a Box","genre_ids":[99],"backdrop_path":"\/9bviSvbeRK3MpuJ7OwQyULcqakj.jpg","adult":false,"overview":"FIREPLACE IN A BOX transforms the television screen into a crackling fire that is sure to lend comfort and warmth to any room.","release_date":"2007-08-07"}]}