{"page":26,"total_results":567,"total_pages":29,"results":[{"vote_count":78,"id":93289,"video":false,"vote_average":7.2,"title":"Now Where Did the Seventh Company Get to?","popularity":5.720032,"poster_path":"\/zaTSxlRTPF0rJXNJeskCdck80AR.jpg","original_language":"fr","original_title":"Mais où est donc passée la 7ème compagnie ?","genre_ids":[35,10752],"backdrop_path":"\/9BIz263eD7Pp7HXbzxDd1R5z2ph.jpg","adult":false,"overview":"1940: During the chaotic running fights of the French army the 7th company disappears - nobody knows they've been taken captive. Only their scouting patrol, three witty but lazy guys, can escape and now wanders around behind the German lines. They'd like to just stay out the fights, but a Lieutenant urges them to use a captured truck to break through to their troops. Written by Tom Zoerner","release_date":"1973-01-01"},{"vote_count":1,"id":452165,"video":false,"vote_average":10,"title":"#WhereIsBeauty","popularity":1.258332,"poster_path":"\/qF350lLzUKaYeWbCX1CdchUXvrE.jpg","original_language":"en","original_title":"#WhereIsBeauty","genre_ids":[10751,18],"backdrop_path":"\/ep4idE4XzdNZH3FFmzKyxLRjp2I.jpg","adult":false,"overview":"Nina, mid 20’s, is a visual artist whose art depicts the feminine beauty of all women but struggles with self-identity as a multicultural millennial woman. While flipping through social media her frustration leads her to brood over old photos of complex stages in her life. She’s inspired to create a portrait that represents her personal voyage to self confidence and finally see her beautiful self.","release_date":"2016-06-03"},{"vote_count":0,"id":198580,"video":false,"vote_average":0,"title":"Dickey Betts & Great Southern: Back Where It All Begins Live At The Rock And Roll Hall Of Fame","popularity":1.004612,"poster_path":"\/5y21T0P2lVpeWbye5F0A2JMs4Aq.jpg","original_language":"en","original_title":"Dickey Betts & Great Southern: Back Where It All Begins Live At The Rock And Roll Hall Of Fame","genre_ids":[10402],"backdrop_path":null,"adult":false,"overview":"As lead guitarist with the legendary ALLMAN BROTHERS BAND, Dickey Betts was one of the main songwriters of such legendary songs as \"In Memory of Elizabeth Reed\", \"Ramblin’ Man\" and of course, \"Jessica\". Now, see Dickey Betts and his band Great Southern perform many of these classics in High Definition, with 5.1 Surround Sound and DTS audio.","release_date":"2005-09-20"},{"vote_count":0,"id":383542,"video":false,"vote_average":0,"title":"Where's I. W. Abel?","popularity":1,"poster_path":null,"original_language":"en","original_title":"Where's I. W. Abel?","genre_ids":[99],"backdrop_path":null,"adult":false,"overview":"Made by Kartemquin and a rank-and-file steel workers caucus, the film documents the opposition of the rank-and-file to the no-strike agreement between Steelworkers President I.W. Abel and the ten major steel companies, made without a vote by the membership of the union. Featuring Staughton Lynd.","release_date":"1975-01-01"},{"vote_count":0,"id":318705,"video":false,"vote_average":0,"title":"Spizzenergi: Where's Captain Kirk?: Spizzenergi Live","popularity":1,"poster_path":null,"original_language":"en","original_title":"Spizzenergi: Where's Captain Kirk?: Spizzenergi Live","genre_ids":[],"backdrop_path":null,"adult":false,"overview":"With a full band backing him, the U.K. vocalist known as \"Spizz\" takes the stage at the Holidays in the Sun Festival in Blackpool, England, in 1996, delivering his trademark atonal punk and cheeky British wit. Tracks include \"6000 Crazy,\" \"Mega City 3,\" \"No Room,\" \"Soldier Soldier,\" \"We Want the World,\" \"Central Park,\" \"Red and Black,\" \"Energy Crisis,\" \"Spock's Missing,\" \"Where's Captain Kirk?\" and \"The Model.\"","release_date":""},{"vote_count":0,"id":270936,"video":false,"vote_average":0,"title":"Ellen ten Damme: As I Was Wondering Where This Mixed-up Little Life of Mine Was Leading To","popularity":1.005509,"poster_path":"\/pOAg0v02O0uqJmd3xPqFAWhi7Eq.jpg","original_language":"en","original_title":"Ellen ten Damme: As I Was Wondering Where This Mixed-up Little Life of Mine Was Leading To","genre_ids":[99],"backdrop_path":null,"adult":false,"overview":"Documentary about Dutch artist Ellen ten Damme and her battle against breast cancer at age 38.","release_date":"2007-04-19"},{"vote_count":2,"id":58312,"video":false,"vote_average":4.8,"title":"Small Time And Where's The Money Ronnie?","popularity":1.128055,"poster_path":"\/9KGtcuvpRj9z81C8uIhhAElsE0I.jpg","original_language":"en","original_title":"Small Time And Where's The Money Ronnie?","genre_ids":[35,80],"backdrop_path":"\/9CkJ9BWz7rM6YrnXt4ONLDX3VRh.jpg","adult":false,"overview":"Where's the money Ronnie? A gang of criminals steal from the rich to give to the poor on the mean streets of Nottingham.... Small Time follows a gang of small time crooks in an English town. Malc is in danger of losing his girlfriend Kate if he doesn't spend more time at home and the gang leader Jumbo looks like he is about to lose control.","release_date":"1998-04-06"},{"vote_count":0,"id":507358,"video":false,"vote_average":0,"title":"Where’s George?","popularity":1.25,"poster_path":null,"original_language":"en","original_title":"Where’s George?","genre_ids":[],"backdrop_path":null,"adult":false,"overview":"The story of George Caputo, a seventeen-year old soldier who, refusing to serve in Vietnam, took refuge in the Columbia University Chapel.","release_date":""},{"vote_count":0,"id":75407,"video":false,"vote_average":0,"title":"BBC - Horizon - Where's My Robot?","popularity":1.112959,"poster_path":null,"original_language":"en","original_title":"BBC - Horizon - Where's My Robot?","genre_ids":[99],"backdrop_path":"\/b0eVucQom0TmEHS8z0BfH5sSrna.jpg","adult":false,"overview":"Danny Wallace really wants a robot. He wants it to walk like him and talk like him. It's what scientists have been promising us for generations but it's a promise so far unfulfilled. Danny circumnavigates the globe searching for robot nirvana and trying to uncover how far away his dream is.","release_date":"2008-12-16"},{"vote_count":1,"id":352898,"video":true,"vote_average":10,"title":"DUDE, WHERE'S MY COUCH?: The EmGo 100,000 Subscriber Special!","popularity":1.072471,"poster_path":null,"original_language":"de","original_title":"DUDE, WHERE'S MY COUCH?: The EmGo 100,000 Subscriber Special!","genre_ids":[],"backdrop_path":null,"adult":false,"overview":"","release_date":"2015-03-22"},{"vote_count":0,"id":180927,"video":false,"vote_average":0,"title":"Spot: Where's Spot? and Other Stories","popularity":1.012225,"poster_path":"\/yCx7hX9zDk1L7Ft3KHJYhFuERaI.jpg","original_language":"en","original_title":"Spot: Where's Spot? and Other Stories","genre_ids":[],"backdrop_path":null,"adult":false,"overview":"Spot, the delightful star of Eric Hill’s beloved children’s books, makeshis return to DVD as BBC celebrates his 30th Anniversary with an all-new DVD edition of Where’s Spot! Spot has disappeared! Can you help Sallyfind him? Is he behind the door? Is he inside the clock? Is he under the stairs? Kids will love searching for Spot in this adorable children’s classic. Plus, in this DVD, you’ll also have fun with Spot at the playground, at the park, in the bath, and more! There are six episodes all together, each with its own special song, plus three bonus episodes, games, and more! Spot has never been so delightful! Where’s Spot will be the first in a series of DVD releases to roll out over the next two years, including Happy Birthday Spot and Spot’s Magical Christmas coming later in 2010!","release_date":"2010-04-20"},{"vote_count":0,"id":300181,"video":false,"vote_average":0,"title":"Where's the Beer and when do we get paid?","popularity":1.01059,"poster_path":"\/m1fNLDKql0B5IQD4DGjRtEdrCvF.jpg","original_language":"en","original_title":"Where's the Beer and when do we get paid?","genre_ids":[99],"backdrop_path":null,"adult":false,"overview":"Documentary about Jimmy Carl Black, the legendary drummer of Frank Zappa’s “Mothers of Invention”. He later lived in a small Bavarian village. The filmmakers followed his last two years of living and drumming and made a film about sex, drugs, Rock'n'Roll and no old age support.","release_date":"2013-08-29"},{"vote_count":0,"id":515370,"video":false,"vote_average":0,"title":"Whereufrom","popularity":1.175121,"poster_path":"\/w3gfxykAswESFHyPe3lvIoALxeg.jpg","original_language":"uk","original_title":"Вєаюфром","genre_ids":[99],"backdrop_path":"\/7LKMkQ7sHZxdDGQAFWiC32WmSfx.jpg","adult":false,"overview":"Zhenya is 45 years old, he lives in Ukraine, and works as a street cleaner. His mother lives in the US and got him a green card. To maintain it, he has to travel to America every year. Zhenya is looking for a woman and wants to get married. He records his life on video. This movie explores the reality of selfies by using two cameras: one belongs to the protagonist, the other is operated by the director. As a result, the two realities merge in one film.","release_date":"2017-12-05"},{"vote_count":0,"id":402760,"video":false,"vote_average":0,"title":"Whereabouts","popularity":1.005882,"poster_path":"\/tBzqZtZRsbwdTvkWmh2DTwwzTx8.jpg","original_language":"zh","original_title":"Xia luo","genre_ids":[18],"backdrop_path":null,"adult":false,"overview":"A romantic drama depicting the relationship and series of conflicts between two petite bourgeoisie in China's metropolis Shanghai.","release_date":"2011-04-08"},{"vote_count":0,"id":357326,"video":false,"vote_average":0,"title":"The Whereabouts of Jenny","popularity":1.224347,"poster_path":"\/eQg9k5NlSeMMO1hMs2xujQgXQGU.jpg","original_language":"en","original_title":"The Whereabouts of Jenny","genre_ids":[18,10770],"backdrop_path":null,"adult":false,"overview":"Jimmy O'Meara loves his daughter more than anything in the world. But when his ex-wife gets involved with a man who's involved with criminals, his world is turned upside down. They have entered the Witness Protection Program and the government attorney who is in charge of the program is being highly uncooperative with Mr. O'Meara's request that he be granted access to his daughter. This starts an intense legal battle.","release_date":"1991-01-14"},{"vote_count":2,"id":186270,"video":false,"vote_average":0,"title":"Wherever You Go","popularity":1.134107,"poster_path":"\/eBCm8TAcrvXNHiJdhABY6kBWgvK.jpg","original_language":"en","original_title":"Wherever You Go","genre_ids":[18],"backdrop_path":"\/dG5uiEBBLMHDaF1aggVhwOwWDyy.jpg","adult":false,"overview":"One of the strongest examples of Israeli cinematic storytelling in recent years. Zuhara is on her way to her younger sister’s wedding, when she picks up Neriman, a young Bedouin hitchhiker escaping from an arranged marriage. As she unintentionally becomes an accomplice in Neriman’s struggle, Zuhara must confront her conflicted feelings toward her estrangement from her own family. Director Rony Sasson Angel sensitively evokes moving drama through the characters’ quiet exchanges, while building to a powerful climax. Stars Hila Vidor and Maisa Abed Elhadi make the tension and camaraderie between these two strangers palpable and touching. A deeply-poignant and visually-striking road movie.","release_date":"2015-09-16"},{"vote_count":0,"id":211855,"video":false,"vote_average":0,"title":"Wherever She Goes","popularity":1.001193,"poster_path":"\/kUWr37m2eybN2ghVNFXYmvqYAUv.jpg","original_language":"en","original_title":"Wherever She Goes","genre_ids":[18],"backdrop_path":null,"adult":false,"overview":"Film biography of Eileen Joyce, the celebrated Australian pianist, concentrating on her childhood in the Tasmanian bush and the Kalgoorlie goldfields. Opening and closing scenes showed the pianist herself performing at a concert.","release_date":"1951-07-06"},{"vote_count":1,"id":479734,"video":false,"vote_average":5,"title":"Wherever You Go, There We Are","popularity":1.141467,"poster_path":"\/zhf3zLySt6yU0PRRtNaEbxkApNI.jpg","original_language":"en","original_title":"Wherever You Go, There We Are","genre_ids":[99],"backdrop_path":null,"adult":false,"overview":"Assisted by a buoyant electro-acoustic soundtrack, McLean maps an evocative cross-country travelogue through elegantly illustrated postcards and the strangely intoxicating language of junk emails.","release_date":"2017-10-06"},{"vote_count":0,"id":300648,"video":false,"vote_average":0,"title":"Wherever I Look, I See Myself","popularity":1.014282,"poster_path":"\/ldxkB1FtEy4YPAFRc241H531q8O.jpg","original_language":"no","original_title":"Wherever I Look, I See Myself","genre_ids":[],"backdrop_path":null,"adult":false,"overview":"A film by Kristoffer Borgli.","release_date":"2014-10-31"},{"vote_count":0,"id":488104,"video":false,"vote_average":0,"title":"Come Out, Come Out, Wherever You Are","popularity":1.000248,"poster_path":"\/vFpMd6th7tVlYRnHYcKtHnkdzIN.jpg","original_language":"en","original_title":"Come Out, Come Out, Wherever You Are","genre_ids":[],"backdrop_path":null,"adult":false,"overview":"Two American girls go on a vacation to England and mysterious things begin happening when one of them falls to her death from atop a monument.","release_date":"1974-09-10"}]}