{"page":32,"total_results":1170,"total_pages":59,"results":[{"vote_count":1,"id":198959,"video":false,"vote_average":8,"title":"Woman on Fire Looks for Water","popularity":1.079516,"poster_path":"\/6I4Ux5VIUHwE5vjUdHFIFiWtWcB.jpg","original_language":"en","original_title":"Woman on Fire Looks for Water","genre_ids":[],"backdrop_path":"\/tUuYqAicdAh4XA84kQs8Xmo9cOZ.jpg","adult":false,"overview":"Father and son wrestle with love in a small Malaysian fishing village. While father looks up an old lover he should have married years ago, his son faces a dilemma. Will he choose the girl he’s in love with, or the daughter of his boss?","release_date":"2009-09-12"},{"vote_count":34,"id":463800,"video":false,"vote_average":7.1,"title":"Firebase","popularity":4.739695,"poster_path":"\/e6qVOjp3QKHrA7k2sAbJSlDXkRM.jpg","original_language":"en","original_title":"Firebase","genre_ids":[28,878,10752],"backdrop_path":"\/uWLu8u7rbP9rWeeGkeIl2iKRvsw.jpg","adult":false,"overview":"Set during the Vietnam war, Firebase follows American soldier Hines through an ever-deepening web of science fiction madness.","release_date":"2017-06-28"},{"vote_count":2,"id":116970,"video":false,"vote_average":8,"title":"Ring of Fire: The Emile Griffith Story","popularity":1.073377,"poster_path":"\/j83gonCWLt1ltLi6VywSgNrtiHc.jpg","original_language":"en","original_title":"Ring of Fire: The Emile Griffith Story","genre_ids":[99],"backdrop_path":null,"adult":false,"overview":"A story of violence, love, sex, politics and media centered around the life of Griffith, a six-time world welterweight champion.","release_date":"2005-01-01"},{"vote_count":1,"id":262158,"video":false,"vote_average":6,"title":"Set the Piano Stool on Fire","popularity":1.068216,"poster_path":"\/Ael8VnfD184eXd0MskkNCBEDbSx.jpg","original_language":"en","original_title":"Set the Piano Stool on Fire","genre_ids":[99],"backdrop_path":null,"adult":false,"overview":"An intimate account of the relationship between young composer and pianist Kit Armstrong and the world renowned Alfred Brendel, Set the Piano Stool on Fire captures both the creative process and champions the value of teaching and collaboration. Featuring the only filmed footage of Brendel during his farewell tour, this is highly revealing and essential viewing for anyone interested in classical music.","release_date":"2011-06-04"},{"vote_count":1,"id":131443,"video":false,"vote_average":7.5,"title":"Sleepy Eyes of Death 5: Sword of Fire","popularity":1.459675,"poster_path":"\/yFJ622FT1ljIyEufsTsxBdC0ROt.jpg","original_language":"ja","original_title":"Sleepy Eyes of Death 5: Sword of Fire","genre_ids":[28,18],"backdrop_path":null,"adult":false,"overview":"Fifth film in the series.  When Kyoshiro, in a moment of weakness, saves the life of a woman being attacked on the road, he quickly finds himself entangled in a conspiracy involving a corrupt chamberlain, a wily merchant, the survivors of a pirate gang, and a missing treasure trove.","release_date":"1965-01-12"},{"vote_count":1,"id":508051,"video":false,"vote_average":10,"title":"Missed Warnings: The Bradford City Fire","popularity":1.053015,"poster_path":null,"original_language":"en","original_title":"Missed Warnings: The Bradford City Fire","genre_ids":[99],"backdrop_path":null,"adult":false,"overview":"A BBC programme about the Bradford fire.","release_date":"2015-05-14"},{"vote_count":1,"id":185499,"video":false,"vote_average":5,"title":"Ready, aim, fire!","popularity":1.615882,"poster_path":"\/sIt1wveGBZUREAugsoX7K8sjgT.jpg","original_language":"en","original_title":"Pim, pam, pum... ¡fuego!","genre_ids":[],"backdrop_path":"\/rGRLMQpkLCYX9uft8SNDsM1w8bm.jpg","adult":false,"overview":"","release_date":"1975-09-04"},{"vote_count":3,"id":87013,"video":false,"vote_average":5.2,"title":"Father of Four: Back to Nature","popularity":1.15498,"poster_path":"\/rPIYh1R4oeVkzpzOhE4W7PhF9S5.jpg","original_language":"da","original_title":"Far til fire - tilbage til naturen","genre_ids":[10751,35],"backdrop_path":"\/gRAj34h4YaWYVKdxNa7enMeOfXE.jpg","adult":false,"overview":"I 'Far til fire - tilbage til naturen' sættes Fars evner ud i friluftslivet  på prøve, da familien rejser på weekend i Sverige.  Familien skal besøge Annika, Fars kusine, hvis fødselsdag falder sammen med årets midsommerfest. Annika har en naturpark, og Far glæder sig til at vise børnene, hvor han legede som dreng. Onkel Anders griber chancen og trækker i sin gamle spejdertrøje og finder kompasset frem.","release_date":"2011-10-06"},{"vote_count":1,"id":137082,"video":false,"vote_average":5,"title":"In April the Following Year, There Was a Fire","popularity":1.071747,"poster_path":"\/owp0s701Rs2XgwYDqOPF1uw5KIB.jpg","original_language":"en","original_title":"สิ้นเมษาฝนตกมาปรอยปรอย","genre_ids":[],"backdrop_path":"\/il9pX4VAAdb0DniKPQv9oLGjGqj.jpg","adult":false,"overview":"Nuhm is a construction foreman working in Bangkok. The political instability in Thailand has making its presence felt in all business sectors. Nuhm suddenly finds himself out of jobs. He decides to leave Bangkok to go back to his hometown in the northeast of Thailand to attend his high school friend’s wedding during the Thai New Year in April -- which also happens to be the hottest month of the year. Nuhm reunites with his old friends at the wedding in Khon Kaen.","release_date":"2012-01-24"},{"vote_count":50,"id":2593,"video":false,"vote_average":7.5,"title":"The Fire Within","popularity":4.434357,"poster_path":"\/kOymqN0CSX44GxpkUCumNKQ7O9p.jpg","original_language":"fr","original_title":"Le Feu Follet","genre_ids":[18],"backdrop_path":"\/jBkyYruzlBTeLwiSptxdWjurTx8.jpg","adult":false,"overview":"Alain Leroy is a recovering alcoholic who decides to end his life, but first decides to visit his friends in Paris one last time, in an attempt at finding a reason to continue living.","release_date":"1963-10-14"},{"vote_count":2,"id":125537,"video":false,"vote_average":7,"title":"Smiling Fish & Goat On Fire","popularity":1.14244,"poster_path":"\/dCN855wZvVo5jH6oSdpdPQNKGI.jpg","original_language":"en","original_title":"Smiling Fish & Goat On Fire","genre_ids":[35,10749],"backdrop_path":null,"adult":false,"overview":"Two brothers share a house in LA's Fairfax district: Tony's a feckless actor, Chris is an accountant. Both are in relationships on rocky ground. As these emotions swirl, Tony meets his US Postal Service letter carrier, a single mom named Kathy who's come to LA from Wyoming with her daughter, a budding actress. Chris meets Anna, an Italian beauty working in the States for a few months wrangling animals on movie sets. Chris also befriends Clive, an aging and crusty man whose longing for his recently-deceased wife is a portrait of true love. Can Clive's example help Chris sort out his love life, and can Tony grow up enough to see the possibilities with Kathy and her daughter?","release_date":"1999-09-16"},{"vote_count":2,"id":54311,"video":false,"vote_average":9.3,"title":"Earth, Wind & Fire: Live in Tokyo","popularity":1.140687,"poster_path":"\/7HQjnXtmVYGEsCSoEsT3CM4VTTX.jpg","original_language":"en","original_title":"Earth, Wind & Fire: Live in Tokyo","genre_ids":[],"backdrop_path":null,"adult":false,"overview":"One of the hottest R&amp;B groups of all time, the legendary Earth, Wind and Fire in concert define excitement. Performing hit after hit in their distinctive style, the band gives everything they've got in this concert, captured live on their remarkable 1994 SRO tour of Japan, co-founder Maurice White's final performances. Always dynamite on stage with their unmistakable sound and showmanship, Earth, Wind and Fire combine all the greatest elements for one of the best live shows on Earth! Includes interviews with band members Philip Bailey, Verdine White, Ralph Johnson and Maurice White.  Tracklisting: 1. September 2. Let Your Feelings Show 3. Let's Groove 4. Runnin' 5. Boogie Wonderland 6. Can't Hide Love 7. Fantasy 8. Kalimba Interlude 9. Evil 10. Shining Star 11. Keep Your Head To The Sky 12. Reasons 13. Sing A Song 14. That's The Way Of The World 15. Wouldn't Change A Thing About You 16. After The Love Is Gone 17. System Of Survival","release_date":"1995-02-01"},{"vote_count":3,"id":64557,"video":false,"vote_average":5.3,"title":"Playing with Fire","popularity":2.857961,"poster_path":"\/mBHctT8zmMrMXmV5uGYIzypT9ZG.jpg","original_language":"fr","original_title":"Le Jeu avec le feu","genre_ids":[18],"backdrop_path":"\/huXS8S6aBjJ2c2Szus96kk0RPRH.jpg","adult":false,"overview":"Philippe Noiret plays a rich, Parisian banker whose daughter Carolina, (Anicee Alvine) is kidnapped by a ruthless organization. They threaten to have her abused by the sadistic clients of a brothel they run if Father doesn’t pay the ransom on time.","release_date":"1975-02-19"},{"vote_count":0,"id":363908,"video":true,"vote_average":0,"title":"Arcade Fire - Coachella Music and Arts Festival","popularity":1.012947,"poster_path":"\/6P5sV7GkfQwNdMupYOMsfSq7Xjk.jpg","original_language":"en","original_title":"Arcade Fire - Coachella Music and Arts Festival","genre_ids":[10402],"backdrop_path":null,"adult":false,"overview":"Arcade Fire - Coachella Music and Arts Festival","release_date":"2014-04-13"},{"vote_count":0,"id":455578,"video":false,"vote_average":0,"title":"Wong Fei-Hung: Bravely Crushing the Fire Formation","popularity":1.000001,"poster_path":"\/oyKeLsyNyO0DYXXa4KusYLjSl3L.jpg","original_language":"cn","original_title":"黃飛鴻勇破烈火陣","genre_ids":[18,28,12],"backdrop_path":null,"adult":false,"overview":"Wong Fei-Hung: Bravely Crushing the Fire Formation is the last film of the long running Huang Fei-hong series starring Tak-Hing Kwan","release_date":"1970-08-05"},{"vote_count":8,"id":44581,"video":false,"vote_average":5.9,"title":"The Fire Engine That Disappeared","popularity":1.577897,"poster_path":"\/yOdQLvnfMtWvmyoAES2CAZRCdFa.jpg","original_language":"sv","original_title":"Brandbilen som försvann","genre_ids":[53,80],"backdrop_path":null,"adult":false,"overview":"A routine mission ends up in a flaming inferno when a house suddenly explodes. It looks like a spectacular suicide attempt but the technical investigation reveals unexpected evidence. Beck and his men are soon on the tracks of a narcotic syndicate...","release_date":"1993-07-02"},{"vote_count":0,"id":496741,"video":false,"vote_average":0,"title":"Line of Fire: The Morris Dees Story","popularity":1.025439,"poster_path":"\/iduFDi4ewYl72UnhOS8SrskqAmp.jpg","original_language":"en","original_title":"Line of Fire: The Morris Dees Story","genre_ids":[18],"backdrop_path":null,"adult":false,"overview":"This is the story of Morris Dees, a civil rights lawyer, who's being threatened, so he has to have an armed bodyguard.","release_date":"1991-01-21"},{"vote_count":152,"id":62204,"video":false,"vote_average":7.2,"title":"Quest for Fire","popularity":8.110015,"poster_path":"\/p81jT5YVj0zNZiQoDe9eBZvw5Rc.jpg","original_language":"xx","original_title":"La Guerre du feu","genre_ids":[12,18],"backdrop_path":"\/gpI5ll8eKo9vx4hwnziOr5VeEhK.jpg","adult":false,"overview":"A colossal adventure odyssey that turns back the hands of time to the very beginning of man's existence. 80,000 years ago, when man roamed the earth, he was exposed to the many harsh elements of nature. Against the perilous atmosphere of rugged terrain, rival tribes and savage beasts, Quest for Fire examines a peaceful tribe's search for that all important element fire, and the knowledge to create it. Focusing on human dream as well as realistic insights into pre-historic man, the constant struggle for survival is vividly recreated in this sensational production.","release_date":"1981-12-15"},{"vote_count":0,"id":514097,"video":true,"vote_average":0,"title":"Arcade Fire Live at Reading Festival","popularity":1.023374,"poster_path":null,"original_language":"en","original_title":"Arcade Fire Live at Reading Festival","genre_ids":[],"backdrop_path":null,"adult":false,"overview":"August 28th, 2010 Concert  Ready to Start  Keep the Car Running  Neighborhood #2 (Laika)  No Cars Go  Haïti  Modern Man  Rococo  The Suburbs  The Suburbs (Continued)  Intervention  Crown of Love  Neighborhood #1 (Tunnels)  Sprawl II (Mountains Beyond Mountains)  We Used to Wait  Neighborhood #3 (Power Out)  Rebellion (Lies)  Encore:  Month of May  Wake Up","release_date":"2010-03-25"},{"vote_count":0,"id":265206,"video":false,"vote_average":0,"title":"Earth, Wind and Fire - Live in Japan","popularity":1.000841,"poster_path":"\/ln52XuybnoeTvx0DXDafD4IYada.jpg","original_language":"en","original_title":"Earth, Wind and Fire - Live in Japan","genre_ids":[10402],"backdrop_path":"\/6FHAFVYHBBNilKDPQzZL7X6sihS.jpg","adult":false,"overview":"Earth, Wind &amp; Fire are one of the most dynamic and creative funk bands to come out of the seventies and also one of the most successful. Earth, Wind &amp; Fire was led by Maurice White and this DVD captures them on stage in Japan in 1990 during the last tour that Maurice made with the group following the release of the \"Heritage\" album. Spectacularly staged as ever, the concert features all their best-loved songs.\r This all live concert from Japan features: System of Survival, Get Away, September, Fantasy, Shining Star, Kalimba Tree, After the Love Is Gone, For The Love Of You, Reasons, Brazilian Rhyme, Let's Groove and That's The Way of the World.\r The famed group, featuring the talents of Maurice White, Philip Bailey, and Verdine White perform live from the Tokyo Dome in Japan during their \"Heritage\" tour. Features some of their greatest hits. \"After the Love is Gone,\" Let's Groove,\" \"Reasons,\" \"Shining Star\" and many others.","release_date":"1990-06-01"}]}