{"page":53,"total_results":1170,"total_pages":59,"results":[{"vote_count":0,"id":255593,"video":false,"vote_average":0,"title":"Raging Hell Fires","popularity":1.000018,"poster_path":"\/v9qBjjuLg0ZhzKfx2tRe8R5eluo.jpg","original_language":"ja","original_title":"夢野久作の少女地獄","genre_ids":[],"backdrop_path":null,"adult":false,"overview":"Utae and Aiko attend an all-girl private school where the devoutly religious principal seems to be raping some of the students, including Utae. Aiko is really the principal’s daughter, and was horribly abused by him when she was a child. Or so the audience is led to believe. Eventually, Utae and Aiko kidnap the lecher and viciously torture him in scenes so diabolically Sadean that they could only have come from the pen of Kyusaku Yumeno, author of the well-regarded DOGRA MAGRA.","release_date":"1977-08-19"},{"vote_count":0,"id":461893,"video":false,"vote_average":0,"title":"Night of Orange Fires","popularity":1.000011,"poster_path":null,"original_language":"cs","original_title":"Noc oranzových ohnu","genre_ids":[],"backdrop_path":null,"adult":false,"overview":"","release_date":"1975-03-01"},{"vote_count":0,"id":464358,"video":false,"vote_average":0,"title":"The Circle of Fires","popularity":1.000001,"poster_path":null,"original_language":"en","original_title":"El círculo de fuegos","genre_ids":[],"backdrop_path":null,"adult":false,"overview":"Much of Juan Downey’s pioneering video work critiques the purported objectivity of ethnographic observation and documentation. To produce The Circle of Fires, the artist lived with his wife and stepdaughter among the Yanomami indigenous group in the Venezuelan Amazon for seven months; inviting the Yanomami to both make and watch videos of themselves, Downey inverted the conventional roles of observer and observed. Likely seeing themselves in this medium for the first time, the subjects are presented with a new vision of themselves through the screen’s alternate reality.","release_date":"1979-01-01"},{"vote_count":0,"id":354573,"video":false,"vote_average":0,"title":"River of Fireflies","popularity":1.000001,"poster_path":"\/mVolhB7zmxmr1MDDvKjZVWQhvB8.jpg","original_language":"ja","original_title":"螢川","genre_ids":[18],"backdrop_path":null,"adult":false,"overview":"During the winter in Toyama in 1962, Tatsuo Mizushima is fretting about his feelings for his classmate Eiko Tsujisawa while agonizing about his upcoming high school examinations. When he was little, he and Eiko had heard that in April of a year when the winter has been very harsh, any couple finding fireflies together needs to get married. However, his family's situation does not allow Tatsuo to continue his worrying about such things for very much longer.","release_date":"1987-02-21"},{"vote_count":6,"id":29800,"video":false,"vote_average":5.6,"title":"Deadly Target","popularity":1.746803,"poster_path":"\/eKQo4IShvJmpqPY2POP4HoIPX7V.jpg","original_language":"en","original_title":"Deadly Target","genre_ids":[28,12,53],"backdrop_path":"\/2ZVB1D1T6A5s14HPt86RU5it563.jpg","adult":false,"overview":"A Chinese gangster in Los Angeles escapes on the eve of his deportation to Hong Kong. A martial-arts master detective and his ragtag team get caught up in the action as they track down this ruthless killer.","release_date":"1994-01-01"},{"vote_count":4,"id":421875,"video":false,"vote_average":5.3,"title":"Who Killed My Husband","popularity":1.661163,"poster_path":"\/l1D0IKOS9zouoYPkJ772Uldyp33.jpg","original_language":"en","original_title":"Who Killed My Husband","genre_ids":[10770,53,9648,80],"backdrop_path":"\/4XNdLobnahCWzCJr5DQ3eXKnxh6.jpg","adult":false,"overview":"","release_date":"2016-03-01"},{"vote_count":43,"id":38442,"video":false,"vote_average":7.1,"title":"The Firemen's Ball","popularity":5.266139,"poster_path":"\/1Lyt8OM0bF4tqNPJLtgrs6ObSYY.jpg","original_language":"cs","original_title":"Hoří, má panenko","genre_ids":[35],"backdrop_path":"\/7ncgCjyUgL9EsRfbHVjl25jDHQa.jpg","adult":false,"overview":"In Milos Forman's satire on Communism set in a small Czechoslovakian town in the 1960s, the local firemen decide to organize a ball, however the proceedings are dogged by difficulty at every step. They plan to organize a beauty pageant at the ball, yet struggle tremendously to find enough pretty contestants. A lottery is planned for later in the evening, but the guests begin stealing the prizes. Then, inevitably, there is a fire in the town... It seems that whatever can go wrong, does go wrong.","release_date":"1967-12-15"},{"vote_count":3,"id":82331,"video":false,"vote_average":5.5,"title":"Fireheart: The Legend of Tadas Blinda","popularity":1.688727,"poster_path":"\/83nO1IjBRmtetW9d4xZjbkzBd9B.jpg","original_language":"lt","original_title":"Tadas Blinda. Pradžia","genre_ids":[12,18,36,10749],"backdrop_path":"\/6N9PY8RIUQxJ0PZSo0pTwN09jAV.jpg","adult":false,"overview":"A romance blooms between a noblewoman and a common man amid a peasant revolt against the brutal Russian army","release_date":"2011-01-01"},{"vote_count":49,"id":878,"video":false,"vote_average":6.6,"title":"The Punch Bowl","popularity":4.56256,"poster_path":"\/hpnng8FEULQpDmkqQf196jkmNFp.jpg","original_language":"de","original_title":"Die Feuerzangenbowle","genre_ids":[35],"backdrop_path":"\/kc4h5di5XGHjC0DB2bCUD2Amfnn.jpg","adult":false,"overview":"Die Feuerzangenbowle from Director Helmut Weiss is based on the novel by the same name from Heinrich Spoerl and Hans Reimann that has turned into a cult German film. The film tells the story of a writer Johannes Pfeiffer who goes undercover as a student in a high school after his friends told him that he missed out on a great life experience since he was home schooled.","release_date":"1944-01-28"},{"vote_count":0,"id":253640,"video":false,"vote_average":0,"title":"Love in Time of Fires","popularity":1.082998,"poster_path":"\/8FG7KD3V4NEetPHw3ejbDwjME2y.jpg","original_language":"en","original_title":"El amor en tiempo de incendios","genre_ids":[99],"backdrop_path":null,"adult":false,"overview":"Love in time of fires is a about the decline of a marriage that over time have struggled to stay together.","release_date":"2013-10-25"},{"vote_count":0,"id":475787,"video":false,"vote_average":0,"title":"Fired-Up or How I Turned My Rage Into Art","popularity":1.000008,"poster_path":"\/byp3RjcgqkJMa8VPuq4WwDcB81O.jpg","original_language":"en","original_title":"Fired-Up or How I Turned My Rage Into Art","genre_ids":[],"backdrop_path":null,"adult":false,"overview":"O.Funmilayo Makarah crosses the country interviewing people about their reactions to the \"not guilty\" verdict in the 1992 Rodney King beating case and the resulting unrest in Los Angeles.","release_date":"1992-01-01"},{"vote_count":1,"id":136597,"video":false,"vote_average":5,"title":"Flashfire","popularity":1.634901,"poster_path":"\/sUYNpxsynhPdoaqjdfkHexA8rWI.jpg","original_language":"en","original_title":"Flashfire","genre_ids":[80,28],"backdrop_path":null,"adult":false,"overview":"Police detective Jack Flinder is already in trouble with the rest of his force for imprisoning a corrupt partner, but now he has a new problem to deal with. Another officer has been murdered in a hotel room, where he was with a prostitute named Lisa, who managed to escape with her life. Flinder has to track down Lisa to find out what happened, but the answer proves the corruption in his department runs much deeper than he had initially believed.","release_date":"1994-09-15"},{"vote_count":1,"id":115466,"video":false,"vote_average":7,"title":"Secret Agent Fireball","popularity":1.330624,"poster_path":"\/6huqWB0SIs5pRYX34PC0nfe4Jgh.jpg","original_language":"en","original_title":"Le spie uccidono a Beirut","genre_ids":[28,12],"backdrop_path":"\/4fMCXcs2FBZI9qEZWnac7gQpKyl.jpg","adult":false,"overview":"An American CIA agent (Richard Harrison) must find the whereabouts of valuable microfilm that was smuggled over by two Russian scientists who had been hoping to defect.","release_date":"1965-01-12"},{"vote_count":0,"id":424125,"video":false,"vote_average":0,"title":"Fireworks, Ferris Wheels and Love","popularity":1.00202,"poster_path":"\/eCrHjvJ2d6Q6gQeHOVCbTqaHcFm.jpg","original_language":"ja","original_title":"恋と花火と観覧車","genre_ids":[10749],"backdrop_path":null,"adult":false,"overview":"Morihara was left a widower 8 years ago when his wife passed away. He attends his first mixer party under the guidance of his daughter. There he meets Fumika and starts conversation. Morihara is too shy to show his love since he is much older than Fumika. On learning that Fumika goes to England to study about English Tea, Morihara rushes to the airport but his effort is in vain. He takes out his dead wife's photo and consults her: \"I love Fumika, what should I do?\"","release_date":"1997-02-15"},{"vote_count":0,"id":444669,"video":false,"vote_average":0,"title":"Magistrate Toyama 2: Fireball Magistrate","popularity":1.001649,"poster_path":"\/dAO8nlRgc2bP2DNRnQef8gh0hnL.jpg","original_language":"ja","original_title":"Hinotama bugyô","genre_ids":[28,18],"backdrop_path":null,"adult":false,"overview":"","release_date":"1958-05-11"},{"vote_count":10,"id":46158,"video":false,"vote_average":5.2,"title":"Holocaust 2000","popularity":2.792266,"poster_path":"\/tns4LDq1hqcV5vhlU6ErrwS0TF.jpg","original_language":"en","original_title":"Holocaust 2000","genre_ids":[878,18],"backdrop_path":"\/bvjjMpM3FztrvzpAS7eTeLyHD9f.jpg","adult":false,"overview":"An executive in charge of a nuclear power plant in the Mid-East must stop his son-- who turns out to be the Anti Christ -- from blowing it up.","release_date":"1977-11-25"},{"vote_count":0,"id":84609,"video":false,"vote_average":0,"title":"Gold Raiders","popularity":1.293125,"poster_path":"\/8i8LCRRbfJpwEAV8QxrocYrvNF.jpg","original_language":"en","original_title":"Gold Raiders","genre_ids":[12,28],"backdrop_path":null,"adult":false,"overview":"An SOS message is sent out when a plane carrying gold worth $200 million dollars belonging to the free world is brought down somewhere in Thailand, and Robert Ginty is called upon to team up with his old flame Claudia Dubois. Together, they head up a small crack group of six undercover agents who are given the mission to infiltrate enemy lines and recover the gold.","release_date":"1984-05-25"},{"vote_count":0,"id":501692,"video":false,"vote_average":0,"title":"Tears Ox","popularity":1.363811,"poster_path":"\/nXgXsuMwEpg3bE9mPuuAu5fdndj.jpg","original_language":"en","original_title":"Boi de Lágrimas","genre_ids":[],"backdrop_path":null,"adult":false,"overview":"A political film about horror and solitude.","release_date":"2018-06-11"},{"vote_count":0,"id":328701,"video":true,"vote_average":0,"title":"Moomin - Spells and fireworks","popularity":1.006469,"poster_path":"\/a2n7pEUYickv9qdbrTxWg8yqAok.jpg","original_language":"en","original_title":"Muumit - Loitsuja ja ilotulituksia","genre_ids":[],"backdrop_path":null,"adult":false,"overview":"The spell - Everybody wake up if kutitellaan - except Moomins. Though it should, because it is spring. So Snufkin start investigating sleeping sickness secret.  Jysähdyksiä night - Weird jysähdykset controlled Moominvalley people and the mysterious girl gets Sniff the head pulley. Hemuliakin nervous ...  Mysterious fireworks - nightly fireworks secret is resolved. Hemulen receives the anticipated letter and the Moomin Valley is once again a cause for celebration.  Treasure hunt - Moominvalley arrives at the guest who is looking for gold. And when Muumipappa then receives the gift of a treasure map, begins Moomin Valley Digging the time.","release_date":""},{"vote_count":0,"id":261965,"video":false,"vote_average":0,"title":"119","popularity":2.288521,"poster_path":"\/fRUNiGVodLrpiYsvwUrsECzL2ou.jpg","original_language":"ja","original_title":"119","genre_ids":[35,18],"backdrop_path":null,"adult":false,"overview":"In Harari-cho, a small and quiet bayside town by the sea, the firemen have not seen a fire for nearly twenty years. Each day passes eventlessly... until one day. The monotony of their daily lives is interrupted by the appearance of a beautiful female college student, Momoko (Suzuki Kyoka), who comes to visit her aunt. After catching a glimpse of Momoko, both Tatsuya (Takenaka Naoto) and Nobuyuki (Akai Hidekazu) can't stop thinking about her. Since then, the small town is not so quiet anymore…","release_date":"1994-11-05"}]}