{"page":9,"total_results":567,"total_pages":29,"results":[{"vote_count":6,"id":422642,"video":false,"vote_average":0,"title":"Fantastic Beasts and Where to Find Them 5","popularity":2.112761,"poster_path":null,"original_language":"en","original_title":"Fantastic Beasts and Where to Find Them 5","genre_ids":[],"backdrop_path":null,"adult":false,"overview":"","release_date":"2024-12-31"},{"vote_count":0,"id":264124,"video":false,"vote_average":0,"title":"Where Were We...","popularity":1.004698,"poster_path":null,"original_language":"en","original_title":"Where Were We...","genre_ids":[35],"backdrop_path":null,"adult":false,"overview":"A couple sit on a log in front of sand dunes facing a small but clear beach. They are in the midst of a contemplative conversation. It isn't life changing, but it isn't an everyday chat, and they are engrossed. Suddenly, from behind a dune, a man comes hurtling into view. He accosts the couple, imploring them to help him.","release_date":"2002-06-01"},{"vote_count":1,"id":289740,"video":false,"vote_average":8,"title":"Where Evil Dwells","popularity":1.103604,"poster_path":"\/mLo4Qi6M5MFw008QUVYjfbIPgg1.jpg","original_language":"en","original_title":"Where Evil Dwells","genre_ids":[27,53],"backdrop_path":null,"adult":false,"overview":"Loosely based on an infamous 1984 Long Island murder case involving Satan-worshiping, teenage drug freaks (Knights of the Black Circle), David Wojnarowicz and Tommy Turner’s Where Evil Dwells is a low-budget D.I.Y. movie that walks the jagged lines between splatter flick, experimental film and transgressive art. The original footage was destroyed in a fire and the only footage that survived is this 28 minute preview that was put together for the Downtown New York Film Festival in 1985.","release_date":"1985-01-01"},{"vote_count":0,"id":394041,"video":false,"vote_average":0,"title":"Where to, Miss?","popularity":1.102686,"poster_path":"\/476UrSwAfiHzFIcOq0mv3nJB5EN.jpg","original_language":"en","original_title":"Where to, Miss?","genre_ids":[],"backdrop_path":null,"adult":false,"overview":"Becoming a taxi driver is Devki`s biggest wish. To reach this goal, Devki has to stand up first to her father, then her husband and at the end even her father-in-law. Devki's story in 'Where to, Miss?' tells us, why it is difficult for Indian women, to step out of their deep embedded roles.","release_date":"2015-10-09"},{"vote_count":3,"id":49570,"video":false,"vote_average":7.7,"title":"Cupola, Where the Furnaces Glow","popularity":2.006305,"poster_path":"\/rWqfsW9OBpT7nNndvuNRLqqyFih.jpg","original_language":"ja","original_title":"キューポラのある街","genre_ids":[18],"backdrop_path":"\/rl34kjkfIhRKkuXZGiIT4H3CHlm.jpg","adult":false,"overview":"Set in Kawaguchi in the early 60s, this simple story chronicles the lives of foundry families and one girl's dreams of higher education.","release_date":"1962-04-08"},{"vote_count":3,"id":131958,"video":false,"vote_average":4.7,"title":"Where Is Enohp Located?","popularity":1.413142,"poster_path":"\/tNyjlScAHeN6JC3Q9gDNHpsgmJU.jpg","original_language":"en","original_title":"Gde Nakhoditsya Nofelet?","genre_ids":[35],"backdrop_path":"\/zfNZ9lIfI7NVA1mPHeYOr2fzOUX.jpg","adult":false,"overview":"Pasha is a very shy and quiet person. He is almost 40 but is not married yet and cannot even find courage to ask a woman for a date. His best friend Gena on the contrary is a womanizer. His favorite pick up scheme is to ask a woman on the street \"Where's the nearest nofelet?\" He promised Pasha's parents to find a girlfriend for him but among dozens of women he successfully picks up not a single one is a perfect match for Pasha.","release_date":"1987-06-06"},{"vote_count":3,"id":81227,"video":false,"vote_average":5.3,"title":"Where is the General?","popularity":1.409311,"poster_path":"\/p8wQ7Q8ZqwWgZydluDMxtrGWCBI.jpg","original_language":"en","original_title":"Gdzie jest generał?","genre_ids":[35,10752],"backdrop_path":"\/lzOTje1g6zoG9VX1c119b3X0TyG.jpg","adult":false,"overview":"Waclaw Orzeszko is unlucky soldier. Nobody from the platoon likes him. One day he decided to go away from platoon. At the castle he meet Russian soldier Marusia. At this time German forces came at the castle. They must hide. But there is also second problem. Waclaw's platoon had to find deserter. Polish Soldier close to the castle.","release_date":"1964-01-01"},{"vote_count":1,"id":238343,"video":false,"vote_average":8,"title":"Where No Vultures Fly","popularity":1.094137,"poster_path":"\/54RF92Q1IhE6yGJ3UFN83KngH05.jpg","original_language":"en","original_title":"Where No Vultures Fly","genre_ids":[12],"backdrop_path":null,"adult":false,"overview":"A true story about an Englishman working as a game warden in Kenya who is disgusted by the ongoing destruction of African wildlife, and decides to create a national park to protect them.","release_date":"1951-11-06"},{"vote_count":0,"id":123507,"video":false,"vote_average":0,"title":"The Road to God Knows Where","popularity":1.561556,"poster_path":"\/ipgpJnXwQ8IpOA0zQPKUk4rnpJJ.jpg","original_language":"en","original_title":"The Road to God Knows Where","genre_ids":[10402,99],"backdrop_path":"\/y5I9pKfKQWug15bRwKb3mMxxwN4.jpg","adult":false,"overview":"Documentary of Nick Cave and the Bad Seeds' 1989 tour of America.","release_date":"1990-12-14"},{"vote_count":0,"id":464750,"video":false,"vote_average":0,"title":"Where the Skin Lies","popularity":1.087247,"poster_path":"\/htDXKPMcQKsz9E9RV17zOM1vRnG.jpg","original_language":"en","original_title":"Where the Skin Lies","genre_ids":[53,27],"backdrop_path":null,"adult":false,"overview":"Six people bound together by a traumatic experience decide to round off a year of group therapy in style. They join each other once more, traveling up to the Scottish Lowlands for a reunion weekend in a 1970s holiday let. Soon a number of mysterious and horrifying events start to expose the cracks in their relationships, and one by one they discover that trust runs but skin-deep. A night of closure turns out to be far more final than they could have anticipated.","release_date":"2017-08-26"},{"vote_count":1,"id":432861,"video":false,"vote_average":8,"title":"Where the Bears are 3","popularity":1.049823,"poster_path":"\/dUIXvBWHR3FR4bgDYgfiWjjcusi.jpg","original_language":"en","original_title":"Where the Bears are 3","genre_ids":[10770,35,9648],"backdrop_path":null,"adult":false,"overview":"From the creative team of Rick Copp (The Brady Bunch Movie) Joe Dietl (The Thin Pink Line) and Ben Zook (Jack and Jill) comes “Where The Bears Are,” a comedy mystery web series that follows the exploits of three gay bear roommates living together in Los Angeles, as they attempt to solve murders.","release_date":"2014-08-11"},{"vote_count":2,"id":423268,"video":false,"vote_average":6.5,"title":"Where The Devil Dwells","popularity":1.082353,"poster_path":"\/zMYgxZyVa7zEO5kczrZ3OiYotYy.jpg","original_language":"en","original_title":"Where The Devil Dwells","genre_ids":[27],"backdrop_path":null,"adult":false,"overview":"In 1989, the schizophrenic son of a serial killer is remanded to house arrest after attacking a man, but when his allegedly-slain father reappears to him and threatens to resume killing, he must grapple with the question of what is real and how he will survive.","release_date":"2014-01-01"},{"vote_count":1,"id":136954,"video":false,"vote_average":4,"title":"Where the Condors Fly","popularity":1.043952,"poster_path":"\/dTCNYKCHZVH5oUxhvxHUhE33kVi.jpg","original_language":"en","original_title":"Donde vuelan los condores","genre_ids":[],"backdrop_path":"\/sRxrz7u7VzLZlj0GvVuElUc9vdo.jpg","adult":false,"overview":"In his film, the Chilean film director accompanies Russian filmmaker Victor Kossakovsky during the shooting of his latest film. In Patagonia, at Lake Baikal and in Shanghai, Victor Kossakovsky explores the singular relationships between places and people on opposite sides of the world. Carlos Klein documents the making of this ambitious film in a very personal way, driven by his own inner search for images that still have an impact on us. While doing so, he reveals his own and Kossakovsky‘s ambiguous attitude towards filmmaking.","release_date":"2012-10-06"},{"vote_count":0,"id":254562,"video":false,"vote_average":0,"title":"Where the Buffalo Roam","popularity":1.075151,"poster_path":"\/xO77zO9fAqKjKDZeGujiZbRoz97.jpg","original_language":"en","original_title":"Where the Buffalo Roam","genre_ids":[],"backdrop_path":null,"adult":false,"overview":"Tex returns to Santa Fe to find his Mother murdered. Foster runs the town and all crimes committed by his gang are blamed on Rogel and his men. He makes Tex Marshal but this backfires when Tex enlists Rogel and his men and goes after Foster who he now knows is responsible for his Mother's death.","release_date":"1938-10-12"},{"vote_count":2,"id":338953,"video":false,"vote_average":0,"title":"Fantastic Beasts and Where to Find Them 3","popularity":2.019795,"poster_path":null,"original_language":"en","original_title":"Fantastic Beasts and Where to Find Them 3","genre_ids":[14],"backdrop_path":null,"adult":false,"overview":"The adventures of writer Newt Scamander in New York's secret community of witches and wizards seventy years before Harry Potter reads his book in school.","release_date":"2020-11-19"},{"vote_count":2,"id":289777,"video":false,"vote_average":6.3,"title":"Where There's a Will","popularity":1.372499,"poster_path":"\/vRTwWiMB357WfVnTnTgR76ENPpG.jpg","original_language":"en","original_title":"Where There's a Will","genre_ids":[35],"backdrop_path":null,"adult":false,"overview":"A Cockney family inherit a ramshackle Devon farm. The rest of the family don't want to leave London but the father insists and off they go, to face the unknown.","release_date":"1955-03-01"},{"vote_count":1,"id":128087,"video":false,"vote_average":5,"title":"Where the Boys Are","popularity":1.067054,"poster_path":"\/mZOMFKh1QTazE7hyBwaVIQfdVFo.jpg","original_language":"en","original_title":"Where the Boys Are","genre_ids":[],"backdrop_path":null,"adult":false,"overview":"A few girls in an apartment. Across the street men are building a mosque.","release_date":"2010-01-01"},{"vote_count":0,"id":149865,"video":false,"vote_average":0,"title":"Where the Truth Lies","popularity":1.067036,"poster_path":"\/jqKZW9Mn4YXMcwEl6x5hvlKa2sS.jpg","original_language":"es","original_title":"Where the Truth Lies","genre_ids":[53],"backdrop_path":"\/JbODl2Ftptdr0Y04fQonSVOjHZ.jpg","adult":false,"overview":"Courtroom drama where an ambitious but inexperienced young lawyer defends a deaf political campaign manager accused of murder. But is her client too blinded by love to reveal all?","release_date":"1999-09-13"},{"vote_count":1,"id":432859,"video":false,"vote_average":7,"title":"Where the Bears are 2","popularity":1.046172,"poster_path":"\/l3VznslkIa3aQCaS7aiMLbP57iB.jpg","original_language":"en","original_title":"Where the Bears are 2","genre_ids":[9648,35],"backdrop_path":null,"adult":false,"overview":"","release_date":"2013-10-06"},{"vote_count":0,"id":461064,"video":false,"vote_average":0,"title":"Where It Floods","popularity":1.061566,"poster_path":"\/pJLVRbmVgtgzFQK8njheimC2jQU.jpg","original_language":"en","original_title":"Where It Floods","genre_ids":[16],"backdrop_path":null,"adult":false,"overview":"Blind stubbornness in the face of global catastrophe, and the victims thereof. Calvin, his wife Patty and their son, Kenny, try to maintain their farm and survive in a flooded mid-western landscape despite the fact that (mostly) everyone else seems to have moved on to somewhere safer.","release_date":"2017-05-02"}]}