{"page":59,"total_results":1170,"total_pages":59,"results":[{"vote_count":12,"id":14818,"video":false,"vote_average":5.4,"title":"Dynamite Warrior","popularity":2.013218,"poster_path":"\/k74D6z5inZpVJw0YvmxydqD3qiA.jpg","original_language":"en","original_title":"Khon Fai Bin","genre_ids":[28,53],"backdrop_path":"\/xK8PIi05BZ0h4MCcgPBRxBH24Q7.jpg","adult":false,"overview":"The story is set in 1890s Siam. Siang is a young Muay Thai warrior and rocketry expert who steals back water buffalo taken from poor Isan farmers by unscrupulous cattle raiders. He is searching for a man with a tattoo who killed his parents.","release_date":"2006-11-09"},{"vote_count":1,"id":430223,"video":false,"vote_average":2,"title":"México Bárbaro II","popularity":3.451582,"poster_path":"\/z2CQf8iJQL69FL8FcGvO9MZQDFv.jpg","original_language":"es","original_title":"México Bárbaro II","genre_ids":[],"backdrop_path":"\/oM5Yfc7c5oIivi05lHzo29JNxHi.jpg","adult":false,"overview":"9  Mexican directors come together to narrate traditions and more brutal, ruthless and bizarre legends of our country.  Mexico Barbaro shows the world stories that are part of our popular culture, from sweet stories told by our grandmothers, the tooth fairy, witchcraft, the story behind the weeping woman, sexy Devil' servers, a pagan hero, the burnt woman, up to ancestral culinary bloody rites.  Traditions and legends that today continue to cause terror among Mexican people.  Included shorts:  **Paidós Phobos**  (Paidos Phobos)  **Potzonalli** (Potzonalli)  **Bolas De Fuego** (Fireballs)  **Exodoncia** (Exodontia)  **Vitriol** (Vitriol) **Dirección** **La Leyenda de Juan Soldado** (Juan the Soldier)  \"No Te Duermas\" (Do not sleep)  **Ya Es Hora** (It's About time).","release_date":"2017-05-27"},{"vote_count":0,"id":440030,"video":false,"vote_average":0,"title":"Tokusou Robo Janperson the Movie: Mother is Eternal! The Electric Brain’s Love and Passion on the Operating Table","popularity":1,"poster_path":"\/j11cc0BBT9hXtkHeZ09BYvSzOxC.jpg","original_language":"ja","original_title":"特捜ロボ ジャンパーソン THE MOVIE","genre_ids":[80,28,12,878],"backdrop_path":"\/iBf4JhL2LLx85998KodR0sU9J4a.jpg","adult":false,"overview":"Focusing on the search for Sayaka, a young girl whose mother has recently died. Sayaka’s father, an undercover F.B.I. agent, has had a rough relationship with his daughter since the death of her mother and feels that her kidnapping by the evil Neo-Guild is his fault. Sayaka has been angry at her father because he was away in America while her mother died, leaving her feeling abandoned. Aiding Sayaka's father in the search is Tokusou Robo Janperson! The two don’t get along at first, but things between them go smoother as they continue the search.","release_date":"1993-04-17"},{"vote_count":0,"id":253963,"video":false,"vote_average":0,"title":"The Glass Cage","popularity":1.001625,"poster_path":"\/k3ut8D5fiNFglwx5mMafWQgOkcq.jpg","original_language":"en","original_title":"The Glass Cage","genre_ids":[53,9648,80],"backdrop_path":null,"adult":false,"overview":"Two detectives investigate the murder of a local businessman by a mysterious woman.","release_date":"1964-02-06"},{"vote_count":1,"id":28300,"video":false,"vote_average":6,"title":"Pyro... The Thing Without a Face","popularity":1.239826,"poster_path":"\/kGwD0LBeeS9nc2MDzGGeVAL1rqW.jpg","original_language":"en","original_title":"Fuego","genre_ids":[27,53],"backdrop_path":null,"adult":false,"overview":"A married man has a brief affair, then goes back to his wife and children. His jilted mistress, believing that if he had no more family he'd come back to her, sets fire to his house, hoping to kill them. The man, unsuccessfully trying to rescue them, is horribly burned. After he undergoes an operation to reconstruct his face, he begins to plot his revenge against his former mistress.","release_date":"1964-01-22"},{"vote_count":3,"id":186969,"video":false,"vote_average":7,"title":"Rainbow Fireflies","popularity":1.155942,"poster_path":"\/6p4MvO1kGEnDUF03q1TVUNwQSt.jpg","original_language":"ja","original_title":"虹色ほたる 〜永遠の夏休み〜","genre_ids":[14,16],"backdrop_path":"\/qePHfRJpq7xTb6VAmXQ4JPKwu7c.jpg","adult":false,"overview":"One year ago, Yuuta lost his father from a car accident. Now in the 6th grade, Yuuta goes to catch a beetle at a dam on a deep mountain. Yuuta often went there with his father. There, Yuuta meets a strange old man. Due to heavy rain, Yuuta slips and falls down a bridge. He becomes unconscious.\r When Yuuta awakes, he see a child Saeko in front of him. Saeko takes Yuuta to a village that looks like something that existed 30 years ago. Yuuta has the feeling that he went into the past. He also meets Kenzou, who is the same age as Yuuta. They promise to go catch a bug the following day. Saeko then takes Yuuta to an old house. An old woman there treats Yuuta like a cousin. Yuuta doesn't know what is going on. At night, the strange old man he met earlier appears and tells Yuuta that he will belong to this time period for a month. Precious summer vacation for Yuuta begins ...","release_date":"2012-05-19"},{"vote_count":18,"id":41441,"video":false,"vote_average":6.2,"title":"The Sword with No Name","popularity":2.310787,"poster_path":"\/bGBChmdEJ10OcrUq6SSZ8DFFSTo.jpg","original_language":"ko","original_title":"The Sword with No Name","genre_ids":[28,18],"backdrop_path":"\/fH44AVhjtOmGuuhHJbWoeqSUYqr.jpg","adult":false,"overview":"A Joseon dynasty bounty hunter becomes the body guard of the queen he secretly loves.","release_date":"2009-09-24"},{"vote_count":0,"id":320674,"video":false,"vote_average":0,"title":"Le prince et la princesse de Naples","popularity":1.00163,"poster_path":null,"original_language":"xx","original_title":"Le prince et la princesse de Naples","genre_ids":[],"backdrop_path":null,"adult":false,"overview":"Elena of Montenegro and Victor Emmanuel III, followed by their escort.","release_date":"1897-12-12"},{"vote_count":1,"id":335073,"video":false,"vote_average":7,"title":"The Phoenix: Space Chapter","popularity":1.080648,"poster_path":"\/poQIHToFZtMoNM0yh3G7l3Vz0wF.jpg","original_language":"ja","original_title":"火の鳥 宇宙編","genre_ids":[878,18,14],"backdrop_path":null,"adult":false,"overview":"This is the third part of \"The Phoenix\" series of the Kadokawa Haruki Office Co., Ltd. version. It is an animation version of the original story by Tezuka Osamu that depicts the cruelty of love through the fate of spacemen destined to drift through the universe after losing their mother ship..","release_date":"1987-12-21"},{"vote_count":0,"id":361320,"video":false,"vote_average":0,"title":"Double Dragon in Last Duel","popularity":1.000008,"poster_path":"\/9sFcjQN8kSEu154HVx4aAxTGzNl.jpg","original_language":"ko","original_title":"불타는 소림사","genre_ids":[28],"backdrop_path":null,"adult":false,"overview":"A martial arts master is betrayed by a bandit leader, who wants to destroy his business. The bandit leader kills most of the master's family and takes his property. Years later, the master's son comes looking for revenge...","release_date":"1979-02-22"}]}