{"page":58,"total_results":1170,"total_pages":59,"results":[{"vote_count":2,"id":190677,"video":false,"vote_average":5,"title":"Burning of Durland's Riding Academy","popularity":1.072546,"poster_path":"\/a6uSBCFBr4yIVW1WuIZBQbfXp19.jpg","original_language":"en","original_title":"Burning of Durland's Riding Academy","genre_ids":[99],"backdrop_path":null,"adult":false,"overview":"A fire has swept through Durland's Riding Academy in Manhattan. The fire has mostly died down, but firefighters are still at the scene, hosing down the smoking remains of the buildings. Many others are there as well, helping to clean up, inspecting the ruins, or just getting a look at everything.","release_date":"1902-02-24"},{"vote_count":0,"id":255668,"video":false,"vote_average":0,"title":"Everything You Know Is Wrong","popularity":1.000309,"poster_path":"\/6fEoPqywwocMqtUTYPq7Byudg1N.jpg","original_language":"en","original_title":"Everything You Know Is Wrong","genre_ids":[35],"backdrop_path":"\/mdmMH8kEDTvT1Ow08nFKk2jvuU.jpg","adult":false,"overview":"\"Dogs flew space ships! The Aztecs invented the vacation! Men and Women are the same sex! Our forefathers took drugs! Your brain is not the boss!\". Great news! Famed dare-demon Reebus Cannibus is going to perform his greatest stunt ever! A leap down the bottomless comet pit to the center of the Earth! Join the fabulous Firesign Theatre for another of their mind-bending journeys as they explore the alien uprising in our midst! Dr. Happy Harry Cox is our guide under the watchful eye of mild-mannered trailer park manager, and member of the Funny Name Club of America, Art Wholeflaffer, as he presents all seekers (one born every minute!) with the key evidence proving the thesis that Everything You Know is Wrong!","release_date":"1975-01-01"},{"vote_count":0,"id":162572,"video":false,"vote_average":0,"title":"Up for Murder","popularity":1.027254,"poster_path":"\/uv1Fl8ZxJ3mHNKYjfiQLKureaXn.jpg","original_language":"en","original_title":"Up for Murder","genre_ids":[18],"backdrop_path":null,"adult":false,"overview":"Young reporter accidentially kills his newspaper's editor in a fight over the publisher's mistress, who is also the paper's society editor.","release_date":"1931-05-26"},{"vote_count":5,"id":71201,"video":false,"vote_average":4.5,"title":"Snake Eater II: The Drug Buster","popularity":1.364175,"poster_path":"\/ybZX1rsboOLqN3qdxtnMArQB8Az.jpg","original_language":"fr","original_title":"Snake Eater II: The Drug Buster","genre_ids":[28],"backdrop_path":"\/jTjJcnXqRENIMz7te0hVgaNVQsN.jpg","adult":false,"overview":"A Vietnam vet breaks out of a mental institution to go after drug-dealing gangsters who are selling contaminated product that is killing people.","release_date":"1989-10-01"},{"vote_count":154,"id":92321,"video":false,"vote_average":8.1,"title":"Hotarubi no Mori e","popularity":1.007507,"poster_path":"\/mDqzHV8UXWWNpZkoAbKmKX1ZxEE.jpg","original_language":"ja","original_title":"蛍火の杜へ","genre_ids":[10749,16,14],"backdrop_path":"\/nD8NF5gt5sQLxDTOpFdIhrJBR8L.jpg","adult":false,"overview":"One hot summer day a little girl gets lost in an enchanted forest of the mountain god where spirits reside. A young boy appears before her, but she cannot touch him for fear of making him disappear. And so a wondrous adventure awaits...","release_date":"2011-09-17"},{"vote_count":0,"id":278051,"video":false,"vote_average":0,"title":"Death Driver","popularity":1.000868,"poster_path":"\/73JcXipA6d7PbTzZ4kB59auFWaZ.jpg","original_language":"en","original_title":"Death Driver","genre_ids":[18,28,35],"backdrop_path":null,"adult":false,"overview":"Death Driver follows washed up stuntman \"Earl Owensby\" on his journey to regain the title of world champion driver.","release_date":"1977-09-01"},{"vote_count":3,"id":153847,"video":false,"vote_average":7,"title":"Enter Three Dragons","popularity":1.192277,"poster_path":"\/bsVSoVeiTt6p9DN5hm0axAn272f.jpg","original_language":"zh","original_title":"快拳怪招","genre_ids":[18,28],"backdrop_path":null,"adult":false,"overview":"Sammy is involved with gangsters to save his relative from a problem so he calls Dragon Hung from America to help him.","release_date":"1978-06-11"},{"vote_count":0,"id":433578,"video":false,"vote_average":0,"title":"Himitsu Sentai Gorenger: The Volcano's Last Big Eruption","popularity":1.147,"poster_path":"\/hOMGBSWNAwPaGQqOFojfmGNaWiz.jpg","original_language":"ja","original_title":"秘密戦隊ゴレンジャー 火の山最後の大噴火","genre_ids":[28,12,878],"backdrop_path":"\/qF3t8czmzJUp4BEbIpMksu72roK.jpg","adult":false,"overview":"When Magman makes a blunder that finally makes him lose the Black Cross Furher's trust, he begins a rampage against EAGLE with Navarone Fortress, the Gorenger must finally stop them. It features the destruction of Volcano Mask General Magman and his Mobile Fortress Navarone, as well as the Gorenger Machines, and the first appearance of his successor Commander-in-Chief Golden Mask. This is a theatrical version of episode 54 of the Himitsu Sentai Gorenger television series.","release_date":"1976-12-18"},{"vote_count":8,"id":58409,"video":false,"vote_average":6.8,"title":"Tiger Cage","popularity":3.307014,"poster_path":"\/69wsjtH9mToDoruld9bDmE3fFJC.jpg","original_language":"cn","original_title":"特警屠龙","genre_ids":[28],"backdrop_path":"\/4G8hKYdMj3KXXuyFAdFhxuBpfjt.jpg","adult":false,"overview":"Something fishy is going on in the anti-Drug Trafficking Unit of the HK Police, and only a few honest cops know that the corruption goes all the way to the top. However, they must prove their case quickly, and by unconventional means, after they are framed for murder and drug-trafficking themselves. Dodging bullets from cops and criminals alike, the race is on to clear their names, protect their loved ones, and bring their corrupt colleagues to justice.","release_date":"1988-07-28"},{"vote_count":1,"id":144989,"video":false,"vote_average":5,"title":"V Yarange Gorit Ogon","popularity":1.151208,"poster_path":"\/d0SjhpW0aAW7fwgWqgVvkjH5DBk.jpg","original_language":"ru","original_title":"В яранге горит огонь","genre_ids":[16,14],"backdrop_path":"\/7ixKmwER9pLNbp2HqVD23EmoHlO.jpg","adult":false,"overview":"Based on the fairytales of the North Russia.","release_date":"1956-01-01"},{"vote_count":3,"id":316301,"video":false,"vote_average":6.7,"title":"The Phoenix: Karma Chapter","popularity":1.405982,"poster_path":"\/fZGCj1MpNaIY4MWIENqR8LrQoWO.jpg","original_language":"ja","original_title":"火の鳥 鳳凰編","genre_ids":[16,18,14],"backdrop_path":null,"adult":false,"overview":"The story of two men - sculptor genius Akanemaru, and former bandit Gao. Discover how the lives of the two men cross repeatedly throughout their lives, how they struggle with their own fate, and how they are forced to compete with each other for a great honour, when karma is the only prize.","release_date":"1986-12-20"},{"vote_count":0,"id":149640,"video":false,"vote_average":0,"title":"The Awaken Punch","popularity":1.179711,"poster_path":"\/mn4dNJrjq6x9wdpaEo8AsbkD97T.jpg","original_language":"cn","original_title":"Shi po tian jian","genre_ids":[],"backdrop_path":null,"adult":false,"overview":"A man takes on a gang that has been terrorizing a small village.","release_date":"1973-05-23"},{"vote_count":3,"id":105503,"video":false,"vote_average":5.7,"title":"The No Mercy Man","popularity":1.160212,"poster_path":"\/cJEUf4W4EchS7n2YTWppeLFE7pE.jpg","original_language":"en","original_title":"The No Mercy Man","genre_ids":[18,28],"backdrop_path":null,"adult":false,"overview":"A decorated Vietnam Vet returns to his father's ranch in Arizona just as criminally minded carnies begin to cause trouble.","release_date":"1973-01-01"},{"vote_count":0,"id":485255,"video":false,"vote_average":0,"title":"Deadly Opponents","popularity":1.000002,"poster_path":"\/zul590ED5FOgKuII99mIMZOoDKr.jpg","original_language":"zh","original_title":"火燄掌與寒冰手","genre_ids":[28,12],"backdrop_path":null,"adult":false,"overview":"Flame hand wants to rule the martial world and test her skills, therefore she kills off many heroes, and Ice hand seeks to put an end to her. Family of slain heroes seeks revenge. A brilliant shapes film from 1978, plus the wheel chair fight is a must see.","release_date":"1978-12-30"},{"vote_count":0,"id":118390,"video":false,"vote_average":0,"title":"Venus in Furs","popularity":1.822412,"poster_path":"\/s94jardbxyXxo5JQfcyNyk40hch.jpg","original_language":"it","original_title":"Le malizie di Venere","genre_ids":[18],"backdrop_path":"\/sfr3NqiAygMz69JhvBuSLA3TJvP.jpg","adult":false,"overview":"Based on the infamous novel by Leopold Sacher-Masoch this fine film follows the perverted passions of a young couple as Severin watches the beautiful Wanda writhing naked amongst furs. His disturbing peeping tomism triggers off a whirlpool of emotions due to a childhood episode which punishes voyeurism with pain.","release_date":"1969-11-25"},{"vote_count":2,"id":73168,"video":false,"vote_average":9.5,"title":"Der brænder en ild","popularity":1.075907,"poster_path":"\/l6lyAWILtPvkxyofSCdGA7fel1w.jpg","original_language":"da","original_title":"Der brænder en ild","genre_ids":[10751,18],"backdrop_path":"\/isIyDMylQBEAWM8aD9ZxbJXvfxu.jpg","adult":false,"overview":"Martin vender hjem med en god sum penge på lommen efter at han har arbejdet på Grønland. Han slår sig ned hos sin søster, der driver kroen - men meget er ændret. Mest skuffet er han over, at hans ungdomskæreste Martha har giftet sig med Just Hovmand, som har gården ´Lunehøj´. Martin starter en maskinstation - og er straks klar til at hjælpe Martha og hendes mand, da de kommer i økonomiske vanskeligheder. Men den stædige Just vil ikke modtage penge fra Marthas tidligere kæreste. Som sædvanlig i en god Morten Korch-film er der et par hyggelige ´fætre´ - Chr. Arhoff og Peter Malberg - og de finder på mange gode løsninger...","release_date":"1962-12-26"},{"vote_count":1,"id":63698,"video":false,"vote_average":8,"title":"On a Moonlit Night","popularity":1.365142,"poster_path":"\/4r2QRKgGWqwGaET7BECyrKnSFGP.jpg","original_language":"en","original_title":"On a Moonlit Night","genre_ids":[],"backdrop_path":null,"adult":false,"overview":"An American journalist works for a French newspaper. He is writing an article about the reaction against people with AIDS, without knowing he is infected too. Once he finds out, he decides to cut off himself leaving his wife and daughter.","release_date":"1989-09-05"},{"vote_count":0,"id":252795,"video":false,"vote_average":0,"title":"Ninjutsu Hinotama Kozou: Edo no Maki","popularity":1.001712,"poster_path":"\/l0szjJ2WUxA7Ojh6BcFJKAjaMYw.jpg","original_language":"ja","original_title":"忍術火の玉小僧～江戸の巻～","genre_ids":[35,16],"backdrop_path":null,"adult":false,"overview":"A short story about a young ninja.","release_date":"1935-11-09"},{"vote_count":0,"id":253873,"video":false,"vote_average":0,"title":"Burning of the Red Lotus Monastery","popularity":1.004184,"poster_path":"\/299vwxXFOjzpzbnYUhyLPXiX0O3.jpg","original_language":"zh","original_title":"新火燒紅蓮寺","genre_ids":[],"backdrop_path":null,"adult":false,"overview":"Burning of the Red Lotus Monastery is based on a seminal wuxia novel that's been adapted for the screen numerous times throughout the history of Hong Kong martial arts cinema.","release_date":"1982-01-01"},{"vote_count":10,"id":36274,"video":false,"vote_average":7,"title":"Deadly Outlaw: Rekka","popularity":1.644097,"poster_path":"\/ahroybec8vV0G5wJsZ2reprAMr0.jpg","original_language":"ja","original_title":"実録・安藤昇侠道伝 烈火","genre_ids":[28,18,53],"backdrop_path":"\/n7ScKJ68J6in7bnRNyTCENQG01Z.jpg","adult":false,"overview":"After Kunisada's Yakuza leader and father figure is brutally murdered, he and his best friend go on a two-man mission to avenge his death, killing other Yakuza leaders leading to a final confrontation by the old man's killers..","release_date":"2002-09-21"}]}