{"page":44,"total_results":1170,"total_pages":59,"results":[{"vote_count":0,"id":140664,"video":false,"vote_average":0,"title":"Firestorm: Last Stand at Yellowstone","popularity":1.873236,"poster_path":"\/2wjdpOyW2Vigq3IPqDXg7mA9hRS.jpg","original_language":"es","original_title":"Firestorm: Last Stand at Yellowstone","genre_ids":[18,28],"backdrop_path":null,"adult":false,"overview":"When a freakishly hot summer at Yellowstone National Park creates the perfect conditions for the largest forest fire in American History... Look out!","release_date":"2006-09-04"},{"vote_count":0,"id":361561,"video":true,"vote_average":0,"title":"Living Fireplace","popularity":1.002692,"poster_path":null,"original_language":"en","original_title":"Living Fireplace","genre_ids":[10751,10402],"backdrop_path":null,"adult":false,"overview":"Filmed in beautiful High Definition and Widescreen format, this video transforms your TV into a Red Brick, Stone, Modern, Dark Marble, Light Marble, Christmas or Psychedelic fireplace.  Listen to the crackles and pops of the wood embers and relax to music.","release_date":"2005-12-24"},{"vote_count":0,"id":339532,"video":false,"vote_average":0,"title":"Fireplace Lounge","popularity":1.002353,"poster_path":"\/n0XHdx32TYG6pZszVQKIj2gsAqu.jpg","original_language":"de","original_title":"Fireplace Lounge","genre_ids":[],"backdrop_path":null,"adult":false,"overview":"","release_date":"2002-12-01"},{"vote_count":0,"id":120679,"video":false,"vote_average":0,"title":"Smouldering Fires","popularity":1.002103,"poster_path":"\/rhNFvyuH8brgpFkJ8QkhcDrxV6m.jpg","original_language":"en","original_title":"Smouldering Fires","genre_ids":[18],"backdrop_path":null,"adult":false,"overview":"A successful businesswoman falls in love with one of her (much younger) factory workers. She doesn't know that he is in love with her younger sister.","release_date":"1925-01-18"},{"vote_count":0,"id":404476,"video":false,"vote_average":0,"title":"Cuban Fireball","popularity":1.001747,"poster_path":"\/yvxrizvbA2vGoyVwfJltaqc5sUJ.jpg","original_language":"en","original_title":"Cuban Fireball","genre_ids":[10749,35,10402],"backdrop_path":"\/uKyKmo4d6OXOU8GTTzcqfRu8xzq.jpg","adult":false,"overview":"Cuban Fireball is a vehicle for the combustible talents of Estelita Rodriguez, here cast as \"herself.\" The plot finds Estelita arriving in Los Angeles to claim a multimillion-dollar inheritance. To fend off fortune hunters, she disguises herself as a meek little old lady.","release_date":"1951-03-05"},{"vote_count":0,"id":513289,"video":false,"vote_average":0,"title":"Per Firenze","popularity":1.001573,"poster_path":null,"original_language":"it","original_title":"Per Firenze","genre_ids":[],"backdrop_path":null,"adult":false,"overview":"","release_date":"1966-11-23"},{"vote_count":0,"id":222949,"video":false,"vote_average":0,"title":"Fiery Fireman","popularity":1.001178,"poster_path":"\/rLpapRqZEFy67oAWin2TFl6CWUv.jpg","original_language":"en","original_title":"Fiery Fireman","genre_ids":[35,16],"backdrop_path":null,"adult":false,"overview":"Oswald and his faithful horse rush to a blazing apartment area to rescue troubled residents.","release_date":"1928-10-15"},{"vote_count":0,"id":487856,"video":false,"vote_average":0,"title":"Fireworks Revisited","popularity":1.001177,"poster_path":null,"original_language":"en","original_title":"Fireworks Revisited","genre_ids":[],"backdrop_path":null,"adult":false,"overview":"This lesbian re-working of Kenneth Anger's homoerotic classic, is a heady mix of influences from the avant garde to girl gang movies.","release_date":"1994-06-11"},{"vote_count":0,"id":354452,"video":false,"vote_average":0,"title":"Chinese Firedrill","popularity":1.001177,"poster_path":"\/s6XkvKlOUbTzqrQoJJJSrYiZF1l.jpg","original_language":"en","original_title":"Chinese Firedrill","genre_ids":[],"backdrop_path":null,"adult":false,"overview":"'60s American short by Will Hindle.","release_date":"1968-08-14"},{"vote_count":0,"id":314168,"video":false,"vote_average":0,"title":"The Fireman","popularity":1.001177,"poster_path":null,"original_language":"en","original_title":"The Fireman","genre_ids":[],"backdrop_path":null,"adult":false,"overview":"Oswald and Bunny go to a Fireman's Picnic and make friends -- sort of -- with a lost kitten in this cartoon.","release_date":"1931-04-05"},{"vote_count":0,"id":424552,"video":false,"vote_average":0,"title":"Firework : Eyes","popularity":1.000038,"poster_path":"\/9njQZpMs9v3wmXe9xKeyqFgFJL1.jpg","original_language":"en","original_title":"Firework : Eyes","genre_ids":[18],"backdrop_path":null,"adult":false,"overview":"Part firework safety warning, part mini horror film, there's something deliberately uncanny about this 70s Central Office of Information ad. The everyday scenes of football at the park and kids at the sweetshop are intercut with the uncanny - a mysterious child seen only from behind. The final shot of a group of such kids seen through a distorted lens could be from The Midwich Cuckoos. The perfect recipe for children's nightmares and sleepless nights for parents – it's certainly an unforgettable warning. (BFI)","release_date":"1974-01-01"},{"vote_count":0,"id":510751,"video":false,"vote_average":0,"title":"Fired Up!","popularity":1.000019,"poster_path":null,"original_language":"en","original_title":"Fired Up!","genre_ids":[],"backdrop_path":null,"adult":false,"overview":"Never underestimate the power of one voice to change things, as wittily illustrated by 14 artists from around the world in this animated speech by Barack Obama.","release_date":""},{"vote_count":0,"id":114819,"video":false,"vote_average":0,"title":"Firefly Dreams","popularity":1,"poster_path":null,"original_language":"en","original_title":"Firefly Dreams","genre_ids":[18],"backdrop_path":null,"adult":false,"overview":"Naomi, a seventeen year-old city brat from Nagoya, finds her world turned upside down after the breakup of her parents' marriage. Packed off to the country, she reluctantly works at her aunt's inn until being asked to care for Mrs. Koide, an aging relative with Alzheimer's disease. At first, Naomi dislikes looking after the old woman, but over the course of the summer, the two develop an extraordinary friendship that transcends age and experience. The debut feature from international filmmaker John Williams (Midnight Spin), Firefly Dreams stars veteran Japanese actress Yoshie Minami (Akira Kurosawa's Ikiru) and newcomer Maho Ukai in a critically acclaimed performance.","release_date":""},{"vote_count":6,"id":143216,"video":false,"vote_average":6.2,"title":"Browncoats Unite: Firefly 10th Anniversary Special","popularity":2.6176,"poster_path":"\/nev2bjGBAiZBUMPc6wfu9CSZE8c.jpg","original_language":"en","original_title":"Browncoats Unite: Firefly 10th Anniversary Special","genre_ids":[10770],"backdrop_path":"\/6kGitAl7fnXZvX3qGa9nF1jNYd5.jpg","adult":false,"overview":"Science Channel reunites Joss Whedon, Nathan Fillion and the entire renegade crew of the Serenity for the first time ever to provide the complete oral history on the franchise that continues to explode in popularity — despite meeting its end a decade ago. The 60-minute special includes secrets from the set, exclusive cast interviews, and footage from this year's colossal Comic-Con panel that dominated the pop culture conversation.","release_date":"2012-11-11"},{"vote_count":0,"id":355420,"video":false,"vote_average":0,"title":"Western Firebrands","popularity":1.001202,"poster_path":"\/vxI9Xrmm1qMggks8f3aOfM0mWmH.jpg","original_language":"en","original_title":"Western Firebrands","genre_ids":[37],"backdrop_path":null,"adult":false,"overview":"Silent Western ....","release_date":"1921-11-01"},{"vote_count":0,"id":297665,"video":false,"vote_average":0,"title":"Deadly Weapons:  Firearms and Firepower","popularity":1,"poster_path":null,"original_language":"en","original_title":"Deadly Weapons:  Firearms and Firepower","genre_ids":[],"backdrop_path":null,"adult":false,"overview":"See and learn what real firearms and bullets will and won't do. Forget the Hollywood nonsense. Machine guns, shotguns, assault rifles, and pistols are demonstrated and explained. Will a bullet really knock a man down? Which bullets will penetrate a car door? How quiet is a real silencer? How effective is full-auto fire? This program is used by thousands of law enforcement and military agencies.","release_date":"1985-04-04"},{"vote_count":1,"id":413093,"video":false,"vote_average":5,"title":"Firestar: First Contact","popularity":1.042748,"poster_path":"\/rhCPxb2fg1nFYbMHHazuzyWO5u3.jpg","original_language":"en","original_title":"Firestar: First Contact","genre_ids":[878],"backdrop_path":null,"adult":false,"overview":"","release_date":"1991-01-01"},{"vote_count":33,"id":434552,"video":false,"vote_average":6.2,"title":"The Firefly","popularity":4.220146,"poster_path":"\/zaqFiSCXH7tebF0SekdKX6RY9Tj.jpg","original_language":"es","original_title":"La luciérnaga","genre_ids":[18,14,10749],"backdrop_path":null,"adult":false,"overview":"After her estranged brother's sudden death, young wife Lucia bonds with his fiancée through their shared grief and finds herself falling in love.","release_date":"2013-11-10"},{"vote_count":2,"id":108079,"video":false,"vote_average":6,"title":"The Monster of Florence","popularity":1.381666,"poster_path":"\/pQhfFULnu0EiV2EvNMGAnCAqTuo.jpg","original_language":"it","original_title":"Il mostro di Firenze","genre_ids":[27,80,53],"backdrop_path":null,"adult":false,"overview":"A string of sex murders has been plaguing Florence for almost 15 years, in which a serial killer brutally murders couples who are sneaking \"a quickie\" in public areas. A writer who is doing research for a book about the crimes sets out to uncover the identity of the killer, aided by his beautiful girlfriend. Based on a true story.","release_date":"1986-04-09"},{"vote_count":1,"id":26601,"video":false,"vote_average":7,"title":"Fires of Kuwait","popularity":1.380557,"poster_path":"\/fDztlsUdGxh7jpBEvxr632VRgpR.jpg","original_language":"en","original_title":"Fires of Kuwait","genre_ids":[99],"backdrop_path":"\/yydAsZRpR93Hf94r79uJFjMf29P.jpg","adult":false,"overview":"After Saddam Hussein had the Kuwait Oil wells lit up, teams from all over the world fought those fires for months. They had to save the oil resources, as well as reduce air pollution. The different teams developed different techniques of extinguishing the fires. Man's emergency creativity can be seen at it's best.","release_date":"1992-12-01"}]}