{"page":34,"total_results":1170,"total_pages":59,"results":[{"vote_count":0,"id":154271,"video":false,"vote_average":0,"title":"Fire Groove All Stars vol 1","popularity":1,"poster_path":"\/oNMHhcURylOsvt2fPH2xMXc0HDF.jpg","original_language":"en","original_title":"Fire Groove All Stars vol 1","genre_ids":[],"backdrop_path":"\/rwpGf9MeEnCbXfJhh6VGrGR1O0D.jpg","adult":false,"overview":"The Fire All-Stars are a group of the most dedicated fire dancers in the world, each hand-picked to appear in the documentary Fire All-Stars Vol. 1 . Individually, they are known for elevating their local communities through performances and classes, as a group they will blow-your-mind with unparalleled fire dance skills","release_date":""},{"vote_count":0,"id":250307,"video":false,"vote_average":0,"title":"Arcade Fire Live at Capitol Records 2013","popularity":1,"poster_path":"\/lL5Vlz6pwaCZxDv1DaWCe0zKrhh.jpg","original_language":"en","original_title":"Arcade Fire Live at Capitol Records 2013","genre_ids":[],"backdrop_path":null,"adult":false,"overview":"Arcade Fire Live at Capitol Records 2013","release_date":""},{"vote_count":0,"id":446551,"video":false,"vote_average":0,"title":"Told Her in Water by Fire","popularity":1,"poster_path":null,"original_language":"en","original_title":"Told Her in Water by Fire","genre_ids":[16],"backdrop_path":null,"adult":false,"overview":"Cutout animation exploring mysticism through the elements in domestic Americana.","release_date":""},{"vote_count":6,"id":60435,"video":false,"vote_average":5.7,"title":"Blessed by Fire","popularity":1.530047,"poster_path":"\/crK5sjRV5b3VccBFnHOCJ3IRVX4.jpg","original_language":"es","original_title":"Iluminados por el fuego","genre_ids":[18,10752],"backdrop_path":"\/bavqbLwrnfBgP4Zf0YiM6BT47Hr.jpg","adult":false,"overview":"Argentine film about the experiences of conscripts in the Falklands War.","release_date":"2005-09-08"},{"vote_count":2,"id":68473,"video":false,"vote_average":5.3,"title":"Complete Krav Maga - 03 - Line Of Fire","popularity":1.098956,"poster_path":"\/a1BGvRsEg5qsM3V0wpp0qbvlyM7.jpg","original_language":"en","original_title":"Complete Krav Maga - 03 - Line Of Fire","genre_ids":[99],"backdrop_path":"\/10HRi9PU72kVyKhLF9racYCa4Ot.jpg","adult":false,"overview":"You'll learn how to strike safely and effectively, and how to defend against common chokes, headlocks, and other assaults. -- You'll also learn to deal with knife attacks, and you'll learn gun defenses that have been praised by civilians and law enforcement around the world. -- Instructional DVD's: Line of Fire, Basic Combatives, Self Defense, and On the Edge show you the techniques in dramatized true-to-life situations. -- To easily master the exercises you are then taken into the training studio to examine the techniques as they are explained and analyzed by Krav Maga's highest level instructors: U.S. Chief Instructor Darren Levine and International Krav Maga Federation Head Instructor Eyal Yanilov. * Krav Maga's battle-tested techniques emphasize simple, practical movements, based on the body's natural instincts that can be performed by people of all levels of ability.","release_date":""},{"vote_count":2,"id":55797,"video":false,"vote_average":5,"title":"Fireman Sam: The Great Fire of Pontypandy","popularity":1.089777,"poster_path":"\/9QTwlLy9FQzT608D03W2RV9Cwor.jpg","original_language":"en","original_title":"Fireman Sam: The Great Fire of Pontypandy","genre_ids":[16,10751,10770],"backdrop_path":"\/saMVYKIpnQdm473GX2b4LJseRt9.jpg","adult":false,"overview":"When Fireman Sam performs a super-heroic rescue, he is awarded a special bravery medal and offered a new job in Newtown by visiting Chief Fire Officer Boyce. Meanwhile, a Pontypandy Pioneer Scouts camping trip, results in a forest fire that threatens to engulf Pontypandy, forcing everyone to prepare to evacuate ! Will Fireman Sam leave his beloved town, and will this be the end of Pontypandy ?","release_date":"2010-04-05"},{"vote_count":2,"id":237423,"video":false,"vote_average":5.3,"title":"Trial by Fire: A Carrier Fights for Life","popularity":1.350192,"poster_path":"\/kjUgxmHxQrY9BX7hXW5bpxDUtze.jpg","original_language":"en","original_title":"Trial by Fire: A Carrier Fights for Life","genre_ids":[99],"backdrop_path":"\/6jB9lefrlhtZprTqsRAUg9FW0tt.jpg","adult":false,"overview":"Trial by Fire: A Carrier Fights for Life (1973) was produced by the United States Navy to educate Navy personnel on how to prevent fires and how to control them when they break out on a carrier at sea. The film includes actaul footage of a carrier on fire and the brave crew that worked to extinguish that fire before it became a disaster. Note: There is a background hissing noise on the audio soundtrack from the original film. This film has a runtime of approximately 19 minutes.","release_date":"1973-01-01"},{"vote_count":0,"id":494903,"video":false,"vote_average":0,"title":"Anne of Green Gables: Fire & Dew","popularity":1.075963,"poster_path":"\/aiAXgeIzFuDUKmrQ5tQ9OvrBwou.jpg","original_language":"en","original_title":"Anne of Green Gables: Fire & Dew","genre_ids":[],"backdrop_path":null,"adult":false,"overview":"","release_date":"2017-07-01"},{"vote_count":3,"id":31970,"video":true,"vote_average":5.5,"title":"Chicago and Earth, Wind & Fire - Live at the Greek Theatre","popularity":1.314539,"poster_path":"\/mHRrXMmUjVxoV2LVcTVzuKINZX4.jpg","original_language":"en","original_title":"Chicago and Earth, Wind & Fire - Live at the Greek Theatre","genre_ids":[10402],"backdrop_path":"\/t4e1bsichllOf254be4OiCGt362.jpg","adult":false,"overview":"Recorded live in 2004.  The teaming of legendary groups Chicago and Earth, Wind &amp; Fire was the tour hit of summer 2004. Playing to sold-out venues, this spectacular show brought the Grammy-winning artists together in a show that both individually and together highlighted their revolutionary melding of rock, soul and jazz as well as their numerous #1 and Top 10 hits. Now you can have a front- row seat for this amazing concert, performed at the Greek Theatre in Los Angeles. Every moment, all the energy and excitement of this final show of the tour, was captured in high- definition for this extraordinary Blu-ray.","release_date":"2005-08-10"},{"vote_count":30,"id":50337,"video":false,"vote_average":6.1,"title":"Firebreather","popularity":3.964283,"poster_path":"\/iDUfXgYZi0l3yEevJFMfvuXgBWB.jpg","original_language":"en","original_title":"Firebreather","genre_ids":[12,14,16,28,53,878,10751],"backdrop_path":"\/65u90vQBmPcF2dCkRhN6NgjmskY.jpg","adult":false,"overview":"Firebreather is a CGI animated made-for-TV film, based on the eponymous comic book series. It's not easy being a teen like Duncan. His mom wants him to pay more attention to his homework, while his dad - a 120-foot-tall monster known as a Kaiju - wants him to become the next King of All Monsters. When these worlds collide, Duncan must use his human wits and his Kaiju powers - including super strength, agility and the ability to breathe fire - to protect his family and friends from a giant monster rampage.","release_date":"2010-11-24"},{"vote_count":0,"id":428114,"video":false,"vote_average":0,"title":"Group B - Riding Balls of Fire","popularity":1.054408,"poster_path":"\/ibKmS1nNiKYQ8phrWmoumqmpSut.jpg","original_language":"en","original_title":"Group B - Riding Balls of Fire","genre_ids":[99],"backdrop_path":null,"adult":false,"overview":"Thirty years after the end of Group B rallying, film-maker Helmut Deimel has launched his latest film on rallying’s wildest era.  For “Riding Balls of Fire”, the Austrian legend behind the hugely popular “Evolution of Rallying” has gathered together the finest archive footage of the 500 bhp Group B supercars in their prime.  Watching this film really shows the extreme pace of evolution of the cars and the sport in the three short years from 1983 to 1986.","release_date":"2016-11-21"},{"vote_count":0,"id":327940,"video":false,"vote_average":0,"title":"Ninja and the Warriors of Fire","popularity":1.0525,"poster_path":"\/cauf1Hk5FNWsa4oy24hpR7s5tYR.jpg","original_language":"en","original_title":"Ninja and the Warriors of Fire","genre_ids":[],"backdrop_path":null,"adult":false,"overview":"The Black Ninja Empire want a \"confidential blueprint\" in the possession of Vietnam vet Robin and will stop at nothing to get it. When Robin's fiancée is murdered, her sister joins the White Ninja Empire and teams up with Robin to wreak bloody vengeance.","release_date":"1987-01-01"},{"vote_count":16,"id":38621,"video":false,"vote_average":6.9,"title":"Firelight","popularity":3.927527,"poster_path":"\/f4egZQ37unTkD1SW74gIy7i5l3U.jpg","original_language":"en","original_title":"Firelight","genre_ids":[10749,18],"backdrop_path":"\/hLa5e8k8BLFG4onam5PnfodKZp3.jpg","adult":false,"overview":"Firelight is a period romance\/drama film written and directed by William Nicholson. It was Nicholson's first, and to date only, film as director.","release_date":"1997-09-14"},{"vote_count":3,"id":341839,"video":false,"vote_average":5.7,"title":"Fire on the Great Wall","popularity":1.864409,"poster_path":"\/vcqVjasiVDeoEhykUqYSrXjKjM2.jpg","original_language":"cn","original_title":"Long huo chang cheng","genre_ids":[28],"backdrop_path":"\/3WtvHSpdnNrZ23VKXYHM2RdWtfq.jpg","adult":false,"overview":"Ninja Over the Great Wall takes place in the early nineteen-thirties when China was occupied by the Japanese imperial forces. Wa Chi Keung is a peasant who escaped the mass murder of his village by the Japanese. He joins his master in Bejing shortly before the old man's assassination by ninjas.","release_date":"1987-05-08"},{"vote_count":12,"id":31273,"video":false,"vote_average":6.9,"title":"With Fire and Sword","popularity":1.89218,"poster_path":"\/yBv77zl4tWTRVYfOgjKP5sylrRY.jpg","original_language":"pl","original_title":"Ogniem i mieczem","genre_ids":[12,80,18,36],"backdrop_path":"\/20O5REpGm753g66hPkDtZGJsRPc.jpg","adult":false,"overview":"In the mid-17th century, Poland was the largest, most democratic, and most tolerant country in Europe. However, a tragic civil war brought about the gradual decline of the once glorious republic...","release_date":"1999-02-08"},{"vote_count":1,"id":185590,"video":false,"vote_average":7.5,"title":"Santa Cruz Skateboards - Wheels Of Fire","popularity":1.040002,"poster_path":"\/4vc87kpdFZHcXAejIu0wfqZJnVe.jpg","original_language":"en","original_title":"Santa Cruz Skateboards - Wheels Of Fire","genre_ids":[28,99],"backdrop_path":null,"adult":false,"overview":"Santa Cruz Skateboards video from 1987","release_date":"1987-04-12"},{"vote_count":0,"id":467196,"video":false,"vote_average":0,"title":"Blood Brothers: Jardiwarnpa - A Warlpiri Fire Ceremony","popularity":1.0375,"poster_path":"\/6k7obJoqfYPekyxnInTptBFf3O9.jpg","original_language":"en","original_title":"Blood Brothers: Jardiwarnpa - A Warlpiri Fire Ceremony","genre_ids":[],"backdrop_path":null,"adult":false,"overview":"Law man Darby Jampinjimpa Ross and other Warlpiri elders introduce us to their community's fire ceremony. Made with the close co-operation of the outback Warlpiri community of Yuendumu, the film follows the staging of the ceremony, involving hundreds of people, over several weeks - part of the process of retaining traditional law and culture within the community. Anthropologists describe the ceremony as a means of resolving personal conflicts in society; the elders speak of paying tribute to their ancestors.","release_date":"1993-01-01"},{"vote_count":1,"id":455342,"video":false,"vote_average":4,"title":"Exhibition Fire Drill, Union Square, N.Y.","popularity":1.03652,"poster_path":null,"original_language":"en","original_title":"Exhibition Fire Drill, Union Square, N.Y.","genre_ids":[],"backdrop_path":null,"adult":false,"overview":"The film begins from a camera position over the heads of spectators standing on the sidewalk in union square, New York city, watching a fire drill. Three pieces of equipment can be seen from the first camera position. The next scene, from another camera position, shows the equipment at the station, and water can be seen coming out of the nozzles held by firemen. Beyond them, spectators can be seen on the other side of the square.","release_date":"1904-06-29"},{"vote_count":74,"id":16211,"video":false,"vote_average":7.1,"title":"The Sons of Katie Elder","popularity":6.942685,"poster_path":"\/dGwKfXbpdz73GXR1nb6p6votnSS.jpg","original_language":"en","original_title":"The Sons of Katie Elder","genre_ids":[37],"backdrop_path":"\/u9Yrx1ZYMSvtujeCRlLbNON8hR2.jpg","adult":false,"overview":"The Elder boys return to Clearwater, Texas for their Mother's funeral. John the eldest is a well known gunfighter and trouble follows him wherever he goes. The boys try to get back their ranch from the towns gunsmith who won it from their father in a card game with which he was shortly murdered there after but not before getting through the troubles that come with the Elders name","release_date":"1965-06-23"},{"vote_count":1,"id":24174,"video":false,"vote_average":6,"title":"Fire at My Heart","popularity":1.428523,"poster_path":"\/fyfs0e3oJypWUunYPNGL9hyDe8o.jpg","original_language":"en","original_title":"Fuoco su di me","genre_ids":[],"backdrop_path":null,"adult":false,"overview":"The story of Eugenio, young soldier of the Napoleonic army, in the Napoli of 1815 after the era of Gioacchino Murat.","release_date":"2006-01-01"}]}