{"page":19,"total_results":1170,"total_pages":59,"results":[{"vote_count":0,"id":415910,"video":false,"vote_average":0,"title":"We Buy a Fire Truck","popularity":1.059296,"poster_path":"\/gGvxVReAZvnKE5WKoJqVoW1lXw7.jpg","original_language":"de","original_title":"Wir kaufen eine Feuerwehr","genre_ids":[12,10751],"backdrop_path":"\/mzoUC7DbDhmjSQvdKm3pV89LTsr.jpg","adult":false,"overview":"Little Matti and his friends are restoring the old abandoned fire truck .","release_date":"1970-12-13"},{"vote_count":1,"id":39689,"video":false,"vote_average":6,"title":"Alice the Fire Fighter","popularity":1.10948,"poster_path":"\/3LEGroEttrE7w9Bpk2iHnlhZZCT.jpg","original_language":"en","original_title":"Alice the Fire Fighter","genre_ids":[16],"backdrop_path":null,"adult":false,"overview":"When the local hotel is found to be on fire, the firemen (all of them Julius the cat lookalikes), led by Fire Chief Alice, are called in. The residents are busy escaping the blaze while the cats get to work helping them out of the building and putting out the flames. When a feline tenant gets caught on the top floor, one of the firemen bravely saves her by riding a smoke cloud up to reach her, but when they get back to the ground, he finds her expiring from smoke inhalation. He saves the day by rolling the smoke out of her with a rolling pin, and when she revives the two fall instantly in love.","release_date":"1926-01-01"},{"vote_count":0,"id":40586,"video":false,"vote_average":0,"title":"Santana - Sacred Fire","popularity":1.00323,"poster_path":"\/oqbLBjktXUtvPH5TrOOgvobq41p.jpg","original_language":"en","original_title":"Santana - Sacred Fire","genre_ids":[10402],"backdrop_path":"\/vOI0f39a4Zqj3nFR5Klq85VlAkq.jpg","adult":false,"overview":"Sacred Fire: Live in South America is an album by Santana. This album is dedicated to the life of Cesar Chavez. There is also a video of this album, by the same name, featuring additional songs not featured on the album. It features shots of Carlos playing guitar at various historic sites around Mexico city.","release_date":"1995-03-12"},{"vote_count":0,"id":401657,"video":false,"vote_average":0,"title":"By Fire and Water","popularity":1.001189,"poster_path":null,"original_language":"en","original_title":"By Fire and Water","genre_ids":[],"backdrop_path":null,"adult":false,"overview":"A dramatic one-act film. The wife of the captain of a canal boat chooses the nicer boat and nicer uniform of another captain. She reconsiders her choice when she is rescued by her own husband after a fire.","release_date":"1913-08-08"},{"vote_count":0,"id":391250,"video":false,"vote_average":0,"title":"Paper is Fire, Fire is Paper","popularity":1.000003,"poster_path":null,"original_language":"en","original_title":"Paper is Fire, Fire is Paper","genre_ids":[],"backdrop_path":null,"adult":false,"overview":"1973 Gitai super8 short","release_date":"1973-04-04"},{"vote_count":2,"id":82252,"video":false,"vote_average":5.3,"title":"McEnroe\/Borg: Fire & Ice","popularity":1.367704,"poster_path":"\/krkmDHiingvO2oekbjbMwrQe5cP.jpg","original_language":"en","original_title":"McEnroe\/Borg: Fire & Ice","genre_ids":[28,99],"backdrop_path":"\/l6PqBUibD2wJtt5ZWPZQhfRcl2Q.jpg","adult":false,"overview":"The film chronicles their back stories, prolific tennis careers and spirited rivalry, which propelled tennis into the international sports headlines of the late ‘70s and early ‘80s.  In addition, McENROE\/BORG:  FIRE &amp; ICE spotlights their post-tennis careers as the two men went their separate ways, with McEnroe launching a high-profile broadcasting career, while Borg chose a more private life.","release_date":"2011-06-11"},{"vote_count":207,"id":11495,"video":false,"vote_average":5.9,"title":"Firestarter","popularity":11.459028,"poster_path":"\/2ux5lqNuibd8eOkwwUhzfzAJBqD.jpg","original_language":"en","original_title":"Firestarter","genre_ids":[28,18,14,27,53],"backdrop_path":"\/uPZTWjzFC1GeYDVaaqPKZgoBWgl.jpg","adult":false,"overview":"As youths, Andy McGee (David Keith) and his future wife, Vicky (Heather Locklear), participated in secret experiments, allowing themselves to be subjected to mysterious medical tests. Years later, the couple's daughter, Charlie (Drew Barrymore), begins to exhibit the ability of setting fires solely with her mind. This volatile talent makes the youngster extremely dangerous and soon she becomes a target for the enigmatic agency known as \"The Shop.\"","release_date":"1984-05-11"},{"vote_count":7,"id":91548,"video":false,"vote_average":4.4,"title":"Ring of Fire II: Blood and Steel","popularity":2.093379,"poster_path":"\/oJ4FY866YmvPX0hzTJ8ovQewyYe.jpg","original_language":"en","original_title":"Ring of Fire II: Blood and Steel","genre_ids":[18,28,53],"backdrop_path":"\/9riLrRQ7McG67Vl56z6qMKKutGR.jpg","adult":false,"overview":"Johnny Woo and Julie play an enduring couple who survive all sorts of interference from rival kick-box gangs in their effort to put a little romance in their lives.","release_date":"1993-03-17"},{"vote_count":3,"id":19639,"video":false,"vote_average":5.3,"title":"Father of Four: In the Snow","popularity":1.38347,"poster_path":"\/c9K3AXYgf1cJ5lfV6hrU7ZryNDf.jpg","original_language":"da","original_title":"Far til fire i sneen","genre_ids":[10751,35],"backdrop_path":"\/t3YPSfNa4LchqDouMyejjdVJPq0.jpg","adult":false,"overview":"Ib Schønberg is again the kindly father - and now he is crowned \"the ideal driver\". This means that he can take all his four children to winter holiday in Norway.","release_date":"1954-11-01"},{"vote_count":0,"id":172664,"video":false,"vote_average":0,"title":"Bet on Fire","popularity":1.095629,"poster_path":"\/sNxjT8txjizKcWRn7nGK0WuOrQb.jpg","original_language":"cn","original_title":"Bet on Fire","genre_ids":[],"backdrop_path":null,"adult":false,"overview":"Cherie Chung and Cheung Man are two young women forced into a life of prostitution. Mostly, it's a sensitive melodrama about loyality and female bonding.","release_date":"1988-01-01"},{"vote_count":1,"id":337883,"video":false,"vote_average":6,"title":"A Fire in the Sky","popularity":1.375339,"poster_path":"\/7ZWOT6d6vxpcVZmsQtaNhuR52yw.jpg","original_language":"en","original_title":"A Fire in the Sky","genre_ids":[18,878,10770],"backdrop_path":"\/4t0dizXtLqZLG7ilVTMIDiwPsSz.jpg","adult":false,"overview":"Astronomers discover a comet that they believe will crash into Phoenix, Arizona. They attempt to warn officials, but no one believes them.","release_date":"1978-11-26"},{"vote_count":1,"id":299627,"video":false,"vote_average":8,"title":"Ghost Story of Devil's Fire Swamp","popularity":1.332512,"poster_path":"\/kmQ5Lzi5tsRaM01JoJXO5QJQpzl.jpg","original_language":"en","original_title":"Kaidan onibi no numa","genre_ids":[27],"backdrop_path":null,"adult":false,"overview":"Nishina Saburouta is powerful but corrupted priest. One night, an old samurai who couldn't bear him any more, attempts to kill him, but without success. Saburouta is rescued by his niece, Keisuke at the last moment. Keisuke is a a good-for-nothing. Since that event, he always turns to his uncle when he needs money.  Recently Keisuke feels his uncle isn't as generous as he used to be, he suspects that Saburouta has found out the illicit relation between Keisuke and his uncle's young mistress, Ohasu.","release_date":"1963-06-23"},{"vote_count":3,"id":157394,"video":false,"vote_average":3.3,"title":"Throne of Fire","popularity":1.502496,"poster_path":"\/1afjArNLAhPnxDbEJOYOlW4ueM3.jpg","original_language":"it","original_title":"Il Trono di Fuoco","genre_ids":[28,12,14],"backdrop_path":"\/6cKVJtqqadeWzWb7JJBaN1V6qoe.jpg","adult":false,"overview":"A mighty hero battles the son of Satan and his evil witch ally to save a kingdom from being taken over by the duo.","release_date":"1983-06-17"},{"vote_count":1,"id":72301,"video":false,"vote_average":7,"title":"Stepping Into The Fire","popularity":1.081437,"poster_path":"\/sSvscGrhxBMLczhxd41iMT8PASP.jpg","original_language":"en","original_title":"Stepping Into The Fire","genre_ids":[12,99],"backdrop_path":null,"adult":false,"overview":"Stepping Into the Fire is the cinematic release that reaches into the ash of the bare bones of existence and asks the question “is humanity born to die, or is humanity born to live?” The film follows the true story of three successful individuals brought together by a legendary ancestral medicine from South America known as Ayahuasca. Known for its mental, physical and energetic healing properties, the film closely examines the life-changing effects Ayahuasca can have and illustrates why environment and health are so crucial to human success on a global scale. Stepping Into the Fire is the beautifully woven tapestry of recent events that will leave you ignited and inspired to discover what it is in your life that keeps the fire alive.","release_date":"2011-03-31"},{"vote_count":0,"id":132630,"video":false,"vote_average":0,"title":"Love Under Fire","popularity":1.079646,"poster_path":"\/maKGBOjcs1WbYtlwohxVKsZpa1R.jpg","original_language":"en","original_title":"Love Under Fire","genre_ids":[10752,80,18],"backdrop_path":"\/wM5YRGOhee4NZuuAxzo1b9esyyt.jpg","adult":false,"overview":"A supense-thriller-comedy set against the backdrop of the Spanish Civil War.","release_date":"1937-08-20"},{"vote_count":2,"id":334923,"video":false,"vote_average":4,"title":"The Fire Raisers","popularity":1.07859,"poster_path":"\/gIbDRzjtH4KIYlRhdpUAOleaxtx.jpg","original_language":"en","original_title":"The Fire Raisers","genre_ids":[53],"backdrop_path":"\/gDqcox2smGEpIgYgGNvqA4Qy14A.jpg","adult":false,"overview":"Jim Bronton is an insurance investigator, but he's unhappy with his work and gets involved with a gang of arsonists. His conscience is troubling him ...","release_date":"1934-01-22"},{"vote_count":0,"id":402864,"video":false,"vote_average":0,"title":"The Wilkinson Household Fire Alarm","popularity":1.355,"poster_path":"\/q32dtBtebE96Kecj8t3SP7afymY.jpg","original_language":"en","original_title":"The Wilkinson Household Fire Alarm","genre_ids":[],"backdrop_path":null,"adult":false,"overview":"Morgan Fisher has long explored the space that segregates art cinema from industrial movie making. The one-minute-thirty-second-long Wilkinson Household Fire Alarm, an eye-blink homage to Marcel Duchamp, is more obviously engaged with conceptualism than with studio manufacturing. What you see is what you hear.","release_date":"1973-06-20"},{"vote_count":1,"id":399243,"video":false,"vote_average":5,"title":"The Color of Fire","popularity":1.074123,"poster_path":"\/hUGtBWA41FGo6OYM3VX8WjIpT3a.jpg","original_language":"en","original_title":"The Color of Fire","genre_ids":[99],"backdrop_path":null,"adult":false,"overview":"First hand witness to the infamous World War II fire bombing and destruction of his hometown, Dresden, Germany, 15-year-old Diether Warneck lost his girlfriend and bicycled to the front-lines of the war, enlisting in the German army under Hitler's rule. This single decision would haunt him for the rest of his life. Recalling the series of events that lead to his survival, Diether shares the extreme guilt he hid for seventy years while experiencing a life filled with love, family, intrigue, art and personal accomplishment.","release_date":"2015-04-07"},{"vote_count":2,"id":14294,"video":false,"vote_average":7,"title":"Through the Fire","popularity":1.074026,"poster_path":"\/7az4Cax55wbSgkXYehWBsWBidpc.jpg","original_language":"en","original_title":"Through the Fire","genre_ids":[99],"backdrop_path":"\/ytEnyffKIDKPXvJOITCVM38rX4M.jpg","adult":false,"overview":"\"Through the Fire\" chronicles the journey of Coney Island basketball star, Sebastian Telfair, from famed Lincoln High School straight to the NBA.","release_date":"2005-01-01"},{"vote_count":0,"id":145016,"video":false,"vote_average":0,"title":"Harvest of Fire","popularity":1.072854,"poster_path":"\/1fMJHcLPLS7onj8BDQckX6ZtkzG.jpg","original_language":"en","original_title":"Harvest of Fire","genre_ids":[18,10770,80],"backdrop_path":"\/nbpN8mdwA81BaxxAaDlSDgFbE9L.jpg","adult":false,"overview":"In a small Amish community, three barns are burnt down almost simultaneously. FBI agent Sally Russwell is sent in to investigate this possible hate crime. What she finds however is a community that little trust for outsiders or \"The English\" as they call them. However, in her investigations, Agent Russell makes friends with one entrepreneurial widow, Annie Beiler who has her own curiosity about this stranger. Together, Annie introduces Russell in-depth to this close knit community bearing many appealing attributes. However, as Sally's investigations continue, she discovers secrets that reveal uncomfortable truths about the religious community that are linked to the arson attacks.","release_date":"1996-04-21"}]}