{"page":13,"total_results":1170,"total_pages":59,"results":[{"vote_count":0,"id":490954,"video":false,"vote_average":0,"title":"Under Fire","popularity":1.001177,"poster_path":"\/acJCcxkhaEx0vtBqslM8xpXQuaW.jpg","original_language":"en","original_title":"Under Fire","genre_ids":[],"backdrop_path":null,"adult":false,"overview":"An Army lawyer defends a World War II hero and his men accused of desertion.","release_date":"1957-09-23"},{"vote_count":0,"id":123782,"video":false,"vote_average":0,"title":"Sure Fire","popularity":1.000844,"poster_path":"\/jD4f8CLZEOp78eeMHltPX8snreq.jpg","original_language":"en","original_title":"Sure Fire","genre_ids":[],"backdrop_path":null,"adult":false,"overview":"Set in the quasi-Biblical splendor of the Mormon Dixie of central Utah, Sure Fire follows the trajectory of an American archetype, the small town entrepreneur seized by visions of fortune. Wes, eager to sell out the local grandeur to the wealthy hordes of Southern California, wheels and deals in real-estate, but more fundamentally he hones in directly to the get-rich-quick schemes for which America is famed. Sweeping up family and friends into his monomania, Wes' zealotry leads inevitably to tragedy.","release_date":"1990-09-09"},{"vote_count":3,"id":64563,"video":false,"vote_average":5.3,"title":"Roaring Fire","popularity":1.109438,"poster_path":"\/5xGg2Z606juzeTkYRmwNMjbQLiY.jpg","original_language":"ja","original_title":"Hoero tekken","genre_ids":[28,80,18],"backdrop_path":null,"adult":false,"overview":"On his death bed the man who raised Joji reveals that he is not his real father and that Joji’s real parents died tragically in a plane crash. Shortly thereafter Joji goes to Japan is search of his sister and his twin brother Toru. Joji’s quickly finds his sister Chihiro who is now blind and lives with their uncle. Joji one evening accidently over hears his uncle who has ties to the criminal underworld discussing his various illegal operations. Joji ‘s eavesdropping is discovered by his uncle who offers him a chance to join the organization. Joji promptly turns his uncle’s offer down which immediately puts his life in danger.","release_date":"1982-05-22"},{"vote_count":0,"id":281970,"video":false,"vote_average":0,"title":"cathcing fire","popularity":1.000127,"poster_path":null,"original_language":"de","original_title":"cathcing fire","genre_ids":[],"backdrop_path":null,"adult":false,"overview":"","release_date":""},{"vote_count":0,"id":296329,"video":false,"vote_average":0,"title":"Fire Fight","popularity":1.000108,"poster_path":"\/6EKOjiBAEVIwNSI8NuMKKezTXOD.jpg","original_language":"en","original_title":"Fire Fight","genre_ids":[878],"backdrop_path":"\/ciLhAYqHZT2rHw7T98cu4ThbsGR.jpg","adult":false,"overview":"In a post-apocalyptic world, gangs of outlaws roam the land, trying to take power.","release_date":"1988-01-01"},{"vote_count":0,"id":321079,"video":false,"vote_average":0,"title":"Steel Meets Fire","popularity":1.874743,"poster_path":"\/2Nj4occRD8SfD2xwqDaEyoGeEw.jpg","original_language":"zh","original_title":"Lie huo jin gang","genre_ids":[],"backdrop_path":null,"adult":false,"overview":"Set during the 'War of Resistance Against Japan'. The squad leader of a platoon and his medic become separated from the rest of the team and find themselves behind enemy lines.","release_date":"1991-01-01"},{"vote_count":0,"id":493677,"video":false,"vote_average":0,"title":"Centralia Fire","popularity":1.000006,"poster_path":null,"original_language":"en","original_title":"Centralia Fire","genre_ids":[99],"backdrop_path":null,"adult":false,"overview":"A TV documentary detailing the Centralia, Pennsylvania underground mine fire and its environmental effects on the town and residents above some 20 years after its start.","release_date":"1982-06-01"},{"vote_count":0,"id":363077,"video":false,"vote_average":0,"title":"Trigon Fire","popularity":1,"poster_path":"\/eRyhaNkCDgDFqN31xR7C7PLF7oA.jpg","original_language":"en","original_title":"Trigon Fire","genre_ids":[],"backdrop_path":null,"adult":false,"overview":"Phillipino War Movie","release_date":"1989-01-01"},{"vote_count":1,"id":356382,"video":false,"vote_average":10,"title":"Playing with Fire","popularity":1.10822,"poster_path":"\/rm2rJGpUWlmKOx2Qj2qa7pYatH5.jpg","original_language":"en","original_title":"Laro sa Baga","genre_ids":[10749,18],"backdrop_path":null,"adult":false,"overview":"Ding tells the story of his life and how it was shaped by three women which includes his godmother, her adopted daughter and his wife.","release_date":"2000-11-27"},{"vote_count":0,"id":110600,"video":false,"vote_average":0,"title":"Through Storm and Fire","popularity":1.001177,"poster_path":null,"original_language":"sr","original_title":"Kroz buru i oganj","genre_ids":[18],"backdrop_path":null,"adult":false,"overview":"A fight of Serbian army against occupying forces during WWI.","release_date":"1929-02-28"},{"vote_count":0,"id":281067,"video":false,"vote_average":0,"title":"Lay Down and Fire","popularity":1.000087,"poster_path":"\/zNv8hKXdEtcrGakd6I5EjRpeXVJ.jpg","original_language":"en","original_title":"เผาขน และ","genre_ids":[28],"backdrop_path":null,"adult":false,"overview":"Thai film directed by Kom Akkadej and starring Sombat Metanee.","release_date":"1976-04-02"},{"vote_count":1,"id":381699,"video":false,"vote_average":8,"title":"Moms on Fire","popularity":1.103307,"poster_path":"\/tk7Pj3EVGCHDAxV5BBHSWuKB1vu.jpg","original_language":"sv","original_title":"Moms on Fire","genre_ids":[],"backdrop_path":null,"adult":false,"overview":"A film about defying and stretching the generally accepted standards of good motherhood.","release_date":"2016-01-28"},{"vote_count":0,"id":260160,"video":false,"vote_average":0,"title":"Fire-Followers","popularity":1.009425,"poster_path":null,"original_language":"en","original_title":"Fire-Followers","genre_ids":[],"backdrop_path":null,"adult":false,"overview":"In this hysterical deadpan pseudo-doc, acclaimed Polish artist Karolina Bregula constructs a scenario in a fictional Northern European city plagued by mysterious fires throughout its history. As the towns peculiar inhabitants speculate about the cause of the fires, the way they may be prevented and the strange coincidence of where they occur, a possible conspiracy to destroy local art begins to emerge. Are the fires caused by a secret cabal of art historians who wish to aid local artists by eviscerating the burden of art history? Have the needs of the art market placed infinite demands upon the finite resources of artists? Fires, a botanist tells us, are vital to maintaining fully dynamic ecosystems. Without fires there simply is no new life.","release_date":"2013-03-01"},{"vote_count":0,"id":261132,"video":false,"vote_average":0,"title":"Walk on Fire","popularity":1.098867,"poster_path":"\/87XMa13icuCBLfgIe3uQ24tpN3A.jpg","original_language":"cn","original_title":"獵鷹計劃","genre_ids":[28],"backdrop_path":null,"adult":false,"overview":"Sergeant Kwok Wah (Andy Lau) and Ho Lung (Ray Lui) are both colleagues and best friends. Ho Lung has developed hatred with a gang leader Dick. Dick sends Hung (Cherie Chung) as a bait to kill Ho Lung. Swore to take revenge for his best friend, Kwok Wah works with Ho Lung's partner Mother (Kent Cheng) to unveil the enemy. Kwok Wah saves Hung during an operation and Hung starts to like Kwok Wah. Kwok Wah and Mother follow their plan to capture Dick, but it ends in vain and both of them get into a gunfight. Hung is killed for saving Kwok Wah during the gunfight. Though heart-broken, Kwok Wah and Mother go on fighting the villain...","release_date":"1988-06-24"},{"vote_count":4,"id":56188,"video":false,"vote_average":6.5,"title":"Fire Down Below","popularity":1.459107,"poster_path":"\/f5h4LwRJeQ3fHBGaZW7QGscbiKO.jpg","original_language":"en","original_title":"Fire Down Below","genre_ids":[28,12,18,10749],"backdrop_path":"\/r3oq6l44tK1Ni6Ghh4YKgsOWsOP.jpg","adult":false,"overview":"Tony and Felix own a tramp boat, and sail around the Caribbean doing odd jobs and drinking a lot. They agree to ferry the beautiful but passportless Irena to another island. They both fall for her, leading to betrayal and a break-up of their partnership. Tony takes a job on a cargo ship. After a collision he finds himself trapped below deck with time running out (the ship is aflame), and only Felix, whom he hates and has sworn to kill, left to save him.","release_date":"1957-05-30"},{"vote_count":0,"id":403083,"video":false,"vote_average":0,"title":"Blood and Fire","popularity":1.001177,"poster_path":"\/edXUn4oULVrz47vnkhAzKXNoo4i.jpg","original_language":"en","original_title":"Blood and Fire","genre_ids":[99],"backdrop_path":null,"adult":false,"overview":"The Salvation Army in action. Band rehearsals, personal reminiscences of an Army officer, and an unrehearsed \"coming to Christ\" in the Army Citadel make for a revealing film study of men and women dedicated to a life of service to humanity.","release_date":"1958-01-01"},{"vote_count":0,"id":419753,"video":false,"vote_average":0,"title":"Soul-Fire","popularity":1.001177,"poster_path":"\/vq9D3WWjX1r6goobMrgSxsDLcME.jpg","original_language":"en","original_title":"Soul-Fire","genre_ids":[18],"backdrop_path":null,"adult":false,"overview":"Eric Fane (Richard Barthelmess) is a composer unwilling to compromise his dream for a steady job back home in the United States. After his studies in Italy, he moves to Paris, where he is forced to write popular songs for money when he stops receiving support from his father. He tires of selling out and, after an encounter with the mob, starts to travel. He begins a madcap journey from Paris to Port Said, Egypt, and to the South Seas, where he believes he has found love with Teita (Bessie Love).","release_date":"1925-05-30"},{"vote_count":0,"id":452545,"video":false,"vote_average":0,"title":"Fire and Ice","popularity":1.001177,"poster_path":"\/aVJwVNhlpPYqRVHnZfJ2jhypVfD.jpg","original_language":"en","original_title":"Fire and Ice","genre_ids":[],"backdrop_path":null,"adult":false,"overview":"Erotic soft-core vignettes from Penthouse.","release_date":"1997-01-01"},{"vote_count":0,"id":50484,"video":false,"vote_average":0,"title":"Fire & Rescue","popularity":1.000354,"poster_path":null,"original_language":"en","original_title":"Fire & Rescue","genre_ids":[10751],"backdrop_path":null,"adult":false,"overview":"Every child's eyes light up when they hear the blare of a siren and a fire truck races by. Now your kids can ride alongside real firefighters as the engine screams through the streets on its way to put out a fire. Join our friendly firefighter, Mike, for a day in the life of a real firefighter. From the training academy to life in the firehouse and off to action-packed fire-fighting operations. Kids also learn important safety tips.","release_date":""},{"vote_count":6,"id":84997,"video":false,"vote_average":4.4,"title":"They're Playing with Fire","popularity":1.890111,"poster_path":"\/3kZqOoG3umk5mK3YHnrTLQoAFnd.jpg","original_language":"en","original_title":"They're Playing with Fire","genre_ids":[80,27,53],"backdrop_path":"\/xQhQEeFaEocGOQ4TXFAwmfLr5DS.jpg","adult":false,"overview":"A married college professor decides to seduce her student, whom she hired as a handyman for her yacht. The hesitant student succumbs to his buxom professor, but their romance is interrupted by her corrupt husband and a masked murderer.","release_date":"1984-04-01"}]}