{"page":20,"total_results":567,"total_pages":29,"results":[{"vote_count":3,"id":474278,"video":false,"vote_average":7,"title":"Where the Shadows Fall","popularity":1.197985,"poster_path":"\/7ZLv5SBLZozbkzuM7y0Ye2XGMic.jpg","original_language":"it","original_title":"Dove cadono le ombre","genre_ids":[],"backdrop_path":"\/6XVmeiYTeVpwDIehnOJBlN7YY12.jpg","adult":false,"overview":"Nurse Anna and her assistant Hans work in an old folks’ home that was once the orphanage where they were imprisoned as children, and they still seem trapped in time and space.","release_date":"2017-09-06"},{"vote_count":57,"id":20558,"video":false,"vote_average":6.5,"title":"Scooby-Doo! in Where's My Mummy?","popularity":7.862949,"poster_path":"\/sffialPFPUZ1Jq6rYFRdn4UaqlM.jpg","original_language":"en","original_title":"Scooby-Doo! in Where's My Mummy?","genre_ids":[9648,16,10751,12,35,14],"backdrop_path":"\/kBFOvHKKf8g8r3SIOIROJ23sGyN.jpg","adult":false,"overview":"Scooby-Doo and the Mystery Inc. gang become involved in a supernatural mystery in Egypt.","release_date":"2005-11-24"},{"vote_count":2,"id":493671,"video":false,"vote_average":8,"title":"Alan Partridge: Why, When, Where, How And Whom?","popularity":1.535087,"poster_path":"\/1FhS9e9WxHbikSOmDSWl3NqBMJ3.jpg","original_language":"en","original_title":"Alan Partridge: Why, When, Where, How And Whom?","genre_ids":[35,10770,99],"backdrop_path":null,"adult":false,"overview":"It has been a quarter of a century since a little-known sports reporter was given his own radio chat show by the BBC. Two radio series, five TV series, four specials, two books and one movie later, Alan Partridge has an unrivalled place in the comedy pantheon. To celebrate Alan’s return to his rightful home at the BBC in 2018, this retrospective documentary will look back at his journey from broadcaster caricature to the award-winning study of complexity and pathos that he has become.","release_date":"2017-12-27"},{"vote_count":0,"id":264736,"video":false,"vote_average":0,"title":"The Duel: A Story Where Truth Is Mere Detail","popularity":1.178881,"poster_path":"\/oGlk16RRd5ulZe31t3sYQhnNto6.jpg","original_language":"pt","original_title":"O Duelo","genre_ids":[18],"backdrop_path":null,"adult":false,"overview":"","release_date":"2014-08-21"},{"vote_count":1,"id":410606,"video":false,"vote_average":8,"title":"Home Is Where Your Heart Aches","popularity":1.088988,"poster_path":"\/h1OD66NtMl2uFDSTgKInQRWVlmn.jpg","original_language":"en","original_title":"Home Is Where Your Heart Aches","genre_ids":[],"backdrop_path":null,"adult":false,"overview":"Home Is Where Your Heart Aches is the story of Kat, a beautiful, spirited New Yorker. Her only trouble is that she falls in love quickly - way too quickly. It's as if in matters of love, she never studied the boundaries, the games, the rules. Every encounter turns into a break-up scene. As her situation deteriorates, Kat recourses to extreme measures...\r In a world that has almost killed it, love turns into an act of revolt.","release_date":"2015-08-11"},{"vote_count":1,"id":142944,"video":false,"vote_average":8.5,"title":"Where's Jack?","popularity":1.085186,"poster_path":"\/8Nvj8lmlbZ4mmN3t5ozo8ezsVmq.jpg","original_language":"en","original_title":"Where's Jack?","genre_ids":[12],"backdrop_path":null,"adult":false,"overview":"Based on the adventures of Jack Sheppard, the thief and jail-breaker who became a folk hero in 1720s London.","release_date":"1969-04-01"},{"vote_count":0,"id":495490,"video":false,"vote_average":0,"title":"Where's Sydney?","popularity":1.081862,"poster_path":"\/dEd1L53hTLz2hj9TbdQYkiH9Jq6.jpg","original_language":"en","original_title":"Where's Sydney?","genre_ids":[10749,35],"backdrop_path":"\/fTrZg2ePDuhEQ7mh7C9Y7hcnDOM.jpg","adult":false,"overview":"Lisa, a young journalist, attends an art gallery in the hopes of scoring an interview with the original painter, Sydney M. Cobb.","release_date":"2017-02-02"},{"vote_count":0,"id":62239,"video":false,"vote_average":0,"title":"Fraggle Rock Where It All Began","popularity":1.079905,"poster_path":"\/pQD3EibD1uua5c0gCEK0iQRJTRr.jpg","original_language":"en","original_title":"Fraggle Rock Where It All Began","genre_ids":[10751],"backdrop_path":"\/8lRhNTwUwqYLrzNg976ppJDZQ9P.jpg","adult":false,"overview":"Beginnings:  Gobo's Uncle Traveling Matt discovers a way to leave Fraggle Rock and venture out into our world - a land he calls Outer Space. Thus begins the adventures of Gobo, Mokey, Wembley, Boober, and Red. Marjory the Trash Heap, sees it as trouble.  Wembley and the Gorgs:\r The giant Gorgs, who claim to be the rulers of the universe, capture Wembley Fraggle and enslave him. Gobo, Red, Mokey and Boober form a rescue party but soon need rescuing themselves. Let the Water Run Red plans a one-Fraggle swim show, but just before the performance, a drought hits Fraggle Rock and the swimming hole turns into a mud puddle. The pipe bangers are unable to work their usual magic. Red tries to solve the problem - and finally does - with a little help.","release_date":"2004-01-05"},{"vote_count":1,"id":399344,"video":false,"vote_average":10,"title":"The Mountain Where Everything Is Upside Down","popularity":1.078981,"poster_path":"\/syrhJWv1emmRcmWnyvljuZHtsTP.jpg","original_language":"en","original_title":"The Mountain Where Everything Is Upside Down","genre_ids":[],"backdrop_path":null,"adult":false,"overview":"Video artist Shana Moulton's The Mountain Where Everything Is Upside Down is even better, immersing the viewer in a hallucinatory workout room where the artist's alter-ego—a hypochondriac named Cynthia—achieves ecstatic rapture after trepanning her skull with a magic crystal. As she often does, Moulton scrambles the lexicons of new age spirituality with fitness and beauty fads to comment on mankind's desperate need to put its faith in something. Of course, these shorts—garishly colorful, freewheeling in their use of disparate cultural signifiers—succeed on the level of spectacle. Much of the work here strives for more than flashy visuals, but, in this case, that flash feels very substantial.","release_date":"2007-09-01"},{"vote_count":0,"id":420325,"video":false,"vote_average":0,"title":"Exodus: Where I Come from Is Disappearing","popularity":1.076964,"poster_path":"\/6FOFUC7EeAQRCn6vHiI1i7fYTR1.jpg","original_language":"en","original_title":"Exodus: Where I Come from Is Disappearing","genre_ids":[99],"backdrop_path":null,"adult":false,"overview":"Observational documentary about people as refugees and asylum seekers in many geographical locations such as Germany, Brazil, Western Sahara, Myanmar, Cuba, South Sudan.","release_date":"2016-10-09"},{"vote_count":2,"id":87992,"video":false,"vote_average":3.5,"title":"Where Once We Walked","popularity":1.152016,"poster_path":"\/kfXKtp0fUp13yQp2ZfoDfoRpa9G.jpg","original_language":"sv","original_title":"Där vi en gång gått","genre_ids":[36,18],"backdrop_path":null,"adult":false,"overview":"","release_date":"2010-10-28"},{"vote_count":0,"id":111611,"video":false,"vote_average":0,"title":"Where's Charley?","popularity":1.075919,"poster_path":"\/wh3HBIsGnPDMHn1pVWz6ejphcJk.jpg","original_language":"en","original_title":"Where's Charley?","genre_ids":[],"backdrop_path":null,"adult":false,"overview":"Where's Charley? is a 1952 British musical comedy film directed by David Butler and starring Ray Bolger, Allyn Ann McLerie and Robert Shackleton. It was an adaptation of the musical Where's Charley? which was in turn based on the play Charley's Aunt by Brandon Thomas.","release_date":"1952-06-26"},{"vote_count":1,"id":362545,"video":false,"vote_average":8,"title":"Where the Trains Used to Go","popularity":1.073788,"poster_path":"\/aptIxNL3JFd68ryS6qzXGCap6wy.jpg","original_language":"en","original_title":"Where the Trains Used to Go","genre_ids":[],"backdrop_path":null,"adult":false,"overview":"A magic journey along the remains of a 100 year-old narrow-gauge railway. Another \"moving time lapse\" work by Morten Skallerud similar to his \"A Year Along the Abandoned Road (1991)\".","release_date":"2003-10-04"},{"vote_count":0,"id":150647,"video":false,"vote_average":0,"title":"Juarez: The City Where Women Are Disposable","popularity":1.064137,"poster_path":"\/7ThtZS2lkpzyB0uFz02yp5A7Sib.jpg","original_language":"it","original_title":"Juarez: The City Where Women Are Disposable","genre_ids":[],"backdrop_path":null,"adult":false,"overview":"","release_date":"2007-01-01"},{"vote_count":1,"id":55501,"video":false,"vote_average":4.5,"title":"Where's Spot","popularity":1.055868,"poster_path":"\/qp1AEhKekhFppK5Rw7KfN29iEBt.jpg","original_language":"en","original_title":"Where's Spot","genre_ids":[],"backdrop_path":null,"adult":false,"overview":"Features episodes: 'Where's Spot', 'Spot Plays Hide And Seek', 'Spot's First Picnic', 'Spot's Treehouse', 'Spot Goes To The Playground', 'Spot In The Garden', 'Spot's First Walk', 'Spot's Bath', and 'Spot's Favourite Toy'. Based on the books by Eric Hill.","release_date":"2005-04-18"},{"vote_count":1,"id":434930,"video":false,"vote_average":2,"title":"Where Do We Go From Here","popularity":1.04504,"poster_path":"\/qLKqXeNtHrbbUs1kI713LXiuQXy.jpg","original_language":"en","original_title":"Where Do We Go From Here","genre_ids":[18],"backdrop_path":null,"adult":false,"overview":"An adolescent dreamer struggles to find closure after the untimely death of his older brother.","release_date":"2012-11-01"},{"vote_count":2,"id":63004,"video":false,"vote_average":7.3,"title":"Don't Die Without Telling Me Where You're Going","popularity":1.437427,"poster_path":"\/lh7tw59GgRny3wNw6UeO9StMrW8.jpg","original_language":"es","original_title":"No te Mueras Sin Decirme Adonde Vas","genre_ids":[18],"backdrop_path":"\/2iAJUXYjTQVsXL3H9TyB64k71ld.jpg","adult":false,"overview":"It is the fantastic story of Leopoldo, a lonely film projectionist who has invented a machine to record his dreams. Through a series of odd events, Leopoldo discovers that he is the reincarnation of one of the inventors of cinema, and that a woman he sees in his dreams is his eternal companion on a trip through centuries.","release_date":"1995-05-04"},{"vote_count":1,"id":441346,"video":false,"vote_average":9,"title":"Where Do We Go from Here?","popularity":1.041087,"poster_path":"\/w54QPfNcYx2Bij56w14tIBGbeqg.jpg","original_language":"en","original_title":"Where Do We Go from Here?","genre_ids":[18,35],"backdrop_path":null,"adult":false,"overview":"A young, socially-awkward janitor in an elderly care home sets out to go on an adventure with his three elderly best friends.","release_date":""},{"vote_count":0,"id":385439,"video":false,"vote_average":0,"title":"Where Am I?: Beyond Girl And Woman","popularity":1.029412,"poster_path":"\/f9pxuuCJ8XVL6vdZQY9BDbwRnR8.jpg","original_language":"en","original_title":"Where Am I?: Beyond Girl And Woman","genre_ids":[99],"backdrop_path":null,"adult":false,"overview":"The practice of female genital mutilation (FGM) is still widespread in parts of Africa despite innumerable concerns about and objections to it. Taking an exhaustive look into FGM, this film hopes to impart greater awareness about a practice that is often excused as being merely a part of “culture.”","release_date":"2016-06-16"},{"vote_count":2,"id":49432,"video":false,"vote_average":6.3,"title":"Where Is Winky's Horse?","popularity":1.414822,"poster_path":"\/bWhBpr5McF5tTpztd17c9AKhN7v.jpg","original_language":"nl","original_title":"Waar is het paard van Sinterklaas?","genre_ids":[10751],"backdrop_path":"\/bDOOebenYhjDrO4P4F0mpNDwcfu.jpg","adult":false,"overview":"In the sequel to \"Winky's Horse\", 8-year old Winky looks after the horse of St Nicholas. Then one day the horse runs away.","release_date":"2007-10-10"}]}