{"page":6,"total_results":567,"total_pages":29,"results":[{"vote_count":1,"id":107432,"video":false,"vote_average":5,"title":"Where are we going?","popularity":1.03891,"poster_path":"\/vgzNkmpk4rEjXy2fkyKU1ZUQsdp.jpg","original_language":"ja","original_title":"Doko ni iku no?","genre_ids":[],"backdrop_path":null,"adult":false,"overview":"Akira Tachibana who work at Kinoshita foundry can not love other people because of the trauma he suffered by being molested by his manager Kinoshita, who have both been like a father to Akira since he was little. Akira has lived a meaningless life. One day, when Akira driving his motorcycle, he meets a woman dressed in a red dress in a tunnel. He takes back the unconscious woman to his apartment and takes care of her, but when she wakes up, she walks away from his place without a word. This is the moment Akira meets Kaori Yamamoto.","release_date":"2008-03-01"},{"vote_count":1,"id":198522,"video":false,"vote_average":5,"title":"Mrs. Dery Where Are You?","popularity":1.283646,"poster_path":"\/kQlzU4hiWHKdCiUVFPpDbtkMZPS.jpg","original_language":"en","original_title":"Déryné hol van?","genre_ids":[],"backdrop_path":null,"adult":false,"overview":"Dery (Mari Torcsik) is a grande dame actress of the Sarah Bernhardt school of big-gesture theater. Her beauty and popularity is fading, and a new school of acting which involves the use of one's own emotions (a-la Eleanora Duse) is emerging in the person of her younger Viennese rival. She thinks of retiring from the stage, and reunites briefly with her estranged husband in a newly-built manor in the country. Finding that life there is boring, she returns to town, the theater, and her old friends.","release_date":"1975-06-02"},{"vote_count":0,"id":478197,"video":false,"vote_average":0,"title":"From Where We've Fallen","popularity":1.329652,"poster_path":"\/9zQLZe5EFNCywczDJbGCaUaqify.jpg","original_language":"zh","original_title":"He ri jun zai lai","genre_ids":[18],"backdrop_path":null,"adult":false,"overview":"I​t's past midnight. Zhao goes down to smoke, leaving his drunken wife to murmur her erotic dream upstairs. Neighbour Lee jumps off the building in front of Zhao, and his suicide reveals a sex video taken by phone. Sanqing falls in love with her tutor. She wants to strengthen her relationship with Professor Sun on a seaside trip, but finally realises her efforts are in vain. Hai Long is an old acquaintance of Sun. He tries to bring Sanqing and his client Wang together, giving Sanqing the opportunity to take revenge In the dark tunnel on the island, Wang tells Sanqing a nightmare that reveals the whole story.","release_date":"2017-09-26"},{"vote_count":0,"id":446581,"video":false,"vote_average":0,"title":"Shingal, Where Are You?","popularity":1.037648,"poster_path":null,"original_language":"el","original_title":"Kani Shingal?","genre_ids":[99],"backdrop_path":null,"adult":false,"overview":"Set in an abandoned coalmine at the Turkish border, Kani Shingal? weaves together the dramatic stories of Yezidi refugees following ISIS attacks and the kidnapping of more than 3000 women and children. The story is told in raw cinematography from the parallel perspective of 3 generations of Yezidis.","release_date":"2016-11-01"},{"vote_count":3,"id":263857,"video":false,"vote_average":4.8,"title":"Where the Early Bird Catches the Worm","popularity":1.731197,"poster_path":"\/xNCZNixQxBN4zSJ9dtuCVMJyXqA.jpg","original_language":"cs","original_title":"Kam doskáče ranní ptáče","genre_ids":[35,10751,878],"backdrop_path":"\/wWc24CnlvO1djfEFjqtyfwKRy9V.jpg","adult":false,"overview":"A clever but often teased boy, is able to clone himself thanks to a stolen formula from a scientist. Time to take revenge on those bullies.","release_date":"1987-03-01"},{"vote_count":3,"id":86723,"video":false,"vote_average":5.7,"title":"Where Soldiers Come From","popularity":1.316824,"poster_path":"\/8p9zFLcvQtRM90FhZM9LTGfRbNy.jpg","original_language":"en","original_title":"Where Soldiers Come From","genre_ids":[99],"backdrop_path":"\/w6yrEkNM8fOPMR2XNhlVCx8TgxB.jpg","adult":false,"overview":"From a small town in northern Michigan to the mountains of Afghanistan, \"Where Soldiers Come From\" follows the journey of childhood friends who join the National Guard after graduating from high school. It chronicles the young men's transformation from teenagers to soldiers to 23-year-old combat veterans. The film offers an intimate look at the young men who fight our wars.","release_date":"2011-09-09"},{"vote_count":0,"id":493876,"video":false,"vote_average":0,"title":"Where There's Smoke","popularity":1.146028,"poster_path":"\/hPqs5fFIG3FrOAO5B0W09qvhA2v.jpg","original_language":"en","original_title":"Where There's Smoke","genre_ids":[],"backdrop_path":null,"adult":false,"overview":"After a tragic accident, a firefighter must convince the city commissioner he's able to return to the line of duty.","release_date":"2017-04-01"},{"vote_count":0,"id":365173,"video":false,"vote_average":0,"title":"Where There Is Shade","popularity":1.025085,"poster_path":"\/2I6u0xrQt7CpmAZd7JJ5Gdo6cve.jpg","original_language":"en","original_title":"De l'ombre il y a","genre_ids":[],"backdrop_path":null,"adult":false,"overview":"In Cambodia still haunted by the crimes of the Khmer Rouges, a 45 years old French crossdresser, Mirinda, lives as a prostitute in the backstreets of Phnom Penh. Meeting a young trafficked girl, he gradually discovers the feeling of fatherhood.","release_date":"2015-05-16"},{"vote_count":0,"id":250290,"video":false,"vote_average":0,"title":"Where are you Bucharest?","popularity":1.023311,"poster_path":"\/sxEp2PsLuF8r9pN5n4DS8BBRroJ.jpg","original_language":"ro","original_title":"București, unde ești?","genre_ids":[99],"backdrop_path":null,"adult":false,"overview":"What does a retired police officer, a dog trainer, the founder of a political party and anti-government protesters have in common? They've all met on the streets of Bucharest, 23 years after the Romanian Revolution, determined to reclaim the public space. Vlad Petri is following their stories for one year, from the first days of the anti-government protests to the final days of the Referendum against the President. The film raises questions about the role of the public space, the power of the individual and the understanding of democracy in a society caught between a communist past and an uncertain future.","release_date":"2014-01-24"},{"vote_count":0,"id":285412,"video":false,"vote_average":0,"title":"Where I Am King","popularity":1.020989,"poster_path":"\/1M9hpjtTRDwtGd5VI3GDGVUs7rz.jpg","original_language":"tl","original_title":"Hari ng Tondo","genre_ids":[10751,18,35],"backdrop_path":null,"adult":false,"overview":"A grandfather is on the brink of bankruptcy and brings his grandchildren back to the community that made nd shaped him, only to find that the place is no longer the same.","release_date":"2014-08-02"},{"vote_count":0,"id":476732,"video":false,"vote_average":0,"title":"Where is the jungle?","popularity":1.015294,"poster_path":null,"original_language":"es","original_title":"Où est la jungle?","genre_ids":[],"backdrop_path":null,"adult":false,"overview":"Deolindo and Stevenson try to find their place in the middle of the jungle. Along their path we will witness the transformation of a territory where in every moment the present and the past become confused, in a thought-provoking struggle between modernity and tradition. What are the secrets of the jungle? Where are its limits?","release_date":"2015-01-01"},{"vote_count":0,"id":77391,"video":false,"vote_average":0,"title":"Where are you?","popularity":1.014358,"poster_path":"\/tOYUfvfnIWHx8iY91pw4r3QcgJ4.jpg","original_language":"zh","original_title":"你現在在哪","genre_ids":[18],"backdrop_path":"\/wToQqqgfXaQmdJNPMVk3LiLoRqD.jpg","adult":false,"overview":"","release_date":"2011-05-22"},{"vote_count":0,"id":402995,"video":false,"vote_average":0,"title":"Where the Penguins Fly","popularity":1.011731,"poster_path":"\/1SLBAEEKrt9LSe1CJHozaCNe8FJ.jpg","original_language":"hr","original_title":"Gdje pingvini lete","genre_ids":[18,35],"backdrop_path":null,"adult":false,"overview":"On the same day several interrelated characters try to change their own lives and, in the process, change the lives of others.","release_date":"2008-07-12"},{"vote_count":0,"id":385467,"video":false,"vote_average":0,"title":"Where Is Nadia?","popularity":1.011635,"poster_path":"\/tuTa7wEq8HvGX0Y47XfXHZNnCED.jpg","original_language":"sr","original_title":"Gde je Nađa?","genre_ids":[18],"backdrop_path":null,"adult":false,"overview":"Nadia, an eighteen-year-old girl disappeared without a trace not having given any prior notice that she was going to do that. Her father, Svetozar goes in search of her without preconditions where he could find her. During that search he discovers the background of growing up in a big city and the world in which his daughter spends her time for which he himself had no idea that there was.","release_date":"2013-08-29"},{"vote_count":4,"id":59897,"video":false,"vote_average":4.6,"title":"Where the Boys Are '84","popularity":1.619954,"poster_path":"\/1Tlckh1e8ET0I2fraYOaSVbUIzz.jpg","original_language":"en","original_title":"Where the Boys Are '84","genre_ids":[35,10749],"backdrop_path":"\/fOdbroz9JCT9S96EOIT8AqYajdY.jpg","adult":false,"overview":"Four curvy college co-eds head south to Ft. Lauderdale on a spring break fun-seeking trek in this free wheeling comedy that's an 80's update on the original film! Carole (Lorna Luft, Grease 2), taking a separate vacation from her steady, winds up as a contender in a Hot Bod Contest! Jennie (Lisa Hartman, Knots Landing) is doubly lucky, courted by both a rich, classic pianist as well as a devil-may-care rocker (Russell Todd, Chopping Mall).","release_date":"1984-04-06"},{"vote_count":0,"id":207917,"video":false,"vote_average":0,"title":"Where Are You, Bagira?","popularity":1.009603,"poster_path":"\/nKxAJKijNHBVotypiQViwCNFYoT.jpg","original_language":"ru","original_title":"Где ты, Багира?","genre_ids":[10751,18,12],"backdrop_path":"\/67r7csfoZv71BsWLwQQJwGXd0x8.jpg","adult":false,"overview":"A family movie about a friendship between girl and dog.","release_date":"1977-10-11"},{"vote_count":0,"id":389916,"video":false,"vote_average":0,"title":"Where Are You Going?","popularity":1.008894,"poster_path":"\/kulbKeLVvaOhCwZZa0AFyrsZkAm.jpg","original_language":"en","original_title":"Za kude putuvate","genre_ids":[],"backdrop_path":null,"adult":false,"overview":"In this comedy, a mathematician is so bored and burnt-out with his career that he rebels, first by crawling under a table during an interminable faculty meeting and then by throwing his telephone away, locking his wife out of their apartment, and running off on his own. At this point, the comedy takes a turn when the rebellious mathematician follows a strange wheel and meets a goatherd who shelters him in his humble abode. Events change from a bit odd to totally bizarre as the mathematician continues on his journey of escape.","release_date":"1986-03-26"},{"vote_count":0,"id":440273,"video":false,"vote_average":0,"title":"Where Demons Dwell: The Girl in the Cornfield 2","popularity":3.346861,"poster_path":"\/7BSedo3cH9YzMeI4oWYCuT4nfmE.jpg","original_language":"en","original_title":"Where Demons Dwell: The Girl in the Cornfield 2","genre_ids":[],"backdrop_path":null,"adult":false,"overview":"Tiffany is hunting for answers after her sister died during an encounter with the mysterious woman in white. When she crosses paths with Adelaide, a young woman whose family seems to be targets of the same entity, she tries to keep the deadly history from repeating itself.","release_date":"2017-01-13"},{"vote_count":0,"id":286238,"video":false,"vote_average":0,"title":"Where Am I?","popularity":1.008237,"poster_path":"\/i0RWcnHJViHeSMa042jJT5mH4XZ.jpg","original_language":"xx","original_title":"Wea Nao Mi?","genre_ids":[18],"backdrop_path":null,"adult":false,"overview":"A golden object mystifies a young man living in a traditional Solomon Islands village. He dreams of going to the city and wakes up in a nightmare that changes his life forever.","release_date":"2012-07-05"},{"vote_count":0,"id":289181,"video":false,"vote_average":0,"title":"Where the Sun Beats","popularity":1.006237,"poster_path":"\/c9R9CwKjQXX8mJdVsKvfjekbaH.jpg","original_language":"en","original_title":"Onde Bate o Sol","genre_ids":[],"backdrop_path":null,"adult":false,"overview":"Pinto’s sophomore feature patiently investigates the everyday life and psychosexual vacillations of Laura (Laura Morante), a woman caught in a web of verboten romance and incestuous desire. Pinto elliptically and delicately portrays the small farming community that serves as the backdrop for the impossible relationships pursued by Laura and her brother, Nuno. The alluring cast also features Inês de Medeiros (of Jacques Rivette’s The Gang of Four and several films by Pedro Costa) as Graça, a key player in the film’s game of libidinal cat-and-mouse. A strongly atmospheric work in which torrid intrigues emerge through allusion and insinuation, Where the Sun Beats finds Pinto exploring the self-thwarting ways of desire and the expressive potential of the unspoken. - FilmLinc","release_date":"1994-07-12"}]}