{"page":54,"total_results":1170,"total_pages":59,"results":[{"vote_count":1,"id":298092,"video":false,"vote_average":7,"title":"Fireflies in the North","popularity":1.255046,"poster_path":"\/2aynFmrfgXylhMx7GbrsdUKOpmI.jpg","original_language":"ja","original_title":"Kita No Hotaru","genre_ids":[18],"backdrop_path":null,"adult":false,"overview":"Set in the icy wilderness of Hokkaido during the early days of the Meiji era, where the brutal warden of Kabato Prison terrorizes convicts sentenced to forced labor to build the roads needed to open up the territory.","release_date":"1984-09-01"},{"vote_count":10,"id":57173,"video":false,"vote_average":3.3,"title":"Monsterwolf","popularity":2.755435,"poster_path":"\/bX7jZBEiW19RTwgj38zrZoReNPD.jpg","original_language":"en","original_title":"Monsterwolf","genre_ids":[10770,14,27],"backdrop_path":"\/g5RFXh5XtLdJRHx3iF2ygYBtlxx.jpg","adult":false,"overview":"A creature of ancient legend manifests, bound to protect the ecological balance of the land and killing anyone that threatens it. This elusive guardian is initially both feared and celebrated by the locals, but when a deadly curse affects them all, they must unite and recapture the monster wolf’s spirit or face their ultimate doom.","release_date":"2010-10-09"},{"vote_count":1,"id":262104,"video":false,"vote_average":7,"title":"24 timer","popularity":1.411807,"poster_path":"\/eSQoKMvyOlcrMxqQ1FhgzfQENF.jpg","original_language":"da","original_title":"24 timer","genre_ids":[35],"backdrop_path":null,"adult":false,"overview":"","release_date":"1951-08-31"},{"vote_count":0,"id":275379,"video":false,"vote_average":0,"title":"Girl of the Port","popularity":1.908303,"poster_path":"\/6G9bC1fGUSRJzSt3xK708LBm7ha.jpg","original_language":"en","original_title":"Girl of the Port","genre_ids":[10749,18],"backdrop_path":null,"adult":false,"overview":"Josie (Sally O'Neill), a New York showgirl with a mind of her own and a heart of gold, finds herself stranded on the island of Fiji. While seeking a way home she is befriended by a local man (legendary Olympic swimmer Duke Kahanamoku) who gets her a job working as a barmaid at \"The Bamboo Bar\". There she meets an alcoholic World War I veteran (Reginald Sharland) who is haunted by his wartime experiences and has an irrational fear of fire. Under her concerned care, he begins to recover and they fall in love. But then her jealous self-appointed boyfriend (Mitchell Lewis) forces the veteran to participate in a traditional Fijian fire-walking ritual. To overcome his terror he must walk across 20 feet of burning coals and fight his rival to reach Josie's loving arms.","release_date":"1930-02-03"},{"vote_count":1,"id":11488,"video":false,"vote_average":8,"title":"Feuer und Eis","popularity":1.280997,"poster_path":"\/21dKpLnCmPdscaUOlPMD7wRpay1.jpg","original_language":"de","original_title":"Feuer und Eis","genre_ids":[28,12,18],"backdrop_path":"\/2Ttq6s3M4rZNcuQVyRrbhwK9Vb.jpg","adult":false,"overview":"No overview found.","release_date":"1986-01-16"},{"vote_count":3,"id":205795,"video":false,"vote_average":1.7,"title":"Gates of Hell 2:  Dead Awakening","popularity":1.799907,"poster_path":"\/lasjoFWmt1enu14c15Cyq4wIKuH.jpg","original_language":"en","original_title":"Gates of Hell 2:  Dead Awakening","genre_ids":[27],"backdrop_path":null,"adult":false,"overview":"A woman's sister has been kidnapped by satanists hoping to bring about the end of the world.","release_date":"1988-10-25"},{"vote_count":14,"id":328032,"video":false,"vote_average":5.3,"title":"Mara and the Firebringer","popularity":3.165253,"poster_path":"\/3IChTfYWY6SxrJFWkTqpVEp4Z8S.jpg","original_language":"de","original_title":"Mara und der Feuerbringer","genre_ids":[14],"backdrop_path":"\/pPEV4imNNc3o47iTJnKGTHawfpm.jpg","adult":false,"overview":"Mara Lorbeer, a fifteen year old girl, finds out that she has to save the world because the Norse god Loki is threatening to break free of his chains.","release_date":"2015-04-02"},{"vote_count":2,"id":166514,"video":false,"vote_average":7.5,"title":"The Fireman of the Folies-Bergere","popularity":1.095544,"poster_path":"\/jJAAdpETX7AQoSkvtsAdirZrM6Z.jpg","original_language":"en","original_title":"Le pompier des Folies Bergères","genre_ids":[35],"backdrop_path":null,"adult":false,"overview":"After a lengthy period of watching the dancers at the Folies Bergères, a fireman stops in for a drink. As he becomes intoxicated, his thoughts return to the dancers, and he begins to see images of nude dancers all around him. Whether he goes into the subway, rides on a streetcar, or returns to the fire station, he continues to see the same imaginary sights.","release_date":"1928-03-01"},{"vote_count":1,"id":42467,"video":false,"vote_average":5,"title":"25 Fireman's Street","popularity":1.077921,"poster_path":"\/d2iMXe5Hq5qS3I4asXb5uXKT4Vf.jpg","original_language":"en","original_title":"Tüzoltó utca 25.","genre_ids":[18,10749],"backdrop_path":null,"adult":false,"overview":"On one hot summer night, the residents of a Hungarian apartment house slated for demolition restlessly revisit their haunted pasts as they face an uncertain future. In a gently turning kaleidoscope of dream imagery, regret-laden nostalgia and painstakingly intimate detail, the looming wrecking ball pales in significance to the accumulated experiences each dreamer revisits. Pre-war prejudice, occupying Nazis and Stalinist deprivations all come and go as each tenant’s backward glance yields moments of aching sensuality, infectious exuberance and catastrophic loss.","release_date":"1973-09-27"},{"vote_count":4,"id":196289,"video":false,"vote_average":4,"title":"Un feu d'artifice improvisé","popularity":1.255158,"poster_path":"\/2ngnUQX9Abkesfq72uvBF3uj4Es.jpg","original_language":"fr","original_title":"Un feu d'artifice improvisé","genre_ids":[],"backdrop_path":null,"adult":false,"overview":"On a city street, a number of men take advantage of an old drunken bum.","release_date":"1905-05-23"},{"vote_count":0,"id":165963,"video":false,"vote_average":0,"title":"Fireworks from the Heart","popularity":1.011656,"poster_path":"\/bFRUK8WHaHxa3D6uO8Fht9V5AMC.jpg","original_language":"ja","original_title":"おにいちゃんのハナビ","genre_ids":[18],"backdrop_path":"\/s3F2M1Px6IHkSbvn87CjRjxYIhz.jpg","adult":false,"overview":"On September 9th, the day of the Katakai Fireworks Festival, high school student Hana  comes home from the hospital after six months of treatment for leukemia. She then discovers that her older brother Taro has become a social recluse. Taro used to be tender, smart and proud of his younger sister, but now he even turns his back on her and stays in his room. With Hana's help Taro slowly opens up to the world again. Then, with winter approaching, Hana has a relapse with her leukemia. Taro comes to the hospital everyday to visit Hana and soon learns that the Katakai Fireworks Festival is a symbol of happiness for Hana. Taro then takes the initiative to make Hana happy and approaches the town's youth group once more for admittance.","release_date":"2010-09-25"},{"vote_count":0,"id":339370,"video":false,"vote_average":0,"title":"The Fires of Baku","popularity":1.001207,"poster_path":"\/1EcjNVIDKvyUvCp6nRQo4JOIgjq.jpg","original_language":"ru","original_title":"Огни Бак","genre_ids":[18],"backdrop_path":null,"adult":false,"overview":"Dedicated to the development of the oil industry of Soviet Azerbaijan in the background of the first half of the twentieth century, including their selfless work in strengthening the economic and military might of the USSR.","release_date":"1950-05-08"},{"vote_count":6,"id":212762,"video":false,"vote_average":4.8,"title":"Second Chances","popularity":1.999602,"poster_path":"\/6FPdWzMOSO5jT6tMxXpFJBX9LdE.jpg","original_language":"en","original_title":"Second Chances","genre_ids":[18],"backdrop_path":"\/wnPDpBQHQpJUbYGZUxQ3jYCLkNn.jpg","adult":false,"overview":"Jenny McLean is a single mom working at a 911-call center struggling to make ends meet and raise her two kids, Elsie and Luke. Although still reeling from her divorce, Jenny can’t help but flirt when she gets emergency calls from Jeff, a local firefighter she nicknames “Cowboy” for his handsome voice. When Jeff is hurt in the line of duty, he finds himself unable to climb stairs and needing to rent a first floor room from Jenny. It isn't long before the sparks are flying but can Jenny allow herself to take the risk?","release_date":"2013-07-27"},{"vote_count":1,"id":335543,"video":false,"vote_average":4,"title":"Fireflies: River of Light","popularity":1.327319,"poster_path":"\/rk2GVJ1ZY04ZpJHMCrxyADvkivQ.jpg","original_language":"ja","original_title":"ほたるの星","genre_ids":[18],"backdrop_path":null,"adult":false,"overview":"After finally passing his teacher's exam, Miwa (Yukiyoshi Ozawa) devoted himself to teaching in a rustic primary school. He struggles to get through to his students, until he creates a class project to raise fireflies to fly over it once again. All students, even the reserved girl Hikari (Risako Sugaya), become passionately involved in the project. However, it brings them into conflict with parents and the school, one problem after another stands in his way.","release_date":"2004-06-05"},{"vote_count":1,"id":315033,"video":false,"vote_average":6,"title":"Dragon Heat","popularity":1.503279,"poster_path":"\/x6Ou5pDyoO24GPyhU58yh4ptUjx.jpg","original_language":"cn","original_title":"龍火","genre_ids":[],"backdrop_path":null,"adult":false,"overview":"An \"experimental\" film by Eric Kot, featuring an all-star cameo cast.","release_date":"1999-08-07"},{"vote_count":2,"id":284455,"video":false,"vote_average":5.5,"title":"Wallander - Firewall","popularity":1.20866,"poster_path":"\/aAJbe6gZMIwW47oErgbr6uNBLu1.jpg","original_language":"sv","original_title":"Brandvägg","genre_ids":[80,53],"backdrop_path":"\/bW7j3H9hDnUznClVkWhj6f1Evw6.jpg","adult":false,"overview":"Kurt Wallander is thrown into a world he does not master - the computing world. An empty taxi found, heavily bloodstained and battered. Two young girls are taken in for questioning and admits murder of the taxi driver, but does not tell where the body is. The day after a man is found lying dead at an ATM with the bank statement in his hand. Two seemingly different cases, or do they have anything to do with each other? Kurt Wallander is trying to find answers, but he does not recognize himself - he feels unwell, dizzy and is forced to go to hospital.","release_date":"2006-10-04"},{"vote_count":7,"id":181132,"video":false,"vote_average":5.9,"title":"Point of Origin","popularity":1.878959,"poster_path":"\/zlIPrC5snwLhcFtyXaI3nmNeRGm.jpg","original_language":"en","original_title":"Point of Origin","genre_ids":[80,53,18],"backdrop_path":null,"adult":false,"overview":"Fact-based drama about an arson investigator searching for the perpetrator of a string of deadly fires in 1980s California.","release_date":"2002-06-20"},{"vote_count":3,"id":80342,"video":false,"vote_average":4.7,"title":"Lady Dragon 2","popularity":1.407002,"poster_path":"\/dLApxX4BCBYgdS4IJTEYzzbmbWi.jpg","original_language":"fr","original_title":"Lady Dragon 2","genre_ids":[28],"backdrop_path":"\/f5rtbgQWjRf6pTqkciAiGcyc9am.jpg","adult":false,"overview":"A woman seeks revenge on the men who raped her and murdered her husband.","release_date":"1993-09-22"},{"vote_count":1,"id":389686,"video":false,"vote_average":7,"title":"Tulivesi","popularity":1.037902,"poster_path":"\/2sggPBmlSRQ6fBQA9JJlxmaGy1T.jpg","original_language":"en","original_title":"Tulivesi","genre_ids":[80,18],"backdrop_path":null,"adult":false,"overview":"At the end of the 1920-s the Finnish government proclaimed dry law which lasted 12 years. Estonian bootleggers living on the neighboring coast of the Gulf of Finland profited from prohibition......","release_date":"1994-04-14"},{"vote_count":24,"id":31427,"video":false,"vote_average":7.8,"title":"Fires on the Plain","popularity":3.404943,"poster_path":"\/qO7sHluU3okb9Ytir5qgezjWXLI.jpg","original_language":"ja","original_title":"野火","genre_ids":[18,10752],"backdrop_path":"\/3mnfP8ECeHnfa3RU5x7ciBaCDjz.jpg","adult":false,"overview":"An agonizing portrait of desperate Japanese soldiers stranded in a strange land during World War II, Kon Ichikawa’s Fires on the Plain is a compelling descent into psychological and physical oblivion. Denied hospital treatment for tuberculosis and cast off into the unknown, Private Tamura treks across an unfamiliar Philippine landscape, encountering an increasingly debased cross section of Imperial Army soldiers, who eventually give in to the most terrifying craving of all. Grisly yet poetic, Fires on the Plain is one of the most powerful works from one of Japanese cinema’s most versatile filmmakers.","release_date":"1959-11-03"}]}