{"page":9,"total_results":1170,"total_pages":59,"results":[{"vote_count":5,"id":72349,"video":false,"vote_average":6,"title":"Eyes Of Fire","popularity":1.764119,"poster_path":"\/54TWg81QeqA6C6Z9OQdyeQZdkbp.jpg","original_language":"en","original_title":"Eyes Of Fire","genre_ids":[12,27],"backdrop_path":"\/5lhIDxsm9SJAeIx8ZjBJ173nyUm.jpg","adult":false,"overview":"A preacher is accused of adultery and he and his followers are chased out of town and become stranded in an isolated forest which is haunted by the spirits of long dead Native Americans.","release_date":"1983-10-21"},{"vote_count":1,"id":218338,"video":false,"vote_average":4,"title":"Oceans of Fire","popularity":1.761617,"poster_path":"\/gmTgfPfTG6FUgyHBJBfkDRC3bs8.jpg","original_language":"","original_title":"Oceans of Fire","genre_ids":[28],"backdrop_path":null,"adult":false,"overview":"Ben, a former Navy officer now works on a rig as the guy in charge, but since a lot of crew keeps dying whilst diving and planting the rig in the sea he needs men who are willing to take the risk. He gets in touch with an old friend from the Navy who works in a prison as sort of an diving training base and there Ben selects out the best to complete the task, but with superiors breathing down his neck, a camera crew now jumping on board and a deadline to meet he wants to finish the job and make sure the men stay alive, but not all things work out as he plans.","release_date":"1986-01-01"},{"vote_count":1,"id":121934,"video":false,"vote_average":7,"title":"Thanks for the Fire","popularity":1.304021,"poster_path":"\/yd4J0BRX7nMHgKxUZZGHUjlVboU.jpg","original_language":"es","original_title":"Gracias por el fuego","genre_ids":[18],"backdrop_path":null,"adult":false,"overview":"The failure of Budiño Ramon, who plans first murder of his father and is recognized after unable to carry it out, is due largely to the general attitude of a society that tolerates no dramatic gestures. However, the inadequacies of radical class, beliefs, feelings, profession and memory also plays a leading role in the drama.","release_date":"1984-04-05"},{"vote_count":0,"id":180009,"video":false,"vote_average":0,"title":"Falling Fire","popularity":1.16533,"poster_path":"\/fiA5eKPz4jqgOHmrR7vWhohwtXx.jpg","original_language":"en","original_title":"Falling Fire","genre_ids":[878],"backdrop_path":null,"adult":false,"overview":"In the not so distant future mankind has squandered their resources. A team of specialists is sent to the nearby asteroid field to retrieve an asteroid that will serve to replenish some of our natural resources. However, unbeknownst to the team, there is a killer on board determined to take control of the asteroid and destroy all mankind.","release_date":"1997-07-22"},{"vote_count":4,"id":324345,"video":false,"vote_average":6.3,"title":"The Seventh Fire","popularity":1.746272,"poster_path":"\/q6xj84IwFgb0qND1Lf5NtcPnae0.jpg","original_language":"en","original_title":"The Seventh Fire","genre_ids":[],"backdrop_path":null,"adult":false,"overview":"When Rob Brown, a Native American gang leader on a remote Minnesota reservation, is sentenced to prison for a fifth time, he must confront his role in bringing violent drug culture into his beloved Ojibwe community. As Rob reckons with his past, his seventeen-year-old protégé, Kevin, dreams of the future - becoming the biggest drug dealer on the reservation.","release_date":"2015-02-07"},{"vote_count":2,"id":182805,"video":false,"vote_average":6,"title":"Cease Fire!","popularity":1.160581,"poster_path":"\/hM0I2PPomtzo0FvFGpCcTJGnD8X.jpg","original_language":"en","original_title":"Cease Fire!","genre_ids":[99,10752],"backdrop_path":"\/punSWtGDZOgYatTzox9EDJEDosV.jpg","adult":false,"overview":"Filmed in 1953, this docudrama is a real military action during the last year of the Korean War is re-enacted on the spot with real soldiers.","release_date":"1953-11-24"},{"vote_count":0,"id":327884,"video":false,"vote_average":0,"title":"Children of Fire","popularity":1.2875,"poster_path":"\/6Doro7GqLbHL4y6m1Ji2OMg3jiV.jpg","original_language":"ar","original_title":"Atfal al-Nar","genre_ids":[99],"backdrop_path":null,"adult":false,"overview":"When filmmaker Mai Masri returned to her hometown of Nablus after a fourteen year absence, she discovered a new generation of Palestinian fighters: the children of the Intifada.  Winner of the Award of Public at the Freminin Pluriel Festival, Children of Fire captures their courageous story on film and paints a daring portrait of the Palestinian uprising.","release_date":"1991-01-02"},{"vote_count":2,"id":120815,"video":false,"vote_average":5.3,"title":"Open Fire","popularity":1.156624,"poster_path":"\/vUlfUWjV3WXzmc8GXjQx9PUenUI.jpg","original_language":"en","original_title":"Open Fire","genre_ids":[28,18],"backdrop_path":"\/e5y4SZTwrzPCHRCPXg3GiCnaC9U.jpg","adult":false,"overview":"A stomach churning potpourri of explosions, gunfire and army trucks ramming through grass and twig huts. The needle in a haystack plot seems to involve our protagonist rescuing his family from some South American drug cartel, or something. At one point Carradine yells those immortal words: \"get the hell out of here\" through closed lips. The villain of the piece never utters a line of dialogue, preferring instead to stalk about in a cape, squinting cannily beneath beret and drooping mustache (with hawk perched on shoulder for added effect). Avoid at all costs, unless you enjoy beating yourself repeatedly over the head with a flail.","release_date":"1988-01-01"},{"vote_count":6,"id":56087,"video":false,"vote_average":6.1,"title":"Cowboy Up","popularity":3.033318,"poster_path":"\/aw2yvnfqwTumWzvFO78hWUhDcwE.jpg","original_language":"en","original_title":"Cowboy Up","genre_ids":[28,18,10749,37],"backdrop_path":"\/c5cQcRKPjKrRRHmlN3cgDh8sHXd.jpg","adult":false,"overview":"\"Cowboy Up\" is a celebration of the risk-taking, daredevil personalities of modern rodeo. In the world of professional bull riding, newcomer Ely Braxton (Marcus Thomas) is the craziest guy around; his brother Hank (Kiefer Sutherland) is a rodeo clown, and the two use each other to play up their acts. But love may be one thing that tears the brothers apart. When Ely falls for the rodeo's sweetheart (Daryl Hannah), Hank is filled with jealousy and hatred. The brothers try to come to grips with their differences, but the competition gets as fierce as the bulls in the ring.","release_date":"2002-09-03"},{"vote_count":4,"id":150458,"video":false,"vote_average":6,"title":"House of Fire","popularity":1.151494,"poster_path":"\/p3wslgK6J0YOUP0AMy4T7sl6ICV.jpg","original_language":"en","original_title":"Kataku","genre_ids":[],"backdrop_path":null,"adult":false,"overview":"Through puppets and animation, a traveler tells his story of walking through Settsu, coming to the town of Ikuta. He asks if someone can show him the Seeker's Mound. Late that day, a solitary maiden says she will lead him there.","release_date":"1979-12-31"},{"vote_count":4,"id":278872,"video":false,"vote_average":3.3,"title":"Black Fire","popularity":1.144285,"poster_path":"\/uxpsDquahT88oG45FW2qFpSgFw8.jpg","original_language":"en","original_title":"Black Fire","genre_ids":[80,28],"backdrop_path":null,"adult":false,"overview":"Romano Kristoff in yet another Rambo knock-off","release_date":"1986-11-01"},{"vote_count":2,"id":126836,"video":false,"vote_average":3,"title":"Hearts of Fire","popularity":1.704975,"poster_path":"\/5OkmaRGWwrgZMAwhqbN5YIx1Pg4.jpg","original_language":"en","original_title":"Hearts of Fire","genre_ids":[10749,18,10402],"backdrop_path":null,"adult":false,"overview":"A reclusive musician, once a huge rock star, takes a young female protegee. While on a tour she meets a younger, more popular rocker and switches her loyalties.","release_date":"1987-11-06"},{"vote_count":3,"id":174024,"video":false,"vote_average":4.5,"title":"Fire in Her Bed","popularity":1.702306,"poster_path":"\/cnpJMUDTUmsoiIcGGjOwdsEyqJb.jpg","original_language":"en","original_title":"Fire in Her Bed","genre_ids":[10749],"backdrop_path":"\/onZTsImavHhWHURzv89hvUlAdt4.jpg","adult":false,"overview":"In this re-imagining of Nick Philips 1972 FIRE IN HER BED a sheltered young woman moves to the city to attend University. There she becomes fascinated with a much more sophisticated and openly sensual woman. Overwhelmed by her feelings, she embarks upon an emotional and sexual journey that ultimately frees her from her past.","release_date":"2009-03-06"},{"vote_count":3,"id":82947,"video":false,"vote_average":3.5,"title":"Captive Rage","popularity":1.612982,"poster_path":"\/pBADZqcKcf5Lk9l3R7LyN2lGsOc.jpg","original_language":"en","original_title":"Captive Rage","genre_ids":[18],"backdrop_path":null,"adult":false,"overview":"When the DEA director arrests the drug-dealing son of a South American general and cocaine baron, the dictator orders a plane of college students, among them the DEA director's daughter, to be hijacked and flown to his country, where he holds them under threat of torture and death unless his son is released within 72 hours.","release_date":"1988-12-14"},{"vote_count":1,"id":471882,"video":false,"vote_average":8,"title":"Fire Fade","popularity":1.13023,"poster_path":"\/w85tvsBRTNY8Xih5ntVXWhUlqYZ.jpg","original_language":"en","original_title":"Fire Fade","genre_ids":[10402,18],"backdrop_path":null,"adult":false,"overview":"The second short film by Tove Lo promoting her album Lady Wood.","release_date":"2017-08-25"},{"vote_count":0,"id":465523,"video":false,"vote_average":0,"title":"Fire on Heimaey","popularity":1.25,"poster_path":"\/fv1RbSlZePThACz3GXqA1Oksilx.jpg","original_language":"en","original_title":"Eldur í Heimaey","genre_ids":[],"backdrop_path":null,"adult":false,"overview":"Beautiful documentary by Osvaldur Knudsen about the eruption on Heimaey in the Vestmann Islands in 1973 (South of Iceland). The eruption destroyed some 30% of the town's houses and lasted for more than 5 months.  Nice narration like in the old days and some nice sound(track) by Magnus Bl. Johannsson.","release_date":"1974-07-10"},{"vote_count":0,"id":487092,"video":false,"vote_average":0,"title":"Little Fire","popularity":1.12399,"poster_path":"\/rN34Csr7I2TqW1eqJVEU00zg11w.jpg","original_language":"en","original_title":"Little Fire","genre_ids":[],"backdrop_path":null,"adult":false,"overview":"Little Fire is a short roadmovie-like documentary about the unlikely bond between 10-year-old autistic Noël and his biker buddy Gerrit.","release_date":"2017-11-01"},{"vote_count":0,"id":419028,"video":false,"vote_average":0,"title":"Sister's Fire","popularity":1.04661,"poster_path":"\/peYbOcRLhcVkW1QoKLjeFEnpOVS.jpg","original_language":"en","original_title":"Sister's Fire","genre_ids":[],"backdrop_path":null,"adult":false,"overview":"A painter living in Hollywood is sent to hell by his own sister.","release_date":"2016-03-10"},{"vote_count":7,"id":68479,"video":false,"vote_average":5.4,"title":"Ring of Fire","popularity":1.666766,"poster_path":"\/bNHuIoFms2aciTarYixOsJNisiw.jpg","original_language":"en","original_title":"Ring of Fire","genre_ids":[28,12,18],"backdrop_path":null,"adult":false,"overview":"The main character, Johnny Woo, is a Chinese doctor who has given up fighting in the ring. His brother is a teacher in a kick-boxing club. Johnny Woo fall in love with Julie, whose brother is a teacher in a rival kick-boxing club. Tension builds up...","release_date":"1991-12-18"},{"vote_count":8,"id":162794,"video":false,"vote_average":6.1,"title":"The Fire Fighters","popularity":1.65785,"poster_path":"\/cvzUHnTd3J15i7Nnln0VzgMjtE.jpg","original_language":"en","original_title":"The Fire Fighters","genre_ids":[16],"backdrop_path":"\/lD0Mnyy0IXx2xlE4vXurHUNaPG7.jpg","adult":false,"overview":"Mickey and others are firemen; they slide down an ostrich's neck when the alarm sounds. A squealing cat whose tail Mickey pulls acts as the siren. The nearest hydrant isn't working too well, so Horace Horsecollar takes drinks from a pond and uses that water to put out the fire. Minnie is trapped on an upper floor; Mickey climbs the neighboring building fire escape and uses a clothesline to cross to Minnie's building.","release_date":"1930-07-24"}]}