{"page":3,"total_results":567,"total_pages":29,"results":[{"vote_count":1,"id":388182,"video":false,"vote_average":10,"title":"No Where No Body","popularity":1.464222,"poster_path":"\/8BzFyXeHSDU9f5RE1EbdjYJx0L5.jpg","original_language":"fa","original_title":"هیچ کجا هیچ کس","genre_ids":[9648,80,18],"backdrop_path":"\/4VVsX9NvQ6LR0wHcEfkoTw5l82.jpg","adult":false,"overview":"A young couple need easy money. A few friends join them to plan a kidnap, but nothing goes right when some of them go after revenge and betray each other.","release_date":"2013-08-07"},{"vote_count":4,"id":480322,"video":false,"vote_average":7,"title":"Where I've Never Lived","popularity":2.522563,"poster_path":"\/gqknJhSrkPDkMLYSeD6OWNog0CS.jpg","original_language":"it","original_title":"Dove non ho mai abitato","genre_ids":[10749,18],"backdrop_path":null,"adult":false,"overview":"Where I've never been to live, Francesca's emotional conflicts (Emmanuelle Devos), 50, is the only daughter of a famous Turin architect (Giulio Brogi), to whom she visits only on rare occasions. For many years, Francesca lives in Paris with her teenage daughter and her husband Benoît (Hippolyte Girardot), a financier on her sixty, apparently reserved but paternal and protective about her. Due to a domestic accident that forces the elderly father to bed, the woman flees to Turin to take her parents in the design of a villa on a lake for a young couple. At work he meets architect Massimo (Fabrizio Gifuni), his peer-minded career and engaged in an open relationship with independent Sandra (Isabella Briganti). After a tough first approach, Massimo and Francesca create a strong professional tune that leads to a deep and passionate feeling. For the first time in life, both will have to really confront themselves and their most authentic destinies ...","release_date":"2017-10-12"},{"vote_count":1,"id":200445,"video":false,"vote_average":5,"title":"Where Is Parsifal?","popularity":1.866663,"poster_path":"\/wyD6dJgCflpA06QDz4cX8PX2SAS.jpg","original_language":"en","original_title":"Where Is Parsifal?","genre_ids":[35],"backdrop_path":null,"adult":false,"overview":"Tucked away in his castle, a hypochondriac inventor plays generous host to a revolving cast of wacky guests. But to pay off his mounting debts, he must sell either a powerful businessman or a rich gypsy on his latest creation: a laser skywriter.","release_date":"1985-07-19"},{"vote_count":1,"id":26046,"video":false,"vote_average":9,"title":"Where the River Runs Black","popularity":2.348334,"poster_path":"\/MQEEk3It0Mcxh9LEZIuLNUgmBo.jpg","original_language":"en","original_title":"Where the River Runs Black","genre_ids":[12],"backdrop_path":"\/q4SfD7FpfMXQSzeEmn1BuQEOdFx.jpg","adult":false,"overview":"An orphaned boy who was raised in the Amazon jungle is brought back to civilization by a priest who knows his father.","release_date":"1986-09-19"},{"vote_count":0,"id":365489,"video":false,"vote_average":0,"title":"There where Atilla passes","popularity":1.345492,"poster_path":"\/mcKEFCHdl1uFG9qmlU10XjcOFGJ.jpg","original_language":"fr","original_title":"Là où Atilla passe","genre_ids":[10749,18,10751],"backdrop_path":null,"adult":false,"overview":"Atilla, a reclusive young man of Turkish origin adopted at a young age by Michael and Julie, a Quebec couple reconciles with his origins and his past thanks to the encounter with Asya, a student visiting Québec.","release_date":"2016-01-29"},{"vote_count":2,"id":244239,"video":false,"vote_average":6.5,"title":"Where Are the Children?","popularity":1.759952,"poster_path":"\/wr6aDIBKMZgPEiKbBqP69G3wRrt.jpg","original_language":"en","original_title":"Where Are the Children?","genre_ids":[18,53,9648],"backdrop_path":null,"adult":false,"overview":"Thriller about the kidnapping of two children and the investigation that follows, based on the book by Mary Higgins Clark.","release_date":"1986-12-12"},{"vote_count":0,"id":395978,"video":false,"vote_average":0,"title":"Where is Rocky II?","popularity":1.340195,"poster_path":"\/cMfk6MHZwU25hUhnzAtoFdbmi0I.jpg","original_language":"en","original_title":"Where is Rocky II?","genre_ids":[35,99,9648],"backdrop_path":null,"adult":false,"overview":"Pierre Bismuth hires a private detective and a duo of screenwriters to investigate on an enigmatic artwork. He classifies this film under the new found genre 'Fake Fiction'.","release_date":"2016-05-01"},{"vote_count":2,"id":61265,"video":false,"vote_average":3,"title":"Where Sleeping Dogs Lie","popularity":1.740251,"poster_path":"\/epypVRtRWCFKgOMPKdpmcFF6nUV.jpg","original_language":"en","original_title":"Where Sleeping Dogs Lie","genre_ids":[9648,53],"backdrop_path":null,"adult":false,"overview":"A murder mystery writer misreads the nervous man he bullies in a spooky Hollywood mansion.","release_date":"1991-11-13"},{"vote_count":5,"id":148357,"video":false,"vote_average":6.8,"title":"Where Are My Children?","popularity":1.732718,"poster_path":"\/9aQ7UIuVhn9xW8A3Vhb1E4gkHw6.jpg","original_language":"en","original_title":"Where Are My Children?","genre_ids":[18],"backdrop_path":"\/22CGP0MR2LUOL8GVF24s3ZR3p1E.jpg","adult":false,"overview":"While prosecuting a physician for the death of a client after an abortion, the district attorney discovers that his wife helped her society friends and the daughter of her maid obtain and pay for abortions from the physician (and was perhaps herself also a client).","release_date":"1916-04-16"},{"vote_count":2,"id":233117,"video":false,"vote_average":8.5,"title":"Gold Is Where You Find It","popularity":3.16985,"poster_path":"\/74RzJgnJ9wYLQM5BcqejGnPV8FQ.jpg","original_language":"en","original_title":"Gold Is Where You Find It","genre_ids":[18,36,10749,37],"backdrop_path":"\/vv4qI01lpbuN19VKLDq3AWsYFDK.jpg","adult":false,"overview":"Colonel Ferris, a wealthy farmer in northern California, is strongly opposed to hydraulic mining, a new method developed during the gold rush of the 1870's, which is flooding the area's prosperous farmlands. Despite Ferris' political stance, Jared Whitney, a mining engineer from the East, becomes friends with the colonel's son Lance and falls in love with his daughter Serena. Family tensions deepen when the colonel's brother Ralph gives up farming to go to San Francisco to work for his wife Rosanna's father, Harrison McCooey, a leader in the mining venture. When Lance follows Ralph, the colonel, focusing his anger on Jared, forbids him to see Serena.","release_date":"1938-02-12"},{"vote_count":668,"id":8859,"video":false,"vote_average":5.3,"title":"Dude, Where's My Car?","popularity":9.377656,"poster_path":"\/3KoZiWlgvmeDYiLk9oOMpEvZThb.jpg","original_language":"en","original_title":"Dude, Where's My Car?","genre_ids":[35],"backdrop_path":"\/i27vFixWQzSGfMcUjXYziyxWLI5.jpg","adult":false,"overview":"Jesse and Chester, two bumbling stoners, wake up one morning from a night of partying and cannot remember where they parked their car. They encounter a variety of people while looking for it, including their angry girlfriends, an angry street gang, a transexual stripper, a cult of alien seeking fanatics, and aliens in human form looking for a mystical device that could save or destroy the world.","release_date":"2000-12-15"},{"vote_count":0,"id":370424,"video":false,"vote_average":0,"title":"Where Is Love Hiding?","popularity":1.317301,"poster_path":"\/xFBNsaneXsMDghQaauWJzzIjr3o.jpg","original_language":"tl","original_title":"Saan Nagtatago Ang Pag-ibig?","genre_ids":[18],"backdrop_path":null,"adult":false,"overview":"Made pregnant by Ric, Estella was forced to marry his brain-damaged younger brother played by Val to save herself from the shame of having an illegitimate child. But what was intended as a marriage of convenience became a fulfilling relationship that eventually opened the eyes and hearts of everybody into the beautiful soul hidden inside the young man nobody wanted.","release_date":"1987-09-02"},{"vote_count":2,"id":117779,"video":false,"vote_average":5.5,"title":"Where Chimneys Are Seen","popularity":1.296706,"poster_path":"\/spgl8BRIkewpz0SdepSIGoc3S7d.jpg","original_language":"ja","original_title":"煙突の見える場所","genre_ids":[18],"backdrop_path":null,"adult":false,"overview":"Gosho’s most celebrated film both in Japan and the West, Where Chimneys Are Seen is perhaps the most compelling example of his concern for, and insights into, the everyday lives of lower-middle-class people. Based on Rinzo Shiina’s novel of the absurd, the film depicts the lives of two couples against the backdrop of Tokyo’s growing industrialization during the 1950s.","release_date":"1953-03-05"},{"vote_count":31,"id":443076,"video":false,"vote_average":6.2,"title":"Where's The Money?","popularity":4.667695,"poster_path":"\/7PNa5L06uqYte4FKnkYEzXdkFwn.jpg","original_language":"en","original_title":"Where's The Money?","genre_ids":[35],"backdrop_path":"\/bnZInMpula862WkR0pPzD7JC1E3.jpg","adult":false,"overview":"A quick witted young man from the streets of South Central must rush a lily-white USC fraternity to recover a stash of stolen money.","release_date":"2017-09-20"},{"vote_count":1,"id":466867,"video":false,"vote_average":3,"title":"Where to go?","popularity":1.259162,"poster_path":"\/lqAvq7LtjU7zvOqNiPnRne3MDvf.jpg","original_language":"ko","original_title":"어디로 갈까요?","genre_ids":[],"backdrop_path":null,"adult":false,"overview":"Hee-Young ( Kim Gyu-Ri) becomes sick and tired of her husband, who sometimes even forgets her name. One day, Hee-Young decides to go to Busan without having any specific plans. Hee-Young does hope to find her find her first love. She left her first love to marry her wealthy husband.  By chance, Hee-Young takes a taxi driven by Joon-Ho (Yu Geon). Joo-Ho gave up his dream of becoming a professional baseball player and leads a boring life as a taxi driver. He's bothered by Hee-Young, who holds a cold expression, but also reveals sadness.","release_date":"2013-05-16"},{"vote_count":3,"id":261528,"video":false,"vote_average":7.3,"title":"Where Spring Comes Late","popularity":1.227195,"poster_path":"\/yDh6qChirIHyOWuecsyEoaQMfgb.jpg","original_language":"en","original_title":"Kazoku","genre_ids":[],"backdrop_path":"\/1HAd0q5sGzoXcC3JVXvskZ68R5i.jpg","adult":false,"overview":"The story is set in 1970 during the time of the first EXPO in Japan. The film’s main figure is a miner who suddenly becomes unemployed because the mine he worked in was shut down. He decides to resettle with his whole family to Hokkaido in northern Japan and start a new life as a farmer.","release_date":"1970-10-24"},{"vote_count":3,"id":381590,"video":false,"vote_average":6.3,"title":"Where Children Play","popularity":1.593552,"poster_path":"\/6y7Rr86trOKO0cA1NMCG9J9dMnz.jpg","original_language":"en","original_title":"Where Children Play","genre_ids":[18],"backdrop_path":null,"adult":false,"overview":"A young woman is forced to nurse the father who abused her after her mother's death.","release_date":"2015-01-01"},{"vote_count":0,"id":211132,"video":false,"vote_average":0,"title":"Where Truth Lies","popularity":1.579309,"poster_path":"\/rR9RTE3837YvpmSSz5hQBxMUT35.jpg","original_language":"en","original_title":"Where Truth Lies","genre_ids":[53,18,9648],"backdrop_path":"\/31ry21jxTW2R6dETxU9AEJwfCUd.jpg","adult":false,"overview":"Driven to drink by his wife's death, a tormented doctor is committed to an experimental rehab.","release_date":"1996-12-28"},{"vote_count":1,"id":256722,"video":false,"vote_average":8,"title":"Where I'm From","popularity":1.048374,"poster_path":null,"original_language":"en","original_title":"D'où je viens","genre_ids":[],"backdrop_path":null,"adult":false,"overview":"A CHILDHOOD. A NEIGHBORHOOD. AN ODE TO LIFE\r One-of-a-kind autobiography narrated and filmed with great sensibility and beauty. Its exceptional cinematic quality offers a visual treat to a Quebec rarely seen before. This poetic take on childhood memory transcends simple nostalgia for a sincere celebration of life.  Claude Demers returns to the working-class district of Montréal where he grew up, and immediately wonders: Why? The rest of Where I'm From forms the answer. Demers tries to relive all the experiences he had for the first time as a child, or at least understand them: the first novel he read and the power of language. His first awareness of death. The question of what is normal and what isn’t. The idea of wanting to leave, of having to leave.","release_date":"2014-01-24"},{"vote_count":0,"id":397991,"video":false,"vote_average":0,"title":"Where When","popularity":1.020042,"poster_path":null,"original_language":"en","original_title":"Where When","genre_ids":[],"backdrop_path":null,"adult":false,"overview":"Malcolm Le Grice - 3D.","release_date":"2015-07-07"}]}