{"page":28,"total_results":1170,"total_pages":59,"results":[{"vote_count":1,"id":231764,"video":false,"vote_average":5,"title":"Fire Department of Albany, N.Y.","popularity":1.037258,"poster_path":null,"original_language":"en","original_title":"Fire Department of Albany, N.Y.","genre_ids":[],"backdrop_path":null,"adult":false,"overview":"Shows six engines, four hose carriages, two hook and ladders, two chemical engines, and a runabout containing the fire chief...","release_date":"1901-10-31"},{"vote_count":1,"id":231946,"video":false,"vote_average":5,"title":"N.Y. Fire Department Returning","popularity":1.036471,"poster_path":null,"original_language":"en","original_title":"N.Y. Fire Department Returning","genre_ids":[],"backdrop_path":null,"adult":false,"overview":"Shot at an unidentified location in New York City, the film shows several pieces of horse-drawn fire vehicles in motion: two hook-and-ladders; two steam pumpers; a rescue wagon. Note the kids hanging on the back of some of the vehicles.","release_date":"1903-05-01"},{"vote_count":0,"id":451935,"video":false,"vote_average":0,"title":"Wil Anderson: Fire at Wil","popularity":1.052113,"poster_path":"\/fJuXId52t5WaGV92D8jfnl49S6M.jpg","original_language":"en","original_title":"Wil Anderson: Fire at Wil","genre_ids":[35],"backdrop_path":null,"adult":false,"overview":"One Night Stan - Wil Anderson: Fire At Wil. Five-time Winner – People’s Choice Award Melbourne Comedy Festival. Wil is one of the most consistently excellent stand-up comedians of his generation, this is one world-class act you won’t want to miss.","release_date":"2017-03-24"},{"vote_count":0,"id":401666,"video":false,"vote_average":0,"title":"1941 Hong Kong on Fire","popularity":1.425361,"poster_path":"\/wjV1KrKmN5jaBHAzpeg9hBnlV6f.jpg","original_language":"en","original_title":"Xiang Gang lun xian","genre_ids":[18,10752],"backdrop_path":null,"adult":false,"overview":"A family suffers at the hands of the Japanese during the occupation of Hong Kong.","release_date":"1994-12-29"},{"vote_count":0,"id":232189,"video":false,"vote_average":0,"title":"Arcade Fire - Austin City Limits","popularity":1.030404,"poster_path":"\/4pvsFZBuzOfBZhQ1WyhxJDGmpO5.jpg","original_language":"en","original_title":"Arcade Fire - Austin City Limits","genre_ids":[10402,99],"backdrop_path":"\/iKsk9KzX4A37ymnIRw7ROXLtQ3t.jpg","adult":false,"overview":"From the ACL Taping Program on September 14, 2007: Hailed as the \"band who helped put Canadian music on the world map\" by TIME magazine, experimental indie rock septet Arcade Fire has wowed audiences with its anthemic sound and emotionally-charged lyrics. The band's complex, full sound combines diverse instrumentation with often brooding lyrics that \"draw grand lessons from everyday life\" (The New York Times).","release_date":"2007-09-13"},{"vote_count":0,"id":506030,"video":false,"vote_average":0,"title":"Lake of Fire\/\/Altar of the Gods","popularity":1.364673,"poster_path":null,"original_language":"en","original_title":"Lake of Fire\/\/Altar of the Gods","genre_ids":[],"backdrop_path":null,"adult":false,"overview":"The future is just the obsolete in reverse.","release_date":"2018-02-17"},{"vote_count":0,"id":24299,"video":false,"vote_average":0,"title":"Pride 29: Fists Of Fire","popularity":1.043242,"poster_path":"\/zkPGFnU2iEv5no1AszCZCCwtky3.jpg","original_language":"en","original_title":"Pride 29: Fists Of Fire","genre_ids":[],"backdrop_path":null,"adult":false,"overview":"Pride 29: Fists of Fire was a mixed martial arts event held by the Pride Fighting Championships. The event took place on February 20, 2005 at Saitama Super Arena in Saitama, Japan.","release_date":"2005-02-20"},{"vote_count":0,"id":491874,"video":false,"vote_average":0,"title":"Vision of the Fire Tree","popularity":1.043125,"poster_path":null,"original_language":"en","original_title":"Vision of the Fire Tree","genre_ids":[],"backdrop_path":null,"adult":false,"overview":"\"Vitally, the human race is dying. It is like a great uprooted tree with its roots in the air. We must plant ourselves again in the universe.\" - D.H. Lawrence  This little film, like a fire in the mind, seeks that \"tree\" along a line of metaphorical synapse.","release_date":"1991-01-01"},{"vote_count":1,"id":439597,"video":true,"vote_average":8,"title":"Arcade Fire Live At Earls Court","popularity":1.357292,"poster_path":"\/k4E2AoJyFf7fda5Ir3PPQgCDcJJ.jpg","original_language":"en","original_title":"Arcade Fire Live At Earls Court","genre_ids":[10402],"backdrop_path":"\/6BGPqPt9Q4LdKo3mNuma1G7y1w3.jpg","adult":false,"overview":"01 Reflektor  02 Flashbulb Eyes  03 Neighborhood #3 (Power Out)  04 Rebellion (Lies)  05 Joan Of Arc  06 Rococo  07 The Suburbs  08 Ready To Start  09 Neighborhood #1 (Tunnels)  10 Neighborhood #2 (Laika)  11 No Cars Go  12 Haiti  13 We Exist  14 My Body Is A Cage  15 Afterlife  16 It’s Never Over (Oh Orpheus)  17 Sprawl II  18 Normal Person  19 Here Comes The Night Time  20 Wake Up","release_date":"2017-01-27"},{"vote_count":0,"id":316540,"video":false,"vote_average":0,"title":"Planes Fire and Rescue: Dipper","popularity":1.02157,"poster_path":"\/vUWqWFMHVXxeuIHou4okMnkxw92.jpg","original_language":"en","original_title":"Planes Fire and Rescue: Dipper","genre_ids":[16],"backdrop_path":"\/fiQ2SShrbbVnFyIrUuXVIbgJLSl.jpg","adult":false,"overview":"Dipper tries her hand at internet dating.","release_date":"2014-11-04"},{"vote_count":0,"id":106615,"video":false,"vote_average":0,"title":"Theo Fleury: Playing With Fire","popularity":1.037965,"poster_path":"\/deUgeO19s6pXcAiTJ3Fsi8cej5.jpg","original_language":"en","original_title":"Theo Fleury: Playing With Fire","genre_ids":[],"backdrop_path":"\/5eg8pqYFmGEFD4La4OzViqDNRMq.jpg","adult":false,"overview":"Theo Fleury was an NHL star. He played for the Calgary Flames, New York Rangers and Chicago Blackhawks. He made 50 million dollars and threw it away on drugs, alcohol and gambling. He reached bottom, and bought a gun intending to kill himself. At the last minute he changed his mind. He wrote a book revealing that, as a teen, he'd been sexually abused by his coach. It created a firestorm of publicity and went on to become a No. 1 bestseller in Canada. Theo starred in a top-rated skating competition reality show and had a cameo in the opening film at TIFF last year. Inspired by the book, the documentary follows Theo's struggle with the aftermath of the book and gives his turmoil a voice.","release_date":"2011-09-25"},{"vote_count":0,"id":384661,"video":true,"vote_average":0,"title":"Doctor Who: Planet of Fire","popularity":1.0375,"poster_path":"\/20E22Ip4rlvqNoUehMHrEEGwezy.jpg","original_language":"en","original_title":"Doctor Who: Planet of Fire","genre_ids":[18,28,12,878],"backdrop_path":null,"adult":false,"overview":"The Master re-establishes psychic control of his robot slave Kamelion. He wants to hijack the Doctor's TARDIS to reach the planet Sarn, where he seeks the healing power of Numismaton Gas to restore himself. Once on Sarn, Turlough comes face to face with his destiny.","release_date":"1984-02-23"},{"vote_count":1,"id":195880,"video":false,"vote_average":5,"title":"Cork Fire Brigade Turning Out","popularity":1.036471,"poster_path":null,"original_language":"en","original_title":"Cork Fire Brigade Turning Out","genre_ids":[],"backdrop_path":null,"adult":false,"overview":"A film from the UK based Mitchell &amp; Kenyon.","release_date":"1902-05-22"},{"vote_count":1,"id":195711,"video":false,"vote_average":5,"title":"Montreal Fire Department on Runners","popularity":1.036471,"poster_path":null,"original_language":"en","original_title":"Montreal Fire Department on Runners","genre_ids":[],"backdrop_path":null,"adult":false,"overview":"First comes the Chief's sleigh with old-fashioned side runners, containing the Chief and his driver. Next comes a chemical engine mounted on a stout double runner sled, which is followed closely by hose carriage apparatus mounted also on double runner sleds. Next comes a water tower mounted on a set of double runners and drawn by four beautiful horses. This is followed very closely by an engine drawn by a four-horse string team. This is followed by another engine on double runners, drawn by a four-horse tandem team. A second hose carriage and a Protective Insurance outfit brings up the rear. The breath leaves the horses' nostrils in great white puffs as they gallop through the snow-covered streets.","release_date":"1901-03-30"},{"vote_count":0,"id":316541,"video":false,"vote_average":0,"title":"Planes Fire and Rescue: Smokejumpers","popularity":1.01547,"poster_path":"\/953rPorr9KvCAfpA2amJYrcaEt9.jpg","original_language":"en","original_title":"Planes Fire and Rescue: Smokejumpers","genre_ids":[16],"backdrop_path":"\/t1JnKtunSv0m0qqRkucnfMGQRdY.jpg","adult":false,"overview":"The Smokejumpers handle another mission in the park.","release_date":"2014-11-04"},{"vote_count":0,"id":356809,"video":false,"vote_average":0,"title":"Every Child is Made of Fire","popularity":1.019257,"poster_path":"\/A0pqffQAvtSPrAnI3bW1WhghygQ.jpg","original_language":"no","original_title":"Alle barn er laget av ild","genre_ids":[18],"backdrop_path":null,"adult":false,"overview":"Every Child is Made of Fire tells the story about Anne, a woman in her late thirties who leaves her job as an engineer to start working at a home for disadvantaged youth. Here she meets Mikael who has killed his father with a knife. It is a meeting between a person who wants to provide care, and a person who is obviously in need of so - a meeting that gets unexpected and dramatic consequences.","release_date":"2013-06-10"},{"vote_count":3,"id":126523,"video":false,"vote_average":5,"title":"Taming of the Fire","popularity":1.395382,"poster_path":"\/t9ORXoiML7VIZvtHeMs0ego9rj2.jpg","original_language":"ru","original_title":"Ukroshcheniye Ognya","genre_ids":[18,36],"backdrop_path":"\/zcYVFlpw76ghxTVywFs0DhRTeAW.jpg","adult":false,"overview":"About Russian space program and missile industry, and it's founder Sergei P. Korolev, from the 1920s to the first man in space in 1961.","release_date":"1972-04-12"},{"vote_count":0,"id":409301,"video":false,"vote_average":0,"title":"Dragon Wars: Fire and Fury","popularity":1.011767,"poster_path":null,"original_language":"en","original_title":"Dragon Wars: Fire and Fury","genre_ids":[99],"backdrop_path":null,"adult":false,"overview":"","release_date":"2014-02-01"},{"vote_count":0,"id":332489,"video":false,"vote_average":0,"title":"Marinoni: The Fire in the Frame","popularity":1.016471,"poster_path":"\/watEW7YLAfxGg53mQ52dYSk7jln.jpg","original_language":"en","original_title":"Marinoni: The Fire in the Frame","genre_ids":[99],"backdrop_path":null,"adult":false,"overview":"The curmudgeonly bicycle maker attempts to set a cycling distance record.","release_date":"2015-03-28"},{"vote_count":0,"id":301673,"video":false,"vote_average":0,"title":"Greetings from Fire Island","popularity":1.010588,"poster_path":null,"original_language":"en","original_title":"Greetings from Fire Island","genre_ids":[],"backdrop_path":null,"adult":false,"overview":"Greetings from Fire Island is a documentary that captures the natural beauty and history of a long wisp of land off the coast of Long Island's south shore.","release_date":"2013-10-31"}]}