{"page":5,"total_results":567,"total_pages":29,"results":[{"vote_count":0,"id":234438,"video":false,"vote_average":0,"title":"Where, Gentlemen, Where Are You Going?","popularity":1.000079,"poster_path":"\/m4ToMj2xw1fqzmKE1HQWZ6wto45.jpg","original_language":"cs","original_title":"Kam, pánové, kam jdete?","genre_ids":[35,18],"backdrop_path":"\/9EuEZDHxz2XZoq9oYRd2Mq2uDJp.jpg","adult":false,"overview":"A story of Jan Kolvara, forty years old architect, who is a little bit too obsessed with women in his life.","release_date":"1988-07-31"},{"vote_count":0,"id":426618,"video":false,"vote_average":0,"title":"Where Hands Touch","popularity":1.000021,"poster_path":null,"original_language":"en","original_title":"Where Hands Touch","genre_ids":[10752,18,10749],"backdrop_path":"\/jua8HIE1NaQp55rb4abecsQsSOm.jpg","adult":false,"overview":"A romantic drama centered on a mixed-race German girl and an SS Officer.","release_date":""},{"vote_count":2,"id":128364,"video":false,"vote_average":5.3,"title":"Where the Lilies Bloom","popularity":1.403088,"poster_path":"\/cgfk9QjpRfCjSa7uYKl5W2F3YE.jpg","original_language":"en","original_title":"Where the Lilies Bloom","genre_ids":[18],"backdrop_path":null,"adult":false,"overview":"A family of children decide not to tell anyone their father has died, and to live on their own in the backwoods of rural North Carolina. If the state finds out they are on their own, they will be split up and sent to live in foster homes.","release_date":"1974-04-10"},{"vote_count":0,"id":291389,"video":false,"vote_average":0,"title":"Where I Belong","popularity":1.392661,"poster_path":"\/41LJW6ZKytQajfzlo324IcoLWF.jpg","original_language":"en","original_title":"Where I Belong","genre_ids":[10749,18],"backdrop_path":"\/jatmJiPG2Cq7com7gpQ6pwcyfHC.jpg","adult":false,"overview":"Rosemarie is a hard-working young woman living in a small English town in the 1950's. She left Austria with her father during the war to escape the Nazi oppression and since then, despite poverty and loneliness, she has always kept the faith that better days would arise. When she meets Anton, one of her father's friends, she immediately falls in love and starts believing in a fortunate destiny with him. Against all impediments, their secret love affair may help Rosemarie to find out where she really belongs.","release_date":"2014-10-15"},{"vote_count":1,"id":103625,"video":false,"vote_average":0,"title":"Salome, Where She Danced","popularity":1.390837,"poster_path":"\/vXdDsc5yToTSj2EtWUOEWtIrMex.jpg","original_language":"en","original_title":"Salome, Where She Danced","genre_ids":[37,10752,18,10402],"backdrop_path":"\/ojkydPivxlB70jlYCbBaE8YH6Cv.jpg","adult":false,"overview":"During the Austrian-Prussian war, Anna Marie is a dancer who is forced to flee her country after she is accused of being a spy. She ends up in a lawless western town in Arizona, where she uses her charms and dancing skills to transform herself into \"Salome\" during her dance routines.","release_date":"1945-04-17"},{"vote_count":2,"id":136751,"video":false,"vote_average":6.5,"title":"Where the Fire Burns","popularity":1.077957,"poster_path":"\/rTWedcUxrpyF4nQZPAdvpL2OTRk.jpg","original_language":"tr","original_title":"Ateşin Düştüğü Yer","genre_ids":[],"backdrop_path":"\/qfNnyABNCIVCYg2eQtQtNUOI1MK.jpg","adult":false,"overview":"Where the Fire Burns is a road story. Ayse who unexpectedly gets sick is taken for an operation urgently. Her family shows a great solidarity for this operation  to happen. During the operation, it is found out that the girl is fourteen weeks pregnant. After the successful operation Ayse doesn’t tell who the father of her  baby is. The family who tried to ‘‘keep her alive” is now trying to ‘‘kill” her. Osman the father who takes the responsibility to kill her takes a trip with Ayse. While Osman is trying to find a way to poison his daughter, Ayse doesn’t know that she will be killed. This trip of father and daughter continues on getting to know each other and emotion of regret.","release_date":"2012-04-01"},{"vote_count":2,"id":271070,"video":false,"vote_average":9.5,"title":"Where Is My Friend?","popularity":1.370364,"poster_path":"\/nE6NGnb5FSsgm7wBw76fzTwfWOB.jpg","original_language":"en","original_title":"Where Is My Friend?","genre_ids":[],"backdrop_path":null,"adult":false,"overview":"A man tries to help his friend to find himself.","release_date":"2014-05-21"},{"vote_count":0,"id":203969,"video":false,"vote_average":0,"title":"Where Are You? I’m Here","popularity":1.343756,"poster_path":"\/fpvmT05NYEq0iPWrtX4OiULrRNJ.jpg","original_language":"it","original_title":"Dove siete? Io sono qui","genre_ids":[10749,18],"backdrop_path":null,"adult":false,"overview":"A deaf man rebels against his controlling mother by dating a high-school drop-out who shares his disability.","release_date":"1993-09-22"},{"vote_count":0,"id":506039,"video":false,"vote_average":0,"title":"WHERE IS CATHARINA HART?","popularity":1.357611,"poster_path":null,"original_language":"en","original_title":"WHERE IS CATHARINA HART?","genre_ids":[],"backdrop_path":null,"adult":false,"overview":"«Life is a muscle, you have to train it to be able to lift its weight.» – Catharina Hart  My name is Io and I am a documentary ﬁlmmaker. This is a story of a life coach and the struggle to ﬁnd her and the will to not only live forever, but to be young forever.","release_date":"2018-02-17"},{"vote_count":1,"id":368325,"video":false,"vote_average":2.5,"title":"Where Is the Money?","popularity":1.056245,"poster_path":"\/lwqf9qMdbYYcm6ahk7n0Oo6Fxky.jpg","original_language":"mk","original_title":"Каде се парите?","genre_ids":[35],"backdrop_path":null,"adult":false,"overview":"Two friends, whose lives are based on parties and easy living, get an offer to make fast cash. In order to make the mоnеy they have to invest 100 000 euros in merchandise they can easily sell for minimum 150 000 euros.  They don't have the money to invest so they decide to borrow from friends but nobody wants to give them 100 000 euros. Somehow they manage to find the money but from a loan shark who wants 110 000 euros back in three days. Happily accepting the money believing that everything will be O.K., they give the money to a middleman who has to provide the goods. But they should have known better because after they give him the money, the middleman, the goods and the money are nowhere to be found.","release_date":"2015-05-28"},{"vote_count":0,"id":200722,"video":false,"vote_average":0,"title":"Where the Waves Collide","popularity":1.054771,"poster_path":"\/tzwsS1Oe4UFYjZF2FE6LtGMRmHE.jpg","original_language":"es","original_title":"En donde chocan las olas","genre_ids":[10749],"backdrop_path":null,"adult":false,"overview":"There is something exotic,seductive and an impossible romance in the love story about Mario, an accountant that lives in Mexico City who meets Basil, a lebanese businessman. They meet each other in mexican paradise: Acapulco.","release_date":"2013-06-11"},{"vote_count":1,"id":70278,"video":false,"vote_average":5,"title":"Where Souls Go","popularity":1.054355,"poster_path":"\/yqHkkT7o8DQnpUNHimzFUgo7L5s.jpg","original_language":"en","original_title":"Kuhu põgenevad hinged","genre_ids":[],"backdrop_path":null,"adult":false,"overview":"A teenage girl has problems with her family and life when her little brother is born with a heart problem.","release_date":"2007-01-01"},{"vote_count":1,"id":218879,"video":false,"vote_average":6,"title":"Where Is Tong?","popularity":1.053068,"poster_path":"\/c6r0JAPzW50PfDdYG0vqS5IXb8C.jpg","original_language":"en","original_title":"๙ พระคุ้มครอง","genre_ids":[18],"backdrop_path":"\/2KdMG4PjBENHyFqg4L17gVJp1Lq.jpg","adult":false,"overview":"When the much hated 'weird woman' sacrificed her life to save one of the 5 friends, they vow to replay her by looking for her lost son. The 5 friends arrived in Bangkok, each armed with only a Buddha amulet, they were met with many adventures and hardship.","release_date":"2001-09-03"},{"vote_count":2,"id":119550,"video":false,"vote_average":3,"title":"Where Evil Lives","popularity":1.350016,"poster_path":"\/AnTDI2Fiynf66yKP8AxTvhkhciA.jpg","original_language":"en","original_title":"Where Evil Lives","genre_ids":[27],"backdrop_path":"\/7UNXt7lN2uTIk95Lj3ap2Lte2y.jpg","adult":false,"overview":"A gripping tale of horror, murder, and revenge unfolds as Jack Devlin (Claude Akins in his final screen appearance), caretaker of the Spencer House State, reveals an unforgettable history of zombies, vampires, and witches to a prospective buyer. The chilling stories grow more horrifying and even Jack's visitor is stunned by the final fate at this house where evil lives.","release_date":"1991-01-01"},{"vote_count":4,"id":323803,"video":false,"vote_average":5.8,"title":"Where the Road Runs Out","popularity":1.727516,"poster_path":"\/fYVJatC3lesHl0yZLpxHpJViYkY.jpg","original_language":"en","original_title":"Where the Road Runs Out","genre_ids":[10749,18,10751],"backdrop_path":"\/xBUqTN6q4wlmtGD1bnCV3xlb3KF.jpg","adult":false,"overview":"George, a scientist living in Rotterdam is growing wary of the world of academia. The sudden death of an old friend is the incentive he needs to return to his African roots where he takes over a dilapidated field station in the jungle of Equatorial Guinea. There he meets an orphan boy with a sunny disposition who opens George's wary eyes to this colorful place. The boy plays matchmaker between George and the lady who runs the local orphanage and all seems rosy until an old friend of George's shows up out of nowhere to throw their lives into disarray as George discovers there are many obstacles on the road to redemption and a few more where the road runs out.","release_date":"2014-09-26"},{"vote_count":0,"id":427645,"video":false,"vote_average":0,"title":"Where is Sara Gómez?","popularity":1.050072,"poster_path":"\/r2tNUnTGhxIWBex12NKzAamIi9u.jpg","original_language":"es","original_title":"¿Dónde está Sara Gómez?","genre_ids":[99],"backdrop_path":null,"adult":false,"overview":"Born in 1943, Sara Gómez studied literature, piano, and Afro-Cuban ethnography before becoming the first female Cuban filmmaker. A woman of great intelligence, independence and generosity, she was a revolutionary filmmaker with intersecting concerns about the Afro-Cuban community and the value of its cultural traditions, women's issues, and the treatment of the marginalized sectors of society.","release_date":"2005-01-02"},{"vote_count":1,"id":401529,"video":false,"vote_average":10,"title":"Where is Hefte?","popularity":1.049857,"poster_path":"\/nWVzv4glFbNg6Ozyi83UMZpQjU3.jpg","original_language":"en","original_title":"Nasaan si Hefte?","genre_ids":[],"backdrop_path":null,"adult":false,"overview":"Miguel and his 7-year old brother, Hefte, went swimming in the river during a family picnic. Suddenly, a strong current swept Hefte away. His body was nowhere to be found and was declared missing. Six years later, a midnight caller tells Miguel to leave their house when Hefte comes back. An unconscious boy, age 13, is found in the garage. When the boy gains his consciousness, he claims to be Jason and would not talk anymore.","release_date":""},{"vote_count":1,"id":242891,"video":false,"vote_average":8,"title":"Home is Where the Hart Is","popularity":2.345004,"poster_path":"\/zwHnmJtUZO63oHQK1NI8Yl2u3W9.jpg","original_language":"en","original_title":"Home is Where the Hart Is","genre_ids":[35],"backdrop_path":"\/yT41Fz4ucR50L9GMZCKITMAWYYB.jpg","adult":false,"overview":"Nurse and con artist Belle Haimes (Valri Bromfield) lives with her dull-witted husband Rex Haimes (Stephen E. Miller) in the Hart Mansion in British Columbia. There she cares for the invalid, 103 year-old Slim Hart, aka Pappy, (Joe Austin) and his wife, Minnie (Enid Saunders) who is in a coma. Waking up from a sleep, Belle is not enthusiastic about returning to her job and overhears the night nurse (Leslie Jones) reading a postcard from the Hart's two twin boys, Martin Hart (Eric Christmas) and Art Hart (Ted Stidder) that they will be returning home soon. Belle plots the death of old Mrs. Hart and the kidnapping of Old Pappy but things don't go quite according to plan.","release_date":"1987-06-13"},{"vote_count":1,"id":339192,"video":false,"vote_average":7.5,"title":"Where Should I Go?","popularity":1.044894,"poster_path":"\/yXkLGWe6y7QHXehTjXTrjeOdLQ8.jpg","original_language":"en","original_title":"换城","genre_ids":[99],"backdrop_path":"\/255PCxtcJDwBFGRF3v4hnczLJgT.jpg","adult":false,"overview":"Where I Should Go explores one of the most pressing issues in contemporary China, the interaction between the rural and the urban, telling the intertwined stories of two families who move from the countryside to the city in order to try and get a proper education for their children.","release_date":"2011-06-08"},{"vote_count":0,"id":504990,"video":false,"vote_average":0,"title":"Where the Summer Goes (Chapters on Youth)","popularity":1.740202,"poster_path":"\/AqoBohsRix7mES7URGtzfjNYCwZ.jpg","original_language":"pt","original_title":"Onde o Verão Vai: episódios da juventude","genre_ids":[],"backdrop_path":null,"adult":false,"overview":"It’s summer, a boy and his friends go to the river. On the ride there, a story is told about a man and his pet snake that tried to eat him. The boy falls from a tree trunk and gets hurt. A girl follows him. A couple kiss each other, another boy explores the woods and a third one just lays by a tree eating a peach. In four chapters, the heat and the humidity of the forest unravel desires among them.","release_date":"2018-02-18"}]}