{"page":27,"total_results":567,"total_pages":29,"results":[{"vote_count":0,"id":395743,"video":false,"vote_average":0,"title":"Wherever You Are","popularity":1.49,"poster_path":null,"original_language":"tl","original_title":"Saan Ka Man Naroon","genre_ids":[10749,18],"backdrop_path":null,"adult":false,"overview":"A bereaved wife searchs for her lost husband, only to be found with no memory of her and a new woman in his life","release_date":"1993-05-03"},{"vote_count":1,"id":242015,"video":false,"vote_average":8,"title":"The Kingston Trio story - Wherever We May Go","popularity":1.038479,"poster_path":"\/9yU7HNpV7X48groDeaFp876P4Eq.jpg","original_language":"en","original_title":"The Kingston Trio story - Wherever We May Go","genre_ids":[],"backdrop_path":null,"adult":false,"overview":"Fifty years after their first public performance, the three return to the stage, performing their greatest hits. Traces the largely unknown history of the trio through rare performance footage and revealing interviews with band members and friends.","release_date":""},{"vote_count":0,"id":245677,"video":false,"vote_average":0,"title":"Wherever You Are...","popularity":1.183946,"poster_path":"\/danDTxjJk42ISXZEyzauQUNXZgh.jpg","original_language":"pl","original_title":"Gdzieskolwiek jest, jeslis jest","genre_ids":[18,10749,10752],"backdrop_path":null,"adult":false,"overview":"","release_date":"1989-05-03"},{"vote_count":32,"id":394537,"video":false,"vote_average":7,"title":"The Pirates of Somalia","popularity":7.690749,"poster_path":"\/a8dlDPwo9mnorurL6ukIpyHZZd7.jpg","original_language":"en","original_title":"The Pirates of Somalia","genre_ids":[18],"backdrop_path":"\/lXbsYMHAum9kpbhAMEYCGMOjr0q.jpg","adult":false,"overview":"After an inspiring chance encounter with his idol, rookie journalist Jay Bahadur uproots his life and moves to Somalia looking for the story of a lifetime. Hooking up with a local fixer, he attempts to get embedded with the local Somali pirates, only to quickly find himself in over his head.","release_date":"2017-12-08"},{"vote_count":0,"id":336393,"video":false,"vote_average":0,"title":"Wherever You Are","popularity":1.005695,"poster_path":"\/xCxPhZBVhOpN8iWt39B5pByD4MS.jpg","original_language":"en","original_title":"Nasaan Ka Man","genre_ids":[53,10749,18],"backdrop_path":null,"adult":false,"overview":"The story of two sisters (Lilia and Trining), who have adopted three children (Lilia adopted Pilar and Joven, Trining adopted Ito). Trouble, lies and violence ensues as Lilia's children fall in love, and Trining's son gets infuriatingly jealous.","release_date":"2005-05-11"},{"vote_count":699,"id":374416,"video":false,"vote_average":6.7,"title":"Quo vado?","popularity":7.300548,"poster_path":"\/2dqQ6RzFK7x7Q4pVsZezYiSQMXx.jpg","original_language":"it","original_title":"Quo vado?","genre_ids":[35],"backdrop_path":"\/2RAWlSpgm6pkZDqBIxA1bMud26x.jpg","adult":false,"overview":"Checco is 39 and lived his entire life with his parents. He loves his job where he does nothing the all day until something happens that will change his behavior and maybe his life..","release_date":"2016-01-01"},{"vote_count":56,"id":441829,"video":false,"vote_average":7.3,"title":"Team Thor: Part 2","popularity":6.588038,"poster_path":"\/hBByhGBRAuaDi5ZIAKrEYmPkUXT.jpg","original_language":"en","original_title":"Team Thor: Part 2","genre_ids":[878,35,14],"backdrop_path":"\/pgw1LdRyanwJ7sM6DWqKuPDqxVX.jpg","adult":false,"overview":"A continuation of the documentary spoof of what Thor and his roommate Darryl were up to during the events of \"Captain America: Civil War\". While Cap and Iron Man duke it out, Thor tries to pay Darryl his rent in Asgardian coins.","release_date":"2017-02-14"},{"vote_count":0,"id":311290,"video":false,"vote_average":0,"title":"Luther Barnes & the Sunset Jubilaires: Wherever I Go: Live in Atlanta","popularity":1,"poster_path":null,"original_language":"en","original_title":"Luther Barnes & the Sunset Jubilaires: Wherever I Go: Live in Atlanta","genre_ids":[],"backdrop_path":null,"adult":false,"overview":"Although he began performing professionally at the age of 9 as part of a family-run group called the Barnes Juniors, prolific gospel artist Luther Barnes didn't cut his first album until 1987. Some of Barnes's best-loved hits come together in this rousing live performance filmed on location in Atlanta with musical backing from the Sunset Jubilaires, including \"Lord, I'm Here Waiting,\" \"Leaning on Jesus\" and \"Wherever I Go.\"","release_date":""},{"vote_count":5,"id":57113,"video":false,"vote_average":4.5,"title":"Wherever You Are","popularity":1.278338,"poster_path":"\/jM4MT03RwYnC1bdu67OmonX7dk3.jpg","original_language":"it","original_title":"Ovunque sei","genre_ids":[18],"backdrop_path":"\/5MTHhtV67gQLPxnRnPi18Tzthow.jpg","adult":false,"overview":"A doctor's (Stefano Accorsi) life takes a mysterious turn when his ambulance plunges into a river.","release_date":"2004-10-22"},{"vote_count":825,"id":6278,"video":false,"vote_average":6,"title":"Reign of Fire","popularity":9.714129,"poster_path":"\/c9FlSkQ0EV2vzln4Bo5NCvzzxWm.jpg","original_language":"en","original_title":"Reign of Fire","genre_ids":[12,28,14],"backdrop_path":"\/1R7c18aWnoe0RUEcPnc23sIxeFg.jpg","adult":false,"overview":"In post-apocalyptic England, an American volunteer and a British survivor team up to fight off a brood of fire-breathing dragons seeking to return to global dominance after centuries of rest underground. The Brit -- leading a clan of survivors to hunt down the King of the Dragons -- has much at stake: His mother was killed by a dragon, but his love is still alive.","release_date":"2002-07-12"},{"vote_count":1,"id":442264,"video":false,"vote_average":4,"title":"Cradle of Lies","popularity":1.678322,"poster_path":"\/kR0rcMCz4WrwiH6lSO01eG19axH.jpg","original_language":"en","original_title":"Cradle of Lies","genre_ids":[9648,53,10770],"backdrop_path":null,"adult":false,"overview":"Marissa went into a coma while pregnant and wakes up five years later to find that she delivered her baby, but it is gone.","release_date":"2016-05-08"},{"vote_count":3,"id":75532,"video":false,"vote_average":6.3,"title":"Dov'è la libertà...?","popularity":1.621082,"poster_path":"\/iapRDRVP1CsIInp9gYs2BeQOQI1.jpg","original_language":"it","original_title":"Dov'è la libertà...?","genre_ids":[18,35],"backdrop_path":"\/sD1WVoOVTZnG6uBhToBPyw75cPm.jpg","adult":false,"overview":"A barber, murderer because of jealousy, spends twenty years in jail. He cannot, however adjust himself to a changed world and to the hypocrisy of his own relatives and decides to return behind bars.","release_date":"1954-02-25"},{"vote_count":17,"id":426580,"video":false,"vote_average":5.2,"title":"Bad Kids of Crestview Academy","popularity":4.442186,"poster_path":"\/frVFhblTEDnGSaBp8vg1YurOPmV.jpg","original_language":"en","original_title":"Bad Kids of Crestview Academy","genre_ids":[35,14,9648,878,53],"backdrop_path":"\/qxBkXNeYza2W8QsQlsS3ZhaupXs.jpg","adult":false,"overview":"It's four years later, and a new group of students has been placed in Saturday detention at the infamous and prestigious Crestview Academy. When Siouxsie, sophomore 'undercrust,' crashes the party to avenge her sister's death, a Saturday detention reserved for the privileged seniors of Crestview Academy turns into a date in hell. It's not long before a naïve pussycat lover, gay drug dealer, smokin' hot preacher's daughter, squeaky-clean senator's son, and the uninvited younger outsider find themselves locked-up in school with no way out, wondering who (or what) has set them up. Hilarity and suspense ensue while each 'bad kid' pits one against the other, and one by one each falls victim to absurdly gruesome 'accidents' while trying to escape.","release_date":"2017-01-13"},{"vote_count":0,"id":237458,"video":false,"vote_average":0,"title":"Hope of His Side","popularity":1.003094,"poster_path":null,"original_language":"en","original_title":"Hope of His Side","genre_ids":[],"backdrop_path":null,"adult":false,"overview":"A British comedy about a blacksmith who in looking to get away from his wife discovers a talent for rugby league.","release_date":"1935-08-18"},{"vote_count":0,"id":226918,"video":false,"vote_average":0,"title":"Wherever You Are","popularity":1.086306,"poster_path":null,"original_language":"es","original_title":"Donde tú estés","genre_ids":[],"backdrop_path":null,"adult":false,"overview":"Lisa, a young wealthy has just been dumped by one of her lovers. One night at a bar in Torremolinos met Paul Vallier and asks Rudolph will you call tonight? Vallier is a writer in crisis intellectual and sentimental. Lisa falls for him but he is engaged to another man. An overdose of pills makes it look clear and at the last moment when he would fly out with her fiance is advised by an old friend of Vallier to return to him. Well it does and it is in the same bar and join hands.","release_date":"1964-04-27"},{"vote_count":0,"id":383965,"video":false,"vote_average":0,"title":"there is an extraordinarily tall man and an extraordinarily short man that follow me wherever I go","popularity":1.003542,"poster_path":"\/caCCEvyPw7GVxqlvvYuXG5xXnGu.jpg","original_language":"en","original_title":"there is an extraordinarily tall man and an extraordinarily short man that follow me wherever I go","genre_ids":[],"backdrop_path":null,"adult":false,"overview":"An extraordinarily tall man and an extraordinarily short man follow a third man (of normal height) wherever he goes.","release_date":"2005-10-11"},{"vote_count":0,"id":91132,"video":false,"vote_average":0,"title":"And You, Friends, Wherever You Sit","popularity":1,"poster_path":"\/mAENf9k68XllklVDu9TzV8hlx2V.jpg","original_language":"en","original_title":"А вы, друзья, как ни садитесь","genre_ids":[16,10751],"backdrop_path":"\/7n1DuuX3SWRlp10yT3wLZYybpMK.jpg","adult":false,"overview":"No overview found.","release_date":"1972-01-01"},{"vote_count":7,"id":294086,"video":false,"vote_average":6.2,"title":"Tiger Orange","popularity":1.348283,"poster_path":"\/rgxUOHjpWTBliOmqBHkVXUxUKqr.jpg","original_language":"en","original_title":"Tiger Orange","genre_ids":[18],"backdrop_path":"\/ziIrIT6vVxN6vfSUs9MMOp9WF5c.jpg","adult":false,"overview":"In the small Central California town where they grew up, two estranged gay brothers struggle to reconnect after the recent death of their father.","release_date":"2014-07-26"},{"vote_count":8,"id":295196,"video":false,"vote_average":6.4,"title":"Watercolor Postcards","popularity":2.217313,"poster_path":"\/xfYOzppjXIquT9maOzgXLdiGIKg.jpg","original_language":"en","original_title":"Watercolor Postcards","genre_ids":[18],"backdrop_path":"\/1RypcANtOeDf1OgfyOVFJxZg5vG.jpg","adult":false,"overview":"A Hollywood actress and a former NFL star strive to save a troubled Texas town while bonding over their shared love of a very special 10-year-old girl who has found herself alone in the world for the very first time.","release_date":"2013-01-01"},{"vote_count":5,"id":480432,"video":false,"vote_average":6.6,"title":"Ferrari 312B","popularity":2.167286,"poster_path":"\/teTJtuIArAMPdGO5ValaZuOOezV.jpg","original_language":"it","original_title":"Ferrari 312B","genre_ids":[99],"backdrop_path":"\/bwwvIwiAY7SwDDJ7xsztUWJFaoH.jpg","adult":false,"overview":"In a race against time and all odds, the revolutionary F1 racing car Ferrari 312B will get back on the Monaco circuit, 46 years later, under the wing of it’s creator, the genius engineer Mauro Forghieri.","release_date":"2017-10-09"}]}