{"page":51,"total_results":1170,"total_pages":59,"results":[{"vote_count":0,"id":272065,"video":true,"vote_average":0,"title":"Sesame Street: Elmo Visits the Firehouse","popularity":1.003029,"poster_path":"\/tqMptkcWVx8A4uIj83LdwgFZgCr.jpg","original_language":"en","original_title":"Sesame Street: Elmo Visits the Firehouse","genre_ids":[10751],"backdrop_path":null,"adult":false,"overview":"Elmo learns fire safety from Firefighter Bill. This all comes about because he was scared after being in a fire at Mr. Hooper's Store on Sesame Street. Elmo visits Engine Company 58 Ladder Company 26 of the FDNY where he gets to see the firetruck, try on a helmet, and learn about firefighters.","release_date":"2002-09-03"},{"vote_count":0,"id":466394,"video":true,"vote_average":0,"title":"Fireman Sam: Norman on the Loose","popularity":1.000001,"poster_path":"\/vt4RgLoNQsM8AAIbLWseLVA3QmR.jpg","original_language":"en","original_title":"Fireman Sam: Norman on the Loose","genre_ids":[],"backdrop_path":null,"adult":false,"overview":"","release_date":""},{"vote_count":0,"id":466392,"video":true,"vote_average":0,"title":"Fireman Sam: rescue on the water","popularity":1,"poster_path":"\/gXlRo7Bf34mlTp86JtKUBUcGGmy.jpg","original_language":"en","original_title":"Fireman Sam: rescue on the water","genre_ids":[],"backdrop_path":null,"adult":false,"overview":"","release_date":""},{"vote_count":0,"id":495262,"video":false,"vote_average":0,"title":"Fireplace Guest","popularity":1.013968,"poster_path":"\/A0IjJTK59kFSA08g8r7Sgd5LoCB.jpg","original_language":"ru","original_title":"Каминный гость","genre_ids":[10749,18],"backdrop_path":"\/vLLZayzGAzmFUSXUayPhia96jR9.jpg","adult":false,"overview":"SHE is a district attorney, SHE is trapped in a never-ending sequence of days. It's been five years since SHE lost her beloved husband. Soon, however, SHE notices someone's presence in her apartment: things get broken or rearranged while SHE's away...Is SHE losing her mind? Or is it her dead husband trying to get in touch with her? That's what her friend keeps telling... And then SHE gets in contact with her husband's spirit and, oh miracle, he answers. SHE sees proof everywhere...and SHE's happy again, SHE's with the love of her life even though he's just a ghost. And then HE appears. Or rather falls down a chimney shaft. HE's a fugitive, framed for the murder HE didn't commit. HE's been in contact with her this whole time. So SHE helps: SHE defends him and wins the case. Somewhere along this emotional roller-coaster SHE lets go of the past pain, her dead husband and finds peace. HE, her chimney guest, will still be there when SHE starts over with a clean slate...","release_date":"2012-12-29"},{"vote_count":0,"id":338352,"video":false,"vote_average":0,"title":"The Firefly","popularity":1.005597,"poster_path":"\/wgSZwBDU93TNL99AWBKzZV03475.jpg","original_language":"ja","original_title":"ホタル","genre_ids":[],"backdrop_path":null,"adult":false,"overview":"Japanese film icon Ken Takakura, who has starred in over 100 films, stars in this elegiac look at war and remembrance. Hideji Yamaoka (Takakura) was a suicide pilot during the war who somehow survived Japan's surrender. After decades of working as a fisherman in Kumamoto, a provincial seaside city in southern Kyushu, Yamaoka remains reluctant to discuss his wartime experiences with anyone, much less an intrusive reporter looking for a feature story. Then a series of events shake Yamaoka to the core, forcing him to re-evaluate his past.","release_date":"2001-05-01"},{"vote_count":0,"id":394103,"video":false,"vote_average":0,"title":"Firefly Light","popularity":1.002079,"poster_path":"\/iDaU2RSlD5GgthbKcVfR19P2MzF.jpg","original_language":"ja","original_title":"螢火","genre_ids":[18],"backdrop_path":null,"adult":false,"overview":"Set in the 1860s, the final years of the Tokugawa Shogunate, The Fireflies focuses on Tose (Awashima Chikage), the mistress of the Teradaya, a small inn in the Kyoto suburb of Fushimi. She does not have an easy life. Her husband, Isuke (Ban Junzaburo), is a wastrel who fancies himself a kabuki singer and who is obsessed with cleanliness. Her mother-in-law, Sada (Miyoshi Eiko) dislikes her because of her humble origins (her family are farmers) and because she fears that she will inherit the inn instead of Sugi, her daughter. Sada's hopes for Sugi, however, are dashed when she runs off with a con artist and leaves her child behind for Tose to take care of. When Sada becomes seriously ill, it is Tose who nurses her. On her deathbed, Sada asks her daughter-in-law's forgiveness. Meanwhile Isuke spends most of his time with a mistress he has taken, forcing Tose to manage the inn by herself","release_date":"1958-03-18"},{"vote_count":0,"id":347452,"video":false,"vote_average":0,"title":"Firefly Light","popularity":1.001187,"poster_path":"\/anmh2tbkePO1YGRJXDURXwg8WpM.jpg","original_language":"ja","original_title":"螢の光","genre_ids":[],"backdrop_path":null,"adult":false,"overview":"A young woman decides to leave school in order to help her sister.","release_date":"1955-01-15"},{"vote_count":1,"id":319461,"video":false,"vote_average":7,"title":"Stravinsky: The Firebird and Les Noces","popularity":1.060985,"poster_path":"\/9ehe8EIIwf3dd3O0yepzHMUumV9.jpg","original_language":"en","original_title":"Stravinsky: The Firebird and Les Noces","genre_ids":[14,10402],"backdrop_path":null,"adult":false,"overview":"London's Royal Ballet performs two of Igor Stravinsky's classic works in this pair of performances choreographed by dance legend Nijinska. Zenaida Yanowsky and David Pickering star in \"Les Noces,\" the stark, percussion-centric tale of a Russian peasant wedding that incorporates traditional folk music into its score. \"The Firebird\" stars Leanne Benjamin as the mythical creature who brings both a blessing and a curse upon her captors.","release_date":"2002-10-22"},{"vote_count":218,"id":11257,"video":false,"vote_average":6.9,"title":"A Room with a View","popularity":10.528877,"poster_path":"\/fS4mDKBIHeTmWXPGgz64d2dMyJG.jpg","original_language":"en","original_title":"A Room with a View","genre_ids":[18,10749],"backdrop_path":"\/eYOnXRVCR3FIT1LdtSFoCiVajqv.jpg","adult":false,"overview":"When Lucy Honeychurch and chaperon Charlotte Bartlett find themselves in Florence with rooms without views, fellow guests Mr Emerson and son George step in to remedy the situation. Meeting the Emersons could change Lucy's life forever but, once back in England, how will her experiences in Tuscany affect her marriage plans?","release_date":"1985-12-13"},{"vote_count":1,"id":196000,"video":false,"vote_average":4,"title":"Fireboat 'New Yorker' Answering an Alarm","popularity":1.036472,"poster_path":null,"original_language":"en","original_title":"Fireboat 'New Yorker' Answering an Alarm","genre_ids":[99],"backdrop_path":null,"adult":false,"overview":"This picture gives a good idea of how soon one of the New York fireboats can be gotten under way after they receive an alarm of fire...","release_date":"1903-05-22"},{"vote_count":3,"id":285463,"video":false,"vote_average":6.7,"title":"Two Shots Fired","popularity":1.399578,"poster_path":"\/v9aDFQLW7oxrf5thWNo9AiTd77k.jpg","original_language":"es","original_title":"Dos disparos","genre_ids":[18,35],"backdrop_path":"\/2vjrmLE5D58esugErjLippWFa8s.jpg","adult":false,"overview":"One early morning, at the beginning of a very hot summer, Mariano, a sixteen-year-old teenager, returns home, jumps into the pool and does some laps with a stopwatch. Then he gets out and mows the lawn, where he accidentally cuts the mower’s power cord when he runs over it. Set on fixing it, he goes to find tools but stumbles across a gun that he brings back to his room to shoot himself twice. But Mariano survives: one bullet just grazed his head and the other one, he believes, is stuck somewhere inside his body even if the doctors can’t find it anywhere, nor any exit wound for that matter. The only aftereffect he seems to have is a mysterious double-note when he plays music with his friends, which according to him is probably the result of the bullet still being inside him. But Mariano’s impulsive act will have other consequences on the people surrounding him…","release_date":"2014-09-05"},{"vote_count":0,"id":403301,"video":false,"vote_average":0,"title":"Firefighters Architects & Engineers – Expose 9\/11 Myths","popularity":1.034119,"poster_path":"\/Ar3l2boJYOW46ftWIqrLvexfkxE.jpg","original_language":"en","original_title":"Firefighters Architects & Engineers – Expose 9\/11 Myths","genre_ids":[99],"backdrop_path":null,"adult":false,"overview":"Firefighters, Architects and Engineers are exposing the 9\/11 facts about the evidence for the controlled demolition of the Twin Towers and Building 7 falling at 5:20pm on 9\/11. Witness 12 World Trade Center Myths exposed by experts: • “Only 2 towers destroyed on 9\/11” • “Thorough investigation” • “Tested for explosives” • “No explosives found” • “No witnesses of explosions” • “Hot fires”  • “No molten steel\/iron” • “Fires created free-fall collapse of WTC Building 7”. Examine the explosive forensic evidence. Watch the testimony from first responders, news reporters &amp; witnesses. Discover the crucial omissions from government reports. Engage in this dynamic rapid-paced and power-packed live multi-media presentation about the most important event of our time.","release_date":"2015-09-11"},{"vote_count":0,"id":283291,"video":true,"vote_average":0,"title":"Fireman Sam: Pontypandy Gone Wild","popularity":1.010588,"poster_path":"\/trGoUXVIiWAoejwkf0cXrXc0DPW.jpg","original_language":"en","original_title":"Fireman Sam: Pontypandy Gone Wild","genre_ids":[],"backdrop_path":"\/uv14xpyyc2Z1FeBv0Sq8CT6LunN.jpg","adult":false,"overview":"Fireman Sam is busy keeping everyone safe and sound, when the town of Pontypandy goes wild! Tom and Moose go on the trail of a foxy fox but, whilst trying to outsmart it, accidentally become trapped in its den. The self-titled \"Wild Men of Pontypandy\" get into more scrapes when they start a battle of wilderness skills and find themselves stranded up a tree. Meanwhile, Sarah tells the town about the Pontypandyness Monster. Everyone rushes to the lake but the jetty can't cope with all the excitement. It breaks, floats away and leaves half the town adrift!  Episodes: The Pontypandyness Monster, King of the Mountain, Lighthouse Lock Out, To Outfox a Fox, The Great Guinea Pig Race, Floodlights.","release_date":"2013-11-06"},{"vote_count":0,"id":323743,"video":false,"vote_average":0,"title":"\"Ghosts and Firefighters\", paranormal files, Peru","popularity":1.009412,"poster_path":null,"original_language":"en","original_title":"\"Ghosts and Firefighters\", paranormal files, Peru","genre_ids":[],"backdrop_path":null,"adult":false,"overview":"In a firestation, many persons affirm that they have encountered ghosts. They have seen objects flying, frames moving and seen evidence of paranormal activity","release_date":"2013-02-05"},{"vote_count":0,"id":340523,"video":true,"vote_average":0,"title":"Sesame Street: Firefly Fun and Buggy Buddies","popularity":1.008235,"poster_path":"\/duMoy2p5ujVZcVZubTQW0GnPZuR.jpg","original_language":"en","original_title":"Sesame Street: Firefly Fun and Buggy Buddies","genre_ids":[10751],"backdrop_path":null,"adult":false,"overview":"Firefly Fun and Buggy Buddies is a Sesame Street DVD from Warner Home Video released on June 1, 2010. The DVD includes the Street stories from two 2008 episodes (episodes 4165 and 4175) plus Elmo's World: Bugs, as well as other segments related to bugs.","release_date":"2010-06-01"},{"vote_count":0,"id":411758,"video":true,"vote_average":0,"title":"Fireman Sam - Brave to the core","popularity":1,"poster_path":null,"original_language":"no","original_title":"Fireman Sam - Brave to the core","genre_ids":[],"backdrop_path":null,"adult":false,"overview":"","release_date":""},{"vote_count":0,"id":336923,"video":false,"vote_average":0,"title":"Fireman Sam: Pontypandy Gone Wild","popularity":1,"poster_path":"\/issswXjbLWPWJ8OD1pKbp7NyYbG.jpg","original_language":"en","original_title":"Fireman Sam: Pontypandy Gone Wild","genre_ids":[10751,16],"backdrop_path":null,"adult":false,"overview":"Fireman Sam is busy keeping everyone safe and sound, when the town of Pontypandy goes wild! Tom &amp; Moose go on the trail of a foxy fox but, whilst trying to outsmart it, accidentally become trapped in its den. The self-titled Wild Men of Pontypandy get into more scrapes when they start a battle of wilderness skills and find themselves stranded up a tree. Sarah gets herself into trouble when she tells the town about the Pontypandyness Monster, but the jetty can't cope with all the excitement when it breaks and floats away, leaving half the town adrift. No wonder Fireman Sam is Always on Duty!","release_date":""},{"vote_count":1,"id":456949,"video":false,"vote_average":4,"title":"The Best Fireworks Ever","popularity":1.671033,"poster_path":null,"original_language":"pl","original_title":"Najpiękniejsze fajerwerki ever","genre_ids":[],"backdrop_path":null,"adult":false,"overview":"In a contemporary world in one of the European cities, three friends, as they face a military conflict in their country, must modify their plans for the future.","release_date":"2017-05-24"},{"vote_count":0,"id":216809,"video":false,"vote_average":0,"title":"Fireworks Over the Sea","popularity":1.240503,"poster_path":"\/mqhbPbZhi7loY8zz0LqZSR7FPK9.jpg","original_language":"ja","original_title":"海の花火","genre_ids":[18],"backdrop_path":null,"adult":false,"overview":"A fishing union depends on two brothers to make up the losses caused by the dishonest captains they replaced.","release_date":"1951-10-25"},{"vote_count":46,"id":38312,"video":false,"vote_average":5.5,"title":"Firefighters 2: Heroic Mission","popularity":3.029886,"poster_path":"\/ncSZ5fbllANwXDqYypJ3tOyr3gV.jpg","original_language":"it","original_title":"Missione eroica - I pompieri 2","genre_ids":[35],"backdrop_path":"\/qiP9mb5SklBTe7BtZxKUJFMXt5c.jpg","adult":false,"overview":"Hard and dangerous service. Needed to extinguish fires, but what if there is a fire between the legs?","release_date":"1987-01-01"}]}