{"page":16,"total_results":567,"total_pages":29,"results":[{"vote_count":0,"id":408190,"video":false,"vote_average":0,"title":"Comrade, Where Are You Today?","popularity":1.069891,"poster_path":"\/iLk1G7osyE8gk7a3ndKtkw22hfA.jpg","original_language":"de","original_title":"Comrade, Where Are You Today?","genre_ids":[99],"backdrop_path":"\/kTQEqIeO0SXkDroZ56L29m6BHlm.jpg","adult":false,"overview":"In 1988, 20-year-old Kirsi Marie Liimatainen travels from Finland to the GDR, to study Marxism-Leninism at the International Youth Academy. In summer of´89 the course ends and the students spread out over the world. Afew months later, the Berlin Wall falls. 24 years later Kirsi, sets out on a cinematic journey to Nicaragua, South Africa, Chile, Bolivia, Lebanon, Germany and Finland to meet up once more with her former fellow students. What remains of their dream of the liberation of the oppressed?","release_date":"2016-08-18"},{"vote_count":1,"id":392955,"video":false,"vote_average":8,"title":"God Knows Where I Am","popularity":1.063888,"poster_path":"\/1y8zsKju1I0hfUg7xQEBYIpx1xI.jpg","original_language":"en","original_title":"God Knows Where I Am","genre_ids":[9648,99,18,36],"backdrop_path":"\/58L6lqMItOj1qUu1Q1Jp8xrjvhu.jpg","adult":false,"overview":"Well-educated, New Hampshire mother, Linda Bishop, was determined to stay free of the mental health system after her early release from a 3 year commitment to New Hampshire State Hospital. Instead, she became a prisoner of her own mind, a fate which she documents in one of the most evocative and chilling accounts of mental illness and of our systemic failure to protect those suffering from it.","release_date":"2016-04-07"},{"vote_count":0,"id":229292,"video":false,"vote_average":0,"title":"This Prison Where I Live","popularity":1.059744,"poster_path":"\/y2sIxjkqvYkODptu0GsRommdy43.jpg","original_language":"en","original_title":"This Prison Where I Live","genre_ids":[99],"backdrop_path":null,"adult":false,"overview":"A documentary by Rex Bloomstein.","release_date":"2010-06-28"},{"vote_count":2,"id":130268,"video":false,"vote_average":3.5,"title":"Where Is Madame Catherine?","popularity":1.074204,"poster_path":"\/39Dj9SnSqhUHF1ALQUR79xstLj1.jpg","original_language":"fr","original_title":"Les mains vides","genre_ids":[],"backdrop_path":null,"adult":false,"overview":"The life in a Catalan (Southern France) village near the border may be quite boring. A young man who is escaping from his homeland is seeking for something and may find it in this weird place. You see the relationship between the people in the village, their dreams, their past and their perspectives in life. The foreigner is hosted there and is messed in the deep whereabouts of these people and tries somehow to fit in.","release_date":"2003-07-05"},{"vote_count":4,"id":30101,"video":false,"vote_average":5.5,"title":"Where The Red Fern Grows II: The Classic Continues","popularity":1.951835,"poster_path":"\/nW9M5VVM6cVIsIaGTfNwCZtisHA.jpg","original_language":"en","original_title":"Where The Red Fern Grows II: The Classic Continues","genre_ids":[10751],"backdrop_path":"\/nF0prp0PA4wQhCfhU2KHtnyiWZE.jpg","adult":false,"overview":"An embittered WWII veteran returns to his grandfather's home in the Louisiana woods. The old man helps his grandson readjust by giving him two hound dog puppies to care for.","release_date":"1992-01-01"},{"vote_count":1,"id":326089,"video":false,"vote_average":7,"title":"Where God Likes to Be","popularity":1.054885,"poster_path":"\/nNfggLJZoi5OSvEtDX2rdE3VTwY.jpg","original_language":"en","original_title":"Where God Likes to Be","genre_ids":[99],"backdrop_path":"\/6fmj1HlDDEbKM60xKLT16bf8k1f.jpg","adult":false,"overview":"Where God Likes to Be focuses on three young protagonists full of hope and promise - Andi Running Wolf, Edward Tailfeathers, and Douglas Fitzgerald - following them over the course of a summer that marks a turning point in all of their lives. Each grapples with whether to leave, pursuing opportunities far from home, or stay behind with friends and family potentially struggling with limited opportunity and marginalization. A picture emerges of the reservation as a cherished home that nurtures identity.","release_date":"2014-02-22"},{"vote_count":1,"id":365390,"video":false,"vote_average":9,"title":"Where Are All the Time","popularity":1.05452,"poster_path":"\/2lhAKRAN68mXKNob8ctqLGMZYvY.jpg","original_language":"en","original_title":"Where Are All the Time","genre_ids":[18,10749],"backdrop_path":null,"adult":false,"overview":"Yao Yuan (Dylan Kuo) and Lin Yutong (Yang Zi ) is a pair of children in the special period of SARS become attached to a small partner. Years later, the two meet again in the university campus, a teenager’s innocence, today’s love, everything is beautiful like a fairy general. After graduation, he originally intended to join into the marriage hall, because Yao Yuan emergency abroad,  of missing, accidentally lost contact, missed each other.  Time flies, Yao Yuancheng to an outstanding engineer. A chance encounter the same time to catch the thief “Road see injustice,” Shen Xin , they increasingly familiar. Yao Yao Wencheng remoteness worried father (Vincent Chiao ) body, decided to marry as soon as possible and Shen Xin. Unexpectedly on the two wedding ceremonies, Yao Yuan former college roommate, George suddenly appeared, then disappeared ??? tells the truth.","release_date":"2015-08-07"},{"vote_count":1,"id":402010,"video":false,"vote_average":6,"title":"Where You're Meant to Be","popularity":1.068607,"poster_path":"\/k11zHCb0O2eSWCUjc4W3mfREfHW.jpg","original_language":"en","original_title":"Where You're Meant to Be","genre_ids":[],"backdrop_path":null,"adult":false,"overview":"When a Scottish indie pop artist decides to re-write his country's oldest songs, the only thing standing in his way is an ageing folk singer and centuries of history.","release_date":"2016-06-17"},{"vote_count":0,"id":424973,"video":false,"vote_average":0,"title":"Where Are You, Jafar Panahi?","popularity":1.048969,"poster_path":"\/zdoJ4lLgEf7DZhL2s3aSSEtAmDV.jpg","original_language":"fa","original_title":"Where Are You, Jafar Panahi?","genre_ids":[99],"backdrop_path":null,"adult":false,"overview":"Roughly titled Where Are You, Jafar Panahi?, it follows the filmmaker and Iranian director Majid Barzegar on a 20-minute drive to Kiarostami’s grave, during which time “the two friends speak appropriately of cinema, but also censorship and festivals, police power and ideology.”","release_date":"2016-11-07"},{"vote_count":1,"id":73239,"video":false,"vote_average":7,"title":"Magic Kingdom Where dreams come true","popularity":1.064184,"poster_path":"\/vObu4BZxV6DahmcfuRfVhTaqAl1.jpg","original_language":"en","original_title":"Magic Kingdom: Where dreams come true","genre_ids":[],"backdrop_path":null,"adult":false,"overview":"Comming soon","release_date":""},{"vote_count":1,"id":383298,"video":false,"vote_average":6,"title":"The Places Where We Lived","popularity":1.044706,"poster_path":"\/qKt9jlXZ5Uh6P3P7VUYSSaerlLf.jpg","original_language":"en","original_title":"The Places Where We Lived","genre_ids":[16],"backdrop_path":null,"adult":false,"overview":"A man wakes up with a terrible feeling. His parents are selling his childhood home.","release_date":"2013-02-13"},{"vote_count":0,"id":509832,"video":false,"vote_average":0,"title":"Where Have You Gone, Lou DiMaggio?","popularity":1.354437,"poster_path":"\/mBuVZ7KwvF0HOknQCDo6Fs9kTcJ.jpg","original_language":"en","original_title":"Where Have You Gone, Lou DiMaggio?","genre_ids":[99],"backdrop_path":null,"adult":false,"overview":"Comedian Lou DiMaggio contemplates a comeback after a 20 year absence from the stage and seeks advice from a collection of comedy greats.","release_date":"2017-02-03"},{"vote_count":7,"id":108062,"video":false,"vote_average":5.2,"title":"Where Have All the People Gone","popularity":1.350203,"poster_path":"\/nwRLWQhZa70503rb1O5JIFqlu6j.jpg","original_language":"en","original_title":"Where Have All the People Gone","genre_ids":[878,18],"backdrop_path":"\/wga9sitGUWtKoovpdvyqKBC2AwV.jpg","adult":false,"overview":"A strange series of solar flares proves fatal for inhabitants of the Earth, except for the fortunate few who are somehow immune from the effects. Animals go insane and human beings turn to white powder, leaving behind only empty clothing. A handful of survivors attempt to rebuild their lives on the de-populated Earth.","release_date":"1974-01-01"},{"vote_count":1,"id":259562,"video":false,"vote_average":6,"title":"Hart to Hart: Home Is Where the Hart Is","popularity":1.89535,"poster_path":"\/vFQh8BuLbUj6d9ilrQhglrjDkSw.jpg","original_language":"en","original_title":"Hart to Hart: Home Is Where the Hart Is","genre_ids":[12,80,9648],"backdrop_path":"\/8EEFGSwWQ7ENSJQkptf7zvFVppm.jpg","adult":false,"overview":"When a mentor and friend of Jennifer's dies, she and Jonathan return to the sleepy town where Jennifer once lived and worked as a reporter. Nearly immediately, they discover that all is not right within this picturesque town. The town's economic troubles pale next to the danger the Harts find themselves in as they try to sort out whether their friend's death was murder, and what sinister secrets may lie behind the truth.","release_date":"1994-02-18"},{"vote_count":0,"id":465343,"video":false,"vote_average":0,"title":"Home Is Where The Sunsets","popularity":1.027059,"poster_path":null,"original_language":"cn","original_title":"Home Is Where The Sunsets","genre_ids":[],"backdrop_path":null,"adult":false,"overview":"Alison’s life in L.A. turns upside down when her family comes to visit from Hong Kong for the very first time. Stuffed into her cramped apartment, Alison finds beauty and heartache in the smallest of moments.","release_date":"2016-04-24"},{"vote_count":0,"id":302183,"video":false,"vote_average":0,"title":"Where Are You Taking That Woman","popularity":1.043037,"poster_path":"\/lPbqmmGMnKjKdsa0fYeODZJNqWd.jpg","original_language":"de","original_title":"Gern hab’ ich die Frauen gekillt","genre_ids":[28],"backdrop_path":null,"adult":false,"overview":"A lady killer tracked by the police, takes refuge at a psychiatrist's home, and the doctor tells him three stories, to convince him that crime does not pay","release_date":"1966-07-28"},{"vote_count":0,"id":488098,"video":false,"vote_average":0,"title":"Headland: Where Nature Meets Sculpture","popularity":1.007059,"poster_path":null,"original_language":"en","original_title":"Headland: Where Nature Meets Sculpture","genre_ids":[99],"backdrop_path":null,"adult":false,"overview":"A Documentary about Waiheke Island’s Sculpture on the Gulf, a 3D art exhibition on New Zealand's Waiheke Island coastal walkway.","release_date":"2011-10-24"},{"vote_count":0,"id":390928,"video":false,"vote_average":0,"title":"Sharunas Bartas: Where am I Now","popularity":1.03624,"poster_path":"\/ctvw6k21AFORjZ9e5YIJI7owJ9w.jpg","original_language":"lt","original_title":"Šarūnas Bartas: kur aš esu šiandien","genre_ids":[99],"backdrop_path":null,"adult":false,"overview":"In the short film \"Sharunas Bartas: where am I now\" director looks for an answer to the question retrospectively and with a perspective towards the future. Reflections on meaning of life and cinema blends in as do autoportrait and portrait genres. In laconic manner director Sharunas Bartas gives quintesense of his thoughts and ideas, more importantly, his feelings and experiences. The film was initiated by Pompidou Art Centre, which recently organized Retrospective of Sharunas Bartas.","release_date":"2016-04-01"},{"vote_count":0,"id":324239,"video":false,"vote_average":0,"title":"Robbie Williams - Where Egos Dare","popularity":1.001662,"poster_path":"\/mFJHJbMAJTQITjvJO6RZIYgMI2b.jpg","original_language":"en","original_title":"Robbie Williams - Where Egos Dare","genre_ids":[],"backdrop_path":"\/gKSPE9BaG7aIvLdXEnRixlhauMa.jpg","adult":false,"overview":"The Legendary Slane Castle Concert, August 1999 Specially edited highlights and exclusive backstage footage from\r this legendary show with features that include 5.1 surround sound and multi-camera angles.","release_date":"2000-11-13"},{"vote_count":0,"id":387297,"video":false,"vote_average":0,"title":"Where Time Stands Still","popularity":1.001187,"poster_path":"\/hXkZH46ps9C7cqV8cl6SLVqpmKp.jpg","original_language":"en","original_title":"Where Time Stands Still","genre_ids":[99],"backdrop_path":null,"adult":false,"overview":"In this Traveltalks series entry, we visit a region in Guatemala where the native Indian tribes live like their ancestors, without using most of the benefits of modern man. They not only grow their own vegetables and catch animals to eat, they also cultivate the plants they need to weave fabrics and make natural dyes from various berries and seeds.","release_date":"1945-09-22"}]}