{"page":19,"total_results":567,"total_pages":29,"results":[{"vote_count":0,"id":431615,"video":false,"vote_average":0,"title":"The Wind Blows Where It Wishes","popularity":1,"poster_path":"\/dt18F99G8Us8n3Sl8HtRNGeF6Vt.jpg","original_language":"fr","original_title":"Le vent souffle où il veut","genre_ids":[99],"backdrop_path":null,"adult":false,"overview":"The floral park of Moutiers in Varengeville (Normandy).","release_date":"1976-11-26"},{"vote_count":0,"id":115512,"video":false,"vote_average":0,"title":"Where the Hell's That Gold?!!?","popularity":1.000349,"poster_path":"\/yUJXyXwAcziK8X94uY9vkRHhoXK.jpg","original_language":"en","original_title":"Where the Hell's That Gold?!!?","genre_ids":[37,10770],"backdrop_path":null,"adult":false,"overview":"A pair of thieves are pursued by the U.S. Army, the Mexican federales and Apaches in this made-for-TV Western.","release_date":"1988-11-13"},{"vote_count":0,"id":450578,"video":false,"vote_average":0,"title":"Where There's a Will","popularity":1.000118,"poster_path":"\/yjQwfW0kTrFJyC3HjOK1oW47As9.jpg","original_language":"en","original_title":"Where There's a Will","genre_ids":[],"backdrop_path":null,"adult":false,"overview":"While waiting to inherit money from his millionaire father, a young man falls for Jamie, a beautiful, but also very principled young lady.","release_date":""},{"vote_count":1,"id":479693,"video":false,"vote_average":7,"title":"The Wind Bloweth Where it Listeth","popularity":1.362536,"poster_path":"\/zqT4GS9jWbkGxSn3fv5kUE0fdqI.jpg","original_language":"sv","original_title":"Vinden blåser vart den vill","genre_ids":[18],"backdrop_path":null,"adult":false,"overview":"","release_date":"2017-01-28"},{"vote_count":2,"id":144953,"video":false,"vote_average":5.5,"title":"Where's Marlowe?","popularity":1.248811,"poster_path":"\/l4jVox6cJmcD5AbTAjZljyq8ZlS.jpg","original_language":"es","original_title":"Where's Marlowe?","genre_ids":[35,9648,53],"backdrop_path":null,"adult":false,"overview":"After making a 3-hour fiasco about New York City's water supply, a two-man film crew decides to take it up a notch by documenting life in the private investigator offices of \"Boone and Murphy\". Cheating husbands and missing dogs fail to bring in the big bucks however, and after sleeping with the wife of one of their clients Murphy leaves. To stop Boone from having to close down the business the two film-makers must resort to a hands-on approach in the investigations to ensure the completion of their movie.","release_date":"1998-01-01"},{"vote_count":47,"id":49964,"video":false,"vote_average":7.8,"title":"Where Is My Friend's House?","popularity":3.739317,"poster_path":"\/l8B1IjhDnrPHQtHFQYJsZyNodIh.jpg","original_language":"fa","original_title":"خانه‌ی دوست کجاست؟","genre_ids":[18],"backdrop_path":"\/vvFzfa9e963DlmpOPVs6humd7l9.jpg","adult":false,"overview":"An 8 year old boy must return his friend's notebook he took by mistake, lest his friend be punished by expulsion from school.","release_date":"1987-01-01"},{"vote_count":0,"id":456690,"video":false,"vote_average":0,"title":"Roxette: It All Begins Where It Ends","popularity":1.237152,"poster_path":"\/mU9U4vP3r6UpCXyAWKJpLtR8nP2.jpg","original_language":"en","original_title":"Roxette: It All Begins Where It Ends","genre_ids":[10402,99],"backdrop_path":null,"adult":false,"overview":"As one of Europe's most successful bands, Roxette have scored more international hits, rolled out bigger tours and received more airplay than any other Scandinavian band. When Marie Fredriksson was diagnosed with brain tumor in 2002, it seemed like the Roxette saga had reached its tragic end. But Marie got well against all odds, and during 2009 and 2010 the group step by step laid the ground for a comeback that again created modern music history. In February 2011 Roxette kicked off their return to the world's stages with a tour that soon was dubbed \"The never ending tour\", since the bookings never ceased to drop in. The world hadn't forgotten Roxette and before the group played their final show in Mexico City in September 2012, they had performed their classic song catalog in front of 1,5 million singing, screaming and crying people in 46 countries. A film team joined the tour and captured one of the most unexpected and moving returns any band has ever done.","release_date":""},{"vote_count":4,"id":24857,"video":false,"vote_average":6.1,"title":"Steve Vai: Where The Wild Things Are","popularity":1.229482,"poster_path":"\/xzuqQ1nXLUWhPdvqwoHIgvOMz6o.jpg","original_language":"en","original_title":"Steve Vai: Where The Wild Things Are","genre_ids":[10402],"backdrop_path":"\/duJAAj0RcwzMqbZLPFP0YgKqS4n.jpg","adult":false,"overview":"Taken from a two hour and 40 minute sold out show recorded at The State theatre in Minneapolis, WHERE THE WILD THINGS ARE is yet another live showcase of meticulously mapped Steve Vai compositions. Much of the material is new, and tested out in front of an unfamiliar but eager audience, with Vai exercising his chops to the limits.","release_date":"2009-09-29"},{"vote_count":11,"id":295049,"video":false,"vote_average":4.5,"title":"Nativity 3: Dude, Where's My Donkey?!","popularity":2.625981,"poster_path":"\/67vYetm1NEQr9X587bXNv8nISF7.jpg","original_language":"en","original_title":"Nativity 3: Dude, Where's My Donkey?!","genre_ids":[35],"backdrop_path":"\/rbZoCgKHBg7FeSNlIrwXPyS9NoB.jpg","adult":false,"overview":"This Christmas the pupils of St Bernadette's and their much-loved, madcap teacher Mr. Poppy are back for their biggest adventure yet involving fantastic flashmobs, excitable elves, Christmas carols and of course Archie the donkey! When their new teacher Mr. Shepherd loses his memory and forgets all about Christmas, as well as his fiancée Sophie and the whereabouts of the beloved Archie, it's up to the pupils of St Bernadette's to save the day. Led by the ever enthusiastic Mr Poppy, they embark on a Christmas journey like never before - but time is against them if they are to help Mr Shepherd get to New York in time for his magical yuletide wedding!","release_date":"2014-11-14"},{"vote_count":1,"id":432863,"video":true,"vote_average":6,"title":"Where the Bears are - Christmas Special","popularity":1.052846,"poster_path":null,"original_language":"de","original_title":"Where the Bears are - Christmas Special","genre_ids":[],"backdrop_path":null,"adult":false,"overview":"","release_date":""},{"vote_count":2,"id":116511,"video":false,"vote_average":3.8,"title":"Westlife: The Where We Are Tour","popularity":1.210554,"poster_path":"\/b6MuRyzpy8LmeoG3UUagnIx9HYS.jpg","original_language":"en","original_title":"Westlife: The Where We Are Tour","genre_ids":[10402],"backdrop_path":"\/5hNvXHTdjapKpIV6ltI6bvMplrK.jpg","adult":false,"overview":"This DVD's exclusive concert performance from London's O2 Arena captures Westlife's most thrilling tour yet, created with visionary William Baker (Kylie, Leona Lewis, Bjork), that wowed UK arenas in May this year. The show includes the band's biggest and best-loved hits and new tracks taken from the band's 2009 album 'Where We Are'. 'The Where We Are Tour - Live From The 02' also gives fans a rare, intimate glimpse into the lives of Nicky Byrne, Kian Egan, Mark Feehily and Shane Filan with the bonus 'Where We Are - The Documentary'. This compelling behind the scenes documentary provides a fly on the wall insight into the lives of the band in the run up and during the tour.","release_date":"2010-12-07"},{"vote_count":1,"id":432864,"video":true,"vote_average":7,"title":"Where the Bears are 3 - Halloween Special","popularity":1.035294,"poster_path":null,"original_language":"de","original_title":"Where the Bears are 3 - Halloween Special","genre_ids":[],"backdrop_path":null,"adult":false,"overview":"","release_date":""},{"vote_count":1,"id":432865,"video":true,"vote_average":6,"title":"Where the Bears are 2 - Thanksgiving Special","popularity":1.035294,"poster_path":null,"original_language":"de","original_title":"Where the Bears are 2 - Thanksgiving Special","genre_ids":[],"backdrop_path":null,"adult":false,"overview":"","release_date":""},{"vote_count":0,"id":422641,"video":false,"vote_average":0,"title":"Fantastic Beasts and Where to Find Them 4","popularity":1.326459,"poster_path":null,"original_language":"en","original_title":"Fantastic Beasts and Where to Find Them 4","genre_ids":[],"backdrop_path":null,"adult":false,"overview":"","release_date":"2022-11-24"},{"vote_count":1,"id":71874,"video":false,"vote_average":10,"title":"Dark Tranquillity: Where Death Is Most Alive","popularity":1.187797,"poster_path":"\/uCiqmGU2D1acNCw1QqZWD6fdHE1.jpg","original_language":"en","original_title":"Dark Tranquillity: Where Death Is Most Alive","genre_ids":[10402,99],"backdrop_path":"\/iuEraR1mwarosm10bYxx1lig0eb.jpg","adult":false,"overview":"This 2 DVD set celebrates the band's 20th anniversary with a career spanning DVD that takes you from the raw beginnings to their current position as one of the most diverse and influential metal acts. DVD 1 features a massive show with 20 songs recorded live in Milan, Italy in October, 2008. Filmed with 8 cameras in HD and brilliant live sound mixed by Tue Madsen. DVD 2 features a 47. minute documentary, 7 promo videos, and 21 more live tracks that don't appear on the DVD 11 min show. 16 of the bonus live videos are shown for the first time.","release_date":"2009-10-26"},{"vote_count":4,"id":119427,"video":false,"vote_average":8.8,"title":"Let Each One Go Where He May","popularity":1.168723,"poster_path":"\/2Gx5l5ucaMpw5MF2pdbaylvVSV1.jpg","original_language":"en","original_title":"Let Each One Go Where He May","genre_ids":[],"backdrop_path":null,"adult":false,"overview":"The film traces the extensive journey of two unidentified brothers who venture from the outskirts of Paramaribo, Suriname, on land and through rapids, past a Maroon village on the Upper Suriname River, in a rehearsal of the voyage undertaken by their ancestors, who escaped from slavery at the hands of the Dutch 300 years prior. A path still traveled to this day, its changing topography bespeaks a diverse history of forced migration.","release_date":"2009-09-12"},{"vote_count":0,"id":71296,"video":false,"vote_average":0,"title":"The Land Where the Ganges Flows","popularity":1.003704,"poster_path":"\/tQmdseku3j3tmzOQ6oF8NdxdT5M.jpg","original_language":"hi","original_title":"जिस देश में गंगा बहती है","genre_ids":[35,10402],"backdrop_path":null,"adult":false,"overview":"Raju informs the police about a group of bandits, even though he is in love with the chief's daughter. The police set out to kill the clan and it is upto him to save the bandits and his love.","release_date":"1960-01-01"},{"vote_count":0,"id":135110,"video":false,"vote_average":0,"title":"Who is Where?","popularity":1.22199,"poster_path":"\/ryQHXksVFLCEKFvpkGB6zDuyhla.jpg","original_language":"sv","original_title":"Vem är var?","genre_ids":[16],"backdrop_path":"\/flVTzG76kivqk8UQFLMuUjryJLO.jpg","adult":false,"overview":"Sequel to Who?, with eight new stories. Sleeping over at a friend's house is exciting. You need to take your toothbrush. And a cuddly toy. But what if it’s too scary? And Teddy wants to play with her friends but where can they be?","release_date":"2011-10-07"},{"vote_count":2,"id":85279,"video":false,"vote_average":7.5,"title":"Where Is the Body, Moeller?","popularity":1.220753,"poster_path":"\/5nwdQqSMPloGnxasfWnVOKKzrbZ.jpg","original_language":"da","original_title":"Hvor er liget, Møller?","genre_ids":[80,35],"backdrop_path":null,"adult":false,"overview":"Where Is the Body, Moeller? is a 1971 Danish comedy film directed by Preben Kaas and starring Dirch Passer.","release_date":"1971-03-22"},{"vote_count":3,"id":474278,"video":false,"vote_average":7,"title":"Where the Shadows Fall","popularity":1.197985,"poster_path":"\/7ZLv5SBLZozbkzuM7y0Ye2XGMic.jpg","original_language":"it","original_title":"Dove cadono le ombre","genre_ids":[],"backdrop_path":"\/6XVmeiYTeVpwDIehnOJBlN7YY12.jpg","adult":false,"overview":"Nurse Anna and her assistant Hans work in an old folks’ home that was once the orphanage where they were imprisoned as children, and they still seem trapped in time and space.","release_date":"2017-09-06"}]}