{"page":1,"total_results":567,"total_pages":29,"results":[{"vote_count":1428,"id":134,"video":false,"vote_average":7.3,"title":"O Brother, Where Art Thou?","popularity":21.635844,"poster_path":"\/eIqSzq6j3yuxNmifiUOh6iTpG9N.jpg","original_language":"en","original_title":"O Brother, Where Art Thou?","genre_ids":[28,12,35],"backdrop_path":"\/wGxK2uFowRXdyKcv8Gni7snK3yu.jpg","adult":false,"overview":"In the deep south during the 1930s, three escaped convicts search for hidden treasure while a relentless lawman pursues them. On their journey they come across many comical characters and incredible situations. Based upon Homer's 'Odyssey'.","release_date":"2000-08-30"},{"vote_count":7815,"id":259316,"video":false,"vote_average":7.3,"title":"Fantastic Beasts and Where to Find Them","popularity":47.529588,"poster_path":"\/1M91Bt3oGspda75H9eLqYZkJzgO.jpg","original_language":"en","original_title":"Fantastic Beasts and Where to Find Them","genre_ids":[12,10751,14],"backdrop_path":"\/6I2tPx6KIiBB4TWFiWwNUzrbxUn.jpg","adult":false,"overview":"In 1926, Newt Scamander arrives at the Magical Congress of the United States of America with a magically expanded briefcase, which houses a number of dangerous creatures and their habitats. When the creatures escape from the briefcase, it sends the American wizarding authorities after Newt, and threatens to strain even further the state of magical and non-magical relations.","release_date":"2016-11-16"},{"vote_count":51,"id":220471,"video":false,"vote_average":4.9,"title":"The Devil's Hand","popularity":10.164788,"poster_path":"\/bHWLdnU2hb4ZFbC22VS6ukcf35q.jpg","original_language":"en","original_title":"Where the Devil Hides","genre_ids":[27,53],"backdrop_path":"\/5P0cQ9iNoCrJk3oMIcZn9XSfUZC.jpg","adult":false,"overview":"Five young Amish girls accused of being Satan's children must fight for their lives when their devout community elders insist they be \"cleansed\" before turning 18.","release_date":"2014-10-10"},{"vote_count":291,"id":11046,"video":false,"vote_average":7.4,"title":"Where Eagles Dare","popularity":10.151808,"poster_path":"\/70lTWYeTtQfQ9HVKE12ZS7r89jM.jpg","original_language":"en","original_title":"Where Eagles Dare","genre_ids":[12,18,28,36,10752],"backdrop_path":"\/hrRJieGwYI7jZ522qIjWLbtsBJz.jpg","adult":false,"overview":"World War II is raging, and an American general has been captured and is being held hostage in the Schloss Adler, a Bavarian castle that's nearly impossible to breach. It's up to a group of skilled Allied soldiers to liberate the general before it's too late.","release_date":"1968-12-04"},{"vote_count":187,"id":352208,"video":false,"vote_average":7.4,"title":"Where to Invade Next","popularity":7.910953,"poster_path":"\/fu3yXLoYtMxbv3NLquCDVLNK35p.jpg","original_language":"en","original_title":"Where to Invade Next","genre_ids":[99],"backdrop_path":"\/epmzVTsBT8etWp9NeHJnGGoTw08.jpg","adult":false,"overview":"Academy Award-winning director Michael Moore returns with what may be his most provocative and hilarious film yet: Moore tells the Pentagon to \"stand down\" — he will do the invading for America from now on.","release_date":"2015-12-23"},{"vote_count":705,"id":16523,"video":false,"vote_average":6.4,"title":"Where the Wild Things Are","popularity":11.006157,"poster_path":"\/2bdxzUBv6h6gFEcrTO4BUzkBIck.jpg","original_language":"en","original_title":"Where the Wild Things Are","genre_ids":[10751,14],"backdrop_path":"\/zN9nn1cgQvBlqfa6SCdnYuqFwin.jpg","adult":false,"overview":"Max imagines running away from his mom and sailing to a far-off land where large talking beasts -- Ira, Carol, Douglas, the Bull, Judith and Alexander -- crown him as their king, play rumpus, build forts and discover secret hideaways.","release_date":"2009-10-16"},{"vote_count":210,"id":10564,"video":false,"vote_average":6.9,"title":"Where the Heart Is","popularity":6.079078,"poster_path":"\/rNP5NSdXzl6y5CuQ6Sh2JmEnvt5.jpg","original_language":"en","original_title":"Where the Heart Is","genre_ids":[35,18,10749],"backdrop_path":"\/bcIaRLkPsVunpFUdR1FvBcMhKuL.jpg","adult":false,"overview":"Novalee Nation is a 17-year-old Tennessee transient who has to grow up in a hurry when she's left pregnant and abandoned by her boyfriend on a roadside in Sequoyah, Okla., and takes refuge in the friendly aisles of Wal-Mart. In short order, some eccentric, kindly strangers \"adopt\" Novalee and her infant daughter, helping them buck the odds and build a new life.","release_date":"2000-04-27"},{"vote_count":0,"id":330850,"video":false,"vote_average":0,"title":"Where?","popularity":1,"poster_path":null,"original_language":"en","original_title":"Illa Ayn","genre_ids":[],"backdrop_path":null,"adult":false,"overview":"Directed by Nabiha Lutfi.","release_date":"1991-01-02"},{"vote_count":2,"id":385955,"video":false,"vote_average":0,"title":"Where Is Kyra?","popularity":5.708178,"poster_path":"\/dOvEgIRBxRUCbFuiPC56X0L8vZy.jpg","original_language":"en","original_title":"Where Is Kyra?","genre_ids":[18],"backdrop_path":"\/uqIARo4Q48sCD3AqqRyPQFyK70f.jpg","adult":false,"overview":"Pushed to the brink after losing her job, a woman struggles to survive. As the months pass and her troubles deepen, she embarks on a perilous and mysterious journey that threatens to usurp her life.","release_date":"2018-04-06"},{"vote_count":88,"id":9729,"video":false,"vote_average":6.1,"title":"Where the Truth Lies","popularity":5.530583,"poster_path":"\/kM3SILXjW9YyX8OQbkoVUj1izWQ.jpg","original_language":"en","original_title":"Where the Truth Lies","genre_ids":[18,9648,53],"backdrop_path":"\/fZs7rI5eOVudiTdGfsqwl10yQps.jpg","adult":false,"overview":"An ambitious reporter probes the reasons behind the sudden split of a 1950s comedy team.","release_date":"2005-10-07"},{"vote_count":47,"id":17221,"video":false,"vote_average":6.7,"title":"Where the Sidewalk Ends","popularity":5.473456,"poster_path":"\/27Q0i6ZjmRnjfvegksunixnLxuG.jpg","original_language":"en","original_title":"Where the Sidewalk Ends","genre_ids":[80,18,53],"backdrop_path":"\/oKIZG0EeVK1KTgjt3k3s8i4Cq9Q.jpg","adult":false,"overview":"Tough NYC police detective Dixon misses out on a promotion because of his record of roughing up suspects. When he accidentally kills a suspect in a murder case he plants clues to absolve himself. But when the father of a woman he recently fell in love with is accused of the crime his plan looks like it's back firing.","release_date":"1950-07-07"},{"vote_count":602,"id":239678,"video":false,"vote_average":6.5,"title":"This Is Where I Leave You","popularity":9.939577,"poster_path":"\/jMLRs4Vw2g7QzOQLiq3Rlh6qUar.jpg","original_language":"en","original_title":"This Is Where I Leave You","genre_ids":[18,35],"backdrop_path":"\/rff4O6BcvD7pwd7mZJ1fTA6KMQ5.jpg","adult":false,"overview":"When their father passes away, four grown, world-weary siblings return to their childhood home and are requested -- with an admonition -- to stay there together for a week, along with their free-speaking mother and a collection of spouses, exes and might-have-beens. As the brothers and sisters re-examine their shared history and the status of each tattered relationship among those who know and love them best, they reconnect in hysterically funny and emotionally significant ways.","release_date":"2014-09-10"},{"vote_count":54,"id":13005,"video":false,"vote_average":6.2,"title":"Where the Buffalo Roam","popularity":4.22642,"poster_path":"\/etoQq5a3fDuj2hKMLxUCnKqiIJh.jpg","original_language":"en","original_title":"Where the Buffalo Roam","genre_ids":[35,18],"backdrop_path":"\/kYYe3TynmCk6VMLOe4CjmRUzdpX.jpg","adult":false,"overview":"Semi-biographical film based on the experiences of gonzo journalist Hunter S. Thompson.","release_date":"1980-04-25"},{"vote_count":31,"id":243352,"video":false,"vote_average":7.1,"title":"Where Hope Grows","popularity":3.733446,"poster_path":"\/A5zjD5HbfbI1hyDa8uQEW5v7KQK.jpg","original_language":"en","original_title":"Where Hope Grows","genre_ids":[18],"backdrop_path":"\/epc3Ec6pghsp8B41cyyXUgvPsxs.jpg","adult":false,"overview":"Calvin Campbell is a former professional baseball player sent to an early retirement due to his panic attacks at the plate. Even though he had all the talent for the big leagues, he struggles with the curveballs life has thrown him. Today, he mindlessly sleepwalks through his days and the challenge of raising his teenager daughter. His life is in a slow downward spiral when it is suddenly awakened and invigorated by the most unlikely person – Produce, a young-man with Down syndrome who works at the local grocery store.","release_date":"2014-04-06"},{"vote_count":20,"id":31776,"video":false,"vote_average":5.6,"title":"Where the Money is","popularity":3.423432,"poster_path":"\/pgSr9HQXKPGoCIjNCnFTnImlPiQ.jpg","original_language":"en","original_title":"Where the Money is","genre_ids":[35,80,18],"backdrop_path":"\/zWRw7OI0oWnQMjlKM43U3xcXzvN.jpg","adult":false,"overview":"Carol Ann MacKay is a popular nurse at a retirement home, and spends her free time with her hunky athletic husband Wayne MacKay, who would do anything for her, including cleaning up the messes her ideas get them in. When legendary bank robber Henry Manning, who had a major stroke in prison, is placed in the home and supposedly having lost all control over his body, she notices he must be in far better condition then he lets appear. Soon Carol gets his confidence and the two start planning how they three can commit another robbery on an armored money transport.","release_date":"2000-04-14"},{"vote_count":0,"id":481949,"video":false,"vote_average":0,"title":"Where Has Time Gone?","popularity":2.27545,"poster_path":"\/q0ocr0HPREU3pn7zDWXTuBvepAn.jpg","original_language":"zh","original_title":"时间去哪儿了","genre_ids":[10749,18,878,35],"backdrop_path":"\/q0GhHXZhP8Y5MnFGHByWrbjqkxQ.jpg","adult":false,"overview":"A short film omnibus featuring the work of five directors representing five countries involved in the 2017 BRICS summit, an annual international relations conference held between Brazil, Russia, India, China and South Africa. The collection—taking the concept of time as a unifying theme—depicts the economic, political, and social alienations and contradictions that create, compound, and structure issues as wide-ranging as poverty, class stratification, and homeless; familial distress; spousal abuse; and natural disaster.","release_date":"2017-10-19"},{"vote_count":3,"id":73348,"video":false,"vote_average":5.3,"title":"Where Love Has Gone","popularity":3.071877,"poster_path":"\/cMjDg1tB9QGcq1geGvrNjJEJ6ht.jpg","original_language":"en","original_title":"Where Love Has Gone","genre_ids":[10749],"backdrop_path":"\/6mAhwNylEXjuc1lEWfz0D5842LT.jpg","adult":false,"overview":"A divorced couple's teen-age daughter stands trial for stabbing her mother's latest lover.","release_date":"1964-11-02"},{"vote_count":19,"id":422153,"video":false,"vote_average":7.2,"title":"Hulk: Where Monsters Dwell","popularity":2.991426,"poster_path":"\/n0lKjBzzmGC3CA2elAZXhDiPBBT.jpg","original_language":"en","original_title":"Hulk: Where Monsters Dwell","genre_ids":[28,16,14,878],"backdrop_path":"\/bp7gIbCN2CeughuRXZ7eaKkJCwO.jpg","adult":false,"overview":"This All Hallows’ Eve, Nightmare is bent on conquering our waking world by crossing through the Dream Dimension, and converting each dreamer into a monster. Can Dr. Strange, Hulk and the Howling Commandos hold the line and put an end to his nefarious scheme?","release_date":"2016-10-21"},{"vote_count":15,"id":20153,"video":false,"vote_average":5.5,"title":"Where Danger Lives","popularity":2.98646,"poster_path":"\/qBT4rgApJm8g5KwZYCah8XzNjWv.jpg","original_language":"en","original_title":"Where Danger Lives","genre_ids":[18,53],"backdrop_path":"\/jUvLMTFWUJ90DyGqFXxW3lgBahn.jpg","adult":false,"overview":"A young doctor falls in love with a disturbed young woman and apparently becomes involved in the death of her husband. They head for Mexico trying to outrun the law.","release_date":"1950-07-14"},{"vote_count":1,"id":478281,"video":false,"vote_average":7,"title":"Where Is It","popularity":2.97517,"poster_path":"\/10iwjWgS3DFFlo8Ge0vciS7f9Yk.jpg","original_language":"en","original_title":"Where Is It","genre_ids":[27,53],"backdrop_path":null,"adult":false,"overview":"Just back from a trip, a woman FaceTimes with her house sitter to see how things went. All good, she learns, except that one weird old mirror randomly fell off the wall one day, and shattered into a zillion pieces. Soon, it becomes clear that something is very displeased with this spontaneous bit of redecoration.","release_date":"2017-09-14"}]}