{"page":36,"total_results":1170,"total_pages":59,"results":[{"vote_count":4,"id":95307,"video":false,"vote_average":7.3,"title":"One Long Winter Without Fire","popularity":1.315267,"poster_path":"\/iHlSCOdFkljKl1UpreQflZawVs8.jpg","original_language":"fr","original_title":"Tout un hiver sans feu","genre_ids":[18],"backdrop_path":"\/sIZekibXAJQJkJwbdmvcgDjCLY4.jpg","adult":false,"overview":"Six months after losing their five years old daughter in a fire in the barn of their little farm, Jean and his wife Laure are facing troubles in their relationship and financial problems. Laure grieves the loss of their daughter and blames herself for her absence and Jean for his negligence for the fire; Jean is trying to rise from the ashes and somehow rebuild his life; and the insurance company refuses to pay the prize for the accident. Jean asks for a job in a mill to a friend to make money and support the psychiatric treatment of Laure. In his new job, he meets and becomes friend of the Kosovo refugee's siblings Kastriot and Labinota, while the Laure's sister Valérie separates them. Jean feels the passion of love and sense of life in his relationship with Labinota, who had her life destroyed with the war.","release_date":"2005-01-19"},{"vote_count":0,"id":256257,"video":false,"vote_average":0,"title":"Ursus in the Land of Fire","popularity":1.17346,"poster_path":"\/zc4g29FjPyw2Y8xSZdntQ6PQowj.jpg","original_language":"it","original_title":"Ursus nella terra di fuoco","genre_ids":[12,28,14],"backdrop_path":null,"adult":false,"overview":"Hamilan, a cruel and ambitious general, murders his king and places himself on the throne with the former king's evil niece as his queen. He then wages war against his peaceful neighbors, killing their women and enslaving their men. A hero named Ursus appears at a tournament to challenge Hamilan's authority. Though victorious at the tournament, Ursus is arrested and forced to turn a grist-mill under an overseer's lash. Meanwhile, the former king's virtuous daughter, Diana, is tormented by her evil cousin, the new queen. Sentenced to a slow and tortuous execution, Ursus breaks free and a revolt breaks out. Ursus throws Hamilan to his death in a fiery pit and then Ursus and Diana enjoy the cheers of a grateful populace.  - Written by dinky-4 of Minneapolis","release_date":"1963-10-31"},{"vote_count":91,"id":54445,"video":false,"vote_average":5.4,"title":"S.W.A.T.: Firefight","popularity":8.450875,"poster_path":"\/mPLyIlnEJu4GOo5b6y5wb1dE4mj.jpg","original_language":"en","original_title":"S.W.A.T.: Firefight","genre_ids":[28,80,53],"backdrop_path":"\/bmJjmErSYcd4mEtBbKeRxtX40FR.jpg","adult":false,"overview":"Los Angeles S.W.A.T. officer, Lt. Paul Cutler, is sent to train the Detroit S.W.A.T. team on new anti-terrorism and homeland security techniques. Cutler has a hard time settling into his assignment as he locks horns with his new captain and encounters resistance from the team he must lead. Cutler begins to adjust to his new assignment, starting a budding romance with police psychologist Kim Byers along the way. Unexpectedly, a routine hostage call turns deadly, and a relentless ex-government agent named Walter Hatch vows revenge on Cutler and the entire S.W.A.T. team for killing the woman he loves. Cutler must use his considerable S.W.A.T. training and knowledge to save his teammates and defeat a trained killer.","release_date":"2011-03-01"},{"vote_count":56,"id":12310,"video":false,"vote_average":6.4,"title":"The Four Musketeers","popularity":5.854049,"poster_path":"\/n0KE7EMqLK7WpxxuLFEo2k3fMRR.jpg","original_language":"en","original_title":"The Four Musketeers","genre_ids":[28,12,35,18],"backdrop_path":"\/rs732803lBXaNt1SiNiGOAV55dY.jpg","adult":false,"overview":"The Four Musketeers defend the queen and her dressmaker from Cardinal Richelieu and Milady de Winter.","release_date":"1974-10-31"},{"vote_count":0,"id":459672,"video":false,"vote_average":0,"title":"Moving Through Time: Fire Walk With Me Memories","popularity":1.145512,"poster_path":"\/wISqf0NdcldUgrRywd3bFJT45ch.jpg","original_language":"en","original_title":"Moving Through Time: Fire Walk With Me Memories","genre_ids":[99],"backdrop_path":null,"adult":false,"overview":"Documentary about the making of Twin Peaks: Fire Walk With Me.","release_date":"2014-05-29"},{"vote_count":3,"id":200755,"video":false,"vote_average":4.2,"title":"Hyakujuu Sentai Gaoranger: The Fire Mountain Roars","popularity":2.194762,"poster_path":"\/zn9ZdIBTOaMuqum2tImVtBQ2Xa3.jpg","original_language":"en","original_title":"百獣戦隊ガオレンジャー 火の山、吼える","genre_ids":[28,12,878],"backdrop_path":"\/caUftzzTjAoWdoQSQvVq8dv4vGe.jpg","adult":false,"overview":"The theatrical adaptation of Gaoranger that was a double bill with the Kamen Rider Series film Kamen Rider Agito: Project G4. The film features Gao Kong and the Gao Knight combination.","release_date":"2001-09-22"},{"vote_count":3,"id":92915,"video":false,"vote_average":5.3,"title":"Fire and Ice: The Winter War of Finland and Russia","popularity":1.160142,"poster_path":"\/awUbLS9X0Ofl5DndrMdLbfq6kAT.jpg","original_language":"en","original_title":"Fire and Ice: The Winter War of Finland and Russia","genre_ids":[99],"backdrop_path":"\/29RtYbJYB4bc7upDTeQwoMk7K9V.jpg","adult":false,"overview":"The Winter War was an epic life and death struggle that changed the course of World War II, and saved a democracy. Fire and Ice documents this timeless story of courage against all odds by a people united to preserve their freedom.","release_date":"2006-02-01"},{"vote_count":20,"id":41417,"video":false,"vote_average":4.7,"title":"Firestorm","popularity":3.217659,"poster_path":"\/fsg6QIautcimqlto5ZxbHcXX3At.jpg","original_language":"en","original_title":"Firestorm","genre_ids":[28,12,53],"backdrop_path":"\/7zuhxXoQhBBOjrXmyz2zrkgn7tG.jpg","adult":false,"overview":"Firefighter Jesse Graves has to save ornithologist Jennifer and other people caught in a forest fire, which was set up by the lawyer of convicted killer Earl Shaye, who escaped from the prison with several of his inmates posing as firefighters to recover $37,000,000 in stashed loot.","release_date":"1998-01-08"},{"vote_count":20,"id":4934,"video":false,"vote_average":5.7,"title":"Firecreek","popularity":3.211896,"poster_path":"\/gg1aN0wWoUupZLTa9Njb4RbckwR.jpg","original_language":"en","original_title":"Firecreek","genre_ids":[37],"backdrop_path":"\/2WDRvlfyng90Q5LCWkQJ23Z7a2g.jpg","adult":false,"overview":"A peace-loving, part-time sheriff in the small town of Firecreek must take a stand when a gang of vicious outlaws takes over his town.","release_date":"1968-01-24"},{"vote_count":90,"id":377151,"video":false,"vote_average":6.5,"title":"Fire at Sea","popularity":5.339745,"poster_path":"\/tEjyJiLb7Q7c4H2ibi77E6sgdBg.jpg","original_language":"it","original_title":"Fuocoammare","genre_ids":[99],"backdrop_path":"\/3IPMmhPHOqIi3lUCgcjfFvTjLjz.jpg","adult":false,"overview":"Capturing life on the Italian island of Lampedusa, a frontline in the European migrant crisis.","release_date":"2016-02-18"},{"vote_count":0,"id":294812,"video":false,"vote_average":0,"title":"Satan's Angel: Queen of the Fire Tassels","popularity":1.008745,"poster_path":"\/qDgiKTKUMcweFcrx6fkK82PzfhJ.jpg","original_language":"en","original_title":"Satan's Angel: Queen of the Fire Tassels","genre_ids":[],"backdrop_path":null,"adult":false,"overview":"This riveting documentary explores the life of Angel Walker, a burlesque legend who entertains legions of fans worldwide. Angel's legacy is filled with San Francisco counterculture, Las Vegas stage door johns, and a sexuality she refused to closet.","release_date":"2012-07-15"},{"vote_count":0,"id":309393,"video":false,"vote_average":0,"title":"Disney's Little Einsteins: Fire Truck Rocket's Blastoff","popularity":1.007827,"poster_path":"\/hTg7pQoFTILhNEjrqkEp0dLF9dJ.jpg","original_language":"en","original_title":"Disney's Little Einsteins: Fire Truck Rocket's Blastoff","genre_ids":[],"backdrop_path":null,"adult":false,"overview":"Get ready for fun and adventure when you join Leo, Annie, June and Quincy as they bolt to the top of the Eiffel Tower in Paris, wisk off to an exhilarating race in Monaco and journey up the Andes Mountains using their special firefighting gadgets. Things get really heated when the team visits the island of Java and finds a rumbling volcano. It's about to blow, and they need to free a monkey stuck in a tree.","release_date":"2009-09-08"},{"vote_count":314,"id":10188,"video":false,"vote_average":6,"title":"The Sisterhood of the Traveling Pants 2","popularity":7.385737,"poster_path":"\/ryo25cJml7YKPemZ9IeArPezbES.jpg","original_language":"en","original_title":"The Sisterhood of the Traveling Pants 2","genre_ids":[12,35,18,10751],"backdrop_path":"\/46des5ED7ppRBSTOCug2SbYX7mS.jpg","adult":false,"overview":"Four young women continue the journey toward adulthood that began with \"The Sisterhood of the Traveling Pants.\" Now three years later, these lifelong friends embark on separate paths for their first year of college and the summer beyond, but remain in touch by sharing their experiences with each other.","release_date":"2008-08-06"},{"vote_count":11,"id":18302,"video":false,"vote_average":6.6,"title":"Painted Fire","popularity":2.036163,"poster_path":"\/a0HV5t2aD26OMs0EQK3iNJawL5I.jpg","original_language":"ko","original_title":"취화선","genre_ids":[18,36],"backdrop_path":"\/8UTn5hvkz3SE3aN3MndW1ThzC3z.jpg","adult":false,"overview":"The struggles of an artist. Jang Seung-up (1843-1897), also called Owon, focusing on the years 1882 to 1897, when Korea was in political upheaval, caught between China and Japan, the conservative dynasty dying, and peasant revolt at hand. Jang, born poor, has genius; a merchant, Kim, becomes his patron, finding him a teacher. Jang must convince others that a commoner can have talent, then move beyond his ability to copy old masters and find his own style. He's bedeviled by a temper and alcohol, arguments with patrons as he seeks commissions, and relationships with kisaeng, particularly Mae-hyang, that start and stop. It's the life of a restless spirit producing great art.","release_date":"2002-05-10"},{"vote_count":0,"id":359580,"video":false,"vote_average":0,"title":"A Fire In My Brain That Separates Us","popularity":1.054891,"poster_path":"\/kYu5Ytsfcp57QZTWfpx7hwL3heG.jpg","original_language":"en","original_title":"A Fire In My Brain That Separates Us","genre_ids":[],"backdrop_path":null,"adult":false,"overview":"Quotes from movies about 'Gaslighting' are superimposed on shots of an apartment interior.","release_date":"2015-09-11"},{"vote_count":0,"id":421756,"video":false,"vote_average":0,"title":"A Nightmare on Elm Street: Trial by Fire","popularity":1.049074,"poster_path":"\/oO6jbTj2ABUDCvNfaiI0BLyWWju.jpg","original_language":"en","original_title":"A Nightmare on Elm Street: Trial by Fire","genre_ids":[27],"backdrop_path":null,"adult":false,"overview":"Marilyn, seventeen, awakes from a nightmare revolving around a maniacal, scarred killer to learn that Elizabeth, a fellow classmate that she saw get murdered in her nightmare has died in real life. The recent murders on Elm Street revive the guilty consciences of Marilyn's and her friends' parents, and they begin to question what really happened over a decade earlier after the Springwood Slasher was set free.","release_date":"2015-11-19"},{"vote_count":1,"id":210623,"video":false,"vote_average":10,"title":"Dancing Around the Shit Fire with Kyle Kinane","popularity":1.048651,"poster_path":"\/aKQwzrswaxaydQrRKfoBArP4wVL.jpg","original_language":"en","original_title":"Dancing Around the Shit Fire with Kyle Kinane","genre_ids":[],"backdrop_path":null,"adult":false,"overview":"Kyle Kinane is back with a brand new hourlong comedy show and he’s brought a few friends along. Shot June 14, 2013 in Chicago as part of the Just for Laughs Comedy Festival, Dancing Around the Shit Fire is a no holds barred, uncensored romp featuring Kyle Kinane and comics Bryan Cook (Competitive Erotic Fan Fiction) and Ben Roy (Those Who Can’t) with musical guest Brendan Kelly from The Lawrence Arms.  It’s Kinane’s personal “love letter” to his hometown of Chicago, as he returns to a sold out crowd to confess his hilariously true stories and hijinks of living in the ‘Windy City’.","release_date":"2013-07-23"},{"vote_count":3,"id":52555,"video":false,"vote_average":4,"title":"Chronicle of the Years of Fire","popularity":1.157468,"poster_path":"\/kHk8kNbbLyjfXElyig1V3ZXABDu.jpg","original_language":"fr","original_title":"Chronique des années de braise","genre_ids":[18],"backdrop_path":null,"adult":false,"overview":"The beginings of the Algerian Revolution as seen through the eyes of a peasant.","release_date":"1975-11-26"},{"vote_count":2,"id":378704,"video":false,"vote_average":5.5,"title":"Father of Four: Wild Holiday","popularity":1.540224,"poster_path":"\/An4lmdcnRIwclIuVHBcIf64s3wA.jpg","original_language":"da","original_title":"Far til fire's vilde ferie","genre_ids":[10751,35],"backdrop_path":"\/aYNFZjVuL1ksI7dB5JxuIwLUGfp.jpg","adult":false,"overview":"A wild holiday of the father of four and his family.","release_date":"2015-10-01"},{"vote_count":1,"id":232147,"video":false,"vote_average":5,"title":"The Great Toronto Fire, Toronto, Canada, April 19, 1904","popularity":1.036471,"poster_path":null,"original_language":"en","original_title":"The Great Toronto Fire, Toronto, Canada, April 19, 1904","genre_ids":[],"backdrop_path":null,"adult":false,"overview":"The Great Toronto Fire was a devastating blaze that destroyed 122 buildings and put 5,000 people out of work. The fire started in a clothing warehouse on Wellington Street and quickly spread, gutting thirteen acres of Toronto's prime commercial district. Special trains brought hundreds of firefighters from as far as Buffalo, New York. There was only one person injured -- the Toronto fire chief. Amazed firefighters and onlookers watched photographer George Scott and his assistant set up in the thick of the fire and film the burning buildings on Front Street. One of the first big Canadian film scoops, Scott's film was distributed throughout Canada and the United States.","release_date":"1904-04-19"}]}