{"page":3,"total_results":1170,"total_pages":59,"results":[{"vote_count":0,"id":473245,"video":false,"vote_average":0,"title":"Fire","popularity":1.109151,"poster_path":"\/cjlvgcOjRMeFitqsAZyfO1nkDlP.jpg","original_language":"en","original_title":"Fire","genre_ids":[],"backdrop_path":null,"adult":false,"overview":"A double projection consisting of video and 16mm, Lucy Parker's Fire responds to the performative work of British artist Annabel Nicolson as two sets of hands attempt to spark a fire through increasingly sophisticated means.","release_date":"2017-09-09"},{"vote_count":1,"id":199032,"video":false,"vote_average":4,"title":"Fire and Rain","popularity":2.73101,"poster_path":"\/aKOaxJtdvEj01wM44HGlBP7MpV5.jpg","original_language":"en","original_title":"Fire and Rain","genre_ids":[18],"backdrop_path":null,"adult":false,"overview":"This movie is based on the actual events on the tragic day of August 2nd, 1985. Delta Airlines flight 191 en route to Los Angeles Via Dallas Ft Worth took off from Ft Lauderdale, Fl. When the plane was landing in Ft Worth wind-shear from a strong thunderstorm caused the plane to crash.","release_date":"1989-09-13"},{"vote_count":1,"id":215170,"video":false,"vote_average":0,"title":"Heaven's Fire","popularity":2.456646,"poster_path":"\/mbb9EWRp20q6JXm5sPr9E66yyVz.jpg","original_language":"en","original_title":"Heaven's Fire","genre_ids":[28,53],"backdrop_path":"\/bV3BknBMQQMF7KMJfjOQAlAL3El.jpg","adult":false,"overview":"Terrorists seize a building with intent to blow it up. However, one of the men trapped in the building is an ex-treasury agent, who just happens to be there with his wife and children in a tour group. Having to fight the terrorists and fires that breakout in the high rise...","release_date":"1999-08-07"},{"vote_count":122,"id":3877,"video":false,"vote_average":6.7,"title":"Things We Lost in the Fire","popularity":9.797857,"poster_path":"\/xdOtdsIn0eeodatw00olWyilmzS.jpg","original_language":"en","original_title":"Things We Lost in the Fire","genre_ids":[18],"backdrop_path":"\/pNzE0TVlcMWCP71t64JGcaH3Wrf.jpg","adult":false,"overview":"A recent widow invites her husband's troubled best friend to live with her and her two children. As he gradually turns his life around, he helps the family cope and confront their loss.","release_date":"2007-09-26"},{"vote_count":3,"id":112229,"video":false,"vote_average":5.8,"title":"Dead Fire","popularity":2.503832,"poster_path":"\/zW9nOHF1dZhiqNcMBEzi5RhsRn2.jpg","original_language":"fr","original_title":"Dead Fire","genre_ids":[878],"backdrop_path":"\/pDtaj6cGtKpazDfqjVjmVfyRbWK.jpg","adult":false,"overview":"The year is 2062. The Earth is no longer inhabitable and has been left in ruins. On-board the space station USS Legacy in orbit around Earth, the Earth's population are in suspended animation whilst the space station is under military control and scientists are working on a project to make Earth inhabitable again. After disobeying orders, trying to apprehend a out-of-control soldier on a rampage, tough soldier Captain Cal Brody is sentenced by his commanding officer, Colonel Alexa Stant, to guard the stasis chamber where the Earth's population is in suspended animation for 3 months. But the USS Legacy is taken over by criminal Max Durbin and a group of escaped convicts, who have been freed by Alexa from the prison colony on Earth and Alexa decides to help them. Cal sets out to stop Max and Alexa's scheme and believes he is the only man who can stop Max, who plans to use Cal's scientist girlfriend Kendall Foster experiment to make the Earth inhabitable again...","release_date":"1997-07-19"},{"vote_count":586,"id":1923,"video":false,"vote_average":7.3,"title":"Twin Peaks: Fire Walk with Me","popularity":9.209831,"poster_path":"\/tOQekTHJmVCgfUYXTb6dLAu6l8W.jpg","original_language":"en","original_title":"Twin Peaks: Fire Walk with Me","genre_ids":[18,9648],"backdrop_path":"\/bGyusx5LtsTLbyAq0ow1DrdE7K6.jpg","adult":false,"overview":"In the questionable town of Deer Meadow, Washington, FBI Agent Desmond inexplicably disappears while hunting for the man who murdered a teen girl. The killer is never apprehended, and, after experiencing dark visions and supernatural encounters, Agent Dale Cooper chillingly predicts that the culprit will claim another life. Meanwhile, in the more cozy town of Twin Peaks, hedonistic beauty Laura Palmer hangs with lowlifes and seems destined for a grisly fate.","release_date":"1992-06-03"},{"vote_count":3,"id":66009,"video":false,"vote_average":6.3,"title":"Cheetah On Fire","popularity":2.456867,"poster_path":"\/ybZP0dcXDseUuewi1WsW5LVF6dV.jpg","original_language":"cn","original_title":"Lip paau hang dung","genre_ids":[80,28],"backdrop_path":null,"adult":false,"overview":"In Hong Kong, a weapon dealer has a special computer chip, which is needed to build a secret missile. He is trying to sell it to a foreign goverment. The local secret police, the CIA and an enemy band is looking for him, but he has a very rich and influential man as his partner.","release_date":"1992-01-01"},{"vote_count":84,"id":285423,"video":false,"vote_average":5.6,"title":"Jarhead 2: Field of Fire","popularity":5.766383,"poster_path":"\/723etWj5uk3yekIXnzCGVQPR8sp.jpg","original_language":"en","original_title":"Jarhead 2: Field of Fire","genre_ids":[10752,28],"backdrop_path":"\/tkxq8pg3TY5AroMuV4ZSUa83DWG.jpg","adult":false,"overview":"Battle-scarred and disillusioned by the war, Corporal Chris Merrimette is put in charge of a unit whose next mission is to resupply a remote outpost on the edge of Taliban-controlled territory. While driving through the hostile Helmand province, a Navy SEAL flags down their convoy and enlists the unit on an operation of international importance: they must help an Afghan woman famous for her defiance of the Taliban escape the country. Without tanks or air support, Merrimette and his team will need all the courage and firepower they can muster to fight their way across the war-torn country and shepherd the woman to safety.","release_date":"2014-08-14"},{"vote_count":0,"id":268980,"video":false,"vote_average":0,"title":"Fire","popularity":1.002379,"poster_path":null,"original_language":"en","original_title":"Fire","genre_ids":[],"backdrop_path":null,"adult":false,"overview":"Action Adventure starring Bryan Genesse","release_date":"2004-01-01"},{"vote_count":21,"id":28983,"video":false,"vote_average":3.7,"title":"Fire on the Amazon","popularity":3.848062,"poster_path":"\/73PIBghkVzKRGAjZOBMtAJIXoae.jpg","original_language":"en","original_title":"Fire on the Amazon","genre_ids":[18,12,28],"backdrop_path":"\/5jrd0pQQnSaep9fpT0IyLNhfGSk.jpg","adult":false,"overview":"When a well-known environmental researcher is murdered in the Amazon jungle, an arrogant photojournalist joins forces with a beautiful young activist to find out who is responsible. Along they way, they fall in love as they discover the men responsible for the killing would be more than willing to murder again if it will keep them quiet.","release_date":"1993-10-01"},{"vote_count":4,"id":138530,"video":false,"vote_average":5.8,"title":"Fire Dragon","popularity":2.58663,"poster_path":"\/hcnR87Ke2JnasqgnmKDes1u64Jd.jpg","original_language":"en","original_title":"Huo yun chuan qi","genre_ids":[28,14],"backdrop_path":null,"adult":false,"overview":"Rebel fighter Yuen Ming (Max Mok) must protect an important letter with content that can expose the corrupt Chinese government. Sent to retrieve the letter is Ma, the Fire Dragon (Brigitte Lin) and she infiltrates the small village where Yuen Ming has settled. Along the way the cold blooded Ma's kind hearted side is awaken and the time comes when she must decide where her loyalty lies....","release_date":"1994-08-13"},{"vote_count":27,"id":53220,"video":false,"vote_average":7.4,"title":"Rabbit Fire","popularity":2.212994,"poster_path":"\/xUps2FfGpJcA2E2LjrDgETy80Ch.jpg","original_language":"en","original_title":"Rabbit Fire","genre_ids":[16,10751,35],"backdrop_path":"\/bCZ18msRssQCdS0jfxbq9FqtVcm.jpg","adult":false,"overview":"Daffy Duck and Bugs argue back and forth whether it is duck season or rabbit season. The object of their arguments is hunter Elmer Fudd.","release_date":"1951-05-19"},{"vote_count":10,"id":353267,"video":false,"vote_average":3.9,"title":"Fire Twister","popularity":2.20459,"poster_path":"\/77QWQp9e4YHmmtdZaFkWlXw1hGc.jpg","original_language":"en","original_title":"Fire Twister","genre_ids":[53,28,12,878],"backdrop_path":"\/3qe3WlhaAvWwQZnM3BRjcAiXVWj.jpg","adult":false,"overview":"When a mysterious orb of light strikes a deep water oil rig, the massive explosion erupts into a ball of flames creating a swirling mass of clouds and fire. As the twister begins to move ...","release_date":"2015-08-06"},{"vote_count":33,"id":18767,"video":false,"vote_average":5.8,"title":"Island of Fire","popularity":5.784365,"poster_path":"\/cuNLQylulLUoEZesfRDGVNRTRDr.jpg","original_language":"cn","original_title":"火燒島","genre_ids":[80,18,28,53],"backdrop_path":"\/s2BfIdPUCmiYD5U7im15fMYgYUx.jpg","adult":false,"overview":"Someone in a prison run by a corrupt warden fakes the deaths of convicts to later use them as expendable assassins. A police officer is sent into the prison to gather evidence of the corruption.","release_date":"1990-01-01"},{"vote_count":0,"id":232599,"video":false,"vote_average":0,"title":"Muse of Fire","popularity":3.587775,"poster_path":"\/sTpx1khjPAyrgH2NUWhRcFHEAZO.jpg","original_language":"en","original_title":"Muse of Fire","genre_ids":[99],"backdrop_path":"\/hOYbhniH4fkMo3rML3X1LkAMgSX.jpg","adult":false,"overview":"Funny, passionate, exciting, and smart: ‘Muse Of Fire’ will change the way you feel about Shakespeare forever.  This unique feature documentary follows two actors, Giles Terera and Dan Poole, as they travel the world to find out everything they can about tackling the greatest writer of them all. Together they have directed and produced an inspiring film that aims to demystify and illuminate Shakespeare’s work for everyone: from actors, directors and students of all disciplines, right through to the? man on the street?  Denmark with Jude Law, Baz Luhrmann in Hollywood, Prison in Berlin, and on the street with Mark Rylance. Think Shakespeare is boring? Think again!","release_date":"2013-09-26"},{"vote_count":9,"id":462108,"video":false,"vote_average":6.3,"title":"Chris D'Elia: Man on Fire","popularity":5.134228,"poster_path":"\/dZgs1Ym7fe3fPxbeT5hq9XKLaDW.jpg","original_language":"en","original_title":"Chris D'Elia: Man on Fire","genre_ids":[35],"backdrop_path":null,"adult":false,"overview":"Unbridled comic Chris D'Elia reconsiders his approach to major life events like marriage, not having kids and buying pants for your friends.","release_date":"2017-06-27"},{"vote_count":33,"id":437031,"video":false,"vote_average":6.6,"title":"Rescue Under Fire","popularity":7.245216,"poster_path":"\/pIi99YX0L6YzTHDzt8r7oLG01Ky.jpg","original_language":"es","original_title":"Zona hostil","genre_ids":[10752],"backdrop_path":"\/3LRmQyFiBA2PmvZW6soB96oO9R9.jpg","adult":false,"overview":"The crew of a medical helicopter suffers an accident when helping a joint force of USA and United Nations troops under Spanish command division in Afghanistan. The Spanish army has only one night to organize the rescue of the crew and injured, but what seems routine turns into hell once they receive the order to rescue the helicopter as well. Things only get worse when during the night a huge a concentration of Talibans begin surround them.","release_date":"2017-03-10"},{"vote_count":24,"id":324289,"video":false,"vote_average":6.1,"title":"Touched with Fire","popularity":3.465087,"poster_path":"\/gXDU48plOVgYaDmtqu4rnIBCjqU.jpg","original_language":"en","original_title":"Touched with Fire","genre_ids":[10749,18],"backdrop_path":"\/4P0BqurFFSJZq2whP0jqQiVLs4j.jpg","adult":false,"overview":"Carla and Marco are manic-depressive poets whose art is fueled by their emotional extremes. When they go off their meds, they end up in the same psychiatric hospital. As the chemistry between them stirs up their emotions, it intensifies their mania. Despite doctors' and parents' attempts to separate them, they pursue their beautiful but destructive romance which swings them from fantastical manic highs to suicidal depressive lows, until they have to choose between sanity and love.","release_date":"2016-02-12"},{"vote_count":1,"id":222365,"video":false,"vote_average":2,"title":"Dragon Fire","popularity":2.039549,"poster_path":"\/cxz8IKiX0JNJGEEvaGlQmogQPTW.jpg","original_language":"en","original_title":"Dragon Fire","genre_ids":[],"backdrop_path":null,"adult":false,"overview":"Los Angeles 2050 A.D. Crime. Drugs. Violence. Rape. The City of Angels has descended into chaos. Street fighter Dominic La Banca seeks to avenge his brother's death in this lawless city. To find the killer, he must enter the deadly underworld of the Alley Fights a savage kickboxing match of the future!","release_date":"1993-01-01"},{"vote_count":2,"id":316828,"video":false,"vote_average":8,"title":"The Fire","popularity":1.196294,"poster_path":"\/391C4vrejhvsxD6d4C2AHW2hZnx.jpg","original_language":"es","original_title":"El incendio","genre_ids":[18],"backdrop_path":"\/sCnT5S27bCATxdoemlCyOQ6RmcR.jpg","adult":false,"overview":"A couple must hold on to $100,000 for 24 hours as they wait to buy a house. As the time ticks by, the true nature of their love unravels.","release_date":"2015-02-10"}]}