{"page":55,"total_results":1170,"total_pages":59,"results":[{"vote_count":1,"id":511135,"video":false,"vote_average":7,"title":"Money + Love","popularity":1.726667,"poster_path":"\/mEYNQbsTA0OlG7tBg0MoYUHRAUF.jpg","original_language":"en","original_title":"Money + Love","genre_ids":[10402],"backdrop_path":null,"adult":false,"overview":"Everything Now is proud to present a more in depth advance look at “Money + Love,” a double video directed by David Wilson, written by David Wilson and Arcade Fire, and starring Arcade Fire and Toni Collette.","release_date":"2018-03-15"},{"vote_count":2,"id":189815,"video":false,"vote_average":5,"title":"The Morning Alarm","popularity":1.364227,"poster_path":null,"original_language":"en","original_title":"The Morning Alarm","genre_ids":[99],"backdrop_path":null,"adult":false,"overview":"No Overview","release_date":"1896-01-01"},{"vote_count":3,"id":2382,"video":false,"vote_average":5.2,"title":"Hearth Fires","popularity":1.755849,"poster_path":"\/2M7AXyMmHTj3OsinxxhVcbgMCNs.jpg","original_language":"fr","original_title":"Les Feux de la Chandeleur","genre_ids":[18],"backdrop_path":null,"adult":false,"overview":"No overview found.","release_date":"1972-05-24"},{"vote_count":11,"id":76826,"video":false,"vote_average":8.3,"title":"Grave of the Fireflies","popularity":2.242927,"poster_path":"\/o2kcSr8pteejlL9slC0OUlKW7Hw.jpg","original_language":"ja","original_title":"火垂るの墓","genre_ids":[18],"backdrop_path":"\/rY3hkiG5sauMcvHruQxspbeyqjs.jpg","adult":false,"overview":"Hisako loses her home in Tokyo to Allied bombing. With her husband fighting somewhere in Asia, she and her two children evacuate to a suburb of Kobe, where they share a house with Hisako's cousin, Kyoko. Kobe is bombed and Kyoko is killed. Hisako is forced to take care of Kyoko's two children in addition to her own, but there is not enough food for everyone.","release_date":"2005-11-01"},{"vote_count":1,"id":263896,"video":false,"vote_average":8,"title":"Kaalai","popularity":1.66707,"poster_path":"\/9Sx4IQNA1FfmdjZzIRIYF74OBmJ.jpg","original_language":"en","original_title":"காளை","genre_ids":[28],"backdrop_path":"\/9HMHlSC9h13CI4a81xQpDwCSCkj.jpg","adult":false,"overview":"Young Jeeva is the grandson of Seema of Theni. When she was five years old, she kills five persons and goes to jail. She comes out of prison turning nastier than before. She is now a hard-core 'dada' and she is feared as well as revered by people in her place, Theni, where she is engaged in all activities which the law forbids. The local police throw up their hands. A police officer, also named Jeeva (Lal), comes down heavily on Seema with all his might and cunningness and finally burns her alive. Meanwhile, a rowdy, also named Jeeva, becomes a thorn in the flesh of police officer Jeeva and he is after his daughter Vedika, who loves Seema's grandson, a tough guy in the college. While Vedika wants to keep the rowdy off her with the help of Seema's grandson, he wants to take revenge on her father for killing his grandmother. How he fulfils his task is the crux of the movie.","release_date":"2008-01-14"},{"vote_count":1,"id":111323,"video":false,"vote_average":6,"title":"Catch the Heat","popularity":1.588015,"poster_path":"\/jMnwBo6d3UMctB8DOF8EqeIeC6l.jpg","original_language":"en","original_title":"Catch the Heat","genre_ids":[18,28,53,80],"backdrop_path":"\/3uF8Gt5HCxzYEECyCD2vtESg8KP.jpg","adult":false,"overview":"Gorgeous Checkers Goldberg, a police detective, goes undercover as a stripper in order to stop a ruthless kingpin who has been using unsuspecting starlets in order to smuggle drugs into the United States. With her hot looks, street smarts and martial arts prowess, Goldberg seems to have everything she needs to catch this violent criminal -- and will stop at nothing to get the job done.","release_date":"1987-10-01"},{"vote_count":2,"id":54587,"video":false,"vote_average":4.5,"title":"Superfire","popularity":1.645455,"poster_path":"\/o3RGRLDRYXfWAzvMuGYUwsJXbIN.jpg","original_language":"en","original_title":"Superfire","genre_ids":[28,53],"backdrop_path":null,"adult":false,"overview":"A firefighter pilot blames himself for the death of his previous colleagues and gets a new assignment with a raging forest fire in Portland, Oregon, that has the whole city in jeopardy.","release_date":"2002-04-20"},{"vote_count":27,"id":23807,"video":false,"vote_average":4.9,"title":"2019: After the Fall of New York","popularity":4.395438,"poster_path":"\/lRbhD8NQfvx58804e3WG7AhhF8Z.jpg","original_language":"en","original_title":"2019 - Dopo la caduta di New York","genre_ids":[28,27,878],"backdrop_path":"\/d8o4CCEhYx2UQBNEKGmaWxiw5sW.jpg","adult":false,"overview":"After a nuclear war, society breaks down into two groups, the evil Euraks and the rebel Federation. A mercenary named Parsifal is hired by the Federation to infiltrate New York City, which is controlled by the Euraks, to rescue the only fertile woman left on Earth.","release_date":"1983-07-22"},{"vote_count":2,"id":196643,"video":false,"vote_average":4.5,"title":"Le Génie du feu","popularity":1.18369,"poster_path":"\/2ngnUQX9Abkesfq72uvBF3uj4Es.jpg","original_language":"en","original_title":"Le Génie du feu","genre_ids":[],"backdrop_path":null,"adult":false,"overview":"Not much of a plot. A couple is menaced by some sort of bizarre religious cult. Then they're saved.","release_date":"1908-05-24"},{"vote_count":1,"id":369607,"video":false,"vote_average":4,"title":"Christmas Tail","popularity":1.162726,"poster_path":null,"original_language":"en","original_title":"Christmas Tail","genre_ids":[],"backdrop_path":null,"adult":false,"overview":"Two single parents fall in love fighting for custody of a dog they both want to give their children as a Christmas gift.","release_date":"2014-01-01"},{"vote_count":6,"id":94025,"video":false,"vote_average":6.2,"title":"The Stranger in Us","popularity":1.927115,"poster_path":"\/w1clA7vx2JttlEI4J60ieMlU42K.jpg","original_language":"en","original_title":"The Stranger in Us","genre_ids":[18],"backdrop_path":"\/yQVozXSxYIhkamDYoEAVIkMg06c.jpg","adult":false,"overview":"In this verité-style drama, Anthony, a newcomer to San Francisco, attempts to come to terms with his abusive ex-lover when he strikes up an unlikely friendship with a street hustler.","release_date":"2010-06-23"},{"vote_count":2,"id":133509,"video":false,"vote_average":5,"title":"Feuertaufe - Der Film vom Einsatz unserer Luftwaffe im polnischen Feldzug","popularity":1.127697,"poster_path":"\/rsLgmX9zpX90yy3tGpJVZqldthl.jpg","original_language":"de","original_title":"Feuertaufe - Der Film vom Einsatz unserer Luftwaffe im polnischen Feldzug","genre_ids":[99],"backdrop_path":null,"adult":false,"overview":"The Legend of the Luftwaffe began in Poland, the first victim of Hitler's blitzkrieg. Combat cameramen filmed the aerial campaign, showing preparations for flight, massive air strikes, and the appalling devastation wreaked upon Polish towns and armies. Highlighted by a lengthy, riveting sequence depicting the siege of Warsaw, Feuertaufe inspired Germany with pride and confidence and foreign viewers with dread. Norbert Schultze's original score lyrically enhances this propaganda masterpiece.","release_date":"1940-04-04"},{"vote_count":1,"id":2234,"video":false,"vote_average":8.5,"title":"An französischen Kaminen","popularity":1.240776,"poster_path":"\/68uwbQqBWDz7nweafeNCw758ftY.jpg","original_language":"en","original_title":"An französischen Kaminen","genre_ids":[18],"backdrop_path":null,"adult":false,"overview":"No overview found.","release_date":"1962-09-17"},{"vote_count":1,"id":454963,"video":false,"vote_average":2,"title":"Conspiracy Theory","popularity":1.122945,"poster_path":"\/dSwpXxl4s4vJzr5HqyR2dBnunKl.jpg","original_language":"en","original_title":"Conspiracy Theory","genre_ids":[27,878,53],"backdrop_path":"\/nQjWBknlxJlow1vCqrUTV4Pq7gs.jpg","adult":false,"overview":"A television crew heads to Nevada to search for alien life.","release_date":"2016-01-29"},{"vote_count":3,"id":109045,"video":false,"vote_average":4.7,"title":"Firecrosser","popularity":1.451148,"poster_path":"\/bEHXol3Th9KERWXkr9ezJ2gJlWf.jpg","original_language":"uk","original_title":"Той хто пройшов крізь вогонь","genre_ids":[12,18],"backdrop_path":"\/jaaO7J9JsHjPOHNYiTp3qiD4CIv.jpg","adult":false,"overview":"The Hero of the Soviet Union becomes a GULAG prisoner and then an Indian Chief.","release_date":"2012-01-19"},{"vote_count":2,"id":342803,"video":false,"vote_average":2.5,"title":"Bobby","popularity":1.109572,"poster_path":"\/aMMpsO6YxLlqHl0Gx6WECyS8E1p.jpg","original_language":"te","original_title":"Bobby","genre_ids":[],"backdrop_path":"\/vsGlAOYT1FmHeXQUMS2xzeYYsQI.jpg","adult":false,"overview":"Yadagiri (Prakash Raj) is a handicapped mafia leader in Hyderabad and KR (Raghuvaran) is a rich business man. Bhagyamati(Aarthi Agarwal) is daughter of Yadagiri. Bobby(Mahesh) is son of KR. The story of this film deals with what happens when these two kids fall in love with each other.","release_date":"2002-10-31"},{"vote_count":42,"id":26782,"video":false,"vote_average":7.4,"title":"Shadows of Forgotten Ancestors","popularity":4.644058,"poster_path":"\/lKL3CTtUROG7iqSnW29C3go2PG4.jpg","original_language":"uk","original_title":"Тіні забутих предків","genre_ids":[18,10749,10402],"backdrop_path":"\/8fLVRgK5oWanYeBGX5BY4aUxKkp.jpg","adult":false,"overview":"In a Carpathian village, Ivan falls in love with Marichka, the daughter of his father's killer. When tragedy befalls her, his grief lasts months; finally he rejoins the colorful life around him, marrying Palagna. She wants children but his mind stays on his lost love. To recapture his attention, Palagna tries sorcery, and in the process comes under the spell of the sorcerer, publicly humiliating Ivan, who then fights the sorcerer. The lively rhythms of village life, the work and the holidays, the pageant and revelry of weddings and funerals, the change of seasons, and nature's beauty give proportion to Ivan's tragedy.","release_date":"1965-09-03"},{"vote_count":13,"id":336850,"video":false,"vote_average":4,"title":"The Encounter","popularity":1.7278,"poster_path":"\/mPNMDqCGnl7inKGHfuVY5YuDEHb.jpg","original_language":"en","original_title":"The Encounter","genre_ids":[27,878],"backdrop_path":"\/7edYPedCJ2nE7icxvzGPSYENPcY.jpg","adult":false,"overview":"When Collin Bastrow is found in the forest, alone and afraid, he has a shocking story to tell. As he struggles to recount the events of the previous night his memories return in a series of horrific flashes of what became of his friends and fiancée. What started as a simple camping trip in the mountains of Northern Arizona quickly descended into an amazing and terrifying story that is truly out of this world. As the sole survivor of this deadly close encounter Collin must try and explain the unexplainable","release_date":"2015-05-05"},{"vote_count":5,"id":38473,"video":false,"vote_average":7.9,"title":"Tombstone of the Fireflies","popularity":2.284849,"poster_path":"\/kQ29Tp6L43o1hVbyXxdtxAtLtZ3.jpg","original_language":"ja","original_title":"火垂るの墓","genre_ids":[18,10752,18,10752],"backdrop_path":"\/aL34lOl8LIYne86HxVahUT1yYNt.jpg","adult":false,"overview":"Set during World War II, the film follows a young brother and sister as they attempt to survive the aftermath of the firebombing of Kobe City.","release_date":"2008-07-05"},{"vote_count":0,"id":401881,"video":false,"vote_average":0,"title":"Master Samurai","popularity":1.0002,"poster_path":"\/mKYgHVojPvob9lI3QASh7A9MYSk.jpg","original_language":"en","original_title":"Master Samurai","genre_ids":[28],"backdrop_path":null,"adult":false,"overview":"An ex-CIA agent  is on the trail of a syndicate of human and drug traffickers in the Philippines.","release_date":"1974-09-18"}]}