{"page":2,"total_results":567,"total_pages":29,"results":[{"vote_count":36,"id":56137,"video":false,"vote_average":6.8,"title":"I Know Where I'm Going!","popularity":3.704837,"poster_path":"\/i0Tq9xHqjlm3TjMYAJEq3hFnpQb.jpg","original_language":"en","original_title":"I Know Where I'm Going!","genre_ids":[18,10749],"backdrop_path":"\/qpLwk4JrKdA7QGe0j3wOYL06yyp.jpg","adult":false,"overview":"Plucky Englishwoman Joan Webster travels to the remote islands of the Scottish Hebrides in order to marry a wealthy industrialist. Trapped by inclement weather on the Isle of Mull and unable to continue to her destination, Joan finds herself charmed by the straightforward, no-nonsense islanders around her, and becomes increasingly attracted to naval officer Torquil MacNeil, who holds a secret that may change her life forever.","release_date":"1945-11-16"},{"vote_count":26,"id":26514,"video":false,"vote_average":6.8,"title":"Where the Red Fern Grows","popularity":3.471977,"poster_path":"\/m62ahL1jALUBBnHLU74qDQOiTSm.jpg","original_language":"en","original_title":"Where the Red Fern Grows","genre_ids":[18,10751],"backdrop_path":"\/w2lF0qSN4bbOucybFf8aloOyALm.jpg","adult":false,"overview":"Where the Red Fern Grows is the heartwarming and adventurous tale for all ages about a young boy and his quest for his own red-bone hound hunting dogs.","release_date":"1974-06-21"},{"vote_count":7,"id":43049,"video":false,"vote_average":6,"title":"Where the Boys Are","popularity":2.519871,"poster_path":"\/1fkp0AawlhFBeWU81JxTFqKWQq2.jpg","original_language":"en","original_title":"Where the Boys Are","genre_ids":[35,18,10749],"backdrop_path":"\/dcjBd2P4PWEhRDpjftPRt7eF3Em.jpg","adult":false,"overview":"Good girls Merritt, Melanie, Tuggle and Angie - all students at mid-western Penmore University - are planning on going to Fort Lauderdale, Florida for spring break to get away from the mid-western snow despite not having much money to spend once there. On the drive down, they admit their real purpose is to go where the boys are.","release_date":"1960-12-28"},{"vote_count":0,"id":503975,"video":false,"vote_average":0,"title":"Where Things, Where People Disappear.","popularity":1.235283,"poster_path":null,"original_language":"lt","original_title":"Where Things, Where People Disappear","genre_ids":[],"backdrop_path":null,"adult":false,"overview":"Domas is a kleptomaniac. He works in a sport club through an integration program which helps people with mental disorders to return to society. One day he does not manage to resist and steals a bag from a young doctor Simona, who is living through an existential crisis. She asks his help to find her things. Domas feels ashamed, but he cannot confess. He offers her a ride home. Together they go on a journey through the night in Vilnius, their painful experiences reveal as well as a fragile, but at the same time impossible connection between them sets up.","release_date":"2017-12-01"},{"vote_count":16,"id":133786,"video":false,"vote_average":7.6,"title":"Where the Trail Ends","popularity":2.42051,"poster_path":"\/28siwjNzwvOkRkoEUoF9ok1neQe.jpg","original_language":"de","original_title":"Where the Trail Ends","genre_ids":[99,12,18],"backdrop_path":"\/7Np1sxfPykPyhgESM9khwFLOPvv.jpg","adult":false,"overview":"\"Where the Trail Ends...\" is a film following the worlds' top freeride mountain bikers as they search for un-ridden terrain around the globe, ultimately shaping the future of big mountain freeriding.  This unparalleled story documents man's challenge of mother nature and himself showcased through a cast of colorful characters. This is the most progressive and ambitious mountain biking ever attempted resulting in an entertainment adventure unlike anything experienced before.","release_date":"2012-09-19"},{"vote_count":13,"id":48864,"video":false,"vote_average":6.5,"title":"Where the Heart Is","popularity":2.322959,"poster_path":"\/8LLeVlidv0ErhRkLN40Hc8z3D6f.jpg","original_language":"en","original_title":"Where the Heart Is","genre_ids":[35,18],"backdrop_path":"\/uvlaOCwnzE1V6m3FaV6n9yKCHSh.jpg","adult":false,"overview":"A wealthy businessman shows his young adult kids how tough life can be.","release_date":"1990-02-23"},{"vote_count":63,"id":283559,"video":false,"vote_average":8.2,"title":"One Direction: Where We Are - The Concert","popularity":5.274277,"poster_path":"\/qhX1vCcc3fURKhYc0NU9yWcrmXr.jpg","original_language":"en","original_title":"One Direction: Where We Are - The Concert","genre_ids":[99,10402],"backdrop_path":"\/L14yY4FPUsMm17VJ9FPc1eKhE6.jpg","adult":false,"overview":"From X Factor to the San Siro Stadium in Milano, One Direction hit the world with success. See them perform live in the San Siro Stadium and watch 15 minutes of exclusive footage never seen before. The boys are back.","release_date":"2014-10-08"},{"vote_count":0,"id":389218,"video":false,"vote_average":0,"title":"Where Life Is Born","popularity":1.722928,"poster_path":"\/i43fIWETGLrz0EY5BpEK95yHtFx.jpg","original_language":"en","original_title":"Donde nace la vida","genre_ids":[18],"backdrop_path":"\/4kJoeQXhyEzaG6uK2YybwEUIWIl.jpg","adult":false,"overview":"Set in a traditional world of bullfighting ranches in the Mexican state of Tlaxcala, “Where Life is Born” tells the story of Juan and Ester, a couple who have an open relationship, and the problems that arise when Ester falls in love with another man and Juan struggles to meet the expectations he has of himself.","release_date":"2018-05-31"},{"vote_count":22,"id":17736,"video":false,"vote_average":5.6,"title":"Where the Day Takes You","popularity":3.037552,"poster_path":"\/nj6TG7u7ptYDZVSkYX1Mq0AHXAZ.jpg","original_language":"en","original_title":"Where the Day Takes You","genre_ids":[18],"backdrop_path":"\/jBXGIr3J1ozSiCZX7E3MrOXU2qM.jpg","adult":false,"overview":"A group of teen-age runaways try to survive in the streets of Los Angeles. Drugs, prostitution, violence and bureaucratic indifference all pose threats to the kids, who nevertheless prefer this harsh life to going back to their families. King, somewhat older, provides some leadership the kids.","release_date":"1992-09-11"},{"vote_count":8,"id":59704,"video":false,"vote_average":5.9,"title":"Where Angels Fear to Tread","popularity":2.977928,"poster_path":"\/mjEJz3JwnRmZo2sTn18va1jSAC1.jpg","original_language":"en","original_title":"Where Angels Fear to Tread","genre_ids":[18,10749],"backdrop_path":null,"adult":false,"overview":"An English widow goes to Italy, falls in love with a dentist's son and marries him, against her straitlaced family's wishes.","release_date":"1991-06-21"},{"vote_count":0,"id":229371,"video":false,"vote_average":0,"title":"Where The Rainbow Ends","popularity":1.635062,"poster_path":"\/vS2MwEVLNMPYmbXnAuPgsiEc6p6.jpg","original_language":"sv","original_title":"Där regnbågen slutar","genre_ids":[18],"backdrop_path":null,"adult":false,"overview":"Mikael Persson is about to realize his dream, a great musical with some of Sweden's foremost artists and with himself in the lead role. But just weeks before the premiere the Swedish Enforcement Authority knocks on the door and throws Michael and his family out on the street. He and his fiancee Catti resort to all means to save his life's work and they get unexpected help from the past.","release_date":"1999-10-14"},{"vote_count":8,"id":27765,"video":false,"vote_average":6.1,"title":"Where God Left His Shoes","popularity":2.885479,"poster_path":"\/6gcqz2JzciUdg8aUnw5VQQAxif8.jpg","original_language":"en","original_title":"Where God Left His Shoes","genre_ids":[18],"backdrop_path":"\/3Yj0JS94p1cMMCShxU4GUyjGCLb.jpg","adult":false,"overview":"When Frank, Angela, and their two children are evicted from their New York City apartment, they have no choice but to move into a homeless shelter. After a few difficult months, good news comes their way on Christmas Eve: a nearby housing project has an apartment available immediately-however, Frank needs a job on the books in order to qualify","release_date":"2008-12-12"},{"vote_count":5,"id":18970,"video":false,"vote_average":5.4,"title":"Where the #$&% Is Santa?","popularity":2.644235,"poster_path":"\/tMf2vRLnea8foIsC1K1veicHlbR.jpg","original_language":"en","original_title":"Where the #$&% Is Santa?","genre_ids":[35],"backdrop_path":"\/iu71JU30vyYAIV3cR21Vy7H9AUS.jpg","adult":false,"overview":"In the midst of a trip to Finland to find the perfect Christmas gift for his wife, Missy, skateboarding superstar MTV personality Bam Margera is struck by inspiration to find the elusive Santa clause.","release_date":"2008-12-02"},{"vote_count":4,"id":4893,"video":false,"vote_average":5.4,"title":"Where the Spies Are","popularity":2.026956,"poster_path":"\/j6jKnWnGUvBGnYtDF8tqzpqgmll.jpg","original_language":"en","original_title":"Where the Spies Are","genre_ids":[35,28,53],"backdrop_path":"\/mDY07MeUjRNjuxrm3ATeyePKzY3.jpg","adult":false,"overview":"No overview found.","release_date":"1966-01-26"},{"vote_count":4,"id":359702,"video":false,"vote_average":5.6,"title":"Where Are My Children?","popularity":2.019328,"poster_path":"\/inbMXfvFh6BXbliIlZu7EgsBGSB.jpg","original_language":"en","original_title":"Where Are My Children?","genre_ids":[18,10751,10770],"backdrop_path":null,"adult":false,"overview":"Based upon a true story, Marg Helgenberger stars as a single mother mysteriously arrested by the FBI and separated from her children, thus beginning a 25-year struggle to be reunited with them.","release_date":"1994-09-18"},{"vote_count":1,"id":216448,"video":false,"vote_average":4,"title":"Where Are Your Children?","popularity":2.015778,"poster_path":"\/zJdOvdHC1WitgPiORQxxA6b23Pf.jpg","original_language":"en","original_title":"Where Are Your Children?","genre_ids":[80,18],"backdrop_path":"\/4Yv4UKaLF7Ai1PR0QJEApehSHoJ.jpg","adult":false,"overview":"Judy Wilson (Gale Storm), feeling neglected because both of her parents are working in defense plants, meets and falls in love with Danny Chester (Jackie Cooper), who enlists in the Navy and is sent to San Diego for training. She accepts an invitation to go on a ride to San Diego with her friends Herb (Neyle Morrow), Opal (Evelyn Eaton)and Jerry (Jimmy Zahner) but doesn't know the car has been stolen.","release_date":"1943-11-26"},{"vote_count":7,"id":31395,"video":false,"vote_average":2.9,"title":"Car 54, Where Are You?","popularity":2.631846,"poster_path":"\/hsuD7X5sf430D5A1iSmDtRTA84p.jpg","original_language":"en","original_title":"Car 54, Where Are You?","genre_ids":[28,35],"backdrop_path":"\/wzEFHd464b7uhN0iJCyuzAG66aT.jpg","adult":false,"overview":"Brash NYC policeman Officer Gunther Toody is partnered with stiff, by-the-book Officer Francis Muldoon to protect an important mafia witness prior to testifying against orgainzed crime in Brooklyn, all the while dealing with their personal lives, overbearing spouses, common criminals, arms dealers, and their officious boss Captain Anderson.","release_date":"1994-01-28"},{"vote_count":2,"id":152082,"video":false,"vote_average":5.3,"title":"Where the Grass Is Greener","popularity":1.946924,"poster_path":"\/kz18lVPiBvkZGk0M6gMPxIU3LEu.jpg","original_language":"en","original_title":"Nur ein Sommer","genre_ids":[35],"backdrop_path":null,"adult":false,"overview":"A romantic comedy about an unemployed young woman from East Germany who ends up taking a summer job in the Swiss Alps and has to contend with stubborn cows, an amorous dairyman and illegal workers from the Balkans after a German passport...","release_date":"2007-12-15"},{"vote_count":9,"id":30071,"video":false,"vote_average":5.8,"title":"Where The Red Fern Grows","popularity":2.609596,"poster_path":"\/kC0Azi5vT4tHseK2yNy6chwp8Fd.jpg","original_language":"en","original_title":"Where The Red Fern Grows","genre_ids":[18,10751],"backdrop_path":"\/qdlTxHv2f3FQ62ihghwdWTTu6Df.jpg","adult":false,"overview":"Where the Red Fern Grows is the heartwarming and adventurous tale for all ages about a young boy and his quest for his own red-bone hound hunting dogs. Set in the Ozark Mountains during the Great Depression, Billy Coleman works hard and saves his earnings for 2 years to achieve his dream of buying two coonhound pups. He develops a new trust in God as he faces overwhelming challenges in adventure and tragedy roaming the river bottoms of Cherokee country with \"Old Dan\" and \"Little Ann.\" The movie follows the inseparable trio as they romp relentlessly through the Ozarks, trying to tree the elusive \"Ghost\" raccoon. Their efforts prove victorious as they win the coveted gold cup in the annual coon-hunt contest, capture wily ghost coons and bravely fight a mountain lion. Through these adventures Billy realizes the meaning of true friendship, loyalty, integrity and heroics, in this timeless and poignant coming of age story.","release_date":"2003-05-03"},{"vote_count":10,"id":86068,"video":false,"vote_average":4.2,"title":"The House Where Evil Dwells","popularity":2.5651,"poster_path":"\/i3fFQcl6fLpQgqZhbtPWJoVFf6i.jpg","original_language":"en","original_title":"The House Where Evil Dwells","genre_ids":[27],"backdrop_path":"\/3m3VrVhcXlmKHWNyyUdsfg8EZHb.jpg","adult":false,"overview":"At the prompting of his diplomat friend, Alex, writer Ted Fletcher takes his wife, Laura, and daughter, Amy, on an extended working holiday. Alex finds a house for them in Kyoto, Japan, and the Fletchers move in, laughing off rumors that the place is haunted. But the ghost of 19th-century samurai Shigero turns out to be very real, and is intent on making the family re-enact an ancient murder-suicide.","release_date":"1982-05-14"}]}