{"page":5,"total_results":108,"total_pages":6,"results":[{"vote_count":0,"id":138758,"video":false,"vote_average":0,"title":"Fight Batman, Fight!","popularity":1,"poster_path":"\/xgeCoWaT3kgW5QhbISEwiBgnjRX.jpg","original_language":"en","original_title":"Fight Batman, Fight!","genre_ids":[],"backdrop_path":null,"adult":false,"overview":"Fight Batman Fight! is an unauthorized 1973 Filipino Batman action-fantasy film produced by Pacific Films (Philippines). It stars famous Philippine actors such as action star Victor Wood as Batman, Rod Navarro as Joker, comedians Roderick Paulate as Robin, German Moreno, Ike Lozada, drama actresses Gloria Romero, Rosemary Gil, Lotis Key as Cat Woman and Pinky Montilla as Bat Girl.","release_date":"1976-12-05"},{"vote_count":1,"id":257256,"video":false,"vote_average":6,"title":"Batman vs. The Terminator","popularity":1.211002,"poster_path":"\/4cwg5spYeQXw2zQSZCRJGoz38e8.jpg","original_language":"en","original_title":"Batman vs. The Terminator","genre_ids":[16],"backdrop_path":null,"adult":false,"overview":"30 years have passed since Bruce Wayne survived Skynet's nuclear blasts in August of '97. Iron demons now roam the planet, and without the requirement to defend the innocent against crime and injustice, Wayne has seeked refuge in the bomb shelter that saved his life; the Batcave.  Having scavenged the wasteland for resources, he discovers the radio of a dead soldier. There is static over a frequency. Flesh and blood is rising up to the west. With The Stinger; a riot control vehicular unit built before the apocalypse along with a refitted bomb blast vest, Batman makes his way across what remains of the United States to join forces with the man determined to neutralize the electronic menace - John Conner.","release_date":"2014-02-22"},{"vote_count":0,"id":402285,"video":false,"vote_average":0,"title":"Super Batman & Mazinger V","popularity":1.000005,"poster_path":"\/ahJG8yOdM80heriVCPmqrpwFCWx.jpg","original_language":"en","original_title":"Star Zzanga Z Mazinga V Super Betaman","genre_ids":[],"backdrop_path":null,"adult":false,"overview":"The Andro planet is ruled by the witch Rinka. The Zzanga knight comes to earth to reclaim the Andro planet. He tries to find the robot with supernatural powers which the scientists of Andro had once built. Rinka sends her henchmen Kats and Kobra to capture Zzanga but with the help of Betaman, Jebi and some kids, he is able to find the robot in a cave. He returns to Andro and defeats Rinka with the robot.","release_date":"1990-08-15"},{"vote_count":5,"id":377531,"video":false,"vote_average":9,"title":"Batman: The Dark Knight's First Night","popularity":1.501889,"poster_path":"\/zBx5oTDO0kNEb5hr420AOuz7PL9.jpg","original_language":"en","original_title":"Batman: The Dark Knight's First Night","genre_ids":[16],"backdrop_path":"\/mWIsvElXLgzjYKrv3Yy3i4y1RxL.jpg","adult":false,"overview":"\"Batman: The Dark Knight's First Night\" is the name given to the short two-minute pilot used by Bruce Timm and Eric Radomski to show Fox executives what they were planning to do with \"Batman: The Animated Series\".","release_date":"1991-01-12"},{"vote_count":4,"id":452979,"video":true,"vote_average":8.8,"title":"Lego Batman: The Videogame (2008)","popularity":1.141908,"poster_path":"\/sv1Gz4LoGw7XoxZxQSgkjZNrpmk.jpg","original_language":"en","original_title":"Lego Batman: The Videogame (2008)","genre_ids":[],"backdrop_path":null,"adult":false,"overview":"A video game in which players take control of the Dynamic Duo, Batman and Robin, as well as the hero Nightwing to fight Gotham City's most notorious criminals including The Joker, The Penguin, Catwoman, Scarecrow, Killer Croc, The Riddler, Mr. Freeze, Harley Quinn, Two Face, Bane, Clayface, Poison Ivy, and many more. The criminals have broken out of Arkham Asylum and are set to wreak havoc on the city.","release_date":""},{"vote_count":1,"id":295793,"video":false,"vote_average":10,"title":"Batman - Mannen bakom masken","popularity":1.080732,"poster_path":null,"original_language":"sv","original_title":"Batman - Mannen bakom masken","genre_ids":[],"backdrop_path":null,"adult":false,"overview":"","release_date":""},{"vote_count":0,"id":501969,"video":false,"vote_average":0,"title":"Batman: The Animated Series - Out of the Shadows","popularity":1.293125,"poster_path":"\/1TtZE54OYb2hkiOJqaesdeNUaXl.jpg","original_language":"en","original_title":"Batman: The Animated Series - Out of the Shadows","genre_ids":[16],"backdrop_path":null,"adult":false,"overview":"","release_date":""},{"vote_count":0,"id":502346,"video":false,"vote_average":0,"title":"Batman: Mad Love Motion Comic","popularity":1,"poster_path":"\/AwAO0R5rWHeVc1Q5YO6SEVZXGsa.jpg","original_language":"es","original_title":"Batman: Mad Love Motion Comic","genre_ids":[28,16,12],"backdrop_path":null,"adult":false,"overview":"","release_date":""},{"vote_count":4,"id":141559,"video":false,"vote_average":5.6,"title":"Legends of the Dark Knight: The History of Batman","popularity":1.772164,"poster_path":"\/ijOIT8msWufRPp1OCVIPIaWgvwc.jpg","original_language":"nl","original_title":"Legends of the Dark Knight: The History of Batman","genre_ids":[99],"backdrop_path":null,"adult":false,"overview":"A brief history of the DC Comics character Batman, created by Bob Kane in 1939.","release_date":"2005-01-01"},{"vote_count":1,"id":310545,"video":true,"vote_average":6,"title":"Superman vs. Batman: When Heroes Collide","popularity":1.320919,"poster_path":null,"original_language":"en","original_title":"Superman vs. Batman: When Heroes Collide","genre_ids":[99],"backdrop_path":null,"adult":false,"overview":"A short documentary feature outlining the climactic battle scene in Warner Brothers Animation's The Dark Knight Rises Part 2.","release_date":"2013-01-29"},{"vote_count":0,"id":461834,"video":false,"vote_average":0,"title":"Batman Is Just Not That Into You","popularity":1.141312,"poster_path":"\/cg4FZqcjuv7XVJEMa5beCNIf1y9.jpg","original_language":"en","original_title":"Batman Is Just Not That Into You","genre_ids":[10751,16],"backdrop_path":null,"adult":false,"overview":"On the Dr. Quinn Show The Joker is breaking up with his longtime enemy, Batman. An animated short on the home entertainment release of The Lego Batman Movie.","release_date":"2017-06-14"},{"vote_count":0,"id":498471,"video":true,"vote_average":0,"title":"Batman: The Animated Series - The Legend Begins","popularity":1.002356,"poster_path":"\/A3VfRAu8UqN13Jdr8JYh3Kb48DY.jpg","original_language":"en","original_title":"Batman: The Animated Series - The Legend Begins","genre_ids":[16],"backdrop_path":null,"adult":false,"overview":"Taking a cue from the caped crusader's comic book rebirth in Frank Miller's The Dark Knight Returns and Batman: Year One, this 1992 animated series saved the TV Batman from a fate worse than camp and drew an unexpected audience for an afternoon cartoon: adults. The initial five episodes gathered here feature such supervillains as Man-bat, the Scarecrow, and Poison Ivy, but the deliciously demented Joker (voiced by Mark Hamill) steals the show in his two appearances, especially in the twisted \"Christmas with the Joke.\" Escaping Arkham Asylum in a rocket-powered Christmas tree, the clown prince of crime preempts a TV showing of It's a Wonderful Life with his own homicidal holiday treat. It's a solid start to a sleek, stylized, smartly written series that only improved with time. Ages 7 and up.","release_date":"2002-04-23"},{"vote_count":0,"id":498483,"video":false,"vote_average":0,"title":"Batman's Greatest Cases: Featuring the Rainbow Batman","popularity":1.041975,"poster_path":"\/AhzUst82dsqO4ZU1alDY9o0S9E7.jpg","original_language":"en","original_title":"Batman's Greatest Cases: Featuring the Rainbow Batman","genre_ids":[],"backdrop_path":null,"adult":false,"overview":"Detective Comics #241 featured a Batman who changed the colors of his blue and grey costume every day of the week, hoping to distract criminals and observers from Robin’s wounded arm, and subsequently figure out his identity. You know, instead of just giving Robin the week off, and because it’s impossible for two people to have a broken arm at the same time. The whole event comes together when Batman bewilders the world by wearing a costume that’s made up of straight-up rainbow stripes. Batman’s plan works, and all is right in the Silver Age world.","release_date":"2015-01-01"},{"vote_count":0,"id":498429,"video":true,"vote_average":0,"title":"Batman Beyond: Tech Wars \/ Disappearing Inque","popularity":1.006447,"poster_path":null,"original_language":"en","original_title":"Batman Beyond: Tech Wars \/ Disappearing Inque","genre_ids":[16],"backdrop_path":null,"adult":false,"overview":"Batman Beyond: Disappearing Inque - The Gotham nights give birth to a brand-new super villain. She is deadly, shape-shifting industrial saboteur named Inque. Black Out - When Terry faces Inque for the first time, he finds that he still has a lot to learn about becoming Batman. Disappearing Inque - With the help of an infatuated lab worker, Inque escapes her frozen imprisonment and devises a plan to destroy Batman and Bruce Wayne. Shriek - When Bruce Wayne challenges Derek Powers's control of Wayne\/Powers Industries, Powers orders an employee who has discovered sound can be a weapon, to become Shriek and eliminate Wayne. Year: 1999","release_date":"1999-05-08"},{"vote_count":2,"id":351015,"video":false,"vote_average":8.5,"title":"Behind the Mask: The Batman Dead End Story","popularity":1.365492,"poster_path":"\/h9REVkpFmPDd20ji6I2mpxyd5AS.jpg","original_language":"en","original_title":"Behind the Mask: The Batman Dead End Story","genre_ids":[99],"backdrop_path":null,"adult":false,"overview":"Director and Writer Eric Dow (\"Honor in the Valley of Tears\") brings us his second documentary as he goes behind the scenes of the fan fiction short film, \"Batman: Dead End.\" In the winter of 2003 commercial director Sandy Collora and some of his friends set out to make a low-budget short film for his demo reel. What they wound up actually doing was making one of the most elaborate, most watched, most talked about and most controversial short films ever made: Batman Dead End. Considering the amount of press and admiration Batman: Dead End garnered,","release_date":"2015-07-10"},{"vote_count":0,"id":158186,"video":false,"vote_average":0,"title":"Batman and Robin and Other Super Heroes","popularity":1.00002,"poster_path":"\/9v5TJVbOQgvRgXXTeC8jUiJOp78.jpg","original_language":"en","original_title":"Batman and Robin and Other Super Heroes","genre_ids":[],"backdrop_path":null,"adult":false,"overview":"A video collection of super heroes put together with film clips, memorabilia, trivia and lots of action. Featuring Batman and Robin, Superman, the Green Hornet, Captain Marvel and many others.","release_date":"1989-09-08"},{"vote_count":0,"id":501972,"video":true,"vote_average":0,"title":"Batman: The Animated Series -  Tales of the Dark Knight","popularity":1.000036,"poster_path":"\/9copibWIXwQSCJHQLJdokE7dwCj.jpg","original_language":"en","original_title":"Batman: The Animated Series -  Tales of the Dark Knight","genre_ids":[16],"backdrop_path":null,"adult":false,"overview":"","release_date":""},{"vote_count":0,"id":472259,"video":true,"vote_average":0,"title":"The Batman Cookie 4: Another Day of Sun","popularity":1.088394,"poster_path":"\/8fCWSsSn6YPem12uxfZG03uk0Jn.jpg","original_language":"en","original_title":"The Batman Cookie 4: Another Day of Sun","genre_ids":[18,53],"backdrop_path":null,"adult":false,"overview":"The Batman Cookie goes on a camping trip with a complete stranger .","release_date":"2017-08-28"},{"vote_count":0,"id":508158,"video":false,"vote_average":0,"title":"LEGO Batman vs. Superman 2: Dawn of Just Desserts","popularity":1.020206,"poster_path":"\/qvwzhTDDzw0l70rBVp1bGtQhZMw.jpg","original_language":"en","original_title":"LEGO Batman vs. Superman 2: Dawn of Just Desserts","genre_ids":[],"backdrop_path":null,"adult":false,"overview":"A parody of Dawn Of Justice Comic.","release_date":"2015-08-07"},{"vote_count":0,"id":498469,"video":false,"vote_average":0,"title":"Batman: The Animated Series - Secrets of the Caped Crusader","popularity":1.006588,"poster_path":"\/1PZXeC51Qf7JpnLjWIHi5r03bQe.jpg","original_language":"en","original_title":"Batman: The Animated Series - Secrets of the Caped Crusader","genre_ids":[],"backdrop_path":null,"adult":false,"overview":"Defending the streets of Gotham City, Batman stands as a beacon of justice, a crusader for good, a one-man crimefighting force. In these four fabulous adventures from the Emmy-winning TV series, the Caped Crusader takes on Gotham's toughest criminals! When Batman's favorite feline villain Catwoman stirs up trouble, the Dark Knight flirts with danger - literally! He certainly can't believe what he doesn't see as he searches for an invisible crook. And he gets a chillingly lethal reception from archnemesis Mr. Freeze. Join the heroics with Gotham's finest for more than an hour of action-packed thrills and excitement!","release_date":"2009-09-01"}]}