{"page":14,"total_results":1170,"total_pages":59,"results":[{"vote_count":5,"id":83444,"video":false,"vote_average":4.8,"title":"No Path Through Fire","popularity":2.052712,"poster_path":"\/bfCJRwPmUVE7tfE2FKCRTh1uzAK.jpg","original_language":"en","original_title":"В огне брода нет","genre_ids":[18,10752],"backdrop_path":"\/4eZbsgwrPZe70WN6qOT0ZWnPgOb.jpg","adult":false,"overview":"A talented girl is trying to find happiness amidst the Russian revolution of 1917 and the civil war that split the nation.","release_date":"1968-06-01"},{"vote_count":4,"id":17638,"video":false,"vote_average":3.8,"title":"Trial by Fire","popularity":1.436878,"poster_path":"\/bxZG1kUlFsUGLlwOXrSAfb815bp.jpg","original_language":"en","original_title":"Trial by Fire","genre_ids":[10770,18,28,53],"backdrop_path":"\/9rbGR0OpwCp9RRNgDmP4Ip61Guw.jpg","adult":false,"overview":"Kristin Scott is wrongfully blamed for the death of her father just prior to his retirement as a Captain with the fire department. Along with being the only female firefighter on her squad, this puts her at odds with the other members of her team and she resigns. To prove herself she tackles the grueling training of smoke jumping. This is a rugged type of firefighter who jumps out of airplanes directly into the flames.","release_date":"2008-09-27"},{"vote_count":0,"id":514607,"video":false,"vote_average":0,"title":"Fire of Men","popularity":1.082359,"poster_path":"\/l25AYStTFBmaIn7KgORhKYrTO8R.jpg","original_language":"it","original_title":"Il fuoco degli uomini","genre_ids":[18],"backdrop_path":null,"adult":false,"overview":"Pietro is a country boy who lives in a small farming community. He lives with his sister and his father, a man who grew up following traditions and whose hopes for the future are placed in the farmhouse where he lives. At the end of every summer, the elderly of the community subject the working-age boys to a rite of passage to determine their maturity and suitability to the adult world. Now it is Pietro’s turn to take part to the rite.","release_date":"2017-05-04"},{"vote_count":1,"id":406053,"video":false,"vote_average":9,"title":"The Fire People","popularity":1.075105,"poster_path":"\/c8RooWAVs4QAXAX2QxnnWlVH9RA.jpg","original_language":"en","original_title":"The Fire People","genre_ids":[12,14,10752],"backdrop_path":"\/qnd54N9u149VdtKumKSuchoM58E.jpg","adult":false,"overview":"A young boy embarks on a quest to find a clan of magical forest dwellers, constantly on the run from an evil force which attempts at every turn to stop him.","release_date":"2016-11-01"},{"vote_count":0,"id":355601,"video":false,"vote_average":0,"title":"House on Fire","popularity":1.06825,"poster_path":"\/krJq6pTHUgP3PhEW7TSio4NcPbP.jpg","original_language":"ja","original_title":"Kataku no hito","genre_ids":[18],"backdrop_path":null,"adult":false,"overview":"In the 50s, the complicated life of a popular writer who must share his life with his family, his numerous mistresses and his work","release_date":"1986-04-12"},{"vote_count":1,"id":124839,"video":false,"vote_average":8,"title":"Predictions of Fire","popularity":1.061236,"poster_path":"\/p13aThXbeU3Q00W4JUIOL5a2eXS.jpg","original_language":"sk","original_title":"Prerokbe Ognja","genre_ids":[10402,99],"backdrop_path":null,"adult":false,"overview":"A visceral documentary focusing on the Slovenian collective art movement known as NSK ('Neue Slowenische Kunst') and its varied branches: 'Laibach', 'Irwin', and 'Red Pilot'.","release_date":"1996-10-02"},{"vote_count":0,"id":242807,"video":false,"vote_average":0,"title":"Fire in Paradise","popularity":1.056757,"poster_path":"\/yEIE7B8t39M6nMFRl2kvQy9wtGo.jpg","original_language":"en","original_title":"Flammen im Paradies","genre_ids":[18],"backdrop_path":null,"adult":false,"overview":"On her honeymoon on a ship the daughter of a rich plant owner realizes that she's not happy with her marriage. She meets a poor woman on the way to meet her future husband, a missionary in India. The women decide to swap roles...","release_date":"1997-12-10"},{"vote_count":2,"id":19649,"video":false,"vote_average":5.5,"title":"Father of Four and the Wolf Cubs","popularity":1.796888,"poster_path":"\/6SgQ0SapDHGD4ZcUJl2i2ZIsuNv.jpg","original_language":"da","original_title":"Far til fire og ulveungerne","genre_ids":[10751],"backdrop_path":"\/naYoRTSqIC7pd51EcvpIGqiAo10.jpg","adult":false,"overview":"Tiny Per gets its biggest wish: He becomes a scout. Sister also gets hers biggest wish: She's getting married. So now Mie take over the household and it's not going to go quietly.","release_date":"1958-11-10"},{"vote_count":1,"id":319549,"video":false,"vote_average":7,"title":"Dragons: Destiny of Fire","popularity":1.054355,"poster_path":"\/984IEIwI5bFvqgvboTqc3Wllw5X.jpg","original_language":"es","original_title":"Dragones: destino de fuego","genre_ids":[16],"backdrop_path":null,"adult":false,"overview":"Raised by a loving family of condors, little John John grows up thinking that he, too, is a condor, despite the fact that he looks nothing like his parents. Turns out, John John is no ordinary bird. In fact, he's really an honest-to-goodness dragon! After developing his fire-breathing powers, John John flies off on an adventure to find the dragon kingdom and his real family in this charming animated fantasy.","release_date":"2006-07-27"},{"vote_count":3,"id":198608,"video":false,"vote_average":5.7,"title":"A Fire Has Been Arranged","popularity":1.790733,"poster_path":"\/wB9L6FlV5mQIkQLQW4N4L4UXMn2.jpg","original_language":"en","original_title":"A Fire Has Been Arranged","genre_ids":[80,35],"backdrop_path":"\/xLlqT0dswZk6oL65k4XsSEiIxpp.jpg","adult":false,"overview":"A pair of friends robs from a jewelry shop, and buries their loot in a field out in the country before they get caught. They spend ten years in prison, and when they're let out they go back to the burial ground, only to find out that it's no longer a bucolic pasture but the site of a large department store. Despite that setback, they're still determined to dig up their stash.","release_date":"1935-06-01"},{"vote_count":3,"id":230082,"video":false,"vote_average":5.3,"title":"Fire City: King of Miseries","popularity":1.784008,"poster_path":"\/mT8ZSLsBwdGooN1QXxqML9v4y4y.jpg","original_language":"en","original_title":"Fire City: King of Miseries","genre_ids":[27],"backdrop_path":null,"adult":false,"overview":"A fortune teller in the demon world, called an interpreter of signs, reads the fortune of a paranoid demon named Christopher, and discovers he's not telling her the full story.","release_date":"2013-06-29"},{"vote_count":0,"id":358975,"video":false,"vote_average":0,"title":"Fire Birds","popularity":1.0499,"poster_path":"\/mimMGUQfWp26nqhUJcyjUhcs52C.jpg","original_language":"he","original_title":"ציפורי חול","genre_ids":[53,18],"backdrop_path":"\/4iwmVnYhoxXAFuQpNyINXBijMsX.jpg","adult":false,"overview":"An eighty-year-old man's body is found with three stab wounds to the chest and a number tattooed along his forearm. Amnon, a police detective and second generation Holocaust survivor, is reluctantly assigned to the case. As the plot weaves between the past and present, their stories unfold.","release_date":"2015-09-09"},{"vote_count":1,"id":201016,"video":false,"vote_average":5,"title":"Desert of Fire","popularity":1.048244,"poster_path":"\/6bUMZf0Hl0w1IXDcnwUVsTmKsud.jpg","original_language":"it","original_title":"Deserto di fuoco","genre_ids":[28,12,10749],"backdrop_path":null,"adult":false,"overview":"A desert bandit leader robs a jeep and hauls off a lot of American money. He doesn't get much of a chance to enjoy it, however, because he and his men are soon attacked by a \"phantom\", who kills all his men, and steals his weapons. When a beautiful young woman shows up in search of the money, she is raped by the phantom. When another man shows up the three of them decide to head into the desert to find the \"treasure\" and wind up finding something they weren't expecting.","release_date":"1971-01-29"},{"vote_count":1,"id":145657,"video":false,"vote_average":2,"title":"The Fire Tongue Bowl","popularity":1.046344,"poster_path":"\/rB5fK7u4UBaewoii7bQaA9RyuRX.jpg","original_language":"de","original_title":"Die Feuerzangenbowle","genre_ids":[35],"backdrop_path":"\/iIpukxmqV0iXIuGuM2uae0rI3CU.jpg","adult":false,"overview":"","release_date":"1970-07-31"},{"vote_count":54,"id":84858,"video":false,"vote_average":6.3,"title":"The Path of Fire","popularity":4.259777,"poster_path":"\/41xF6YolVTpgTuYfyvHvbxtHbJy.jpg","original_language":"hi","original_title":"Agneepath","genre_ids":[28,80,18],"backdrop_path":"\/2epYaTdM2Sd5X0ZDl4alzC4rwQR.jpg","adult":false,"overview":"In a small Indian village Mandwa, Vijay Dinanath Chauhan is taught about the path of fire (Agneepath) by his principled father. His life is shattered when the evil drug lord Kancha Cheena hangs his father. Vijay leaves for Mumbai with his pregnant mother, and takes an oath that he will return back to Mandwa and take revenge against Cheena. In Mumbai, Vijay is taken under the wings of the drug lord Rauf Lala. Fifteen years later, his hatred for Kancha takes him back to Mandwa.","release_date":"2012-01-25"},{"vote_count":1,"id":506928,"video":false,"vote_average":8,"title":"Fire of Vengeance","popularity":1.037422,"poster_path":"\/wnDrUfXIKf7ZpSAP1jsf2mwkrO.jpg","original_language":"en","original_title":"Perhitungan Terakhir","genre_ids":[],"backdrop_path":null,"adult":false,"overview":"A gang of assassins murder Wendy’s husband, Johan, during their honeymoon. Handoko, the gang leader orders his girlfriend, Hany, who is actually Windy’s friend, to capture her. Later, we see Windy becoming a disciple of Harun the cleric, who is also her father’s teacher. After the tutelage, Windy returns to find her husband’s murderer. She disguises as a taxi driver and helps the police arrest many criminals. Hany, who is actually a police undercover in Handoko’s gang, shows up once again. Both infiltrate Handoko’s headquarters but are captured. When they finally escape, they release Handoko’s prisoners.","release_date":""},{"vote_count":5,"id":203922,"video":false,"vote_average":5.6,"title":"Fire in the Night","popularity":1.366786,"poster_path":"\/3pz18DvIT6MALNfNgyzCGrkc1CP.jpg","original_language":"en","original_title":"Fire in the Night","genre_ids":[99],"backdrop_path":"\/g84Bz2u1knMo8XbRMJhQuWtAy8Y.jpg","adult":false,"overview":"Anthony Wonke directs this documentary marking the 25th anniversary of the Piper Alpha oil rig disaster. Re-examining the events that led to the drilling platform, at the time the largest and oldest in the North Sea oilfield, exploding on the night of the 6th July 1988, killing 167 men, the film includes testimonies from rescuers and some of the 61 survivors, many of whom were forced to jump hundreds of feet into a flaming, oil-covered sea, and discovers what the physical and psychological legacy of the disaster has meant for those involved.","release_date":"2013-06-19"},{"vote_count":2,"id":133776,"video":false,"vote_average":5.3,"title":"Into The Fire","popularity":1.3568,"poster_path":"\/d2fwULDYWkynesGWZQy6ACCkswf.jpg","original_language":"en","original_title":"Into The Fire","genre_ids":[18],"backdrop_path":"\/8RxR7s8THuZCJnGvA9J0JppCRNR.jpg","adult":false,"overview":"Produced by Fireman's Fund Insurance Company and directed by Academy Award®-winning documentary filmmaker Bill Couturiè, \"Into the Fire\" goes beyond the hero image and into the hearts and minds of firefighters. Through intimate interviews with firefighters from big-city engine companies and small-town volunteer fire departments, the film asks - and answers - the question, \"Why do they do it?\"","release_date":"2006-10-13"},{"vote_count":1,"id":341736,"video":false,"vote_average":8,"title":"Flesh and Fire","popularity":1.92105,"poster_path":"\/3sVknULk44HV4uYZU9gBSqkD35h.jpg","original_language":"fr","original_title":"Le Feu sous la peau","genre_ids":[18],"backdrop_path":null,"adult":false,"overview":"Raphael is a sadistic charmer who moves into a wealthy French estate. One by one he seduces each member of the family. Nobody can resist his charms or his violent and perverted demeanor, even if it leads to their downfall.","release_date":"1985-07-17"},{"vote_count":0,"id":403135,"video":false,"vote_average":0,"title":"Fire in the Soul","popularity":1.023299,"poster_path":"\/7mIj9NwJwR9seaDCvEpKk2w1W3a.jpg","original_language":"es","original_title":"Fuego en el alma","genre_ids":[18],"backdrop_path":null,"adult":false,"overview":"Reflecting the closeness of Puerto Ricans in New York with those on the island, three stories among couples are combined to cast emotions of passion, jealousy, doubt and infidelity. The couples are burned by sudden and unexpected feelings and are pushed to make the decision that will change their lives forever influenced by the events of September 11th.","release_date":"2002-01-02"}]}