{"page":33,"total_results":1170,"total_pages":59,"results":[{"vote_count":0,"id":122790,"video":false,"vote_average":0,"title":"Trial by Fire: Lives Re-Forged","popularity":1,"poster_path":"\/xR8PjCqWRSfC6t6G7C4aR0GlZMX.jpg","original_language":"en","original_title":"Trial by Fire: Lives Re-Forged","genre_ids":[99],"backdrop_path":null,"adult":false,"overview":"Imagine waking up in the hospital, bandaged from head to toe, and discovering that your life, as you knew it, had been destroyed? TRIAL BY FIRE: Lives Re-Forged chronicles the inspirational and surprising journeys of seven burn survivors before and after the harrowing accidents that forever changed their lives. When you forge metal with fire it becomes stronger - it turns out the same is true of the human spirit.","release_date":""},{"vote_count":0,"id":492720,"video":false,"vote_average":0,"title":"Sparky's ABC's of Fire Safety","popularity":1,"poster_path":"\/3tMb9RtHWmWwhvCcehH880xgLIE.jpg","original_language":"en","original_title":"Sparky's ABC's of Fire Safety","genre_ids":[],"backdrop_path":null,"adult":false,"overview":"Children will have a wonderful time with this great educational, fire safety video. Watch as Sparky leads them through the alphabet - where each letter has a different safety tip.","release_date":"1990-01-01"},{"vote_count":2,"id":40834,"video":false,"vote_average":4.8,"title":"Earth, Wind & Fire: Live at Montreux","popularity":1.118324,"poster_path":"\/1tsqS4wJvU5kmk1RpuSLbhfRFCC.jpg","original_language":"en","original_title":"Earth, Wind & Fire: Live at Montreux","genre_ids":[10402],"backdrop_path":"\/mkBMMl993Yok6M1XZ24WYgi58yK.jpg","adult":false,"overview":"1970s legends Earth, Wind and Fire -- made up in part by the talented Maurice White, Philip Bailey and Verdine White -- serves up a heady mix of classic funk, soul and R&amp;B with these crowd-pleasing performances at the famed Montreux Rock Festival in 1997 and 1998. Watch them rouse the audience and groove to the tune of \"Imagination,\" \"September,\" \"Let's Groove,\" \"Can't Hide Love,\" \"Reasons,\" \"After the Love Is Gone\" and more.","release_date":"1997-04-13"},{"vote_count":3,"id":53904,"video":false,"vote_average":4,"title":"Father of Four: Living Large","popularity":1.116878,"poster_path":"\/6bJfcufn9pD4Fzn7Z4lbKqcYFgd.jpg","original_language":"da","original_title":"Far til fire - i stor stil","genre_ids":[35,10751],"backdrop_path":"\/i9QY1YNpiMhdW9XpJ8H7NjUizYc.jpg","adult":false,"overview":"It's summer, it's sunny and it's Sunday. The car is packed, and Dad and the kids are on the way to Bornholm on vacation. But then comes the postman with a registered letter to Uncle Donald. He has inherited an estate on Funen, and he must urgently turn to take over the castle.","release_date":"2006-11-10"},{"vote_count":0,"id":375844,"video":false,"vote_average":0,"title":"Friendly Fire: Exposing Gulf War Syndrome","popularity":1.011223,"poster_path":null,"original_language":"en","original_title":"Friendly Fire: Exposing Gulf War Syndrome","genre_ids":[99],"backdrop_path":null,"adult":false,"overview":"Many veterans of both Gulf Wars have returned from service in Iraq with a variety of symptoms that have become collectively known as Gulf War Syndrome.","release_date":"2006-05-10"},{"vote_count":3,"id":259059,"video":false,"vote_average":6.3,"title":"Fire on the Track: The Steve Prefontaine Story","popularity":1.384732,"poster_path":"\/gqSFfZTMxN9P2zStRPXS6DzAt1w.jpg","original_language":"en","original_title":"Fire on the Track: The Steve Prefontaine Story","genre_ids":[99],"backdrop_path":null,"adult":false,"overview":"Pre embodied the spirit of athletic excellence. He had a belief in self and sport that transcended all but the outer reaches of human speed and endurance. As a freshman, he appeared on the cover of Sports Illustrated, which hailed him as \"America's Distance Prodigy\". By the time he died in a tragic auto accident at the age of 24, Pre held all 7 American records between 2,000 and 10,000 meters. Off the track, he fought relentlessly for the rights of amateur athletes to prosper for their sacrifices. Narrated by Ken Kesey, Fire On the Track is the story of this young lion's life, as told through rare footage and the memories of those who knew him best - his teammates, coaches, family and friends. Interviews include David Bedford, Frank Shorter, Ian Stewart, Bill Bowerman, Jeff Galloway, Dick Buerkle, Lasse Viren, Dana Carvey, Mac Wilkins, Kenny Moore, Dave Wottle, Alberto Salazar, and many more.","release_date":"1995-01-01"},{"vote_count":0,"id":253321,"video":false,"vote_average":0,"title":"CMT Bike Week: Tunnel of Fire","popularity":1.010588,"poster_path":null,"original_language":"en","original_title":"CMT Bike Week: Tunnel of Fire","genre_ids":[],"backdrop_path":null,"adult":false,"overview":"Motorcyclist Clint Ewing attempts to break a Guinness world record by completing the infamous Tunnel of Fire by riding through a towering inferno longer than a football field. Viewers will also get front row seats to the Wall of Death where American hell rider Patch McGillicutti will steer a motorcycle around a circular wall at 90 miles an hour. Danger lurks at every corner, and the risk of death is at an all-time Sturgis high. Hosted by Rossi Moreale and Cristy Lee.","release_date":"2013-08-20"},{"vote_count":0,"id":435148,"video":false,"vote_average":0,"title":"Enforcer: Death By Fire World Tour","popularity":1.010588,"poster_path":"\/gbTKVacjDmoBpEPrFmtg4wvbiPW.jpg","original_language":"en","original_title":"Enforcer: Death By Fire World Tour","genre_ids":[],"backdrop_path":null,"adult":false,"overview":"Death By Fire World Tour","release_date":"2013-10-20"},{"vote_count":0,"id":507772,"video":false,"vote_average":0,"title":"Life Is an Opinion, Fire a Fact","popularity":1.009412,"poster_path":"\/2jsE0TMYCl0vhV5mZvhABuA95VJ.jpg","original_language":"en","original_title":"Life Is an Opinion, Fire a Fact","genre_ids":[],"backdrop_path":null,"adult":false,"overview":"Radically deconstructive in its interpretation of a famous Tarkovsky-sequence, Yasinsky reverses the original order of the sequence and blends it with white noise and hand-drawn sequences. She also ties her act of appropriation in with a suicide scene from Bresson and other, more serene images and sounds.","release_date":"2013-01-25"},{"vote_count":0,"id":271511,"video":false,"vote_average":0,"title":"Flesh on Fire: Addicted to a Dream","popularity":1.008235,"poster_path":null,"original_language":"en","original_title":"Flesh on Fire: Addicted to a Dream","genre_ids":[],"backdrop_path":null,"adult":false,"overview":"documentary film that takes the viewer on an intimate roller coaster of pain and joy as Actor Donnie Faught climbs his way out of the backwoods of Arkansas to success in the City of Angels.","release_date":"2012-10-01"},{"vote_count":0,"id":173065,"video":false,"vote_average":0,"title":"Returning Fire: Interventions in Video Game Culture","popularity":1.007485,"poster_path":"\/cjyf6HXD2N0l72K4xNYViIRTffO.jpg","original_language":"en","original_title":"Returning Fire: Interventions in Video Game Culture","genre_ids":[],"backdrop_path":null,"adult":false,"overview":"The sophistication of video games like Modern Warfare, America's Army, Medal of Honor, and Battlefield is undeniable, offering users a stunningly realistic experience of ground combat and a glimpse into the increasingly virtual world of long-distance, push-button warfare. Far less clear, though, is what these games are doing to users, our political culture, and our capacity to empathize with people directly affected by the actual trauma of war. For the culture-jamming activists featured in this film, these uncertainties were a call to action. In three separate vignettes, we see how Anne-Marie Schleiner, Wafaa Bilal, and Joseph Delappe moved dissent from the streets to our screens, infiltrating war games in an attempt to break the hypnotic spell of \"militainment.\" Their work forces all of us -- gamers and non-gamers alike -- to think critically about what it means when the clinical tools of real-world killing become forms of consumer play.","release_date":"2011-06-06"},{"vote_count":2,"id":42776,"video":false,"vote_average":8.5,"title":"Sea Prince and the Fire Child","popularity":1.387669,"poster_path":"\/ask6Ms84r5xz1rNAaRuEZjRQZ5K.jpg","original_language":"ja","original_title":"Shiriusu no densetsu","genre_ids":[16],"backdrop_path":"\/7YL3yRUptrzbRFEldNmQKhHTDD.jpg","adult":false,"overview":"Years after the war between the Children of Water and the Children of Fire, Oceanus, a god of the sea, presents Prince Sirius with the eye of Algarock, thereby putting him in charge of those that dwell under the waves. But when Sirius encounters a beautiful Fire Child named Malta (the daughter of the Queen of Fire), he is lost in love and defies the law that states that Children of Water and Children of Fire must forever remain separate to prevent war from breaking out once more. Sirius and Malta struggle to be together while running into obstacles and suffering great losses along the way. But in the end, are the echoes of history too loud to overcome, or can the two lovers be united and bring peace to the land?","release_date":"1981-07-18"},{"vote_count":0,"id":317010,"video":false,"vote_average":0,"title":"Lego Hero Factory: Ordeal of Fire","popularity":1.005937,"poster_path":"\/lpKVi6a9JyhOUPqw0GgHxHTEBo5.jpg","original_language":"en","original_title":"Lego Hero Factory: Ordeal of Fire","genre_ids":[],"backdrop_path":null,"adult":false,"overview":"Heroes Preston Stormer, Mark Surge, William Furno, and Natalie Breez are outgunned by Fire Lord and his gang of Fire Villains and Surge makes a sacrifice to save the others. After they escape, Stormer, Furno, and Breez are upgraded to more powerful 2.0 versions with the “upgrade” technique and then go back to save Surge. Fire Lord captures Stormer and tells them of the Fire Villains’ history as mining bots. Corrupted by power, the Fire Villains sought to become more and more powerful. Stormer, Furno, and Breez then capture the Fire Villains with the help of Nathan Evo and Julius Nex.","release_date":"2011-04-10"},{"vote_count":0,"id":65351,"video":false,"vote_average":0,"title":"National Geographic: Amazing Planet Born of Fire","popularity":1.005242,"poster_path":"\/8TnrUABzuZP469IE5WS4lbAqtBK.jpg","original_language":"en","original_title":"National Geographic: Amazing Planet Born of Fire","genre_ids":[99],"backdrop_path":null,"adult":false,"overview":"Born of Fire brings you up close and personal - both above and below the surface -with our lava- and magma -driven world. We start at the beginning, in an obscure corner of the universe, where a relatively unremarkable galaxy is showing signs of planetary progress. These initial, violent growing pains are just a precursor to Earth's internal struggle to define itself. Watch how forces at work push and pull to constantly reshape the world around us. Join National Geographic for a mesmerizing and eyebrow-singeing look into the past, present and possible future of our Amazing Planet.","release_date":"2007-09-01"},{"vote_count":0,"id":469634,"video":true,"vote_average":0,"title":"National Geographic: Inside Bethlehem Under Fire","popularity":1.00353,"poster_path":"\/qJCpflSG4ULqggdt9b1OdtU2Zm2.jpg","original_language":"en","original_title":"National Geographic: Inside Bethlehem Under Fire","genre_ids":[99],"backdrop_path":null,"adult":false,"overview":"This is the story of the fabled 'little town'; Christians caught in the cross hairs of a growing Islamic Fundamentalism and the entrenched Israeli.","release_date":"2007-08-06"},{"vote_count":1,"id":284755,"video":false,"vote_average":7,"title":"Fire Tripper","popularity":1.538035,"poster_path":"\/iv68G5WOaST0y9moVx787l0SMUu.jpg","original_language":"ja","original_title":"炎トリッパー","genre_ids":[16,14],"backdrop_path":"\/qORaWDypxF7VJLMNlqTOhquuuEz.jpg","adult":false,"overview":"A massive gas explosion in modern-day Tokyo throws 17-year-old Suzuko back in time — 500 years into the past and into a death-strewn battlefield. Rescued from lecherous bandits by the young warrior Shukumaru, Suzuko struggles to untangle the time lines. Slowly she begins to understand the strange force that has exiled her, and how it relates to her own mysterious past.  Shukumaru and Suzuko tackle mystery, tragedy and disaster as time unravels amidst the roaring flames of past and present.","release_date":"1985-12-16"},{"vote_count":2,"id":95251,"video":false,"vote_average":3,"title":"Operation Delta Force 5: Random Fire","popularity":1.106353,"poster_path":"\/3QzcKcTg065TeZE49wUSIIQemtF.jpg","original_language":"en","original_title":"Operation Delta Force 5: Random Fire","genre_ids":[28,53],"backdrop_path":null,"adult":false,"overview":"The Delta Force team are brought in once again to deal with an evil villain in foreign lands.","release_date":"2000-01-19"},{"vote_count":0,"id":478222,"video":false,"vote_average":0,"title":"Come On Baby, Light My Fire","popularity":1.002311,"poster_path":"\/vMJLK9Sg1etCfXnBc1oPfNQuTDV.jpg","original_language":"en","original_title":"Come On Baby, Light My Fire","genre_ids":[],"backdrop_path":null,"adult":false,"overview":"A pretty young anti-marijuana activist is kidnapped by a drug ring, which is determined to teach her a lesson by degrading and violating her in every way possible.","release_date":"1969-08-28"},{"vote_count":0,"id":317500,"video":true,"vote_average":0,"title":"Kottonmouth Kings: The Joint Is on Fire","popularity":1.000019,"poster_path":"\/cNE63FLRUMeZEvOCuAmSi2d4jIK.jpg","original_language":"en","original_title":"Kottonmouth Kings: The Joint Is on Fire","genre_ids":[10402],"backdrop_path":null,"adult":false,"overview":"Known for the live performances that have made the band an underground favorite, the self-described psychedelic hip-hop punk-rock group the Kottonmouth Kings have captured that energy in The Joint Is on Fire. Following the band's 2006 nationwide tour, this musical journey features 32 live performances. Extras include a video for \"Gone Git High,\" shot in Amsterdam; \"Friends,\" a video dedicated to the fans; interviews; and backstage footage.","release_date":""},{"vote_count":0,"id":117932,"video":false,"vote_average":0,"title":"Kataklysm: On Fire at Summer Breeze","popularity":1,"poster_path":null,"original_language":"en","original_title":"Kataklysm: On Fire at Summer Breeze","genre_ids":[10402],"backdrop_path":null,"adult":false,"overview":"","release_date":""}]}