{"page":20,"total_results":1170,"total_pages":59,"results":[{"vote_count":0,"id":136037,"video":false,"vote_average":0,"title":"Always A Fire","popularity":1.071021,"poster_path":"\/Aftxcd53HwuGF0z56jysnjWpz5D.jpg","original_language":"en","original_title":"Always A Fire","genre_ids":[],"backdrop_path":null,"adult":false,"overview":"ALWAYS A FIRE is a short documentary film on former New York Giant CHAD JONES—a star athlete from LSU whose promising professional career was put on hold by a tragic car accident before it even had a chance to begin.\r The film details Chad's incredible rehabilitation and recovery from the horrific accident that nearly cost him his life. Comprised of intimate interviews with Chad and his trainers, as well as never-before-seen footage of his long road to recovery, the film provides an unflinching view of an elite athlete facing unimaginable tragedy and refusing to submit.","release_date":"2012-09-05"},{"vote_count":1,"id":417683,"video":false,"vote_average":9,"title":"City on Fire","popularity":1.069655,"poster_path":"\/fm01iYzl0nOYnu5PTh9Xw059G59.jpg","original_language":"en","original_title":"City on Fire","genre_ids":[35,99],"backdrop_path":"\/zH9zVPRBkcRQK29i45EYp788PUe.jpg","adult":false,"overview":"Comedian James Mullinger discovers vibrancy and growth in his new home town of Saint John, New Brunswick.","release_date":"2016-09-17"},{"vote_count":0,"id":295714,"video":false,"vote_average":0,"title":"The Thousand Year Fire","popularity":1.002531,"poster_path":"\/xsfRQpdUvLXDJzAvNrE91qoZ7ua.jpg","original_language":"en","original_title":"Sennenbi","genre_ids":[18],"backdrop_path":null,"adult":false,"overview":"An eleven-year-old city boy is sent to live with his grandparents in a small seaside village","release_date":"2004-09-11"},{"vote_count":0,"id":179559,"video":false,"vote_average":0,"title":"Beyond the Fire","popularity":1.066448,"poster_path":"\/zPRJRTwbMmVAdu1ERbTtazDItah.jpg","original_language":"en","original_title":"Beyond the Fire","genre_ids":[],"backdrop_path":null,"adult":false,"overview":"From tragedy comes a burning love, but can passion survive the torment of a sinister past","release_date":"2009-06-16"},{"vote_count":0,"id":370968,"video":false,"vote_average":0,"title":"Wilmington on Fire","popularity":1.065815,"poster_path":"\/X5qkHxf8Ip4bTHK1E2blZK7rjr.jpg","original_language":"en","original_title":"Wilmington on Fire","genre_ids":[99,36],"backdrop_path":null,"adult":false,"overview":"\"Wilmington on Fire\" is a feature-length documentary that gives a historical and present day look at the Wilmington Massacre of 1898 and how the descendants of the victims of the event are asking for legal action in regards to compensation. The Wilmington Massacre of 1898 was a bloody attack on the African-American community by a heavily armed white mob on November 10, 1898 in the port city of Wilmington, North Carolina. It is also considered one of the only examples of a violent overthrow of an existing government (coup d'etat) and left countless numbers of African-American citizens dead. This event was the springboard for the white supremacy movement and Jim Crow (segregation) throughout the state of North Carolina, and the American South.","release_date":"2015-11-14"},{"vote_count":0,"id":164708,"video":false,"vote_average":0,"title":"Into the Fire","popularity":1.064063,"poster_path":"\/5rxLgmOHUWqrUGe34t7vmCefDI.jpg","original_language":"en","original_title":"Into the Fire","genre_ids":[80,18,53,27],"backdrop_path":"\/wLvMbVe4eVaKCy4nozxRDkwT00U.jpg","adult":false,"overview":"Out of work and driving aimlessly, a man pulls into the \"Wolf Lodge\" and ends up with a job. When he wakes nightly to the sounds of icy voices and screams he decides he can no longer be an innocent bystander.","release_date":"1988-09-01"},{"vote_count":1,"id":365074,"video":false,"vote_average":7.5,"title":"Arctic Fire 2013","popularity":1.062588,"poster_path":"\/roEVySnQ2BX5PwgQrbc4Zzz9RF8.jpg","original_language":"en","original_title":"Arctic Fire 2013","genre_ids":[99],"backdrop_path":"\/dkQ83MxbcL8sg949lnN3a7q7Cdr.jpg","adult":false,"overview":"The second annual Arctic Fire swordsmithing invitational was held in Anchorage, Alaska on May 28-31, 2013.  Like the 2012 EVENT, this event featured some of the world’s finest swordsmiths in a four day, live webcast event.  Many of last year’s attendees returned, and we are were pleased to welcome two incredible smiths for the first time to Arctic Fire, Owen Bush of the UK, and Petr Florianek from the Czech Republic.","release_date":"2013-05-27"},{"vote_count":1,"id":409016,"video":false,"vote_average":5,"title":"The Fire, The Blood, The Stars","popularity":1.321282,"poster_path":"\/ol44WHar5Fj1EoZrPIFgSYZSpEm.jpg","original_language":"fr","original_title":"Le feu, le sang, les étoiles","genre_ids":[18],"backdrop_path":"\/i1Sz9ZyqpvGhFaPiQcNsZ14r0ht.jpg","adult":false,"overview":"Reactions of youth left after the elections. From disarray to start, through the tears, anger. Where to get by, where to flee?","release_date":"2008-08-14"},{"vote_count":1,"id":175007,"video":false,"vote_average":5,"title":"On the Fire","popularity":1.060529,"poster_path":null,"original_language":"en","original_title":"On the Fire","genre_ids":[],"backdrop_path":null,"adult":false,"overview":"Many of the scenes in \"On the Fire\" seem to be direct copies from Arbuckle's earlier \"Waiter's Ball.\" Such similarities as trying to kill a fish with a gun hopping around out of water, the tossing of the food to the waiters, and several other scenes seem to be carbons of Arbuckle's film.","release_date":"1919-02-22"},{"vote_count":0,"id":274040,"video":false,"vote_average":0,"title":"Fire on the Mountain","popularity":1.059296,"poster_path":"\/dTHXrED5QSlZ6ofhRWiCXLQiTQx.jpg","original_language":"en","original_title":"Fire on the Mountain","genre_ids":[10770,18],"backdrop_path":"\/d8vIRHyoDyMk0W0gPh6n0jviOYX.jpg","adult":false,"overview":"Fire on the Mountain is a 1981 made-for-television movie adaptation of the Edward Abbey novel, Fire on the Mountain, directed by Donald Wrye and starring Buddy Ebsen as John Vogelin, Ron Howard as Lee Mackie and Michael Conrad as Col. Desalius.  The hero of the movie is Vogelin, a New Mexico rancher whose land adjoins the White Sands Missile Range and is about to be condemned by the United States Air Force to use his land to expand a bombing range. He is the last holdout among the several people whose land the Air Force wants, and he refuses to move. A young land developer, Mackie, is sent to vacate the rancher, but soon he joins in defying the military. Soon it boils down to a battle of wills between Vogelin and the equally bullheaded army officer Colonel Desalius.","release_date":"1981-11-23"},{"vote_count":1,"id":122812,"video":true,"vote_average":4,"title":"Arcade Fire: Coachella 2011","popularity":1.058927,"poster_path":"\/h0ssIgWi6wMeEPY3vXwascxQhuY.jpg","original_language":"en","original_title":"Arcade Fire: Coachella 2011","genre_ids":[10402],"backdrop_path":"\/a7aKDy125aWqhXl6svbpwwUgzmP.jpg","adult":false,"overview":"The second day closing set from Coachella 2011  headliners Arcade Fire.","release_date":"2011-04-15"},{"vote_count":0,"id":120629,"video":false,"vote_average":0,"title":"The Woman of Fire 82","popularity":1.01023,"poster_path":"\/ucFDhvt2K6YJdqL4j3kq4vu9hLf.jpg","original_language":"ko","original_title":"화녀 '82","genre_ids":[53],"backdrop_path":null,"adult":false,"overview":"Intrigue and murder on a small poultry farm outside of Seoul when a young maid starts working on the farm and is seduced by the local farm hand.","release_date":"1982-06-26"},{"vote_count":1,"id":60368,"video":false,"vote_average":1,"title":"Max Havoc: Ring of Fire","popularity":1.331868,"poster_path":"\/yWzgqueS9788BwbE6dXw8KgExEg.jpg","original_language":"en","original_title":"Max Havoc: Ring of Fire","genre_ids":[28],"backdrop_path":"\/deWMVr9YZZs39gPIqb4qatKf0hy.jpg","adult":false,"overview":"Max, having forsaken his life as a former world kick-boxing champion to redefine himself as a world class photographer, is on his way to photograph top tennis star and athlete Suzy Blaine. While on assignment, Max uncovers a crime ring and relies on his skills as a martial artist to set the situation straight.","release_date":"2006-07-28"},{"vote_count":0,"id":476707,"video":false,"vote_average":0,"title":"Ashes, An Essay on Fire","popularity":1.009883,"poster_path":"\/qEpSDxqHZWsuucn9aejPIBOMRLp.jpg","original_language":"pt","original_title":"Cinzas, Ensaio Sobre o Fogo","genre_ids":[],"backdrop_path":null,"adult":false,"overview":"Gerês, Portugal. Days are born with fire and die with it. Men renew the earth with ancient practices. All beings inhabit the same place.","release_date":"2012-01-01"},{"vote_count":1,"id":125849,"video":false,"vote_average":5,"title":"Fire Over Africa","popularity":1.057044,"poster_path":"\/zCoYzSqgSysdxrLa7hbMDm1dhFC.jpg","original_language":"en","original_title":"Fire Over Africa","genre_ids":[12,80,18],"backdrop_path":"\/qB446EjRWpoEDtpFgQYvNlJHm01.jpg","adult":false,"overview":"Maureen O'Hara hunts drug smugglers in Africa. Director Richard Sale's 1954 film also stars Macdonald Carey and Binnie Barnes.","release_date":"1954-11-05"},{"vote_count":4,"id":92429,"video":false,"vote_average":5.3,"title":"On the Night of the Fire","popularity":1.770176,"poster_path":"\/jSlgxDOVoDCdXSDVB8LO8xFmNra.jpg","original_language":"en","original_title":"On the Night of the Fire","genre_ids":[80,18],"backdrop_path":"\/9mJHZ5eEw0bVmhcQHATTGbQndpa.jpg","adult":false,"overview":"A barber (Ralph Richardson) gives in to temptation and steals some money, leading to blackmail and murder.","release_date":"1939-10-26"},{"vote_count":1,"id":68548,"video":false,"vote_average":2,"title":"Playing with Fire","popularity":1.054946,"poster_path":"\/uDkZgP6WY4QS38AhcsKYqOlM9Bf.jpg","original_language":"en","original_title":"Playing with Fire","genre_ids":[53],"backdrop_path":null,"adult":false,"overview":"Beautiful, seductive rich girl Daphne gets her kicks playing mind games; finding and seducing young working-class men until she cruelly kicks them to the curb. But when she comes across handsome med student Nick, she discovers a challenge. Nick isn't so easily seduced. So Daphne and her friends set about seducing Nick's girlfriend, Heather. When things go wrong and Heather gets in a terrible accident, Daphne finds her comfortable easy world spiraling quickly out of control, and it will take all of her ability to find out who is in control of this dangerous game.","release_date":"2008-01-01"},{"vote_count":0,"id":398906,"video":false,"vote_average":0,"title":"Fire in Her Bed!","popularity":1.0525,"poster_path":"\/5cgUYfHtVIhvnmgGBMH1i5zmcPg.jpg","original_language":"en","original_title":"Fire in Her Bed!","genre_ids":[18],"backdrop_path":null,"adult":false,"overview":"Lovely and free-spirited young hippie singer Donna goes to Los Angeles, California to seek fame and success in the Hollywood music scene. Donna records an album and falls in with a party hearty bohemian crowd which leads to the inevitable decadent descent into sex, drugs, and booze. Can Donna get out of this wild lifestyle in time? Or is she destined to meet a grim untimely end?","release_date":"1972-06-15"},{"vote_count":0,"id":220220,"video":false,"vote_average":0,"title":"Fish of the Fire","popularity":1.005065,"poster_path":null,"original_language":"ja","original_title":"Hi no sakana","genre_ids":[18],"backdrop_path":null,"adult":false,"overview":"Hi no Sakana (火の魚, Fish of the Fire) is a Japanese novel by Murō Saisei; it was first published in 1960, and was later adapted into a single episode TV drama that was broadcast on NHK Hiroshima in 2009.  The story describes the interactions between an elderly author and a young staffer from a publishing company as they collaborate on a book cover design for the author's latest novel.","release_date":"2009-07-24"},{"vote_count":0,"id":245687,"video":false,"vote_average":0,"title":"Sky, Wind, Fire, Water, Earth","popularity":1.004621,"poster_path":"\/1qvOgci2Q7ld10k54RmmZ4LM4fh.jpg","original_language":"ja","original_title":"Kya Ka Ra Ba A","genre_ids":[99],"backdrop_path":null,"adult":false,"overview":"In the follow-up to Embracing (1992), Naomi Kawase learns of her father's death and struggles with her loneliness and the feeling of having been abandoned by her parents.","release_date":"2001-08-09"}]}